%!PS-Adobe-3.0 EPSF-3.0
%%Creator: cairo 1.16.0 (https://cairographics.org)
%%CreationDate: Sat Apr  8 14:42:15 2023
%%Pages: 1
%%DocumentData: Clean7Bit
%%LanguageLevel: 2
%%BoundingBox: 0 0 269 86
%%EndComments
%%BeginProlog
50 dict begin
/q { gsave } bind def
/Q { grestore } bind def
/cm { 6 array astore concat } bind def
/w { setlinewidth } bind def
/J { setlinecap } bind def
/j { setlinejoin } bind def
/M { setmiterlimit } bind def
/d { setdash } bind def
/m { moveto } bind def
/l { lineto } bind def
/c { curveto } bind def
/h { closepath } bind def
/re { exch dup neg 3 1 roll 5 3 roll moveto 0 rlineto
      0 exch rlineto 0 rlineto closepath } bind def
/S { stroke } bind def
/f { fill } bind def
/f* { eofill } bind def
/n { newpath } bind def
/W { clip } bind def
/W* { eoclip } bind def
/BT { } bind def
/ET { } bind def
/BDC { mark 3 1 roll /BDC pdfmark } bind def
/EMC { mark /EMC pdfmark } bind def
/cairo_store_point { /cairo_point_y exch def /cairo_point_x exch def } def
/Tj { show currentpoint cairo_store_point } bind def
/TJ {
  {
    dup
    type /stringtype eq
    { show } { -0.001 mul 0 cairo_font_matrix dtransform rmoveto } ifelse
  } forall
  currentpoint cairo_store_point
} bind def
/cairo_selectfont { cairo_font_matrix aload pop pop pop 0 0 6 array astore
    cairo_font exch selectfont cairo_point_x cairo_point_y moveto } bind def
/Tf { pop /cairo_font exch def /cairo_font_matrix where
      { pop cairo_selectfont } if } bind def
/Td { matrix translate cairo_font_matrix matrix concatmatrix dup
      /cairo_font_matrix exch def dup 4 get exch 5 get cairo_store_point
      /cairo_font where { pop cairo_selectfont } if } bind def
/Tm { 2 copy 8 2 roll 6 array astore /cairo_font_matrix exch def
      cairo_store_point /cairo_font where { pop cairo_selectfont } if } bind def
/g { setgray } bind def
/rg { setrgbcolor } bind def
/d1 { setcachedevice } bind def
/cairo_data_source {
  CairoDataIndex CairoData length lt
    { CairoData CairoDataIndex get /CairoDataIndex CairoDataIndex 1 add def }
    { () } ifelse
} def
/cairo_flush_ascii85_file { cairo_ascii85_file status { cairo_ascii85_file flushfile } if } def
/cairo_image { image cairo_flush_ascii85_file } def
/cairo_imagemask { imagemask cairo_flush_ascii85_file } def
%%EndProlog
%%BeginSetup
%%EndSetup
%%Page: 1 1
%%BeginPageSetup
%%PageBoundingBox: 0 0 269 86
%%EndPageSetup
q 0 0 269 86 rectclip
1 0 0 -1 0 86 cm q
0.6 g
208.312 16.527 55.699 54.34 re f
0 g
0.566929 w
1 J
1 j
[] 0.0 d
4 M q 0 1 -1 0 0 0 cm
16.527 -208.312 54.34 -55.699 re S Q
0.94902 g
254.734 41.617 m 247.238 41.617 l 247.238 23.613 l 217.594 23.613 l 217.594
 63.777 l 247.238 63.777 l 247.238 58.031 l 254.734 58.031 l h
254.734 41.617 m f
0 g
2 J
0 j
q 1 0 0 1 0 0 cm
254.734 41.617 m 247.238 41.617 l 247.238 23.613 l 217.594 23.613 l 217.594
 63.777 l 247.238 63.777 l 247.238 58.031 l 254.734 58.031 l h
254.734 41.617 m S Q
1 1 0 rg
221.113 28.332 7.965 3.273 re f
0 g
q 0 1 -1 0 0 0 cm
28.332 -221.113 3.273 -7.965 re S Q
0 1 0 rg
221.113 33.824 7.965 3.273 re f
0 g
q 0 1 -1 0 0 0 cm
33.824 -221.113 3.273 -7.965 re S Q
1 0 0 rg
221.113 39.316 7.965 3.27 re f
0 g
q 0 1 -1 0 0 0 cm
39.316 -221.113 3.27 -7.965 re S Q
221.113 44.805 7.965 3.273 re f
q 0 1 -1 0 0 0 cm
44.805 -221.113 3.273 -7.965 re S Q
0.901961 g
221.113 50.297 7.965 3.273 re f
0 g
q 0 1 -1 0 0 0 cm
50.297 -221.113 3.273 -7.965 re S Q
0.901961 g
221.113 55.789 7.965 3.273 re f
0 g
q 0 1 -1 0 0 0 cm
55.789 -221.113 3.273 -7.965 re S Q
231.121 27.781 m 234.824 27.781 l 234.824 28.281 l 233.262 28.281 l 233.262
 32.156 l 232.668 32.156 l 232.668 28.281 l 231.121 28.281 l h
231.121 27.781 m f
235.176 27.781 m 235.816 27.781 l 236.895 29.406 l 237.988 27.781 l 238.629
 27.781 l 237.223 29.875 l 238.723 32.156 l 238.082 32.156 l 236.863 30.297
 l 235.613 32.156 l 234.973 32.156 l 236.535 29.828 l h
235.176 27.781 m f
233.832 35.602 m 233.965 35.645 234.09 35.738 234.207 35.883 c 234.332 
36.02 234.449 36.207 234.566 36.445 c 235.176 37.648 l 234.535 37.648 l 
233.973 36.523 l 233.824 36.234 233.684 36.039 233.551 35.945 c 233.414 
35.852 233.23 35.805 233.004 35.805 c 232.363 35.805 l 232.363 37.648 l 
231.77 37.648 l 231.77 33.273 l 233.098 33.273 l 233.598 33.273 233.965 
33.379 234.207 33.586 c 234.457 33.797 234.582 34.113 234.582 34.539 c 234.582
 34.812 234.52 35.039 234.395 35.227 c 234.27 35.406 234.082 35.531 233.832
 35.602 c h
232.363 33.758 m 232.363 35.32 l 233.098 35.32 l 233.387 35.32 233.605 
35.254 233.754 35.117 c 233.898 34.984 233.973 34.789 233.973 34.539 c 233.973
 34.281 233.898 34.086 233.754 33.961 c 233.605 33.828 233.387 33.758 233.098
 33.758 c h
232.363 33.758 m f
235.719 33.273 m 236.359 33.273 l 237.438 34.898 l 238.531 33.273 l 239.172
 33.273 l 237.766 35.367 l 239.266 37.648 l 238.625 37.648 l 237.406 35.789
 l 236.156 37.648 l 235.516 37.648 l 237.078 35.32 l h
235.719 33.273 m f
233.895 39.328 m 233.895 40.969 l 235.52 40.969 l 235.52 41.469 l 233.895
 41.469 l 233.895 43.094 l 233.395 43.094 l 233.395 41.469 l 231.77 41.469
 l 231.77 40.969 l 233.395 40.969 l 233.395 39.328 l h
233.895 39.328 m f
236.797 38.719 m 239.125 38.719 l 239.125 39.219 l 237.344 39.219 l 237.344
 40.297 l 237.426 40.266 237.508 40.246 237.594 40.234 c 237.688 40.215 
237.773 40.203 237.859 40.203 c 238.348 40.203 238.734 40.34 239.016 40.609
 c 239.305 40.871 239.453 41.23 239.453 41.688 c 239.453 42.156 239.305 
42.523 239.016 42.781 c 238.723 43.043 238.305 43.172 237.766 43.172 c 237.586
 43.172 237.398 43.156 237.203 43.125 c 237.016 43.094 236.82 43.047 236.625
 42.984 c 236.625 42.391 l 236.801 42.496 236.984 42.574 237.172 42.625 
c 237.359 42.668 237.555 42.688 237.766 42.688 c 238.098 42.688 238.363 
42.602 238.562 42.422 c 238.758 42.234 238.859 41.992 238.859 41.688 c 238.859
 41.387 238.758 41.148 238.562 40.969 c 238.363 40.793 238.098 40.703 237.766
 40.703 c 237.598 40.703 237.438 40.727 237.281 40.766 c 237.125 40.797 
236.961 40.852 236.797 40.922 c h
236.797 38.719 m f
241.691 43.094 m 240.02 38.719 l 240.645 38.719 l 242.02 42.406 l 243.41
 38.719 l 244.035 38.719 l 242.363 43.094 l h
241.691 43.094 m f
235.008 48 m 235.008 46.828 l 234.039 46.828 l 234.039 46.344 l 235.586
 46.344 l 235.586 48.219 l 235.355 48.375 235.102 48.496 234.82 48.578 c
 234.547 48.66 234.258 48.703 233.945 48.703 c 233.266 48.703 232.734 48.508
 232.352 48.109 c 231.965 47.715 231.773 47.156 231.773 46.438 c 231.773
 45.73 231.965 45.18 232.352 44.781 c 232.734 44.375 233.266 44.172 233.945
 44.172 c 234.234 44.172 234.508 44.211 234.758 44.281 c 235.016 44.344 
235.258 44.449 235.477 44.594 c 235.477 45.219 l 235.258 45.031 235.023 
44.891 234.773 44.797 c 234.531 44.703 234.273 44.656 233.992 44.656 c 233.461
 44.656 233.059 44.809 232.789 45.109 c 232.527 45.402 232.398 45.844 232.398
 46.438 c 232.398 47.031 232.527 47.48 232.789 47.781 c 233.059 48.074 233.461
 48.219 233.992 48.219 c 234.211 48.219 234.398 48.203 234.555 48.172 c 
234.719 48.133 234.871 48.074 235.008 48 c h
235.008 48 m f
236.672 44.25 m 237.469 44.25 l 239.406 47.906 l 239.406 44.25 l 239.984
 44.25 l 239.984 48.625 l 239.188 48.625 l 237.234 44.969 l 237.234 48.625
 l 236.672 48.625 l h
236.672 44.25 m f
241.754 44.734 m 241.754 48.141 l 242.457 48.141 l 243.059 48.141 243.504
 48.008 243.785 47.734 c 244.066 47.453 244.207 47.023 244.207 46.438 c 
244.207 45.844 244.066 45.414 243.785 45.141 c 243.504 44.871 243.059 44.734
 242.457 44.734 c h
241.16 44.25 m 242.379 44.25 l 243.223 44.25 243.84 44.43 244.238 44.781
 c 244.633 45.137 244.832 45.688 244.832 46.438 c 244.832 47.188 244.633
 47.742 244.238 48.094 c 243.84 48.449 243.223 48.625 242.379 48.625 c 241.16
 48.625 l h
241.16 44.25 m f
110.559 26.891 38.52 33.613 re f
q 1 0 0 1 0 0 cm
110.559 26.891 38.52 33.613 re S Q
1 g
133.098 32.984 m 133.23 33.027 133.355 33.121 133.473 33.266 c 133.598 
33.402 133.715 33.59 133.832 33.828 c 134.441 35.031 l 133.801 35.031 l 
133.238 33.906 l 133.09 33.617 132.949 33.422 132.816 33.328 c 132.68 33.234
 132.496 33.188 132.27 33.188 c 131.629 33.188 l 131.629 35.031 l 131.035
 35.031 l 131.035 30.656 l 132.363 30.656 l 132.863 30.656 133.23 30.762
 133.473 30.969 c 133.723 31.18 133.848 31.496 133.848 31.922 c 133.848 
32.195 133.785 32.422 133.66 32.609 c 133.535 32.789 133.348 32.914 133.098
 32.984 c h
131.629 31.141 m 131.629 32.703 l 132.363 32.703 l 132.652 32.703 132.871
 32.637 133.02 32.5 c 133.164 32.367 133.238 32.172 133.238 31.922 c 133.238
 31.664 133.164 31.469 133.02 31.344 c 132.871 31.211 132.652 31.141 132.363
 31.141 c h
131.629 31.141 m f
134.984 30.656 m 135.625 30.656 l 136.703 32.281 l 137.797 30.656 l 138.438
 30.656 l 137.031 32.75 l 138.531 35.031 l 137.891 35.031 l 136.672 33.172
 l 135.422 35.031 l 134.781 35.031 l 136.344 32.703 l h
134.984 30.656 m f
130.93 37.648 m 134.633 37.648 l 134.633 38.148 l 133.07 38.148 l 133.07
 42.023 l 132.477 42.023 l 132.477 38.148 l 130.93 38.148 l h
130.93 37.648 m f
134.984 37.648 m 135.625 37.648 l 136.703 39.273 l 137.797 37.648 l 138.438
 37.648 l 137.031 39.742 l 138.531 42.023 l 137.891 42.023 l 136.672 40.164
 l 135.422 42.023 l 134.781 42.023 l 136.344 39.695 l h
134.984 37.648 m f
128.398 45.207 m 128.398 46.848 l 130.023 46.848 l 130.023 47.348 l 128.398
 47.348 l 128.398 48.973 l 127.898 48.973 l 127.898 47.348 l 126.273 47.348
 l 126.273 46.848 l 127.898 46.848 l 127.898 45.207 l h
128.398 45.207 m f
131.301 44.598 m 133.629 44.598 l 133.629 45.098 l 131.848 45.098 l 131.848
 46.176 l 131.93 46.145 132.012 46.125 132.098 46.113 c 132.191 46.094 132.277
 46.082 132.363 46.082 c 132.852 46.082 133.238 46.219 133.52 46.488 c 133.809
 46.75 133.957 47.109 133.957 47.566 c 133.957 48.035 133.809 48.402 133.52
 48.66 c 133.227 48.922 132.809 49.051 132.27 49.051 c 132.09 49.051 131.902
 49.035 131.707 49.004 c 131.52 48.973 131.324 48.926 131.129 48.863 c 131.129
 48.27 l 131.305 48.375 131.488 48.453 131.676 48.504 c 131.863 48.547 132.059
 48.566 132.27 48.566 c 132.602 48.566 132.867 48.48 133.066 48.301 c 133.262
 48.113 133.363 47.871 133.363 47.566 c 133.363 47.266 133.262 47.027 133.066
 46.848 c 132.867 46.672 132.602 46.582 132.27 46.582 c 132.102 46.582 131.941
 46.605 131.785 46.645 c 131.629 46.676 131.465 46.73 131.301 46.801 c h
131.301 44.598 m f
136.199 48.973 m 134.527 44.598 l 135.152 44.598 l 136.527 48.285 l 137.918
 44.598 l 138.543 44.598 l 136.871 48.973 l h
136.199 48.973 m f
128.707 55.379 m 128.707 54.207 l 127.738 54.207 l 127.738 53.723 l 129.285
 53.723 l 129.285 55.598 l 129.055 55.754 128.801 55.875 128.52 55.957 c
 128.246 56.039 127.957 56.082 127.645 56.082 c 126.965 56.082 126.434 55.887
 126.051 55.488 c 125.664 55.094 125.473 54.535 125.473 53.816 c 125.473
 53.109 125.664 52.559 126.051 52.16 c 126.434 51.754 126.965 51.551 127.645
 51.551 c 127.934 51.551 128.207 51.59 128.457 51.66 c 128.715 51.723 128.957
 51.828 129.176 51.973 c 129.176 52.598 l 128.957 52.41 128.723 52.27 128.473
 52.176 c 128.23 52.082 127.973 52.035 127.691 52.035 c 127.16 52.035 126.758
 52.188 126.488 52.488 c 126.227 52.781 126.098 53.223 126.098 53.816 c 
126.098 54.41 126.227 54.859 126.488 55.16 c 126.758 55.453 127.16 55.598
 127.691 55.598 c 127.91 55.598 128.098 55.582 128.254 55.551 c 128.418 
55.512 128.57 55.453 128.707 55.379 c h
128.707 55.379 m f
130.375 51.629 m 131.172 51.629 l 133.109 55.285 l 133.109 51.629 l 133.688
 51.629 l 133.688 56.004 l 132.891 56.004 l 130.938 52.348 l 130.938 56.004
 l 130.375 56.004 l h
130.375 51.629 m f
135.457 52.113 m 135.457 55.52 l 136.16 55.52 l 136.762 55.52 137.207 55.387
 137.488 55.113 c 137.77 54.832 137.91 54.402 137.91 53.816 c 137.91 53.223
 137.77 52.793 137.488 52.52 c 137.207 52.25 136.762 52.113 136.16 52.113
 c h
134.863 51.629 m 136.082 51.629 l 136.926 51.629 137.543 51.809 137.941
 52.16 c 138.336 52.516 138.535 53.066 138.535 53.816 c 138.535 54.566 138.336
 55.121 137.941 55.473 c 137.543 55.828 136.926 56.004 136.082 56.004 c 
134.863 56.004 l h
134.863 51.629 m f
0.8 g
141.828 31.809 20.285 2.066 re f
0.501961 g
q 1 0 0 1 0 0 cm
141.828 31.809 20.285 2.066 re S Q
0.8 g
141.828 38.801 20.285 2.066 re f
0.501961 g
q 1 0 0 1 0 0 cm
141.828 38.801 20.285 2.066 re S Q
0.8 g
141.828 45.793 20.285 2.066 re f
0.501961 g
q 1 0 0 1 0 0 cm
141.828 45.793 20.285 2.066 re S Q
0.8 g
141.828 52.785 20.285 2.066 re f
0.501961 g
q 1 0 0 1 0 0 cm
141.828 52.785 20.285 2.066 re S Q
0.8 g
87.98 31.605 27.344 23.781 re f
0.501961 g
q 1 0 0 1 0 0 cm
87.98 31.605 27.344 23.781 re S Q
0.4 g
97.051 35.199 4.273 4.598 re f
97.051 47.191 4.273 4.602 re f
0.901961 g
48.004 47.844 m 55.555 64.926 l 0.535 64.926 l 9.09 47.844 l h
48.004 47.844 m f
0 g
0.663079 w
0 J
q 1 0 0 1 0 0 cm
48.004 47.844 m 55.555 64.926 l 0.535 64.926 l 9.09 47.844 l h
48.004 47.844 m S Q
1 g
9.09 20.414 38.914 27.43 re f
0 g
2 J
q 1 0 0 1 0 0 cm
9.09 20.414 38.914 27.43 re S Q
0.901961 g
0.535 64.926 54.969 2.055 re f
0 g
2 j
q 1 0 0 1 0 0 cm
0.535 64.926 54.969 2.055 re S Q
12.52 77.035 m 12.52 79.082 l 13.457 79.082 l 13.801 79.082 14.066 78.996
 14.254 78.816 c 14.441 78.641 14.535 78.391 14.535 78.066 c 14.535 77.734
 14.441 77.48 14.254 77.301 c 14.066 77.125 13.801 77.035 13.457 77.035 
c h
11.785 76.426 m 13.457 76.426 l 14.07 76.426 14.535 76.566 14.848 76.848
 c 15.16 77.121 15.316 77.527 15.316 78.066 c 15.316 78.598 15.16 79.004
 14.848 79.285 c 14.535 79.559 14.07 79.691 13.457 79.691 c 12.52 79.691
 l 12.52 81.895 l 11.785 81.895 l h
11.785 76.426 m f
20.398 76.848 m 20.398 77.629 l 20.148 77.402 19.883 77.23 19.602 77.113
 c 19.32 77 19.023 76.941 18.711 76.941 c 18.086 76.941 17.605 77.137 17.273
 77.52 c 16.938 77.895 16.773 78.441 16.773 79.16 c 16.773 79.891 16.938
 80.449 17.273 80.832 c 17.605 81.207 18.086 81.395 18.711 81.395 c 19.023
 81.395 19.32 81.34 19.602 81.223 c 19.883 81.109 20.148 80.938 20.398 80.707
 c 20.398 81.473 l 20.137 81.652 19.859 81.785 19.57 81.879 c 19.289 81.961
 18.984 82.004 18.664 82.004 c 17.828 82.004 17.172 81.754 16.695 81.254
 c 16.227 80.746 15.992 80.047 15.992 79.16 c 15.992 78.285 16.227 77.598
 16.695 77.098 c 17.172 76.59 17.828 76.332 18.664 76.332 c 18.984 76.332
 19.293 76.375 19.586 76.457 c 19.875 76.543 20.148 76.672 20.398 76.848
 c h
20.398 76.848 m f
26.52 77.91 m 26.52 78.551 l 26.32 78.457 26.117 78.387 25.91 78.332 c 
25.711 78.281 25.504 78.254 25.285 78.254 c 24.949 78.254 24.699 78.309 
24.535 78.41 c 24.367 78.516 24.285 78.672 24.285 78.879 c 24.285 79.035
 24.34 79.16 24.457 79.254 c 24.582 79.34 24.82 79.418 25.176 79.488 c 25.41
 79.551 l 25.887 79.656 26.227 79.801 26.426 79.988 c 26.633 80.168 26.738
 80.426 26.738 80.77 c 26.738 81.145 26.586 81.449 26.285 81.676 c 25.98
 81.895 25.566 82.004 25.035 82.004 c 24.816 82.004 24.586 81.98 24.348 
81.941 c 24.105 81.898 23.855 81.832 23.598 81.738 c 23.598 81.051 l 23.848
 81.176 24.09 81.277 24.332 81.348 c 24.57 81.41 24.809 81.441 25.051 81.441
 c 25.371 81.441 25.617 81.391 25.785 81.285 c 25.949 81.172 26.035 81.016
 26.035 80.816 c 26.035 80.629 25.973 80.488 25.848 80.395 c 25.73 80.301
 25.465 80.207 25.051 80.113 c 24.816 80.051 l 24.398 79.969 24.098 79.84
 23.91 79.66 c 23.723 79.473 23.629 79.223 23.629 78.91 c 23.629 78.516 
23.762 78.215 24.035 78.004 c 24.305 77.797 24.695 77.691 25.207 77.691 
c 25.457 77.691 25.691 77.715 25.91 77.754 c 26.129 77.785 26.332 77.84 
26.52 77.91 c h
26.52 77.91 m f
30.141 76.426 m 30.875 76.426 l 30.875 79.754 l 30.875 80.34 30.977 80.762
 31.188 81.02 c 31.406 81.27 31.754 81.395 32.234 81.395 c 32.703 81.395
 33.039 81.27 33.25 81.02 c 33.469 80.762 33.578 80.34 33.578 79.754 c 33.578
 76.426 l 34.328 76.426 l 34.328 79.848 l 34.328 80.559 34.148 81.094 33.797
 81.457 c 33.441 81.824 32.922 82.004 32.234 82.004 c 31.535 82.004 31.008
 81.824 30.656 81.457 c 30.312 81.094 30.141 80.559 30.141 79.848 c h
30.141 76.426 m f
38.988 76.613 m 38.988 77.332 l 38.707 77.199 38.441 77.098 38.191 77.035
 c 37.941 76.965 37.699 76.926 37.473 76.926 c 37.066 76.926 36.754 77.004
 36.535 77.16 c 36.316 77.316 36.207 77.543 36.207 77.832 c 36.207 78.074
 36.277 78.254 36.426 78.379 c 36.57 78.504 36.848 78.605 37.254 78.676 
c 37.707 78.77 l 38.258 78.875 38.664 79.062 38.926 79.332 c 39.184 79.594
 39.316 79.941 39.316 80.379 c 39.316 80.91 39.137 81.316 38.785 81.598 
c 38.43 81.871 37.91 82.004 37.223 82.004 c 36.961 82.004 36.684 81.973 
36.395 81.91 c 36.102 81.859 35.801 81.777 35.488 81.66 c 35.488 80.895 
l 35.789 81.062 36.082 81.188 36.363 81.27 c 36.652 81.355 36.941 81.395
 37.223 81.395 c 37.637 81.395 37.961 81.312 38.191 81.145 c 38.43 80.98
 38.551 80.746 38.551 80.441 c 38.551 80.172 38.465 79.965 38.301 79.816
 c 38.133 79.66 37.863 79.547 37.488 79.473 c 37.035 79.379 l 36.48 79.277
 36.082 79.109 35.832 78.879 c 35.59 78.641 35.473 78.312 35.473 77.895 
c 35.473 77.406 35.637 77.027 35.973 76.754 c 36.316 76.473 36.785 76.332
 37.379 76.332 c 37.637 76.332 37.898 76.359 38.16 76.41 c 38.43 76.453 
38.707 76.52 38.988 76.613 c h
38.988 76.613 m f
41.203 79.285 m 41.203 81.285 l 42.391 81.285 l 42.797 81.285 43.094 81.203
 43.281 81.035 c 43.469 80.871 43.562 80.621 43.562 80.285 c 43.562 79.941
 43.469 79.691 43.281 79.535 c 43.094 79.371 42.797 79.285 42.391 79.285
 c h
41.203 77.035 m 41.203 78.676 l 42.312 78.676 l 42.664 78.676 42.93 78.609
 43.109 78.473 c 43.285 78.34 43.375 78.137 43.375 77.863 c 43.375 77.582
 43.285 77.375 43.109 77.238 c 42.93 77.105 42.664 77.035 42.312 77.035 
c h
40.469 76.426 m 42.359 76.426 l 42.922 76.426 43.352 76.547 43.656 76.785
 c 43.969 77.016 44.125 77.348 44.125 77.785 c 44.125 78.121 44.047 78.387
 43.891 78.582 c 43.734 78.781 43.504 78.902 43.203 78.941 c 43.566 79.027
 43.848 79.191 44.047 79.441 c 44.242 79.684 44.344 79.988 44.344 80.363
 c 44.344 80.855 44.176 81.234 43.844 81.504 c 43.52 81.766 43.051 81.895
 42.438 81.895 c 40.469 81.895 l h
40.469 76.426 m f
107.445 70.715 m 107.445 72.762 l 108.383 72.762 l 108.727 72.762 108.992
 72.676 109.18 72.496 c 109.367 72.32 109.461 72.07 109.461 71.746 c 109.461
 71.414 109.367 71.16 109.18 70.98 c 108.992 70.805 108.727 70.715 108.383
 70.715 c h
106.711 70.105 m 108.383 70.105 l 108.996 70.105 109.461 70.246 109.773
 70.527 c 110.086 70.801 110.242 71.207 110.242 71.746 c 110.242 72.277 
110.086 72.684 109.773 72.965 c 109.461 73.238 108.996 73.371 108.383 73.371
 c 107.445 73.371 l 107.445 75.574 l 106.711 75.574 l h
106.711 70.105 m f
113.445 72.105 m 113.371 72.066 113.289 72.035 113.195 72.012 c 113.109
 71.992 113.016 71.98 112.914 71.98 c 112.527 71.98 112.23 72.105 112.023
 72.355 c 111.824 72.598 111.727 72.949 111.727 73.418 c 111.727 75.574 
l 111.055 75.574 l 111.055 71.465 l 111.727 71.465 l 111.727 72.105 l 111.871
 71.855 112.055 71.676 112.273 71.559 c 112.5 71.434 112.777 71.371 113.102
 71.371 c 113.152 71.371 113.203 71.379 113.258 71.387 c 113.32 71.387 113.383
 71.398 113.445 71.418 c h
112.07 70.949 m 111.164 69.574 l 111.68 69.574 l 112.336 70.48 l 112.992
 69.574 l 113.508 69.574 l 112.602 70.949 l h
112.07 70.949 m f
117.504 73.355 m 117.504 73.684 l 114.395 73.684 l 114.426 74.152 114.566
 74.508 114.816 74.746 c 115.066 74.988 115.414 75.105 115.863 75.105 c 
116.121 75.105 116.371 75.074 116.613 75.012 c 116.863 74.949 117.105 74.855
 117.348 74.73 c 117.348 75.371 l 117.098 75.465 116.848 75.539 116.598 
75.59 c 116.348 75.652 116.09 75.684 115.832 75.684 c 115.176 75.684 114.652
 75.496 114.27 75.121 c 113.883 74.738 113.691 74.215 113.691 73.559 c 113.691
 72.895 113.871 72.363 114.238 71.965 c 114.602 71.57 115.09 71.371 115.707
 71.371 c 116.258 71.371 116.695 71.551 117.02 71.902 c 117.34 72.258 117.504
 72.742 117.504 73.355 c h
116.832 73.152 m 116.82 72.789 116.715 72.496 116.52 72.277 c 116.32 72.059
 116.055 71.949 115.723 71.949 c 115.348 71.949 115.043 72.059 114.816 72.277
 c 114.586 72.488 114.457 72.785 114.426 73.168 c h
116.832 73.152 m f
118.117 71.465 m 118.836 71.465 l 120.117 74.918 l 121.398 71.465 l 122.117
 71.465 l 120.57 75.574 l 119.664 75.574 l h
118.117 71.465 m f
124.633 71.949 m 124.266 71.949 123.98 72.09 123.773 72.371 c 123.562 72.652
 123.461 73.039 123.461 73.527 c 123.461 74.02 123.562 74.402 123.773 74.684
 c 123.98 74.965 124.266 75.105 124.633 75.105 c 124.984 75.105 125.266 
74.965 125.477 74.684 c 125.695 74.402 125.805 74.02 125.805 73.527 c 125.805
 73.039 125.695 72.652 125.477 72.371 c 125.266 72.09 124.984 71.949 124.633
 71.949 c h
124.633 71.371 m 125.215 71.371 125.672 71.566 126.008 71.949 c 126.34 
72.324 126.508 72.852 126.508 73.527 c 126.508 74.195 126.34 74.723 126.008
 75.105 c 125.672 75.492 125.215 75.684 124.633 75.684 c 124.039 75.684 
123.574 75.492 123.242 75.105 c 122.906 74.723 122.742 74.195 122.742 73.527
 c 122.742 72.852 122.906 72.324 123.242 71.949 c 123.574 71.566 124.039
 71.371 124.633 71.371 c h
124.633 71.371 m f
130.332 72.09 m 130.332 69.871 l 131.004 69.871 l 131.004 75.574 l 130.332
 75.574 l 130.332 74.965 l 130.184 75.207 130.004 75.387 129.785 75.512 
c 129.574 75.625 129.32 75.684 129.02 75.684 c 128.52 75.684 128.113 75.488
 127.801 75.09 c 127.488 74.695 127.332 74.176 127.332 73.527 c 127.332 
72.883 127.488 72.363 127.801 71.965 c 128.113 71.57 128.52 71.371 129.02
 71.371 c 129.32 71.371 129.574 71.434 129.785 71.559 c 130.004 71.676 130.184
 71.852 130.332 72.09 c h
128.035 73.527 m 128.035 74.027 128.133 74.418 128.332 74.699 c 128.539
 74.98 128.82 75.121 129.176 75.121 c 129.539 75.121 129.82 74.98 130.02
 74.699 c 130.227 74.418 130.332 74.027 130.332 73.527 c 130.332 73.027 
130.227 72.637 130.02 72.355 c 129.82 72.074 129.539 71.934 129.176 71.934
 c 128.82 71.934 128.539 72.074 128.332 72.355 c 128.133 72.637 128.035 
73.027 128.035 73.527 c h
128.035 73.527 m f
135.797 73.105 m 135.797 75.574 l 135.125 75.574 l 135.125 73.121 l 135.125
 72.738 135.047 72.449 134.891 72.262 c 134.742 72.066 134.52 71.965 134.219
 71.965 c 133.852 71.965 133.566 72.082 133.359 72.309 c 133.148 72.539 
133.047 72.855 133.047 73.262 c 133.047 75.574 l 132.375 75.574 l 132.375
 71.465 l 133.047 71.465 l 133.047 72.105 l 133.203 71.867 133.391 71.684
 133.609 71.559 c 133.828 71.434 134.082 71.371 134.375 71.371 c 134.844
 71.371 135.195 71.52 135.438 71.809 c 135.676 72.102 135.797 72.535 135.797
 73.105 c h
135.797 73.105 m f
138.004 69.574 m 138.723 69.574 l 137.535 70.949 l 136.973 70.949 l h
137.145 71.465 m 137.816 71.465 l 137.816 75.574 l 137.145 75.574 l h
137.488 71.371 m h
137.488 71.371 m f
139.211 69.871 m 139.883 69.871 l 139.883 73.246 l 141.898 71.465 l 142.758
 71.465 l 140.57 73.387 l 142.852 75.574 l 141.961 75.574 l 139.883 73.574
 l 139.883 75.574 l 139.211 75.574 l h
139.211 69.871 m f
106.633 79.48 m 107.367 79.48 l 107.367 82.809 l 107.367 83.395 107.469
 83.816 107.68 84.074 c 107.898 84.324 108.246 84.449 108.727 84.449 c 109.195
 84.449 109.531 84.324 109.742 84.074 c 109.961 83.816 110.07 83.395 110.07
 82.809 c 110.07 79.48 l 110.82 79.48 l 110.82 82.902 l 110.82 83.613 110.641
 84.148 110.289 84.512 c 109.934 84.879 109.414 85.059 108.727 85.059 c 
108.027 85.059 107.5 84.879 107.148 84.512 c 106.805 84.148 106.633 83.613
 106.633 82.902 c h
106.633 79.48 m f
115.48 79.668 m 115.48 80.387 l 115.199 80.254 114.934 80.152 114.684 80.09
 c 114.434 80.02 114.191 79.98 113.965 79.98 c 113.559 79.98 113.246 80.059
 113.027 80.215 c 112.809 80.371 112.699 80.598 112.699 80.887 c 112.699
 81.129 112.77 81.309 112.918 81.434 c 113.062 81.559 113.34 81.66 113.746
 81.73 c 114.199 81.824 l 114.75 81.93 115.156 82.117 115.418 82.387 c 115.676
 82.648 115.809 82.996 115.809 83.434 c 115.809 83.965 115.629 84.371 115.277
 84.652 c 114.922 84.926 114.402 85.059 113.715 85.059 c 113.453 85.059 
113.176 85.027 112.887 84.965 c 112.594 84.914 112.293 84.832 111.98 84.715
 c 111.98 83.949 l 112.281 84.117 112.574 84.242 112.855 84.324 c 113.145
 84.41 113.434 84.449 113.715 84.449 c 114.129 84.449 114.453 84.367 114.684
 84.199 c 114.922 84.035 115.043 83.801 115.043 83.496 c 115.043 83.227 
114.957 83.02 114.793 82.871 c 114.625 82.715 114.355 82.602 113.98 82.527
 c 113.527 82.434 l 112.973 82.332 112.574 82.164 112.324 81.934 c 112.082
 81.695 111.965 81.367 111.965 80.949 c 111.965 80.461 112.129 80.082 112.465
 79.809 c 112.809 79.527 113.277 79.387 113.871 79.387 c 114.129 79.387 
114.391 79.414 114.652 79.465 c 114.922 79.508 115.199 79.574 115.48 79.668
 c h
115.48 79.668 m f
117.695 82.34 m 117.695 84.34 l 118.883 84.34 l 119.289 84.34 119.586 84.258
 119.773 84.09 c 119.961 83.926 120.055 83.676 120.055 83.34 c 120.055 82.996
 119.961 82.746 119.773 82.59 c 119.586 82.426 119.289 82.34 118.883 82.34
 c h
117.695 80.09 m 117.695 81.73 l 118.805 81.73 l 119.156 81.73 119.422 81.664
 119.602 81.527 c 119.777 81.395 119.867 81.191 119.867 80.918 c 119.867
 80.637 119.777 80.43 119.602 80.293 c 119.422 80.16 119.156 80.09 118.805
 80.09 c h
116.961 79.48 m 118.852 79.48 l 119.414 79.48 119.844 79.602 120.148 79.84
 c 120.461 80.07 120.617 80.402 120.617 80.84 c 120.617 81.176 120.539 81.441
 120.383 81.637 c 120.227 81.836 119.996 81.957 119.695 81.996 c 120.059
 82.082 120.34 82.246 120.539 82.496 c 120.734 82.738 120.836 83.043 120.836
 83.418 c 120.836 83.91 120.668 84.289 120.336 84.559 c 120.012 84.82 119.543
 84.949 118.93 84.949 c 116.961 84.949 l h
116.961 79.48 m f
121.73 82.59 1.984 0.609 re f
124.734 79.48 m 125.469 79.48 l 125.469 82.809 l 125.469 83.395 125.57 
83.816 125.781 84.074 c 126 84.324 126.348 84.449 126.828 84.449 c 127.297
 84.449 127.633 84.324 127.844 84.074 c 128.062 83.816 128.172 83.395 128.172
 82.809 c 128.172 79.48 l 128.922 79.48 l 128.922 82.902 l 128.922 83.613
 128.742 84.148 128.391 84.512 c 128.035 84.879 127.516 85.059 126.828 85.059
 c 126.129 85.059 125.602 84.879 125.25 84.512 c 124.906 84.148 124.734 
83.613 124.734 82.902 c h
124.734 79.48 m f
132.129 80.215 m 131.129 82.934 l 133.145 82.934 l h
131.707 79.48 m 132.551 79.48 l 134.629 84.949 l 133.863 84.949 l 133.363
 83.543 l 130.91 83.543 l 130.41 84.949 l 129.629 84.949 l h
131.707 79.48 m f
138.023 82.387 m 138.18 82.441 138.328 82.555 138.477 82.73 c 138.633 82.91
 138.789 83.148 138.945 83.449 c 139.695 84.949 l 138.898 84.949 l 138.195
 83.543 l 138.016 83.18 137.84 82.941 137.664 82.824 c 137.496 82.699 137.266
 82.637 136.977 82.637 c 136.164 82.637 l 136.164 84.949 l 135.43 84.949
 l 135.43 79.48 l 137.102 79.48 l 137.727 79.48 138.188 79.613 138.492 79.871
 c 138.805 80.133 138.961 80.527 138.961 81.059 c 138.961 81.402 138.875
 81.691 138.711 81.918 c 138.555 82.137 138.324 82.293 138.023 82.387 c 
h
136.164 80.09 m 136.164 82.027 l 137.102 82.027 l 137.453 82.027 137.719
 81.949 137.898 81.793 c 138.086 81.629 138.18 81.383 138.18 81.059 c 138.18
 80.738 138.086 80.496 137.898 80.34 c 137.719 80.176 137.453 80.09 137.102
 80.09 c h
136.164 80.09 m f
139.348 79.48 m 143.973 79.48 l 143.973 80.105 l 142.02 80.105 l 142.02
 84.949 l 141.285 84.949 l 141.285 80.105 l 139.348 80.105 l h
139.348 79.48 m f
173.891 16.879 m 174.453 16.441 l 177.594 18.348 l 176.453 14.848 l 177.031
 14.395 l 178.359 18.582 l 177.656 19.145 l h
173.891 16.879 m f
176.746 12.574 m 177.277 12.152 l 180.824 16.621 l 180.293 17.043 l h
176.746 12.574 m f
182.109 12.965 m 181.68 13.309 181.426 13.598 181.344 13.824 c 181.25 14.043
 181.297 14.273 181.484 14.512 c 181.629 14.699 181.805 14.805 182.016 14.824
 c 182.234 14.836 182.445 14.754 182.656 14.574 c 182.945 14.348 183.098
 14.059 183.109 13.715 c 183.117 13.363 182.988 13.012 182.719 12.668 c 
182.625 12.559 l h
183 11.902 m 184.453 13.746 l 183.906 14.168 l 183.516 13.684 l 183.555
 13.965 183.523 14.227 183.422 14.465 c 183.316 14.695 183.133 14.914 182.875
 15.121 c 182.539 15.395 182.203 15.512 181.859 15.48 c 181.523 15.449 181.242
 15.277 181 14.965 c 180.711 14.602 180.609 14.23 180.703 13.855 c 180.797
 13.48 181.086 13.105 181.562 12.73 c 182.297 12.137 l 182.25 12.09 l 182.062
 11.84 181.836 11.715 181.578 11.715 c 181.32 11.715 181.043 11.824 180.75
 12.043 c 180.562 12.199 180.402 12.371 180.266 12.559 c 180.133 12.738 
180.016 12.93 179.922 13.137 c 179.531 12.637 l 179.656 12.41 179.797 12.207
 179.953 12.027 c 180.109 11.852 180.273 11.695 180.438 11.559 c 180.906
 11.184 181.352 11.027 181.766 11.09 c 182.191 11.145 182.602 11.414 183
 11.902 c h
183 11.902 m f
185.117 8.141 m 185.508 8.641 l 185.289 8.684 185.086 8.75 184.898 8.844
 c 184.703 8.93 184.52 9.039 184.352 9.172 c 184.094 9.383 183.93 9.578 
183.867 9.766 c 183.805 9.945 183.836 10.117 183.961 10.281 c 184.055 10.406
 184.18 10.469 184.336 10.469 c 184.484 10.461 184.711 10.371 185.023 10.203
 c 185.258 10.109 l 185.695 9.891 186.047 9.793 186.32 9.812 c 186.602 9.836
 186.844 9.98 187.055 10.25 c 187.293 10.543 187.359 10.871 187.258 11.234
 c 187.152 11.59 186.891 11.934 186.477 12.266 c 186.309 12.402 186.117 
12.527 185.898 12.641 c 185.688 12.758 185.453 12.859 185.195 12.953 c 184.758
 12.422 l 185.039 12.359 185.293 12.281 185.523 12.188 c 185.75 12.086 185.961
 11.961 186.148 11.812 c 186.406 11.617 186.57 11.422 186.633 11.234 c 186.695
 11.047 186.664 10.875 186.539 10.719 c 186.422 10.574 186.289 10.5 186.133
 10.5 c 185.984 10.5 185.715 10.594 185.32 10.781 c 185.102 10.875 l 184.727
 11.062 184.41 11.148 184.148 11.125 c 183.891 11.105 183.66 10.969 183.461
 10.719 c 183.223 10.418 183.145 10.102 183.227 9.766 c 183.312 9.422 183.551
 9.094 183.945 8.781 c 184.145 8.625 184.344 8.496 184.539 8.391 c 184.727
 8.289 184.922 8.203 185.117 8.141 c h
185.117 8.141 m f
185.852 5.914 m 186.57 6.82 l 187.664 5.961 l 187.992 6.383 l 186.898 7.242
 l 188.289 8.992 l 188.484 9.254 188.648 9.395 188.773 9.414 c 188.906 9.438
 189.086 9.359 189.305 9.18 c 189.867 8.742 l 190.211 9.18 l 189.648 9.617
 l 189.25 9.93 188.914 10.078 188.633 10.055 c 188.359 10.023 188.07 9.812
 187.758 9.414 c 186.367 7.664 l 185.977 7.977 l 185.648 7.555 l 186.039
 7.242 l 185.32 6.336 l h
185.852 5.914 m f
192.031 4.586 m 193.562 6.523 l 193.031 6.93 l 191.5 5.008 l 191.258 4.707
 191.02 4.531 190.781 4.477 c 190.551 4.414 190.32 4.477 190.078 4.664 c
 189.789 4.895 189.637 5.164 189.625 5.477 c 189.605 5.789 189.719 6.102
 189.969 6.414 c 191.406 8.227 l 190.875 8.648 l 188.328 5.43 l 188.859 
5.008 l 189.25 5.508 l 189.23 5.227 189.266 4.969 189.359 4.727 c 189.453
 4.488 189.617 4.281 189.844 4.102 c 190.211 3.812 190.57 3.707 190.938 
3.789 c 191.312 3.875 191.676 4.141 192.031 4.586 c h
192.031 4.586 m f
191.551 0.445 m 192.113 -0.008 l 192.051 1.805 l 191.613 2.164 l h
192.066 2.461 m 192.598 2.039 l 195.145 5.258 l 194.613 5.68 l h
192.27 2.164 m h
192.27 2.164 m f
180.855 21.281 m 181.387 20.859 l 183.48 23.5 l 183.965 20.859 l 184.637
 20.328 l 184.121 23.188 l 187.262 23.484 l 186.559 24.031 l 183.684 23.766
 l 184.934 25.328 l 184.402 25.75 l h
180.855 21.281 m f
187.906 20.336 m 187.477 20.68 187.223 20.969 187.141 21.195 c 187.047 
21.414 187.094 21.645 187.281 21.883 c 187.426 22.07 187.602 22.176 187.812
 22.195 c 188.031 22.207 188.242 22.125 188.453 21.945 c 188.742 21.719 
188.895 21.43 188.906 21.086 c 188.914 20.734 188.785 20.383 188.516 20.039
 c 188.422 19.93 l h
188.797 19.273 m 190.25 21.117 l 189.703 21.539 l 189.312 21.055 l 189.352
 21.336 189.32 21.598 189.219 21.836 c 189.113 22.066 188.93 22.285 188.672
 22.492 c 188.336 22.766 188 22.883 187.656 22.852 c 187.32 22.82 187.039
 22.648 186.797 22.336 c 186.508 21.973 186.406 21.602 186.5 21.227 c 186.594
 20.852 186.883 20.477 187.359 20.102 c 188.094 19.508 l 188.047 19.461 
l 187.859 19.211 187.633 19.086 187.375 19.086 c 187.117 19.086 186.84 19.195
 186.547 19.414 c 186.359 19.57 186.199 19.742 186.062 19.93 c 185.93 20.109
 185.812 20.301 185.719 20.508 c 185.328 20.008 l 185.453 19.781 185.594
 19.578 185.75 19.398 c 185.906 19.223 186.07 19.066 186.234 18.93 c 186.703
 18.555 187.148 18.398 187.562 18.461 c 187.988 18.516 188.398 18.785 188.797
 19.273 c h
188.797 19.273 m f
192.363 16.824 m 192.051 16.441 191.727 16.199 191.395 16.105 c 191.059
 16.004 190.75 16.066 190.457 16.293 c 190.188 16.512 190.062 16.801 190.082
 17.152 c 190.094 17.496 190.254 17.863 190.566 18.246 c 190.867 18.645 
191.184 18.887 191.52 18.98 c 191.863 19.074 192.168 19.012 192.441 18.793
 c 192.73 18.566 192.867 18.277 192.848 17.934 c 192.824 17.59 192.664 17.223
 192.363 16.824 c h
189.66 17.121 m 189.629 16.84 189.66 16.59 189.754 16.371 c 189.848 16.145
 190.016 15.934 190.254 15.746 c 190.652 15.434 191.086 15.34 191.566 15.465
 c 192.055 15.582 192.504 15.887 192.91 16.387 c 193.305 16.898 193.504 
17.402 193.504 17.902 c 193.512 18.402 193.32 18.809 192.926 19.121 c 192.684
 19.309 192.445 19.426 192.207 19.465 c 191.965 19.496 191.715 19.465 191.457
 19.371 c 191.832 19.855 l 191.301 20.277 l 187.754 15.809 l 188.285 15.387
 l h
189.66 17.121 m f
196.438 13.379 m 196.641 13.629 l 194.203 15.566 l 194.516 15.91 194.844
 16.098 195.188 16.129 c 195.531 16.16 195.875 16.035 196.219 15.754 c 196.426
 15.598 196.609 15.422 196.766 15.223 c 196.922 15.027 197.051 14.801 197.156
 14.551 c 197.562 15.051 l 197.426 15.281 197.273 15.496 197.109 15.691 
c 196.941 15.891 196.758 16.074 196.562 16.238 c 196.039 16.645 195.508 
16.824 194.969 16.77 c 194.438 16.707 193.969 16.422 193.562 15.91 c 193.148
 15.391 192.961 14.859 193 14.316 c 193.043 13.777 193.305 13.316 193.781
 12.941 c 194.219 12.598 194.672 12.469 195.141 12.551 c 195.617 12.625 
196.051 12.902 196.438 13.379 c h
195.781 13.645 m 195.539 13.363 195.273 13.199 194.984 13.145 c 194.691
 13.094 194.418 13.172 194.156 13.379 c 193.867 13.609 193.699 13.879 193.656
 14.191 c 193.605 14.504 193.684 14.824 193.891 15.145 c h
195.781 13.645 m f
195.117 9.965 m 195.648 9.543 l 199.195 14.012 l 198.664 14.434 l h
195.117 9.965 m f
205.219 76.805 m 208.672 76.805 l 208.672 77.43 l 205.953 77.43 l 205.953
 79.055 l 208.562 79.055 l 208.562 79.664 l 205.953 79.664 l 205.953 81.648
 l 208.75 81.648 l 208.75 82.273 l 205.219 82.273 l h
205.219 76.805 m f
211.367 82.273 m 209.289 76.805 l 210.055 76.805 l 211.789 81.414 l 213.523
 76.805 l 214.289 76.805 l 212.211 82.273 l h
211.367 82.273 m f
217.402 79.32 m 217.754 79.406 218.031 79.566 218.23 79.805 c 218.426 80.047
 218.527 80.336 218.527 80.68 c 218.527 81.223 218.34 81.645 217.965 81.945
 c 217.598 82.238 217.074 82.383 216.387 82.383 c 216.156 82.383 215.918
 82.355 215.668 82.305 c 215.426 82.266 215.184 82.195 214.934 82.102 c 
214.934 81.398 l 215.129 81.516 215.348 81.602 215.59 81.664 c 215.84 81.727
 216.098 81.758 216.371 81.758 c 216.828 81.758 217.176 81.672 217.418 81.492
 c 217.668 81.305 217.793 81.035 217.793 80.68 c 217.793 80.359 217.676 
80.109 217.449 79.93 c 217.219 79.742 216.906 79.648 216.512 79.648 c 215.871
 79.648 l 215.871 79.055 l 216.543 79.055 l 216.906 79.055 217.184 78.984
 217.371 78.836 c 217.566 78.691 217.668 78.477 217.668 78.195 c 217.668
 77.914 217.562 77.703 217.355 77.555 c 217.156 77.41 216.875 77.336 216.512
 77.336 c 216.301 77.336 216.082 77.359 215.855 77.398 c 215.625 77.441 
215.371 77.508 215.09 77.602 c 215.09 76.945 l 215.371 76.863 215.629 76.805
 215.871 76.773 c 216.121 76.734 216.355 76.711 216.574 76.711 c 217.137
 76.711 217.578 76.844 217.902 77.102 c 218.234 77.352 218.402 77.691 218.402
 78.117 c 218.402 78.43 218.312 78.691 218.137 78.898 c 217.957 79.109 217.715
 79.25 217.402 79.32 c h
217.402 79.32 m f
222.168 76.805 m 222.902 76.805 l 222.902 80.133 l 222.902 80.719 223.004
 81.141 223.215 81.398 c 223.434 81.648 223.781 81.773 224.262 81.773 c 
224.73 81.773 225.066 81.648 225.277 81.398 c 225.496 81.141 225.605 80.719
 225.605 80.133 c 225.605 76.805 l 226.355 76.805 l 226.355 80.227 l 226.355
 80.938 226.176 81.473 225.824 81.836 c 225.469 82.203 224.949 82.383 224.262
 82.383 c 223.562 82.383 223.035 82.203 222.684 81.836 c 222.34 81.473 222.168
 80.938 222.168 80.227 c h
222.168 76.805 m f
229.562 77.539 m 228.562 80.258 l 230.578 80.258 l h
229.141 76.805 m 229.984 76.805 l 232.062 82.273 l 231.297 82.273 l 230.797
 80.867 l 228.344 80.867 l 227.844 82.273 l 227.062 82.273 l h
229.141 76.805 m f
235.461 79.711 m 235.617 79.766 235.766 79.879 235.914 80.055 c 236.07 
80.234 236.227 80.473 236.383 80.773 c 237.133 82.273 l 236.336 82.273 l
 235.633 80.867 l 235.453 80.504 235.277 80.266 235.102 80.148 c 234.934
 80.023 234.703 79.961 234.414 79.961 c 233.602 79.961 l 233.602 82.273 
l 232.867 82.273 l 232.867 76.805 l 234.539 76.805 l 235.164 76.805 235.625
 76.938 235.93 77.195 c 236.242 77.457 236.398 77.852 236.398 78.383 c 236.398
 78.727 236.312 79.016 236.148 79.242 c 235.992 79.461 235.762 79.617 235.461
 79.711 c h
233.602 77.414 m 233.602 79.352 l 234.539 79.352 l 234.891 79.352 235.156
 79.273 235.336 79.117 c 235.523 78.953 235.617 78.707 235.617 78.383 c 
235.617 78.062 235.523 77.82 235.336 77.664 c 235.156 77.5 234.891 77.414
 234.539 77.414 c h
233.602 77.414 m f
236.781 76.805 m 241.406 76.805 l 241.406 77.43 l 239.453 77.43 l 239.453
 82.273 l 238.719 82.273 l 238.719 77.43 l 236.781 77.43 l h
236.781 76.805 m f
247.09 78.289 m 247.09 78.93 l 246.891 78.836 246.688 78.766 246.48 78.711
 c 246.281 78.66 246.074 78.633 245.855 78.633 c 245.52 78.633 245.27 78.688
 245.105 78.789 c 244.938 78.895 244.855 79.051 244.855 79.258 c 244.855
 79.414 244.91 79.539 245.027 79.633 c 245.152 79.719 245.391 79.797 245.746
 79.867 c 245.98 79.93 l 246.457 80.035 246.797 80.18 246.996 80.367 c 247.203
 80.547 247.309 80.805 247.309 81.148 c 247.309 81.523 247.156 81.828 246.855
 82.055 c 246.551 82.273 246.137 82.383 245.605 82.383 c 245.387 82.383 
245.156 82.359 244.918 82.32 c 244.676 82.277 244.426 82.211 244.168 82.117
 c 244.168 81.43 l 244.418 81.555 244.66 81.656 244.902 81.727 c 245.141
 81.789 245.379 81.82 245.621 81.82 c 245.941 81.82 246.188 81.77 246.355
 81.664 c 246.52 81.551 246.605 81.395 246.605 81.195 c 246.605 81.008 246.543
 80.867 246.418 80.773 c 246.301 80.68 246.035 80.586 245.621 80.492 c 245.387
 80.43 l 244.969 80.348 244.668 80.219 244.48 80.039 c 244.293 79.852 244.199
 79.602 244.199 79.289 c 244.199 78.895 244.332 78.594 244.605 78.383 c 
244.875 78.176 245.266 78.07 245.777 78.07 c 246.027 78.07 246.262 78.094
 246.48 78.133 c 246.699 78.164 246.902 78.219 247.09 78.289 c h
247.09 78.289 m f
251.887 80.055 m 251.887 80.383 l 248.777 80.383 l 248.809 80.852 248.949
 81.207 249.199 81.445 c 249.449 81.688 249.797 81.805 250.246 81.805 c 
250.504 81.805 250.754 81.773 250.996 81.711 c 251.246 81.648 251.488 81.555
 251.73 81.43 c 251.73 82.07 l 251.48 82.164 251.23 82.238 250.98 82.289
 c 250.73 82.352 250.473 82.383 250.215 82.383 c 249.559 82.383 249.035 
82.195 248.652 81.82 c 248.266 81.438 248.074 80.914 248.074 80.258 c 248.074
 79.594 248.254 79.062 248.621 78.664 c 248.984 78.27 249.473 78.07 250.09
 78.07 c 250.641 78.07 251.078 78.25 251.402 78.602 c 251.723 78.957 251.887
 79.441 251.887 80.055 c h
251.215 79.852 m 251.203 79.488 251.098 79.195 250.902 78.977 c 250.703
 78.758 250.438 78.648 250.105 78.648 c 249.73 78.648 249.426 78.758 249.199
 78.977 c 248.969 79.188 248.84 79.484 248.809 79.867 c h
251.215 79.852 m f
256.395 79.805 m 256.395 82.273 l 255.723 82.273 l 255.723 79.82 l 255.723
 79.438 255.645 79.148 255.488 78.961 c 255.34 78.766 255.117 78.664 254.816
 78.664 c 254.449 78.664 254.164 78.781 253.957 79.008 c 253.746 79.238 
253.645 79.555 253.645 79.961 c 253.645 82.273 l 252.973 82.273 l 252.973
 78.164 l 253.645 78.164 l 253.645 78.805 l 253.801 78.566 253.988 78.383
 254.207 78.258 c 254.426 78.133 254.68 78.07 254.973 78.07 c 255.441 78.07
 255.793 78.219 256.035 78.508 c 256.273 78.801 256.395 79.234 256.395 79.805
 c h
256.395 79.805 m f
257.445 78.164 m 260.648 78.164 l 260.648 78.789 l 258.117 81.742 l 260.648
 81.742 l 260.648 82.273 l 257.367 82.273 l 257.367 81.664 l 259.898 78.711
 l 257.445 78.711 l h
257.445 78.164 m f
263.27 78.648 m 262.902 78.648 262.617 78.789 262.41 79.07 c 262.199 79.352
 262.098 79.738 262.098 80.227 c 262.098 80.719 262.199 81.102 262.41 81.383
 c 262.617 81.664 262.902 81.805 263.27 81.805 c 263.621 81.805 263.902 
81.664 264.113 81.383 c 264.332 81.102 264.441 80.719 264.441 80.227 c 264.441
 79.738 264.332 79.352 264.113 79.07 c 263.902 78.789 263.621 78.648 263.27
 78.648 c h
263.27 78.07 m 263.852 78.07 264.309 78.266 264.645 78.648 c 264.977 79.023
 265.145 79.551 265.145 80.227 c 265.145 80.895 264.977 81.422 264.645 81.805
 c 264.309 82.191 263.852 82.383 263.27 82.383 c 262.676 82.383 262.211 
82.191 261.879 81.805 c 261.543 81.422 261.379 80.895 261.379 80.227 c 261.379
 79.551 261.543 79.023 261.879 78.648 c 262.211 78.266 262.676 78.07 263.27
 78.07 c h
263.27 78.07 m f
268.641 78.805 m 268.566 78.766 268.484 78.734 268.391 78.711 c 268.305
 78.691 268.211 78.68 268.109 78.68 c 267.723 78.68 267.426 78.805 267.219
 79.055 c 267.02 79.297 266.922 79.648 266.922 80.117 c 266.922 82.273 l
 266.25 82.273 l 266.25 78.164 l 266.922 78.164 l 266.922 78.805 l 267.066
 78.555 267.25 78.375 267.469 78.258 c 267.695 78.133 267.973 78.07 268.297
 78.07 c 268.348 78.07 268.398 78.078 268.453 78.086 c 268.516 78.086 268.578
 78.098 268.641 78.117 c h
268.641 78.805 m f
0.749999 w
0 J
0 j
q 1 0 0 1 0 0 cm
55.5 45.484 m 82.34 45.484 l S Q
53.77 45.484 m 56.367 43.984 l 56.367 46.984 l h
53.77 45.484 m f*
0.399999 w
q -1 0 0 -1 0 0 cm
-53.77 -45.484 m -56.367 -43.984 l -56.367 -46.984 l h
-53.77 -45.484 m S Q
84.07 45.484 m 81.477 46.984 l 81.477 43.984 l h
84.07 45.484 m f*
q 1 0 0 1 0 0 cm
84.07 45.484 m 81.477 46.984 l 81.477 43.984 l h
84.07 45.484 m S Q
0.2 g
0.749999 w
q 1 0 0 1 0 0 cm
222.641 46.355 m 178.203 46.355 l 160.688 54.289 l S Q
0.501961 0 0 rg
q 1 0 0 1 0 0 cm
222.535 40.797 m 177.977 40.797 l 160.672 46.945 l S Q
0 0.501961 0 rg
q 1 0 0 1 0 0 cm
222.371 35.59 m 177.691 35.59 l 160.449 40.094 l S Q
0.501961 0.501961 0 rg
q 1 0 0 1 0 0 cm
222.27 29.75 m 177.23 29.75 l 160.332 33.137 l S Q
0.2 g
q 1 0 0 1 0 0 cm
222.445 52.07 m 197.297 52.07 l S Q
q 1 0 0 1 0 0 cm
222.469 57.391 m 197.379 57.391 l S Q
Q Q
showpage
%%Trailer
end
%%EOF
