%!PS-Adobe-3.0 EPSF-3.0
%%Creator: cairo 1.16.0 (https://cairographics.org)
%%CreationDate: Tue May  2 19:33:34 2023
%%Pages: 1
%%DocumentData: Clean7Bit
%%LanguageLevel: 2
%%BoundingBox: 0 0 239 64
%%EndComments
%%BeginProlog
50 dict begin
/q { gsave } bind def
/Q { grestore } bind def
/cm { 6 array astore concat } bind def
/w { setlinewidth } bind def
/J { setlinecap } bind def
/j { setlinejoin } bind def
/M { setmiterlimit } bind def
/d { setdash } bind def
/m { moveto } bind def
/l { lineto } bind def
/c { curveto } bind def
/h { closepath } bind def
/re { exch dup neg 3 1 roll 5 3 roll moveto 0 rlineto
      0 exch rlineto 0 rlineto closepath } bind def
/S { stroke } bind def
/f { fill } bind def
/f* { eofill } bind def
/n { newpath } bind def
/W { clip } bind def
/W* { eoclip } bind def
/BT { } bind def
/ET { } bind def
/BDC { mark 3 1 roll /BDC pdfmark } bind def
/EMC { mark /EMC pdfmark } bind def
/cairo_store_point { /cairo_point_y exch def /cairo_point_x exch def } def
/Tj { show currentpoint cairo_store_point } bind def
/TJ {
  {
    dup
    type /stringtype eq
    { show } { -0.001 mul 0 cairo_font_matrix dtransform rmoveto } ifelse
  } forall
  currentpoint cairo_store_point
} bind def
/cairo_selectfont { cairo_font_matrix aload pop pop pop 0 0 6 array astore
    cairo_font exch selectfont cairo_point_x cairo_point_y moveto } bind def
/Tf { pop /cairo_font exch def /cairo_font_matrix where
      { pop cairo_selectfont } if } bind def
/Td { matrix translate cairo_font_matrix matrix concatmatrix dup
      /cairo_font_matrix exch def dup 4 get exch 5 get cairo_store_point
      /cairo_font where { pop cairo_selectfont } if } bind def
/Tm { 2 copy 8 2 roll 6 array astore /cairo_font_matrix exch def
      cairo_store_point /cairo_font where { pop cairo_selectfont } if } bind def
/g { setgray } bind def
/rg { setrgbcolor } bind def
/d1 { setcachedevice } bind def
/cairo_data_source {
  CairoDataIndex CairoData length lt
    { CairoData CairoDataIndex get /CairoDataIndex CairoDataIndex 1 add def }
    { () } ifelse
} def
/cairo_flush_ascii85_file { cairo_ascii85_file status { cairo_ascii85_file flushfile } if } def
/cairo_image { image cairo_flush_ascii85_file } def
/cairo_imagemask { imagemask cairo_flush_ascii85_file } def
%%EndProlog
%%BeginSetup
%%EndSetup
%%Page: 1 1
%%BeginPageSetup
%%PageBoundingBox: 0 0 239 64
%%EndPageSetup
q 0 0 239 64 rectclip
1 0 0 -1 0 64 cm q
0.6 g
6.672 0.285 m 48.234 0.285 l 51.773 0.285 54.621 3.133 54.621 6.672 c 54.621
 49.594 l 54.621 53.133 51.773 55.98 48.234 55.98 c 6.672 55.98 l 3.133 
55.98 0.285 53.133 0.285 49.594 c 0.285 6.672 l 0.285 3.133 3.133 0.285 
6.672 0.285 c h
6.672 0.285 m f
0 g
0.566929 w
1 J
1 j
[] 0.0 d
4 M q 1 0 0 1 0 0 cm
6.672 0.285 m 48.234 0.285 l 51.773 0.285 54.621 3.133 54.621 6.672 c 54.621
 49.594 l 54.621 53.133 51.773 55.98 48.234 55.98 c 6.672 55.98 l 3.133 
55.98 0.285 53.133 0.285 49.594 c 0.285 6.672 l 0.285 3.133 3.133 0.285 
6.672 0.285 c h
6.672 0.285 m S Q
0.94902 g
25.375 9.562 m 25.375 17.055 l 7.371 17.055 l 7.371 46.703 l 47.535 46.703
 l 47.535 17.055 l 41.789 17.055 l 41.789 9.562 l h
25.375 9.562 m f
0 g
2 J
0 j
q 1 0 0 1 0 0 cm
25.375 9.562 m 25.375 17.055 l 7.371 17.055 l 7.371 46.703 l 47.535 46.703
 l 47.535 17.055 l 41.789 17.055 l 41.789 9.562 l h
25.375 9.562 m S Q
1 1 0 rg
12.086 35.219 3.273 7.965 re f
0 g
q 1 0 0 1 0 0 cm
12.086 35.219 3.273 7.965 re S Q
0.901961 g
17.578 35.219 3.273 7.965 re f
0 g
q 1 0 0 1 0 0 cm
17.578 35.219 3.273 7.965 re S Q
1 0 0 rg
23.07 35.219 3.273 7.965 re f
0 g
q 1 0 0 1 0 0 cm
23.07 35.219 3.273 7.965 re S Q
28.562 35.219 3.273 7.965 re f
q 1 0 0 1 0 0 cm
28.562 35.219 3.273 7.965 re S Q
0.901961 g
34.055 35.219 3.27 7.965 re f
0 g
q 1 0 0 1 0 0 cm
34.055 35.219 3.27 7.965 re S Q
0.901961 g
39.543 35.219 3.273 7.965 re f
0 g
q 1 0 0 1 0 0 cm
39.543 35.219 3.273 7.965 re S Q
13.777 30.699 m 13.504 30.699 13.293 30.793 13.137 30.98 c 12.98 31.16 
12.902 31.402 12.902 31.715 c 12.902 32.027 12.98 32.277 13.137 32.465 c
 13.293 32.645 13.504 32.73 13.777 32.73 c 14.035 32.73 14.246 32.645 14.402
 32.465 c 14.559 32.277 14.637 32.027 14.637 31.715 c 14.637 31.402 14.559
 31.16 14.402 30.98 c 14.246 30.793 14.035 30.699 13.777 30.699 c h
14.949 28.84 m 14.949 29.387 l 14.801 29.316 14.652 29.262 14.496 29.23
 c 14.348 29.191 14.199 29.168 14.043 29.168 c 13.656 29.168 13.359 29.301
 13.152 29.559 c 12.941 29.82 12.828 30.223 12.809 30.762 c 12.922 30.586
 13.062 30.457 13.23 30.371 c 13.406 30.277 13.598 30.23 13.809 30.23 c 
14.246 30.23 14.59 30.367 14.84 30.637 c 15.098 30.898 15.23 31.258 15.23
 31.715 c 15.23 32.164 15.094 32.523 14.824 32.793 c 14.562 33.066 14.215
 33.199 13.777 33.199 c 13.266 33.199 12.875 33.008 12.605 32.621 c 12.344
 32.238 12.215 31.676 12.215 30.934 c 12.215 30.246 12.375 29.699 12.699
 29.293 c 13.031 28.879 13.473 28.668 14.027 28.668 c 14.172 28.668 14.316
 28.684 14.465 28.715 c 14.621 28.746 14.781 28.789 14.949 28.84 c h
14.949 28.84 m f
17.977 28.715 m 20.305 28.715 l 20.305 29.215 l 18.523 29.215 l 18.523 
30.293 l 18.605 30.262 18.688 30.242 18.773 30.23 c 18.867 30.211 18.953
 30.199 19.039 30.199 c 19.527 30.199 19.914 30.336 20.195 30.605 c 20.484
 30.867 20.633 31.227 20.633 31.684 c 20.633 32.152 20.484 32.52 20.195 
32.777 c 19.902 33.039 19.484 33.168 18.945 33.168 c 18.766 33.168 18.578
 33.152 18.383 33.121 c 18.195 33.09 18 33.043 17.805 32.98 c 17.805 32.387
 l 17.98 32.492 18.164 32.57 18.352 32.621 c 18.539 32.664 18.734 32.684
 18.945 32.684 c 19.277 32.684 19.543 32.598 19.742 32.418 c 19.938 32.23
 20.039 31.988 20.039 31.684 c 20.039 31.383 19.938 31.145 19.742 30.965
 c 19.543 30.789 19.277 30.699 18.945 30.699 c 18.777 30.699 18.617 30.723
 18.461 30.762 c 18.305 30.793 18.141 30.848 17.977 30.918 c h
17.977 28.715 m f
25.086 29.262 m 23.602 31.59 l 25.086 31.59 l h
24.93 28.746 m 25.68 28.746 l 25.68 31.59 l 26.305 31.59 l 26.305 32.09
 l 25.68 32.09 l 25.68 33.121 l 25.086 33.121 l 25.086 32.09 l 23.117 32.09
 l 23.117 31.512 l h
24.93 28.746 m f
30.738 30.762 m 31.02 30.824 31.238 30.957 31.395 31.152 c 31.559 31.34
 31.645 31.574 31.645 31.855 c 31.645 32.285 31.492 32.617 31.191 32.855
 c 30.898 33.086 30.477 33.199 29.926 33.199 c 29.738 33.199 29.543 33.176
 29.348 33.137 c 29.16 33.105 28.961 33.059 28.754 32.996 c 28.754 32.418
 l 28.918 32.512 29.102 32.586 29.301 32.637 c 29.496 32.691 29.699 32.715
 29.91 32.715 c 30.285 32.715 30.566 32.645 30.754 32.496 c 30.949 32.34
 31.051 32.129 31.051 31.855 c 31.051 31.598 30.957 31.395 30.77 31.246 
c 30.59 31.102 30.34 31.027 30.02 31.027 c 29.52 31.027 l 29.52 30.543 l
 30.051 30.543 l 30.34 30.543 30.559 30.488 30.707 30.371 c 30.863 30.246
 30.941 30.074 30.941 29.855 c 30.941 29.637 30.863 29.473 30.707 29.355
 c 30.551 29.23 30.32 29.168 30.02 29.168 c 29.863 29.168 29.691 29.191 
29.504 29.23 c 29.316 29.262 29.113 29.316 28.895 29.387 c 28.895 28.855
 l 29.113 28.793 29.32 28.746 29.52 28.715 c 29.715 28.684 29.902 28.668
 30.082 28.668 c 30.527 28.668 30.883 28.773 31.145 28.98 c 31.402 29.18
 31.535 29.457 31.535 29.809 c 31.535 30.051 31.461 30.254 31.316 30.418
 c 31.18 30.586 30.988 30.699 30.738 30.762 c h
30.738 30.762 m f
35.02 32.652 m 37.082 32.652 l 37.082 33.152 l 34.301 33.152 l 34.301 32.652
 l 34.527 32.426 34.836 32.117 35.223 31.73 c 35.605 31.336 35.852 31.082
 35.957 30.965 c 36.145 30.746 36.273 30.566 36.348 30.418 c 36.418 30.273
 36.457 30.129 36.457 29.98 c 36.457 29.754 36.371 29.566 36.207 29.418 
c 36.051 29.273 35.84 29.199 35.582 29.199 c 35.395 29.199 35.195 29.23 
34.988 29.293 c 34.789 29.355 34.57 29.457 34.332 29.59 c 34.332 28.996 
l 34.57 28.895 34.793 28.82 35.004 28.777 c 35.211 28.727 35.398 28.699 
35.566 28.699 c 36.023 28.699 36.383 28.816 36.645 29.043 c 36.914 29.262
 37.051 29.566 37.051 29.949 c 37.051 30.129 37.012 30.301 36.941 30.465
 c 36.879 30.621 36.758 30.809 36.582 31.027 c 36.539 31.082 36.383 31.242
 36.113 31.512 c 35.852 31.785 35.488 32.164 35.02 32.652 c h
35.02 32.652 m f
39.969 32.621 m 40.938 32.621 l 40.938 29.293 l 39.875 29.496 l 39.875 
28.965 l 40.922 28.746 l 41.516 28.746 l 41.516 32.621 l 42.484 32.621 l
 42.484 33.121 l 39.969 33.121 l h
39.969 32.621 m f
0.501961 0.501961 0 rg
71.422 28.602 m 71.422 30.648 l 72.359 30.648 l 72.703 30.648 72.969 30.562
 73.156 30.383 c 73.344 30.207 73.438 29.957 73.438 29.633 c 73.438 29.301
 73.344 29.047 73.156 28.867 c 72.969 28.691 72.703 28.602 72.359 28.602
 c h
70.688 27.992 m 72.359 27.992 l 72.973 27.992 73.438 28.133 73.75 28.414
 c 74.062 28.688 74.219 29.094 74.219 29.633 c 74.219 30.164 74.062 30.57
 73.75 30.852 c 73.438 31.125 72.973 31.258 72.359 31.258 c 71.422 31.258
 l 71.422 33.461 l 70.688 33.461 l h
70.688 27.992 m f
75.012 29.352 m 75.684 29.352 l 75.684 33.461 l 75.012 33.461 l h
75.012 27.758 m 75.684 27.758 l 75.684 28.617 l 75.012 28.617 l h
75.012 27.758 m f
80.504 30.992 m 80.504 33.461 l 79.832 33.461 l 79.832 31.008 l 79.832 
30.625 79.754 30.336 79.598 30.148 c 79.449 29.953 79.227 29.852 78.926 
29.852 c 78.559 29.852 78.273 29.969 78.066 30.195 c 77.855 30.426 77.754
 30.742 77.754 31.148 c 77.754 33.461 l 77.082 33.461 l 77.082 29.352 l 
77.754 29.352 l 77.754 29.992 l 77.91 29.754 78.098 29.57 78.316 29.445 
c 78.535 29.32 78.789 29.258 79.082 29.258 c 79.551 29.258 79.902 29.406
 80.145 29.695 c 80.383 29.988 80.504 30.422 80.504 30.992 c h
80.504 30.992 m f
86 30.43 m 85.676 30.43 85.414 30.547 85.219 30.773 c 85.02 31.004 84.922
 31.316 84.922 31.711 c 84.922 32.098 85.02 32.406 85.219 32.633 c 85.414
 32.863 85.676 32.977 86 32.977 c 86.332 32.977 86.598 32.863 86.797 32.633
 c 86.992 32.406 87.094 32.098 87.094 31.711 c 87.094 31.316 86.992 31.004
 86.797 30.773 c 86.598 30.547 86.332 30.43 86 30.43 c h
87.469 28.117 m 87.469 28.789 l 87.289 28.695 87.102 28.629 86.906 28.586
 c 86.719 28.547 86.531 28.523 86.344 28.523 c 85.863 28.523 85.492 28.691
 85.234 29.023 c 84.973 29.348 84.828 29.844 84.797 30.508 c 84.93 30.289
 85.109 30.129 85.328 30.023 c 85.547 29.91 85.785 29.852 86.047 29.852 
c 86.598 29.852 87.031 30.02 87.344 30.352 c 87.664 30.688 87.828 31.141
 87.828 31.711 c 87.828 32.273 87.66 32.727 87.328 33.07 c 86.992 33.406
 86.551 33.57 86 33.57 c 85.375 33.57 84.895 33.332 84.562 32.852 c 84.227
 32.363 84.062 31.656 84.062 30.727 c 84.062 29.863 84.266 29.176 84.672
 28.664 c 85.078 28.156 85.629 27.898 86.328 27.898 c 86.504 27.898 86.688
 27.922 86.875 27.961 c 87.07 27.992 87.27 28.047 87.469 28.117 c h
87.469 28.117 m f
0 g
89.18 32.523 m 89.961 32.523 l 89.961 33.461 l 89.18 33.461 l h
89.18 29.586 m 89.961 29.586 l 89.961 30.508 l 89.18 30.508 l h
89.18 29.586 m f
94.684 28.602 m 94.684 30.648 l 95.621 30.648 l 95.965 30.648 96.23 30.562
 96.418 30.383 c 96.605 30.207 96.699 29.957 96.699 29.633 c 96.699 29.301
 96.605 29.047 96.418 28.867 c 96.23 28.691 95.965 28.602 95.621 28.602 
c h
93.949 27.992 m 95.621 27.992 l 96.234 27.992 96.699 28.133 97.012 28.414
 c 97.324 28.688 97.48 29.094 97.48 29.633 c 97.48 30.164 97.324 30.57 97.012
 30.852 c 96.699 31.125 96.234 31.258 95.621 31.258 c 94.684 31.258 l 94.684
 33.461 l 93.949 33.461 l h
93.949 27.992 m f
99.766 29.836 m 99.398 29.836 99.113 29.977 98.906 30.258 c 98.695 30.539
 98.594 30.926 98.594 31.414 c 98.594 31.906 98.695 32.289 98.906 32.57 
c 99.113 32.852 99.398 32.992 99.766 32.992 c 100.117 32.992 100.398 32.852
 100.609 32.57 c 100.828 32.289 100.938 31.906 100.938 31.414 c 100.938 
30.926 100.828 30.539 100.609 30.258 c 100.398 29.977 100.117 29.836 99.766
 29.836 c h
99.766 29.258 m 100.348 29.258 100.805 29.453 101.141 29.836 c 101.473 
30.211 101.641 30.738 101.641 31.414 c 101.641 32.082 101.473 32.609 101.141
 32.992 c 100.805 33.379 100.348 33.57 99.766 33.57 c 99.172 33.57 98.707
 33.379 98.375 32.992 c 98.039 32.609 97.875 32.082 97.875 31.414 c 97.875
 30.738 98.039 30.211 98.375 29.836 c 98.707 29.453 99.172 29.258 99.766
 29.258 c h
99.766 29.258 m f
105.465 29.977 m 105.465 27.758 l 106.137 27.758 l 106.137 33.461 l 105.465
 33.461 l 105.465 32.852 l 105.316 33.094 105.137 33.273 104.918 33.398 
c 104.707 33.512 104.453 33.57 104.152 33.57 c 103.652 33.57 103.246 33.375
 102.934 32.977 c 102.621 32.582 102.465 32.062 102.465 31.414 c 102.465
 30.77 102.621 30.25 102.934 29.852 c 103.246 29.457 103.652 29.258 104.152
 29.258 c 104.453 29.258 104.707 29.32 104.918 29.445 c 105.137 29.562 105.316
 29.738 105.465 29.977 c h
103.168 31.414 m 103.168 31.914 103.266 32.305 103.465 32.586 c 103.672
 32.867 103.953 33.008 104.309 33.008 c 104.672 33.008 104.953 32.867 105.152
 32.586 c 105.359 32.305 105.465 31.914 105.465 31.414 c 105.465 30.914 
105.359 30.523 105.152 30.242 c 104.953 29.961 104.672 29.82 104.309 29.82
 c 103.953 29.82 103.672 29.961 103.465 30.242 c 103.266 30.523 103.168 
30.914 103.168 31.414 c h
103.168 31.414 m f
107.523 27.758 0.672 5.703 re f
113.121 31.242 m 113.121 31.57 l 110.012 31.57 l 110.043 32.039 110.184
 32.395 110.434 32.633 c 110.684 32.875 111.031 32.992 111.48 32.992 c 111.738
 32.992 111.988 32.961 112.23 32.898 c 112.48 32.836 112.723 32.742 112.965
 32.617 c 112.965 33.258 l 112.715 33.352 112.465 33.426 112.215 33.477 
c 111.965 33.539 111.707 33.57 111.449 33.57 c 110.793 33.57 110.27 33.383
 109.887 33.008 c 109.5 32.625 109.309 32.102 109.309 31.445 c 109.309 30.781
 109.488 30.25 109.855 29.852 c 110.219 29.457 110.707 29.258 111.324 29.258
 c 111.875 29.258 112.312 29.438 112.637 29.789 c 112.957 30.145 113.121
 30.629 113.121 31.242 c h
112.449 31.039 m 112.438 30.676 112.332 30.383 112.137 30.164 c 111.938
 29.945 111.672 29.836 111.34 29.836 c 110.965 29.836 110.66 29.945 110.434
 30.164 c 110.203 30.375 110.074 30.672 110.043 31.055 c h
112.449 31.039 m f
119.23 29.477 m 119.23 30.117 l 119.031 30.023 118.828 29.953 118.621 29.898
 c 118.422 29.848 118.215 29.82 117.996 29.82 c 117.66 29.82 117.41 29.875
 117.246 29.977 c 117.078 30.082 116.996 30.238 116.996 30.445 c 116.996
 30.602 117.051 30.727 117.168 30.82 c 117.293 30.906 117.531 30.984 117.887
 31.055 c 118.121 31.117 l 118.598 31.223 118.938 31.367 119.137 31.555 
c 119.344 31.734 119.449 31.992 119.449 32.336 c 119.449 32.711 119.297 
33.016 118.996 33.242 c 118.691 33.461 118.277 33.57 117.746 33.57 c 117.527
 33.57 117.297 33.547 117.059 33.508 c 116.816 33.465 116.566 33.398 116.309
 33.305 c 116.309 32.617 l 116.559 32.742 116.801 32.844 117.043 32.914 
c 117.281 32.977 117.52 33.008 117.762 33.008 c 118.082 33.008 118.328 32.957
 118.496 32.852 c 118.66 32.738 118.746 32.582 118.746 32.383 c 118.746 
32.195 118.684 32.055 118.559 31.961 c 118.441 31.867 118.176 31.773 117.762
 31.68 c 117.527 31.617 l 117.109 31.535 116.809 31.406 116.621 31.227 c
 116.434 31.039 116.34 30.789 116.34 30.477 c 116.34 30.082 116.473 29.781
 116.746 29.57 c 117.016 29.363 117.406 29.258 117.918 29.258 c 118.168 
29.258 118.402 29.281 118.621 29.32 c 118.84 29.352 119.043 29.406 119.23
 29.477 c h
119.23 29.477 m f
121.184 28.195 m 121.184 29.352 l 122.574 29.352 l 122.574 29.883 l 121.184
 29.883 l 121.184 32.117 l 121.184 32.453 121.223 32.664 121.309 32.758 
c 121.402 32.852 121.59 32.898 121.871 32.898 c 122.574 32.898 l 122.574
 33.461 l 121.871 33.461 l 121.359 33.461 121.004 33.367 120.809 33.18 c
 120.609 32.984 120.512 32.629 120.512 32.117 c 120.512 29.883 l 120.012
 29.883 l 120.012 29.352 l 120.512 29.352 l 120.512 28.195 l h
121.184 28.195 m f
125.328 31.398 m 124.773 31.398 124.395 31.461 124.188 31.586 c 123.977
 31.711 123.875 31.926 123.875 32.227 c 123.875 32.469 123.953 32.66 124.109
 32.805 c 124.266 32.941 124.477 33.008 124.75 33.008 c 125.125 33.008 125.422
 32.879 125.641 32.617 c 125.867 32.348 125.984 31.992 125.984 31.555 c 
125.984 31.398 l h
126.672 31.117 m 126.672 33.461 l 125.984 33.461 l 125.984 32.836 l 125.836
 33.086 125.648 33.273 125.422 33.398 c 125.191 33.512 124.91 33.57 124.578
 33.57 c 124.148 33.57 123.812 33.457 123.562 33.227 c 123.32 32.988 123.203
 32.672 123.203 32.273 c 123.203 31.805 123.352 31.457 123.656 31.227 c 
123.969 30.988 124.43 30.867 125.047 30.867 c 125.984 30.867 l 125.984 30.805
 l 125.984 30.492 125.879 30.254 125.672 30.086 c 125.473 29.922 125.191
 29.836 124.828 29.836 c 124.586 29.836 124.359 29.867 124.141 29.93 c 123.922
 29.984 123.707 30.062 123.5 30.164 c 123.5 29.539 l 123.75 29.445 123.988
 29.379 124.219 29.336 c 124.445 29.285 124.672 29.258 124.891 29.258 c 
125.484 29.258 125.926 29.414 126.219 29.727 c 126.52 30.031 126.672 30.492
 126.672 31.117 c h
126.672 31.117 m f
127.562 29.352 m 128.281 29.352 l 129.562 32.805 l 130.844 29.352 l 131.562
 29.352 l 130.016 33.461 l 129.109 33.461 l h
127.562 29.352 m f
132.426 31.836 m 132.426 29.352 l 133.098 29.352 l 133.098 31.82 l 133.098
 32.207 133.168 32.5 133.316 32.695 c 133.473 32.883 133.699 32.977 134.004
 32.977 c 134.367 32.977 134.652 32.863 134.863 32.633 c 135.082 32.406 
135.191 32.086 135.191 31.68 c 135.191 29.352 l 135.863 29.352 l 135.863
 33.461 l 135.191 33.461 l 135.191 32.836 l 135.023 33.086 134.832 33.273
 134.613 33.398 c 134.395 33.512 134.145 33.57 133.863 33.57 c 133.395 33.57
 133.035 33.426 132.785 33.133 c 132.543 32.844 132.426 32.41 132.426 31.836
 c h
134.113 29.258 m h
134.113 29.258 m f
140.297 28.195 m 140.297 29.352 l 141.688 29.352 l 141.688 29.883 l 140.297
 29.883 l 140.297 32.117 l 140.297 32.453 140.336 32.664 140.422 32.758 
c 140.516 32.852 140.703 32.898 140.984 32.898 c 141.688 32.898 l 141.688
 33.461 l 140.984 33.461 l 140.473 33.461 140.117 33.367 139.922 33.18 c
 139.723 32.984 139.625 32.629 139.625 32.117 c 139.625 29.883 l 139.125
 29.883 l 139.125 29.352 l 139.625 29.352 l 139.625 28.195 l h
140.297 28.195 m f
142.566 27.758 0.672 5.703 re f
146.523 31.398 m 145.969 31.398 145.59 31.461 145.383 31.586 c 145.172 
31.711 145.07 31.926 145.07 32.227 c 145.07 32.469 145.148 32.66 145.305
 32.805 c 145.461 32.941 145.672 33.008 145.945 33.008 c 146.32 33.008 146.617
 32.879 146.836 32.617 c 147.062 32.348 147.18 31.992 147.18 31.555 c 147.18
 31.398 l h
147.867 31.117 m 147.867 33.461 l 147.18 33.461 l 147.18 32.836 l 147.031
 33.086 146.844 33.273 146.617 33.398 c 146.387 33.512 146.105 33.57 145.773
 33.57 c 145.344 33.57 145.008 33.457 144.758 33.227 c 144.516 32.988 144.398
 32.672 144.398 32.273 c 144.398 31.805 144.547 31.457 144.852 31.227 c 
145.164 30.988 145.625 30.867 146.242 30.867 c 147.18 30.867 l 147.18 30.805
 l 147.18 30.492 147.074 30.254 146.867 30.086 c 146.668 29.922 146.387 
29.836 146.023 29.836 c 145.781 29.836 145.555 29.867 145.336 29.93 c 145.117
 29.984 144.902 30.062 144.695 30.164 c 144.695 29.539 l 144.945 29.445 
145.184 29.379 145.414 29.336 c 145.641 29.285 145.867 29.258 146.086 29.258
 c 146.68 29.258 147.121 29.414 147.414 29.727 c 147.715 30.031 147.867 
30.492 147.867 31.117 c h
147.867 31.117 m f
152.199 29.523 m 152.199 30.148 l 152.012 30.047 151.816 29.969 151.621
 29.914 c 151.434 29.863 151.238 29.836 151.043 29.836 c 150.605 29.836 
150.266 29.977 150.027 30.258 c 149.785 30.531 149.668 30.914 149.668 31.414
 c 149.668 31.914 149.785 32.305 150.027 32.586 c 150.266 32.859 150.605
 32.992 151.043 32.992 c 151.238 32.992 151.434 32.969 151.621 32.914 c 
151.816 32.863 152.012 32.785 152.199 32.68 c 152.199 33.305 l 152.012 33.391
 151.812 33.453 151.605 33.492 c 151.406 33.543 151.199 33.57 150.98 33.57
 c 150.355 33.57 149.859 33.379 149.496 32.992 c 149.129 32.598 148.949 
32.07 148.949 31.414 c 148.949 30.75 149.129 30.223 149.496 29.836 c 149.871
 29.453 150.375 29.258 151.012 29.258 c 151.219 29.258 151.422 29.281 151.621
 29.32 c 151.816 29.363 152.012 29.43 152.199 29.523 c h
150.652 28.836 m 149.746 27.461 l 150.262 27.461 l 150.918 28.367 l 151.574
 27.461 l 152.09 27.461 l 151.184 28.836 l h
150.652 28.836 m f
154.227 27.461 m 154.945 27.461 l 153.758 28.836 l 153.195 28.836 l h
153.367 29.352 m 154.039 29.352 l 154.039 33.461 l 153.367 33.461 l h
153.711 29.258 m h
153.711 29.258 m f
156.125 28.195 m 156.125 29.352 l 157.516 29.352 l 157.516 29.883 l 156.125
 29.883 l 156.125 32.117 l 156.125 32.453 156.164 32.664 156.25 32.758 c
 156.344 32.852 156.531 32.898 156.812 32.898 c 157.516 32.898 l 157.516
 33.461 l 156.812 33.461 l 156.301 33.461 155.945 33.367 155.75 33.18 c 
155.551 32.984 155.453 32.629 155.453 32.117 c 155.453 29.883 l 154.953 
29.883 l 154.953 29.352 l 155.453 29.352 l 155.453 28.195 l h
156.125 28.195 m f
158.375 27.758 m 159.047 27.758 l 159.047 31.133 l 161.062 29.352 l 161.922
 29.352 l 159.734 31.273 l 162.016 33.461 l 161.125 33.461 l 159.047 31.461
 l 159.047 33.461 l 158.375 33.461 l h
158.375 27.758 m f
164.48 31.398 m 163.926 31.398 163.547 31.461 163.34 31.586 c 163.129 31.711
 163.027 31.926 163.027 32.227 c 163.027 32.469 163.105 32.66 163.262 32.805
 c 163.418 32.941 163.629 33.008 163.902 33.008 c 164.277 33.008 164.574
 32.879 164.793 32.617 c 165.02 32.348 165.137 31.992 165.137 31.555 c 165.137
 31.398 l h
165.824 31.117 m 165.824 33.461 l 165.137 33.461 l 165.137 32.836 l 164.988
 33.086 164.801 33.273 164.574 33.398 c 164.344 33.512 164.062 33.57 163.73
 33.57 c 163.301 33.57 162.965 33.457 162.715 33.227 c 162.473 32.988 162.355
 32.672 162.355 32.273 c 162.355 31.805 162.504 31.457 162.809 31.227 c 
163.121 30.988 163.582 30.867 164.199 30.867 c 165.137 30.867 l 165.137 
30.805 l 165.137 30.492 165.031 30.254 164.824 30.086 c 164.625 29.922 164.344
 29.836 163.98 29.836 c 163.738 29.836 163.512 29.867 163.293 29.93 c 163.074
 29.984 162.859 30.062 162.652 30.164 c 162.652 29.539 l 162.902 29.445 
163.141 29.379 163.371 29.336 c 163.598 29.285 163.824 29.258 164.043 29.258
 c 164.637 29.258 165.078 29.414 165.371 29.727 c 165.672 30.031 165.824
 30.492 165.824 31.117 c h
165.824 31.117 m f
167.371 32.523 m 168.152 32.523 l 168.152 33.461 l 167.371 33.461 l h
167.371 29.586 m 168.152 29.586 l 168.152 30.508 l 167.371 30.508 l h
167.371 29.586 m f
75.078 40.477 1.984 0.609 re f
83.141 38.852 m 83.141 39.492 l 82.941 39.398 82.738 39.328 82.531 39.273
 c 82.332 39.223 82.125 39.195 81.906 39.195 c 81.57 39.195 81.32 39.25 
81.156 39.352 c 80.988 39.457 80.906 39.613 80.906 39.82 c 80.906 39.977
 80.961 40.102 81.078 40.195 c 81.203 40.281 81.441 40.359 81.797 40.43 
c 82.031 40.492 l 82.508 40.598 82.848 40.742 83.047 40.93 c 83.254 41.109
 83.359 41.367 83.359 41.711 c 83.359 42.086 83.207 42.391 82.906 42.617
 c 82.602 42.836 82.188 42.945 81.656 42.945 c 81.438 42.945 81.207 42.922
 80.969 42.883 c 80.727 42.84 80.477 42.773 80.219 42.68 c 80.219 41.992
 l 80.469 42.117 80.711 42.219 80.953 42.289 c 81.191 42.352 81.43 42.383
 81.672 42.383 c 81.992 42.383 82.238 42.332 82.406 42.227 c 82.57 42.113
 82.656 41.957 82.656 41.758 c 82.656 41.57 82.594 41.43 82.469 41.336 c
 82.352 41.242 82.086 41.148 81.672 41.055 c 81.438 40.992 l 81.02 40.91
 80.719 40.781 80.531 40.602 c 80.344 40.414 80.25 40.164 80.25 39.852 c
 80.25 39.457 80.383 39.156 80.656 38.945 c 80.926 38.738 81.316 38.633 
81.828 38.633 c 82.078 38.633 82.312 38.656 82.531 38.695 c 82.75 38.727
 82.953 38.781 83.141 38.852 c h
83.141 38.852 m f
85.094 37.57 m 85.094 38.727 l 86.484 38.727 l 86.484 39.258 l 85.094 39.258
 l 85.094 41.492 l 85.094 41.828 85.133 42.039 85.219 42.133 c 85.312 42.227
 85.5 42.273 85.781 42.273 c 86.484 42.273 l 86.484 42.836 l 85.781 42.836
 l 85.27 42.836 84.914 42.742 84.719 42.555 c 84.52 42.359 84.422 42.004
 84.422 41.492 c 84.422 39.258 l 83.922 39.258 l 83.922 38.727 l 84.422 
38.727 l 84.422 37.57 l h
85.094 37.57 m f
87.363 38.727 m 88.035 38.727 l 88.035 42.836 l 87.363 42.836 l h
87.363 37.133 m 88.035 37.133 l 88.035 37.992 l 87.363 37.992 l h
87.363 37.133 m f
92.07 38.852 m 92.07 39.492 l 91.871 39.398 91.668 39.328 91.461 39.273
 c 91.262 39.223 91.055 39.195 90.836 39.195 c 90.5 39.195 90.25 39.25 90.086
 39.352 c 89.918 39.457 89.836 39.613 89.836 39.82 c 89.836 39.977 89.891
 40.102 90.008 40.195 c 90.133 40.281 90.371 40.359 90.727 40.43 c 90.961
 40.492 l 91.438 40.598 91.777 40.742 91.977 40.93 c 92.184 41.109 92.289
 41.367 92.289 41.711 c 92.289 42.086 92.137 42.391 91.836 42.617 c 91.531
 42.836 91.117 42.945 90.586 42.945 c 90.367 42.945 90.137 42.922 89.898
 42.883 c 89.656 42.84 89.406 42.773 89.148 42.68 c 89.148 41.992 l 89.398
 42.117 89.641 42.219 89.883 42.289 c 90.121 42.352 90.359 42.383 90.602
 42.383 c 90.922 42.383 91.168 42.332 91.336 42.227 c 91.5 42.113 91.586
 41.957 91.586 41.758 c 91.586 41.57 91.523 41.43 91.398 41.336 c 91.281
 41.242 91.016 41.148 90.602 41.055 c 90.367 40.992 l 89.949 40.91 89.648
 40.781 89.461 40.602 c 89.273 40.414 89.18 40.164 89.18 39.852 c 89.18 
39.457 89.312 39.156 89.586 38.945 c 89.855 38.738 90.246 38.633 90.758 
38.633 c 91.008 38.633 91.242 38.656 91.461 38.695 c 91.68 38.727 91.883
 38.781 92.07 38.852 c h
92.07 38.852 m f
93.336 37.133 m 94.008 37.133 l 94.008 40.508 l 96.023 38.727 l 96.883 
38.727 l 94.695 40.648 l 96.977 42.836 l 96.086 42.836 l 94.008 40.836 l
 94.008 42.836 l 93.336 42.836 l h
93.336 37.133 m f
101.102 40.367 m 101.102 42.836 l 100.43 42.836 l 100.43 40.383 l 100.43
 40 100.352 39.711 100.195 39.523 c 100.047 39.328 99.824 39.227 99.523 
39.227 c 99.156 39.227 98.871 39.344 98.664 39.57 c 98.453 39.801 98.352
 40.117 98.352 40.523 c 98.352 42.836 l 97.68 42.836 l 97.68 38.727 l 98.352
 38.727 l 98.352 39.367 l 98.508 39.129 98.695 38.945 98.914 38.82 c 99.133
 38.695 99.387 38.633 99.68 38.633 c 100.148 38.633 100.5 38.781 100.742
 39.07 c 100.98 39.363 101.102 39.797 101.102 40.367 c h
101.102 40.367 m f
102.387 41.211 m 102.387 38.727 l 103.059 38.727 l 103.059 41.195 l 103.059
 41.582 103.129 41.875 103.277 42.07 c 103.434 42.258 103.66 42.352 103.965
 42.352 c 104.328 42.352 104.613 42.238 104.824 42.008 c 105.043 41.781 
105.152 41.461 105.152 41.055 c 105.152 38.727 l 105.824 38.727 l 105.824
 42.836 l 105.152 42.836 l 105.152 42.211 l 104.984 42.461 104.793 42.648
 104.574 42.773 c 104.355 42.887 104.105 42.945 103.824 42.945 c 103.355
 42.945 102.996 42.801 102.746 42.508 c 102.504 42.219 102.387 41.785 102.387
 41.211 c h
104.074 38.633 m h
104.074 38.633 m f
107.875 37.57 m 107.875 38.727 l 109.266 38.727 l 109.266 39.258 l 107.875
 39.258 l 107.875 41.492 l 107.875 41.828 107.914 42.039 108 42.133 c 108.094
 42.227 108.281 42.273 108.562 42.273 c 109.266 42.273 l 109.266 42.836 
l 108.562 42.836 l 108.051 42.836 107.695 42.742 107.5 42.555 c 107.301 
42.359 107.203 42.004 107.203 41.492 c 107.203 39.258 l 106.703 39.258 l
 106.703 38.727 l 107.203 38.727 l 107.203 37.57 l h
107.875 37.57 m f
111.738 39.211 m 111.371 39.211 111.086 39.352 110.879 39.633 c 110.668
 39.914 110.566 40.301 110.566 40.789 c 110.566 41.281 110.668 41.664 110.879
 41.945 c 111.086 42.227 111.371 42.367 111.738 42.367 c 112.09 42.367 112.371
 42.227 112.582 41.945 c 112.801 41.664 112.91 41.281 112.91 40.789 c 112.91
 40.301 112.801 39.914 112.582 39.633 c 112.371 39.352 112.09 39.211 111.738
 39.211 c h
111.738 38.633 m 112.32 38.633 112.777 38.828 113.113 39.211 c 113.445 
39.586 113.613 40.113 113.613 40.789 c 113.613 41.457 113.445 41.984 113.113
 42.367 c 112.777 42.754 112.32 42.945 111.738 42.945 c 111.145 42.945 110.68
 42.754 110.348 42.367 c 110.012 41.984 109.848 41.457 109.848 40.789 c 
109.848 40.113 110.012 39.586 110.348 39.211 c 110.68 38.828 111.145 38.633
 111.738 38.633 c h
111.738 38.633 m f
114.906 41.898 m 115.688 41.898 l 115.688 42.836 l 114.906 42.836 l h
114.906 38.961 m 115.688 38.961 l 115.688 39.883 l 114.906 39.883 l h
114.906 38.961 m f
119.754 37.367 m 122.66 37.367 l 122.66 37.992 l 120.426 37.992 l 120.426
 39.336 l 120.527 39.297 120.633 39.27 120.738 39.258 c 120.852 39.238 120.961
 39.227 121.066 39.227 c 121.68 39.227 122.164 39.395 122.52 39.727 c 122.871
 40.062 123.051 40.516 123.051 41.086 c 123.051 41.672 122.867 42.129 122.504
 42.461 c 122.137 42.785 121.621 42.945 120.957 42.945 c 120.727 42.945 
120.492 42.922 120.254 42.883 c 120.012 42.84 119.77 42.785 119.52 42.711
 c 119.52 41.961 l 119.738 42.086 119.961 42.18 120.191 42.242 c 120.43 
42.297 120.68 42.32 120.941 42.32 c 121.367 42.32 121.699 42.211 121.941
 41.992 c 122.191 41.766 122.316 41.461 122.316 41.086 c 122.316 40.703 
122.191 40.398 121.941 40.18 c 121.699 39.961 121.367 39.852 120.941 39.852
 c 120.742 39.852 120.543 39.875 120.348 39.914 c 120.148 39.957 119.949
 40.023 119.754 40.117 c h
119.754 37.367 m f
128.238 42.836 m 126.16 37.367 l 126.926 37.367 l 128.66 41.977 l 130.395
 37.367 l 131.16 37.367 l 129.082 42.836 l h
128.238 42.836 m f
134.969 42.227 m 134.969 44.398 l 134.297 44.398 l 134.297 38.727 l 134.969
 38.727 l 134.969 39.352 l 135.113 39.113 135.289 38.938 135.5 38.82 c 135.719
 38.695 135.977 38.633 136.281 38.633 c 136.781 38.633 137.18 38.832 137.484
 39.227 c 137.797 39.625 137.953 40.145 137.953 40.789 c 137.953 41.438 
137.797 41.957 137.484 42.352 c 137.18 42.75 136.781 42.945 136.281 42.945
 c 135.977 42.945 135.719 42.887 135.5 42.773 c 135.289 42.648 135.113 42.469
 134.969 42.227 c h
137.266 40.789 m 137.266 40.289 137.16 39.898 136.953 39.617 c 136.754 
39.336 136.473 39.195 136.109 39.195 c 135.754 39.195 135.473 39.336 135.266
 39.617 c 135.066 39.898 134.969 40.289 134.969 40.789 c 134.969 41.289 
135.066 41.68 135.266 41.961 c 135.473 42.242 135.754 42.383 136.109 42.383
 c 136.473 42.383 136.754 42.242 136.953 41.961 c 137.16 41.68 137.266 41.289
 137.266 40.789 c h
137.266 40.789 m f
141.449 39.367 m 141.375 39.328 141.293 39.297 141.199 39.273 c 141.113
 39.254 141.02 39.242 140.918 39.242 c 140.531 39.242 140.234 39.367 140.027
 39.617 c 139.828 39.859 139.73 40.211 139.73 40.68 c 139.73 42.836 l 139.059
 42.836 l 139.059 38.727 l 139.73 38.727 l 139.73 39.367 l 139.875 39.117
 140.059 38.938 140.277 38.82 c 140.504 38.695 140.781 38.633 141.105 38.633
 c 141.156 38.633 141.207 38.641 141.262 38.648 c 141.324 38.648 141.387
 38.66 141.449 38.68 c h
140.074 38.211 m 139.168 36.836 l 139.684 36.836 l 140.34 37.742 l 140.996
 36.836 l 141.512 36.836 l 140.605 38.211 l h
140.074 38.211 m f
145.508 40.617 m 145.508 40.945 l 142.398 40.945 l 142.43 41.414 142.57
 41.77 142.82 42.008 c 143.07 42.25 143.418 42.367 143.867 42.367 c 144.125
 42.367 144.375 42.336 144.617 42.273 c 144.867 42.211 145.109 42.117 145.352
 41.992 c 145.352 42.633 l 145.102 42.727 144.852 42.801 144.602 42.852 
c 144.352 42.914 144.094 42.945 143.836 42.945 c 143.18 42.945 142.656 42.758
 142.273 42.383 c 141.887 42 141.695 41.477 141.695 40.82 c 141.695 40.156
 141.875 39.625 142.242 39.227 c 142.605 38.832 143.094 38.633 143.711 38.633
 c 144.262 38.633 144.699 38.812 145.023 39.164 c 145.344 39.52 145.508 
40.004 145.508 40.617 c h
144.836 40.414 m 144.824 40.051 144.719 39.758 144.523 39.539 c 144.324
 39.32 144.059 39.211 143.727 39.211 c 143.352 39.211 143.047 39.32 142.82
 39.539 c 142.59 39.75 142.461 40.047 142.43 40.43 c h
144.836 40.414 m f
149.234 38.852 m 149.234 39.492 l 149.035 39.398 148.832 39.328 148.625
 39.273 c 148.426 39.223 148.219 39.195 148 39.195 c 147.664 39.195 147.414
 39.25 147.25 39.352 c 147.082 39.457 147 39.613 147 39.82 c 147 39.977 
147.055 40.102 147.172 40.195 c 147.297 40.281 147.535 40.359 147.891 40.43
 c 148.125 40.492 l 148.602 40.598 148.941 40.742 149.141 40.93 c 149.348
 41.109 149.453 41.367 149.453 41.711 c 149.453 42.086 149.301 42.391 149
 42.617 c 148.695 42.836 148.281 42.945 147.75 42.945 c 147.531 42.945 147.301
 42.922 147.062 42.883 c 146.82 42.84 146.57 42.773 146.312 42.68 c 146.312
 41.992 l 146.562 42.117 146.805 42.219 147.047 42.289 c 147.285 42.352 
147.523 42.383 147.766 42.383 c 148.086 42.383 148.332 42.332 148.5 42.227
 c 148.664 42.113 148.75 41.957 148.75 41.758 c 148.75 41.57 148.688 41.43
 148.562 41.336 c 148.445 41.242 148.18 41.148 147.766 41.055 c 147.531 
40.992 l 147.113 40.91 146.812 40.781 146.625 40.602 c 146.438 40.414 146.344
 40.164 146.344 39.852 c 146.344 39.457 146.477 39.156 146.75 38.945 c 147.02
 38.738 147.41 38.633 147.922 38.633 c 148.172 38.633 148.406 38.656 148.625
 38.695 c 148.844 38.727 149.047 38.781 149.234 38.852 c h
149.234 38.852 m f
153.633 42.211 m 156.211 42.211 l 156.211 42.836 l 152.742 42.836 l 152.742
 42.211 l 153.023 41.922 153.402 41.531 153.883 41.039 c 154.371 40.551 
154.68 40.238 154.805 40.102 c 155.043 39.832 155.211 39.609 155.305 39.43
 c 155.398 39.242 155.445 39.062 155.445 38.883 c 155.445 38.594 155.34 
38.359 155.133 38.18 c 154.934 37.992 154.668 37.898 154.336 37.898 c 154.105
 37.898 153.859 37.941 153.602 38.023 c 153.352 38.098 153.078 38.219 152.789
 38.383 c 152.789 37.633 l 153.078 37.508 153.355 37.422 153.617 37.367 
c 153.875 37.305 154.109 37.273 154.32 37.273 c 154.891 37.273 155.344 37.414
 155.68 37.695 c 156.012 37.977 156.18 38.359 156.18 38.836 c 156.18 39.055
 156.137 39.27 156.055 39.477 c 155.969 39.676 155.82 39.91 155.602 40.18
 c 155.539 40.254 155.34 40.461 155.008 40.805 c 154.684 41.141 154.227 
41.609 153.633 42.211 c h
153.633 42.211 m f
157.844 41.898 m 158.625 41.898 l 158.625 42.539 l 158.016 43.711 l 157.547
 43.711 l 157.844 42.539 l h
157.844 41.898 m f
160.789 42.211 m 163.367 42.211 l 163.367 42.836 l 159.898 42.836 l 159.898
 42.211 l 160.18 41.922 160.559 41.531 161.039 41.039 c 161.527 40.551 161.836
 40.238 161.961 40.102 c 162.199 39.832 162.367 39.609 162.461 39.43 c 162.555
 39.242 162.602 39.062 162.602 38.883 c 162.602 38.594 162.496 38.359 162.289
 38.18 c 162.09 37.992 161.824 37.898 161.492 37.898 c 161.262 37.898 161.016
 37.941 160.758 38.023 c 160.508 38.098 160.234 38.219 159.945 38.383 c 
159.945 37.633 l 160.234 37.508 160.512 37.422 160.773 37.367 c 161.031 
37.305 161.266 37.273 161.477 37.273 c 162.047 37.273 162.5 37.414 162.836
 37.695 c 163.168 37.977 163.336 38.359 163.336 38.836 c 163.336 39.055 
163.293 39.27 163.211 39.477 c 163.125 39.676 162.977 39.91 162.758 40.18
 c 162.695 40.254 162.496 40.461 162.164 40.805 c 161.84 41.141 161.383 
41.609 160.789 42.211 c h
160.789 42.211 m f
167.195 37.133 m 167.867 37.133 l 167.867 40.508 l 169.883 38.727 l 170.742
 38.727 l 168.555 40.648 l 170.836 42.836 l 169.945 42.836 l 167.867 40.836
 l 167.867 42.836 l 167.195 42.836 l h
167.195 37.133 m f
176.305 42.18 m 176.305 42.836 l 174.102 42.836 l 174.102 42.18 l 174.527
 41.953 174.867 41.633 175.117 41.227 c 175.355 40.82 175.477 40.367 175.477
 39.867 c 175.477 39.285 175.312 38.816 174.992 38.461 c 174.668 38.109 
174.242 37.93 173.711 37.93 c 173.188 37.93 172.766 38.109 172.445 38.461
 c 172.121 38.816 171.961 39.285 171.961 39.867 c 171.961 40.367 172.078
 40.82 172.32 41.227 c 172.559 41.633 172.898 41.953 173.336 42.18 c 173.336
 42.836 l 171.133 42.836 l 171.133 42.18 l 172.305 42.18 l 171.918 41.848
 171.637 41.5 171.461 41.133 c 171.281 40.77 171.195 40.363 171.195 39.914
 c 171.195 39.133 171.43 38.504 171.898 38.023 c 172.367 37.547 172.969 
37.305 173.711 37.305 c 174.449 37.305 175.059 37.547 175.539 38.023 c 176.008
 38.504 176.242 39.117 176.242 39.867 c 176.242 40.348 176.152 40.77 175.977
 41.133 c 175.797 41.488 175.516 41.836 175.133 42.18 c h
176.305 42.18 m f
75.078 49.852 1.984 0.609 re f
82.109 48.586 m 81.742 48.586 81.457 48.727 81.25 49.008 c 81.039 49.289
 80.938 49.676 80.938 50.164 c 80.938 50.656 81.039 51.039 81.25 51.32 c
 81.457 51.602 81.742 51.742 82.109 51.742 c 82.461 51.742 82.742 51.602
 82.953 51.32 c 83.172 51.039 83.281 50.656 83.281 50.164 c 83.281 49.676
 83.172 49.289 82.953 49.008 c 82.742 48.727 82.461 48.586 82.109 48.586
 c h
82.109 48.008 m 82.691 48.008 83.148 48.203 83.484 48.586 c 83.816 48.961
 83.984 49.488 83.984 50.164 c 83.984 50.832 83.816 51.359 83.484 51.742
 c 83.148 52.129 82.691 52.32 82.109 52.32 c 81.516 52.32 81.051 52.129 
80.719 51.742 c 80.383 51.359 80.219 50.832 80.219 50.164 c 80.219 49.488
 80.383 48.961 80.719 48.586 c 81.051 48.203 81.516 48.008 82.109 48.008
 c h
82.109 48.008 m f
87.805 48.727 m 87.805 46.508 l 88.477 46.508 l 88.477 52.211 l 87.805 
52.211 l 87.805 51.602 l 87.656 51.844 87.477 52.023 87.258 52.148 c 87.047
 52.262 86.793 52.32 86.492 52.32 c 85.992 52.32 85.586 52.125 85.273 51.727
 c 84.961 51.332 84.805 50.812 84.805 50.164 c 84.805 49.52 84.961 49 85.273
 48.602 c 85.586 48.207 85.992 48.008 86.492 48.008 c 86.793 48.008 87.047
 48.07 87.258 48.195 c 87.477 48.312 87.656 48.488 87.805 48.727 c h
85.508 50.164 m 85.508 50.664 85.605 51.055 85.805 51.336 c 86.012 51.617
 86.293 51.758 86.648 51.758 c 87.012 51.758 87.293 51.617 87.492 51.336
 c 87.699 51.055 87.805 50.664 87.805 50.164 c 87.805 49.664 87.699 49.273
 87.492 48.992 c 87.293 48.711 87.012 48.57 86.648 48.57 c 86.293 48.57 
86.012 48.711 85.805 48.992 c 85.605 49.273 85.508 49.664 85.508 50.164 
c h
85.508 50.164 m f
93.379 49.992 m 93.379 50.32 l 90.27 50.32 l 90.301 50.789 90.441 51.145
 90.691 51.383 c 90.941 51.625 91.289 51.742 91.738 51.742 c 91.996 51.742
 92.246 51.711 92.488 51.648 c 92.738 51.586 92.98 51.492 93.223 51.367 
c 93.223 52.008 l 92.973 52.102 92.723 52.176 92.473 52.227 c 92.223 52.289
 91.965 52.32 91.707 52.32 c 91.051 52.32 90.527 52.133 90.145 51.758 c 
89.758 51.375 89.566 50.852 89.566 50.195 c 89.566 49.531 89.746 49 90.113
 48.602 c 90.477 48.207 90.965 48.008 91.582 48.008 c 92.133 48.008 92.57
 48.188 92.895 48.539 c 93.215 48.895 93.379 49.379 93.379 49.992 c h
92.707 49.789 m 92.695 49.426 92.59 49.133 92.395 48.914 c 92.195 48.695
 91.93 48.586 91.598 48.586 c 91.223 48.586 90.918 48.695 90.691 48.914 
c 90.461 49.125 90.332 49.422 90.301 49.805 c h
92.707 49.789 m f
95.133 51.602 m 95.133 53.773 l 94.461 53.773 l 94.461 48.102 l 95.133 
48.102 l 95.133 48.727 l 95.277 48.488 95.453 48.312 95.664 48.195 c 95.883
 48.07 96.141 48.008 96.445 48.008 c 96.945 48.008 97.344 48.207 97.648 
48.602 c 97.961 49 98.117 49.52 98.117 50.164 c 98.117 50.812 97.961 51.332
 97.648 51.727 c 97.344 52.125 96.945 52.32 96.445 52.32 c 96.141 52.32 
95.883 52.262 95.664 52.148 c 95.453 52.023 95.277 51.844 95.133 51.602 
c h
97.43 50.164 m 97.43 49.664 97.324 49.273 97.117 48.992 c 96.918 48.711
 96.637 48.57 96.273 48.57 c 95.918 48.57 95.637 48.711 95.43 48.992 c 95.23
 49.273 95.133 49.664 95.133 50.164 c 95.133 50.664 95.23 51.055 95.43 51.336
 c 95.637 51.617 95.918 51.758 96.273 51.758 c 96.637 51.758 96.918 51.617
 97.117 51.336 c 97.324 51.055 97.43 50.664 97.43 50.164 c h
97.43 50.164 m f
102.645 49.742 m 102.645 52.211 l 101.973 52.211 l 101.973 49.758 l 101.973
 49.375 101.895 49.086 101.738 48.898 c 101.59 48.703 101.367 48.602 101.066
 48.602 c 100.699 48.602 100.414 48.719 100.207 48.945 c 99.996 49.176 99.895
 49.492 99.895 49.898 c 99.895 52.211 l 99.223 52.211 l 99.223 48.102 l 
99.895 48.102 l 99.895 48.742 l 100.051 48.504 100.238 48.32 100.457 48.195
 c 100.676 48.07 100.93 48.008 101.223 48.008 c 101.691 48.008 102.043 48.156
 102.285 48.445 c 102.523 48.738 102.645 49.172 102.645 49.742 c h
102.645 49.742 m f
103.93 50.586 m 103.93 48.102 l 104.602 48.102 l 104.602 50.57 l 104.602
 50.957 104.672 51.25 104.82 51.445 c 104.977 51.633 105.203 51.727 105.508
 51.727 c 105.871 51.727 106.156 51.613 106.367 51.383 c 106.586 51.156 
106.695 50.836 106.695 50.43 c 106.695 48.102 l 107.367 48.102 l 107.367
 52.211 l 106.695 52.211 l 106.695 51.586 l 106.527 51.836 106.336 52.023
 106.117 52.148 c 105.898 52.262 105.648 52.32 105.367 52.32 c 104.898 52.32
 104.539 52.176 104.289 51.883 c 104.047 51.594 103.93 51.16 103.93 50.586
 c h
105.617 48.008 m h
105.617 48.008 m f
109.418 46.945 m 109.418 48.102 l 110.809 48.102 l 110.809 48.633 l 109.418
 48.633 l 109.418 50.867 l 109.418 51.203 109.457 51.414 109.543 51.508 
c 109.637 51.602 109.824 51.648 110.105 51.648 c 110.809 51.648 l 110.809
 52.211 l 110.105 52.211 l 109.594 52.211 109.238 52.117 109.043 51.93 c
 108.844 51.734 108.746 51.379 108.746 50.867 c 108.746 48.633 l 108.246
 48.633 l 108.246 48.102 l 108.746 48.102 l 108.746 46.945 l h
109.418 46.945 m f
113.281 48.586 m 112.914 48.586 112.629 48.727 112.422 49.008 c 112.211
 49.289 112.109 49.676 112.109 50.164 c 112.109 50.656 112.211 51.039 112.422
 51.32 c 112.629 51.602 112.914 51.742 113.281 51.742 c 113.633 51.742 113.914
 51.602 114.125 51.32 c 114.344 51.039 114.453 50.656 114.453 50.164 c 114.453
 49.676 114.344 49.289 114.125 49.008 c 113.914 48.727 113.633 48.586 113.281
 48.586 c h
113.281 48.008 m 113.863 48.008 114.32 48.203 114.656 48.586 c 114.988 
48.961 115.156 49.488 115.156 50.164 c 115.156 50.832 114.988 51.359 114.656
 51.742 c 114.32 52.129 113.863 52.32 113.281 52.32 c 112.688 52.32 112.223
 52.129 111.891 51.742 c 111.555 51.359 111.391 50.832 111.391 50.164 c 
111.391 49.488 111.555 48.961 111.891 48.586 c 112.223 48.203 112.688 48.008
 113.281 48.008 c h
113.281 48.008 m f
116.445 51.273 m 117.227 51.273 l 117.227 52.211 l 116.445 52.211 l h
116.445 48.336 m 117.227 48.336 l 117.227 49.258 l 116.445 49.258 l h
116.445 48.336 m f
120.699 48.102 m 121.418 48.102 l 122.699 51.555 l 123.98 48.102 l 124.699
 48.102 l 123.152 52.211 l 122.246 52.211 l h
120.699 48.102 m f
127.328 52.586 m 127.141 53.074 126.953 53.391 126.766 53.539 c 126.586
 53.695 126.348 53.773 126.047 53.773 c 125.516 53.773 l 125.516 53.211 
l 125.906 53.211 l 126.094 53.211 126.238 53.164 126.344 53.07 c 126.445
 52.984 126.562 52.777 126.688 52.445 c 126.797 52.148 l 125.141 48.102 
l 125.859 48.102 l 127.141 51.32 l 128.422 48.102 l 129.141 48.102 l h
127.328 52.586 m f
132.688 48.227 m 132.688 48.867 l 132.488 48.773 132.285 48.703 132.078
 48.648 c 131.879 48.598 131.672 48.57 131.453 48.57 c 131.117 48.57 130.867
 48.625 130.703 48.727 c 130.535 48.832 130.453 48.988 130.453 49.195 c 
130.453 49.352 130.508 49.477 130.625 49.57 c 130.75 49.656 130.988 49.734
 131.344 49.805 c 131.578 49.867 l 132.055 49.973 132.395 50.117 132.594
 50.305 c 132.801 50.484 132.906 50.742 132.906 51.086 c 132.906 51.461 
132.754 51.766 132.453 51.992 c 132.148 52.211 131.734 52.32 131.203 52.32
 c 130.984 52.32 130.754 52.297 130.516 52.258 c 130.273 52.215 130.023 
52.148 129.766 52.055 c 129.766 51.367 l 130.016 51.492 130.258 51.594 130.5
 51.664 c 130.738 51.727 130.977 51.758 131.219 51.758 c 131.539 51.758 
131.785 51.707 131.953 51.602 c 132.117 51.488 132.203 51.332 132.203 51.133
 c 132.203 50.945 132.141 50.805 132.016 50.711 c 131.898 50.617 131.633
 50.523 131.219 50.43 c 130.984 50.367 l 130.566 50.285 130.266 50.156 130.078
 49.977 c 129.891 49.789 129.797 49.539 129.797 49.227 c 129.797 48.832 
129.93 48.531 130.203 48.32 c 130.473 48.113 130.863 48.008 131.375 48.008
 c 131.625 48.008 131.859 48.031 132.078 48.07 c 132.297 48.102 132.5 48.156
 132.688 48.227 c h
132.688 48.227 m f
135.562 48.586 m 135.195 48.586 134.91 48.727 134.703 49.008 c 134.492 
49.289 134.391 49.676 134.391 50.164 c 134.391 50.656 134.492 51.039 134.703
 51.32 c 134.91 51.602 135.195 51.742 135.562 51.742 c 135.914 51.742 136.195
 51.602 136.406 51.32 c 136.625 51.039 136.734 50.656 136.734 50.164 c 136.734
 49.676 136.625 49.289 136.406 49.008 c 136.195 48.727 135.914 48.586 135.562
 48.586 c h
135.562 48.008 m 136.145 48.008 136.602 48.203 136.938 48.586 c 137.27 
48.961 137.438 49.488 137.438 50.164 c 137.438 50.832 137.27 51.359 136.938
 51.742 c 136.602 52.129 136.145 52.32 135.562 52.32 c 134.969 52.32 134.504
 52.129 134.172 51.742 c 133.836 51.359 133.672 50.832 133.672 50.164 c 
133.672 49.488 133.836 48.961 134.172 48.586 c 134.504 48.203 134.969 48.008
 135.562 48.008 c h
135.562 48.008 m f
138.543 46.508 m 139.215 46.508 l 139.215 49.883 l 141.23 48.102 l 142.09
 48.102 l 139.902 50.023 l 142.184 52.211 l 141.293 52.211 l 139.215 50.211
 l 139.215 52.211 l 138.543 52.211 l h
138.543 46.508 m f
144.645 50.148 m 144.09 50.148 143.711 50.211 143.504 50.336 c 143.293 
50.461 143.191 50.676 143.191 50.977 c 143.191 51.219 143.27 51.41 143.426
 51.555 c 143.582 51.691 143.793 51.758 144.066 51.758 c 144.441 51.758 
144.738 51.629 144.957 51.367 c 145.184 51.098 145.301 50.742 145.301 50.305
 c 145.301 50.148 l h
145.988 49.867 m 145.988 52.211 l 145.301 52.211 l 145.301 51.586 l 145.152
 51.836 144.965 52.023 144.738 52.148 c 144.508 52.262 144.227 52.32 143.895
 52.32 c 143.465 52.32 143.129 52.207 142.879 51.977 c 142.637 51.738 142.52
 51.422 142.52 51.023 c 142.52 50.555 142.668 50.207 142.973 49.977 c 143.285
 49.738 143.746 49.617 144.363 49.617 c 145.301 49.617 l 145.301 49.555 
l 145.301 49.242 145.195 49.004 144.988 48.836 c 144.789 48.672 144.508 
48.586 144.145 48.586 c 143.902 48.586 143.676 48.617 143.457 48.68 c 143.238
 48.734 143.023 48.812 142.816 48.914 c 142.816 48.289 l 143.066 48.195 
143.305 48.129 143.535 48.086 c 143.762 48.035 143.988 48.008 144.207 48.008
 c 144.801 48.008 145.242 48.164 145.535 48.477 c 145.836 48.781 145.988
 49.242 145.988 49.867 c h
144.754 46.211 m 145.473 46.211 l 144.285 47.586 l 143.723 47.586 l h
144.754 46.211 m f
149.75 48.102 m 150.422 48.102 l 150.422 52.211 l 149.75 52.211 l h
149.75 46.508 m 150.422 46.508 l 150.422 47.367 l 149.75 47.367 l h
149.75 46.508 m f
155.035 48.898 m 155.199 48.598 155.398 48.375 155.629 48.227 c 155.867
 48.082 156.145 48.008 156.457 48.008 c 156.883 48.008 157.211 48.16 157.441
 48.461 c 157.68 48.766 157.801 49.191 157.801 49.742 c 157.801 52.211 l
 157.113 52.211 l 157.113 49.758 l 157.113 49.363 157.043 49.07 156.91 48.883
 c 156.773 48.695 156.559 48.602 156.27 48.602 c 155.926 48.602 155.648 
48.719 155.441 48.945 c 155.242 49.176 155.145 49.492 155.145 49.898 c 155.145
 52.211 l 154.473 52.211 l 154.473 49.758 l 154.473 49.363 154.398 49.07
 154.254 48.883 c 154.117 48.695 153.902 48.602 153.613 48.602 c 153.27 
48.602 152.992 48.719 152.785 48.945 c 152.586 49.176 152.488 49.492 152.488
 49.898 c 152.488 52.211 l 151.816 52.211 l 151.816 48.102 l 152.488 48.102
 l 152.488 48.742 l 152.645 48.492 152.824 48.312 153.035 48.195 c 153.254
 48.07 153.508 48.008 153.801 48.008 c 154.102 48.008 154.355 48.086 154.566
 48.242 c 154.773 48.391 154.93 48.609 155.035 48.898 c h
155.035 48.898 m f
159.797 51.602 m 159.797 53.773 l 159.125 53.773 l 159.125 48.102 l 159.797
 48.102 l 159.797 48.727 l 159.941 48.488 160.117 48.312 160.328 48.195 
c 160.547 48.07 160.805 48.008 161.109 48.008 c 161.609 48.008 162.008 48.207
 162.312 48.602 c 162.625 49 162.781 49.52 162.781 50.164 c 162.781 50.812
 162.625 51.332 162.312 51.727 c 162.008 52.125 161.609 52.32 161.109 52.32
 c 160.805 52.32 160.547 52.262 160.328 52.148 c 160.117 52.023 159.941 
51.844 159.797 51.602 c h
162.094 50.164 m 162.094 49.664 161.988 49.273 161.781 48.992 c 161.582
 48.711 161.301 48.57 160.938 48.57 c 160.582 48.57 160.301 48.711 160.094
 48.992 c 159.895 49.273 159.797 49.664 159.797 50.164 c 159.797 50.664 
159.895 51.055 160.094 51.336 c 160.301 51.617 160.582 51.758 160.938 51.758
 c 161.301 51.758 161.582 51.617 161.781 51.336 c 161.988 51.055 162.094
 50.664 162.094 50.164 c h
162.094 50.164 m f
167.414 49.992 m 167.414 50.32 l 164.305 50.32 l 164.336 50.789 164.477
 51.145 164.727 51.383 c 164.977 51.625 165.324 51.742 165.773 51.742 c 
166.031 51.742 166.281 51.711 166.523 51.648 c 166.773 51.586 167.016 51.492
 167.258 51.367 c 167.258 52.008 l 167.008 52.102 166.758 52.176 166.508
 52.227 c 166.258 52.289 166 52.32 165.742 52.32 c 165.086 52.32 164.562
 52.133 164.18 51.758 c 163.793 51.375 163.602 50.852 163.602 50.195 c 163.602
 49.531 163.781 49 164.148 48.602 c 164.512 48.207 165 48.008 165.617 48.008
 c 166.168 48.008 166.605 48.188 166.93 48.539 c 167.25 48.895 167.414 49.379
 167.414 49.992 c h
166.742 49.789 m 166.73 49.426 166.625 49.133 166.43 48.914 c 166.23 48.695
 165.965 48.586 165.633 48.586 c 165.258 48.586 164.953 48.695 164.727 48.914
 c 164.496 49.125 164.367 49.422 164.336 49.805 c h
166.742 49.789 m f
171.219 48.727 m 171.219 46.508 l 171.891 46.508 l 171.891 52.211 l 171.219
 52.211 l 171.219 51.602 l 171.07 51.844 170.891 52.023 170.672 52.148 c
 170.461 52.262 170.207 52.32 169.906 52.32 c 169.406 52.32 169 52.125 168.688
 51.727 c 168.375 51.332 168.219 50.812 168.219 50.164 c 168.219 49.52 168.375
 49 168.688 48.602 c 169 48.207 169.406 48.008 169.906 48.008 c 170.207 
48.008 170.461 48.07 170.672 48.195 c 170.891 48.312 171.07 48.488 171.219
 48.727 c h
168.922 50.164 m 168.922 50.664 169.02 51.055 169.219 51.336 c 169.426 
51.617 169.707 51.758 170.062 51.758 c 170.426 51.758 170.707 51.617 170.906
 51.336 c 171.113 51.055 171.219 50.664 171.219 50.164 c 171.219 49.664 
171.113 49.273 170.906 48.992 c 170.707 48.711 170.426 48.57 170.062 48.57
 c 169.707 48.57 169.426 48.711 169.219 48.992 c 169.02 49.273 168.922 49.664
 168.922 50.164 c h
168.922 50.164 m f
175.148 50.148 m 174.594 50.148 174.215 50.211 174.008 50.336 c 173.797
 50.461 173.695 50.676 173.695 50.977 c 173.695 51.219 173.773 51.41 173.93
 51.555 c 174.086 51.691 174.297 51.758 174.57 51.758 c 174.945 51.758 175.242
 51.629 175.461 51.367 c 175.688 51.098 175.805 50.742 175.805 50.305 c 
175.805 50.148 l h
176.492 49.867 m 176.492 52.211 l 175.805 52.211 l 175.805 51.586 l 175.656
 51.836 175.469 52.023 175.242 52.148 c 175.012 52.262 174.73 52.32 174.398
 52.32 c 173.969 52.32 173.633 52.207 173.383 51.977 c 173.141 51.738 173.023
 51.422 173.023 51.023 c 173.023 50.555 173.172 50.207 173.477 49.977 c 
173.789 49.738 174.25 49.617 174.867 49.617 c 175.805 49.617 l 175.805 49.555
 l 175.805 49.242 175.699 49.004 175.492 48.836 c 175.293 48.672 175.012
 48.586 174.648 48.586 c 174.406 48.586 174.18 48.617 173.961 48.68 c 173.742
 48.734 173.527 48.812 173.32 48.914 c 173.32 48.289 l 173.57 48.195 173.809
 48.129 174.039 48.086 c 174.266 48.035 174.492 48.008 174.711 48.008 c 
175.305 48.008 175.746 48.164 176.039 48.477 c 176.34 48.781 176.492 49.242
 176.492 49.867 c h
176.492 49.867 m f
181.277 49.742 m 181.277 52.211 l 180.605 52.211 l 180.605 49.758 l 180.605
 49.375 180.527 49.086 180.371 48.898 c 180.223 48.703 180 48.602 179.699
 48.602 c 179.332 48.602 179.047 48.719 178.84 48.945 c 178.629 49.176 178.527
 49.492 178.527 49.898 c 178.527 52.211 l 177.855 52.211 l 177.855 48.102
 l 178.527 48.102 l 178.527 48.742 l 178.684 48.504 178.871 48.32 179.09
 48.195 c 179.309 48.07 179.562 48.008 179.855 48.008 c 180.324 48.008 180.676
 48.156 180.918 48.445 c 181.156 48.738 181.277 49.172 181.277 49.742 c 
h
181.277 49.742 m f
185.578 48.273 m 185.578 48.898 l 185.391 48.797 185.195 48.719 185 48.664
 c 184.812 48.613 184.617 48.586 184.422 48.586 c 183.984 48.586 183.645
 48.727 183.406 49.008 c 183.164 49.281 183.047 49.664 183.047 50.164 c 
183.047 50.664 183.164 51.055 183.406 51.336 c 183.645 51.609 183.984 51.742
 184.422 51.742 c 184.617 51.742 184.812 51.719 185 51.664 c 185.195 51.613
 185.391 51.535 185.578 51.43 c 185.578 52.055 l 185.391 52.141 185.191 
52.203 184.984 52.242 c 184.785 52.293 184.578 52.32 184.359 52.32 c 183.734
 52.32 183.238 52.129 182.875 51.742 c 182.508 51.348 182.328 50.82 182.328
 50.164 c 182.328 49.5 182.508 48.973 182.875 48.586 c 183.25 48.203 183.754
 48.008 184.391 48.008 c 184.598 48.008 184.801 48.031 185 48.07 c 185.195
 48.113 185.391 48.18 185.578 48.273 c h
185.578 48.273 m f
190.262 49.992 m 190.262 50.32 l 187.152 50.32 l 187.184 50.789 187.324
 51.145 187.574 51.383 c 187.824 51.625 188.172 51.742 188.621 51.742 c 
188.879 51.742 189.129 51.711 189.371 51.648 c 189.621 51.586 189.863 51.492
 190.105 51.367 c 190.105 52.008 l 189.855 52.102 189.605 52.176 189.355
 52.227 c 189.105 52.289 188.848 52.32 188.59 52.32 c 187.934 52.32 187.41
 52.133 187.027 51.758 c 186.641 51.375 186.449 50.852 186.449 50.195 c 
186.449 49.531 186.629 49 186.996 48.602 c 187.359 48.207 187.848 48.008
 188.465 48.008 c 189.016 48.008 189.453 48.188 189.777 48.539 c 190.098
 48.895 190.262 49.379 190.262 49.992 c h
189.59 49.789 m 189.578 49.426 189.473 49.133 189.277 48.914 c 189.078 
48.695 188.812 48.586 188.48 48.586 c 188.105 48.586 187.801 48.695 187.574
 48.914 c 187.344 49.125 187.215 49.422 187.184 49.805 c h
189.59 49.789 m f
195.371 46.523 m 195.035 47.086 194.793 47.645 194.637 48.195 c 194.48 
48.738 194.402 49.289 194.402 49.852 c 194.402 50.414 194.48 50.977 194.637
 51.539 c 194.801 52.094 195.047 52.641 195.371 53.195 c 194.777 53.195 
l 194.41 52.621 194.137 52.062 193.949 51.508 c 193.77 50.957 193.684 50.406
 193.684 49.852 c 193.684 49.312 193.77 48.766 193.949 48.211 c 194.137 
47.66 194.41 47.098 194.777 46.523 c h
195.371 46.523 m f
196.188 48.102 m 196.906 48.102 l 198.188 51.555 l 199.469 48.102 l 200.188
 48.102 l 198.641 52.211 l 197.734 52.211 l h
196.188 48.102 m f
204.152 51.602 m 204.152 53.773 l 203.48 53.773 l 203.48 48.102 l 204.152
 48.102 l 204.152 48.727 l 204.297 48.488 204.473 48.312 204.684 48.195 
c 204.902 48.07 205.16 48.008 205.465 48.008 c 205.965 48.008 206.363 48.207
 206.668 48.602 c 206.98 49 207.137 49.52 207.137 50.164 c 207.137 50.812
 206.98 51.332 206.668 51.727 c 206.363 52.125 205.965 52.32 205.465 52.32
 c 205.16 52.32 204.902 52.262 204.684 52.148 c 204.473 52.023 204.297 51.844
 204.152 51.602 c h
206.449 50.164 m 206.449 49.664 206.344 49.273 206.137 48.992 c 205.938
 48.711 205.656 48.57 205.293 48.57 c 204.938 48.57 204.656 48.711 204.449
 48.992 c 204.25 49.273 204.152 49.664 204.152 50.164 c 204.152 50.664 204.25
 51.055 204.449 51.336 c 204.656 51.617 204.938 51.758 205.293 51.758 c 
205.656 51.758 205.938 51.617 206.137 51.336 c 206.344 51.055 206.449 50.664
 206.449 50.164 c h
206.449 50.164 m f
210.629 48.742 m 210.555 48.703 210.473 48.672 210.379 48.648 c 210.293
 48.629 210.199 48.617 210.098 48.617 c 209.711 48.617 209.414 48.742 209.207
 48.992 c 209.008 49.234 208.91 49.586 208.91 50.055 c 208.91 52.211 l 208.238
 52.211 l 208.238 48.102 l 208.91 48.102 l 208.91 48.742 l 209.055 48.492
 209.238 48.312 209.457 48.195 c 209.684 48.07 209.961 48.008 210.285 48.008
 c 210.336 48.008 210.387 48.016 210.441 48.023 c 210.504 48.023 210.566
 48.035 210.629 48.055 c h
210.629 48.742 m f
213.215 50.148 m 212.66 50.148 212.281 50.211 212.074 50.336 c 211.863 
50.461 211.762 50.676 211.762 50.977 c 211.762 51.219 211.84 51.41 211.996
 51.555 c 212.152 51.691 212.363 51.758 212.637 51.758 c 213.012 51.758 
213.309 51.629 213.527 51.367 c 213.754 51.098 213.871 50.742 213.871 50.305
 c 213.871 50.148 l h
214.559 49.867 m 214.559 52.211 l 213.871 52.211 l 213.871 51.586 l 213.723
 51.836 213.535 52.023 213.309 52.148 c 213.078 52.262 212.797 52.32 212.465
 52.32 c 212.035 52.32 211.699 52.207 211.449 51.977 c 211.207 51.738 211.09
 51.422 211.09 51.023 c 211.09 50.555 211.238 50.207 211.543 49.977 c 211.855
 49.738 212.316 49.617 212.934 49.617 c 213.871 49.617 l 213.871 49.555 
l 213.871 49.242 213.766 49.004 213.559 48.836 c 213.359 48.672 213.078 
48.586 212.715 48.586 c 212.473 48.586 212.246 48.617 212.027 48.68 c 211.809
 48.734 211.594 48.812 211.387 48.914 c 211.387 48.289 l 211.637 48.195 
211.875 48.129 212.105 48.086 c 212.332 48.035 212.559 48.008 212.777 48.008
 c 213.371 48.008 213.812 48.164 214.105 48.477 c 214.406 48.781 214.559
 49.242 214.559 49.867 c h
214.559 49.867 m f
219.34 48.102 m 217.871 50.102 l 219.418 52.211 l 218.637 52.211 l 217.434
 50.602 l 216.246 52.211 l 215.449 52.211 l 217.043 50.07 l 215.59 48.102
 l 216.371 48.102 l 217.465 49.57 l 218.559 48.102 l h
219.34 48.102 m f
220.375 48.102 m 221.047 48.102 l 221.047 52.211 l 220.375 52.211 l h
220.375 46.508 m 221.047 46.508 l 221.047 47.367 l 220.375 47.367 l h
220.375 46.508 m f
226.527 47.227 m 226.141 47.227 225.848 47.414 225.652 47.789 c 225.465
 48.164 225.371 48.727 225.371 49.477 c 225.371 50.227 225.465 50.789 225.652
 51.164 c 225.848 51.539 226.141 51.727 226.527 51.727 c 226.902 51.727 
227.184 51.539 227.371 51.164 c 227.566 50.789 227.668 50.227 227.668 49.477
 c 227.668 48.727 227.566 48.164 227.371 47.789 c 227.184 47.414 226.902
 47.227 226.527 47.227 c h
226.527 46.648 m 227.129 46.648 227.594 46.895 227.918 47.383 c 228.25 
47.863 228.418 48.562 228.418 49.477 c 228.418 50.406 228.25 51.113 227.918
 51.602 c 227.594 52.082 227.129 52.32 226.527 52.32 c 225.91 52.32 225.441
 52.082 225.121 51.602 c 224.797 51.113 224.637 50.406 224.637 49.477 c 
224.637 48.562 224.797 47.863 225.121 47.383 c 225.441 46.895 225.91 46.648
 226.527 46.648 c h
226.527 46.648 m f
233.434 52.211 m 231.355 46.742 l 232.121 46.742 l 233.855 51.352 l 235.59
 46.742 l 236.355 46.742 l 234.277 52.211 l h
233.434 52.211 m f
80.176 55.883 m 80.848 55.883 l 80.848 59.258 l 82.863 57.477 l 83.723 
57.477 l 81.535 59.398 l 83.816 61.586 l 82.926 61.586 l 80.848 59.586 l
 80.848 61.586 l 80.176 61.586 l h
80.176 55.883 m f
84.051 57.477 m 84.77 57.477 l 86.051 60.93 l 87.332 57.477 l 88.051 57.477
 l 86.504 61.586 l 85.598 61.586 l h
84.051 57.477 m f
88.91 59.961 m 88.91 57.477 l 89.582 57.477 l 89.582 59.945 l 89.582 60.332
 89.652 60.625 89.801 60.82 c 89.957 61.008 90.184 61.102 90.488 61.102 
c 90.852 61.102 91.137 60.988 91.348 60.758 c 91.566 60.531 91.676 60.211
 91.676 59.805 c 91.676 57.477 l 92.348 57.477 l 92.348 61.586 l 91.676 
61.586 l 91.676 60.961 l 91.508 61.211 91.316 61.398 91.098 61.523 c 90.879
 61.637 90.629 61.695 90.348 61.695 c 89.879 61.695 89.52 61.551 89.27 61.258
 c 89.027 60.969 88.91 60.535 88.91 59.961 c h
90.598 57.383 m h
91.16 56.227 m 91.16 56.07 91.102 55.941 90.988 55.836 c 90.883 55.723 
90.754 55.664 90.598 55.664 c 90.441 55.664 90.305 55.723 90.191 55.836 
c 90.086 55.941 90.035 56.07 90.035 56.227 c 90.035 56.383 90.086 56.516
 90.191 56.617 c 90.305 56.723 90.441 56.773 90.598 56.773 c 90.754 56.773
 90.883 56.723 90.988 56.617 c 91.102 56.516 91.16 56.383 91.16 56.227 c
 h
91.598 56.227 m 91.598 56.508 91.496 56.75 91.301 56.945 c 91.113 57.133
 90.879 57.227 90.598 57.227 c 90.316 57.227 90.074 57.133 89.879 56.945
 c 89.691 56.75 89.598 56.508 89.598 56.227 c 89.598 55.945 89.691 55.711
 89.879 55.523 c 90.074 55.328 90.316 55.227 90.598 55.227 c 90.879 55.227
 91.113 55.328 91.301 55.523 c 91.496 55.711 91.598 55.945 91.598 56.227
 c h
91.598 56.227 m f
93.727 55.883 0.672 5.703 re f
95.809 57.477 m 96.48 57.477 l 96.48 61.586 l 95.809 61.586 l h
95.809 55.883 m 96.48 55.883 l 96.48 56.742 l 95.809 56.742 l h
95.809 55.883 m f
100.934 60.977 m 100.934 63.148 l 100.262 63.148 l 100.262 57.477 l 100.934
 57.477 l 100.934 58.102 l 101.078 57.863 101.254 57.688 101.465 57.57 c
 101.684 57.445 101.941 57.383 102.246 57.383 c 102.746 57.383 103.145 57.582
 103.449 57.977 c 103.762 58.375 103.918 58.895 103.918 59.539 c 103.918
 60.188 103.762 60.707 103.449 61.102 c 103.145 61.5 102.746 61.695 102.246
 61.695 c 101.941 61.695 101.684 61.637 101.465 61.523 c 101.254 61.398 
101.078 61.219 100.934 60.977 c h
103.23 59.539 m 103.23 59.039 103.125 58.648 102.918 58.367 c 102.719 58.086
 102.438 57.945 102.074 57.945 c 101.719 57.945 101.438 58.086 101.23 58.367
 c 101.031 58.648 100.934 59.039 100.934 59.539 c 100.934 60.039 101.031
 60.43 101.23 60.711 c 101.438 60.992 101.719 61.133 102.074 61.133 c 102.438
 61.133 102.719 60.992 102.918 60.711 c 103.125 60.43 103.23 60.039 103.23
 59.539 c h
103.23 59.539 m f
104.977 59.961 m 104.977 57.477 l 105.648 57.477 l 105.648 59.945 l 105.648
 60.332 105.719 60.625 105.867 60.82 c 106.023 61.008 106.25 61.102 106.555
 61.102 c 106.918 61.102 107.203 60.988 107.414 60.758 c 107.633 60.531 
107.742 60.211 107.742 59.805 c 107.742 57.477 l 108.414 57.477 l 108.414
 61.586 l 107.742 61.586 l 107.742 60.961 l 107.574 61.211 107.383 61.398
 107.164 61.523 c 106.945 61.637 106.695 61.695 106.414 61.695 c 105.945
 61.695 105.586 61.551 105.336 61.258 c 105.094 60.969 104.977 60.535 104.977
 59.961 c h
106.664 57.383 m h
106.664 57.383 m f
109.793 55.883 0.672 5.703 re f
111.875 55.883 0.672 5.703 re f
113.617 59.227 1.984 0.609 re f
119.371 58.102 m 119.371 55.883 l 120.043 55.883 l 120.043 61.586 l 119.371
 61.586 l 119.371 60.977 l 119.223 61.219 119.043 61.398 118.824 61.523 
c 118.613 61.637 118.359 61.695 118.059 61.695 c 117.559 61.695 117.152 
61.5 116.84 61.102 c 116.527 60.707 116.371 60.188 116.371 59.539 c 116.371
 58.895 116.527 58.375 116.84 57.977 c 117.152 57.582 117.559 57.383 118.059
 57.383 c 118.359 57.383 118.613 57.445 118.824 57.57 c 119.043 57.688 119.223
 57.863 119.371 58.102 c h
117.074 59.539 m 117.074 60.039 117.172 60.43 117.371 60.711 c 117.578 
60.992 117.859 61.133 118.215 61.133 c 118.578 61.133 118.859 60.992 119.059
 60.711 c 119.266 60.43 119.371 60.039 119.371 59.539 c 119.371 59.039 119.266
 58.648 119.059 58.367 c 118.859 58.086 118.578 57.945 118.215 57.945 c 
117.859 57.945 117.578 58.086 117.371 58.367 c 117.172 58.648 117.074 59.039
 117.074 59.539 c h
117.074 59.539 m f
123.02 57.961 m 122.652 57.961 122.367 58.102 122.16 58.383 c 121.949 58.664
 121.848 59.051 121.848 59.539 c 121.848 60.031 121.949 60.414 122.16 60.695
 c 122.367 60.977 122.652 61.117 123.02 61.117 c 123.371 61.117 123.652 
60.977 123.863 60.695 c 124.082 60.414 124.191 60.031 124.191 59.539 c 124.191
 59.051 124.082 58.664 123.863 58.383 c 123.652 58.102 123.371 57.961 123.02
 57.961 c h
123.02 57.383 m 123.602 57.383 124.059 57.578 124.395 57.961 c 124.727 
58.336 124.895 58.863 124.895 59.539 c 124.895 60.207 124.727 60.734 124.395
 61.117 c 124.059 61.504 123.602 61.695 123.02 61.695 c 122.426 61.695 121.961
 61.504 121.629 61.117 c 121.293 60.734 121.129 60.207 121.129 59.539 c 
121.129 58.863 121.293 58.336 121.629 57.961 c 121.961 57.578 122.426 57.383
 123.02 57.383 c h
123.02 57.383 m f
125.625 57.477 m 126.297 57.477 l 127.141 60.68 l 127.984 57.477 l 128.781
 57.477 l 129.625 60.68 l 130.453 57.477 l 131.125 57.477 l 130.062 61.586
 l 129.266 61.586 l 128.375 58.227 l 127.5 61.586 l 126.703 61.586 l h
125.625 57.477 m f
135.555 59.117 m 135.555 61.586 l 134.883 61.586 l 134.883 59.133 l 134.883
 58.75 134.805 58.461 134.648 58.273 c 134.5 58.078 134.277 57.977 133.977
 57.977 c 133.609 57.977 133.324 58.094 133.117 58.32 c 132.906 58.551 132.805
 58.867 132.805 59.273 c 132.805 61.586 l 132.133 61.586 l 132.133 57.477
 l 132.805 57.477 l 132.805 58.117 l 132.961 57.879 133.148 57.695 133.367
 57.57 c 133.586 57.445 133.84 57.383 134.133 57.383 c 134.602 57.383 134.953
 57.531 135.195 57.82 c 135.434 58.113 135.555 58.547 135.555 59.117 c h
135.555 59.117 m f
141.66 58.117 m 141.586 58.078 141.504 58.047 141.41 58.023 c 141.324 58.004
 141.23 57.992 141.129 57.992 c 140.742 57.992 140.445 58.117 140.238 58.367
 c 140.039 58.609 139.941 58.961 139.941 59.43 c 139.941 61.586 l 139.27
 61.586 l 139.27 57.477 l 139.941 57.477 l 139.941 58.117 l 140.086 57.867
 140.27 57.688 140.488 57.57 c 140.715 57.445 140.992 57.383 141.316 57.383
 c 141.367 57.383 141.418 57.391 141.473 57.398 c 141.535 57.398 141.598
 57.41 141.66 57.43 c h
141.66 58.117 m f
145.723 59.367 m 145.723 59.695 l 142.613 59.695 l 142.645 60.164 142.785
 60.52 143.035 60.758 c 143.285 61 143.633 61.117 144.082 61.117 c 144.34
 61.117 144.59 61.086 144.832 61.023 c 145.082 60.961 145.324 60.867 145.566
 60.742 c 145.566 61.383 l 145.316 61.477 145.066 61.551 144.816 61.602 
c 144.566 61.664 144.309 61.695 144.051 61.695 c 143.395 61.695 142.871 
61.508 142.488 61.133 c 142.102 60.75 141.91 60.227 141.91 59.57 c 141.91
 58.906 142.09 58.375 142.457 57.977 c 142.82 57.582 143.309 57.383 143.926
 57.383 c 144.477 57.383 144.914 57.562 145.238 57.914 c 145.559 58.27 145.723
 58.754 145.723 59.367 c h
145.051 59.164 m 145.039 58.801 144.934 58.508 144.738 58.289 c 144.539
 58.07 144.273 57.961 143.941 57.961 c 143.566 57.961 143.262 58.07 143.035
 58.289 c 142.805 58.5 142.676 58.797 142.645 59.18 c h
145.051 59.164 m f
146.523 57.477 m 149.727 57.477 l 149.727 58.102 l 147.195 61.055 l 149.727
 61.055 l 149.727 61.586 l 146.445 61.586 l 146.445 60.977 l 148.977 58.023
 l 146.523 58.023 l h
146.523 57.477 m f
150.758 57.477 m 151.43 57.477 l 151.43 61.586 l 150.758 61.586 l h
150.758 55.883 m 151.43 55.883 l 151.43 56.742 l 150.758 56.742 l h
150.758 55.883 m f
155.465 57.602 m 155.465 58.242 l 155.266 58.148 155.062 58.078 154.855
 58.023 c 154.656 57.973 154.449 57.945 154.23 57.945 c 153.895 57.945 153.645
 58 153.48 58.102 c 153.312 58.207 153.23 58.363 153.23 58.57 c 153.23 58.727
 153.285 58.852 153.402 58.945 c 153.527 59.031 153.766 59.109 154.121 59.18
 c 154.355 59.242 l 154.832 59.348 155.172 59.492 155.371 59.68 c 155.578
 59.859 155.684 60.117 155.684 60.461 c 155.684 60.836 155.531 61.141 155.23
 61.367 c 154.926 61.586 154.512 61.695 153.98 61.695 c 153.762 61.695 153.531
 61.672 153.293 61.633 c 153.051 61.59 152.801 61.523 152.543 61.43 c 152.543
 60.742 l 152.793 60.867 153.035 60.969 153.277 61.039 c 153.516 61.102 
153.754 61.133 153.996 61.133 c 154.316 61.133 154.562 61.082 154.73 60.977
 c 154.895 60.863 154.98 60.707 154.98 60.508 c 154.98 60.32 154.918 60.18
 154.793 60.086 c 154.676 59.992 154.41 59.898 153.996 59.805 c 153.762 
59.742 l 153.344 59.66 153.043 59.531 152.855 59.352 c 152.668 59.164 152.574
 58.914 152.574 58.602 c 152.574 58.207 152.707 57.906 152.98 57.695 c 153.25
 57.488 153.641 57.383 154.152 57.383 c 154.402 57.383 154.637 57.406 154.855
 57.445 c 155.074 57.477 155.277 57.531 155.465 57.602 c h
155.465 57.602 m f
157.418 56.32 m 157.418 57.477 l 158.809 57.477 l 158.809 58.008 l 157.418
 58.008 l 157.418 60.242 l 157.418 60.578 157.457 60.789 157.543 60.883 
c 157.637 60.977 157.824 61.023 158.105 61.023 c 158.809 61.023 l 158.809
 61.586 l 158.105 61.586 l 157.594 61.586 157.238 61.492 157.043 61.305 
c 156.844 61.109 156.746 60.754 156.746 60.242 c 156.746 58.008 l 156.246
 58.008 l 156.246 57.477 l 156.746 57.477 l 156.746 56.32 l h
157.418 56.32 m f
161.281 57.961 m 160.914 57.961 160.629 58.102 160.422 58.383 c 160.211
 58.664 160.109 59.051 160.109 59.539 c 160.109 60.031 160.211 60.414 160.422
 60.695 c 160.629 60.977 160.914 61.117 161.281 61.117 c 161.633 61.117 
161.914 60.977 162.125 60.695 c 162.344 60.414 162.453 60.031 162.453 59.539
 c 162.453 59.051 162.344 58.664 162.125 58.383 c 161.914 58.102 161.633
 57.961 161.281 57.961 c h
161.281 57.383 m 161.863 57.383 162.32 57.578 162.656 57.961 c 162.988 
58.336 163.156 58.863 163.156 59.539 c 163.156 60.207 162.988 60.734 162.656
 61.117 c 162.32 61.504 161.863 61.695 161.281 61.695 c 160.688 61.695 160.223
 61.504 159.891 61.117 c 159.555 60.734 159.391 60.207 159.391 59.539 c 
159.391 58.863 159.555 58.336 159.891 57.961 c 160.223 57.578 160.688 57.383
 161.281 57.383 c h
161.281 57.383 m f
166.652 58.117 m 166.578 58.078 166.496 58.047 166.402 58.023 c 166.316
 58.004 166.223 57.992 166.121 57.992 c 165.734 57.992 165.438 58.117 165.23
 58.367 c 165.031 58.609 164.934 58.961 164.934 59.43 c 164.934 61.586 l
 164.262 61.586 l 164.262 57.477 l 164.934 57.477 l 164.934 58.117 l 165.078
 57.867 165.262 57.688 165.48 57.57 c 165.707 57.445 165.984 57.383 166.309
 57.383 c 166.359 57.383 166.41 57.391 166.465 57.398 c 166.527 57.398 166.59
 57.41 166.652 57.43 c h
166.652 58.117 m f
167.297 59.961 m 167.297 57.477 l 167.969 57.477 l 167.969 59.945 l 167.969
 60.332 168.039 60.625 168.188 60.82 c 168.344 61.008 168.57 61.102 168.875
 61.102 c 169.238 61.102 169.523 60.988 169.734 60.758 c 169.953 60.531 
170.062 60.211 170.062 59.805 c 170.062 57.477 l 170.734 57.477 l 170.734
 61.586 l 170.062 61.586 l 170.062 60.961 l 169.895 61.211 169.703 61.398
 169.484 61.523 c 169.266 61.637 169.016 61.695 168.734 61.695 c 168.266
 61.695 167.906 61.551 167.656 61.258 c 167.414 60.969 167.297 60.535 167.297
 59.961 c h
168.984 57.383 m h
168.984 57.383 m f
177.902 59.117 m 177.902 61.586 l 177.23 61.586 l 177.23 59.133 l 177.23
 58.75 177.152 58.461 176.996 58.273 c 176.848 58.078 176.625 57.977 176.324
 57.977 c 175.957 57.977 175.672 58.094 175.465 58.32 c 175.254 58.551 175.152
 58.867 175.152 59.273 c 175.152 61.586 l 174.48 61.586 l 174.48 57.477 
l 175.152 57.477 l 175.152 58.117 l 175.309 57.879 175.496 57.695 175.715
 57.57 c 175.934 57.445 176.188 57.383 176.48 57.383 c 176.949 57.383 177.301
 57.531 177.543 57.82 c 177.781 58.113 177.902 58.547 177.902 59.117 c h
177.902 59.117 m f
181.125 59.523 m 180.57 59.523 180.191 59.586 179.984 59.711 c 179.773 
59.836 179.672 60.051 179.672 60.352 c 179.672 60.594 179.75 60.785 179.906
 60.93 c 180.062 61.066 180.273 61.133 180.547 61.133 c 180.922 61.133 181.219
 61.004 181.438 60.742 c 181.664 60.473 181.781 60.117 181.781 59.68 c 181.781
 59.523 l h
182.469 59.242 m 182.469 61.586 l 181.781 61.586 l 181.781 60.961 l 181.633
 61.211 181.445 61.398 181.219 61.523 c 180.988 61.637 180.707 61.695 180.375
 61.695 c 179.945 61.695 179.609 61.582 179.359 61.352 c 179.117 61.113 
179 60.797 179 60.398 c 179 59.93 179.148 59.582 179.453 59.352 c 179.766
 59.113 180.227 58.992 180.844 58.992 c 181.781 58.992 l 181.781 58.93 l
 181.781 58.617 181.676 58.379 181.469 58.211 c 181.27 58.047 180.988 57.961
 180.625 57.961 c 180.383 57.961 180.156 57.992 179.938 58.055 c 179.719
 58.109 179.504 58.188 179.297 58.289 c 179.297 57.664 l 179.547 57.57 179.785
 57.504 180.016 57.461 c 180.242 57.41 180.469 57.383 180.688 57.383 c 181.281
 57.383 181.723 57.539 182.016 57.852 c 182.316 58.156 182.469 58.617 182.469
 59.242 c h
182.469 59.242 m f
188.855 57.602 m 188.855 58.242 l 188.656 58.148 188.453 58.078 188.246
 58.023 c 188.047 57.973 187.84 57.945 187.621 57.945 c 187.285 57.945 187.035
 58 186.871 58.102 c 186.703 58.207 186.621 58.363 186.621 58.57 c 186.621
 58.727 186.676 58.852 186.793 58.945 c 186.918 59.031 187.156 59.109 187.512
 59.18 c 187.746 59.242 l 188.223 59.348 188.562 59.492 188.762 59.68 c 
188.969 59.859 189.074 60.117 189.074 60.461 c 189.074 60.836 188.922 61.141
 188.621 61.367 c 188.316 61.586 187.902 61.695 187.371 61.695 c 187.152
 61.695 186.922 61.672 186.684 61.633 c 186.441 61.59 186.191 61.523 185.934
 61.43 c 185.934 60.742 l 186.184 60.867 186.426 60.969 186.668 61.039 c
 186.906 61.102 187.145 61.133 187.387 61.133 c 187.707 61.133 187.953 61.082
 188.121 60.977 c 188.285 60.863 188.371 60.707 188.371 60.508 c 188.371
 60.32 188.309 60.18 188.184 60.086 c 188.066 59.992 187.801 59.898 187.387
 59.805 c 187.152 59.742 l 186.734 59.66 186.434 59.531 186.246 59.352 c
 186.059 59.164 185.965 58.914 185.965 58.602 c 185.965 58.207 186.098 57.906
 186.371 57.695 c 186.641 57.488 187.031 57.383 187.543 57.383 c 187.793
 57.383 188.027 57.406 188.246 57.445 c 188.465 57.477 188.668 57.531 188.855
 57.602 c h
188.855 57.602 m f
190.812 56.32 m 190.812 57.477 l 192.203 57.477 l 192.203 58.008 l 190.812
 58.008 l 190.812 60.242 l 190.812 60.578 190.852 60.789 190.938 60.883 
c 191.031 60.977 191.219 61.023 191.5 61.023 c 192.203 61.023 l 192.203 
61.586 l 191.5 61.586 l 190.988 61.586 190.633 61.492 190.438 61.305 c 190.238
 61.109 190.141 60.754 190.141 60.242 c 190.141 58.008 l 189.641 58.008 
l 189.641 57.477 l 190.141 57.477 l 190.141 56.32 l h
190.812 56.32 m f
195.453 58.117 m 195.379 58.078 195.297 58.047 195.203 58.023 c 195.117
 58.004 195.023 57.992 194.922 57.992 c 194.535 57.992 194.238 58.117 194.031
 58.367 c 193.832 58.609 193.734 58.961 193.734 59.43 c 193.734 61.586 l
 193.062 61.586 l 193.062 57.477 l 193.734 57.477 l 193.734 58.117 l 193.879
 57.867 194.062 57.688 194.281 57.57 c 194.508 57.445 194.785 57.383 195.109
 57.383 c 195.16 57.383 195.211 57.391 195.266 57.398 c 195.328 57.398 195.391
 57.41 195.453 57.43 c h
195.453 58.117 m f
198.039 59.523 m 197.484 59.523 197.105 59.586 196.898 59.711 c 196.688
 59.836 196.586 60.051 196.586 60.352 c 196.586 60.594 196.664 60.785 196.82
 60.93 c 196.977 61.066 197.188 61.133 197.461 61.133 c 197.836 61.133 198.133
 61.004 198.352 60.742 c 198.578 60.473 198.695 60.117 198.695 59.68 c 198.695
 59.523 l h
199.383 59.242 m 199.383 61.586 l 198.695 61.586 l 198.695 60.961 l 198.547
 61.211 198.359 61.398 198.133 61.523 c 197.902 61.637 197.621 61.695 197.289
 61.695 c 196.859 61.695 196.523 61.582 196.273 61.352 c 196.031 61.113 
195.914 60.797 195.914 60.398 c 195.914 59.93 196.062 59.582 196.367 59.352
 c 196.68 59.113 197.141 58.992 197.758 58.992 c 198.695 58.992 l 198.695
 58.93 l 198.695 58.617 198.59 58.379 198.383 58.211 c 198.184 58.047 197.902
 57.961 197.539 57.961 c 197.297 57.961 197.07 57.992 196.852 58.055 c 196.633
 58.109 196.418 58.188 196.211 58.289 c 196.211 57.664 l 196.461 57.57 196.699
 57.504 196.93 57.461 c 197.156 57.41 197.383 57.383 197.602 57.383 c 198.195
 57.383 198.637 57.539 198.93 57.852 c 199.23 58.156 199.383 58.617 199.383
 59.242 c h
199.383 59.242 m f
204.164 59.117 m 204.164 61.586 l 203.492 61.586 l 203.492 59.133 l 203.492
 58.75 203.414 58.461 203.258 58.273 c 203.109 58.078 202.887 57.977 202.586
 57.977 c 202.219 57.977 201.934 58.094 201.727 58.32 c 201.516 58.551 201.414
 58.867 201.414 59.273 c 201.414 61.586 l 200.742 61.586 l 200.742 57.477
 l 201.414 57.477 l 201.414 58.117 l 201.57 57.879 201.758 57.695 201.977
 57.57 c 202.195 57.445 202.449 57.383 202.742 57.383 c 203.211 57.383 203.562
 57.531 203.805 57.82 c 204.043 58.113 204.164 58.547 204.164 59.117 c h
204.164 59.117 m f
209.027 59.367 m 209.027 59.695 l 205.918 59.695 l 205.949 60.164 206.09
 60.52 206.34 60.758 c 206.59 61 206.938 61.117 207.387 61.117 c 207.645
 61.117 207.895 61.086 208.137 61.023 c 208.387 60.961 208.629 60.867 208.871
 60.742 c 208.871 61.383 l 208.621 61.477 208.371 61.551 208.121 61.602 
c 207.871 61.664 207.613 61.695 207.355 61.695 c 206.699 61.695 206.176 
61.508 205.793 61.133 c 205.406 60.75 205.215 60.227 205.215 59.57 c 205.215
 58.906 205.395 58.375 205.762 57.977 c 206.125 57.582 206.613 57.383 207.23
 57.383 c 207.781 57.383 208.219 57.562 208.543 57.914 c 208.863 58.27 209.027
 58.754 209.027 59.367 c h
208.355 59.164 m 208.344 58.801 208.238 58.508 208.043 58.289 c 207.844
 58.07 207.578 57.961 207.246 57.961 c 206.871 57.961 206.566 58.07 206.34
 58.289 c 206.109 58.5 205.98 58.797 205.949 59.18 c h
206.965 56.977 m 206.059 55.602 l 206.574 55.602 l 207.23 56.508 l 207.887
 55.602 l 208.402 55.602 l 207.496 56.977 l h
206.965 56.977 m f
212.496 55.883 m 213.168 55.883 l 213.168 59.258 l 215.184 57.477 l 216.043
 57.477 l 213.855 59.398 l 216.137 61.586 l 215.246 61.586 l 213.168 59.586
 l 213.168 61.586 l 212.496 61.586 l h
212.496 55.883 m f
218.18 57.961 m 217.812 57.961 217.527 58.102 217.32 58.383 c 217.109 58.664
 217.008 59.051 217.008 59.539 c 217.008 60.031 217.109 60.414 217.32 60.695
 c 217.527 60.977 217.812 61.117 218.18 61.117 c 218.531 61.117 218.812 
60.977 219.023 60.695 c 219.242 60.414 219.352 60.031 219.352 59.539 c 219.352
 59.051 219.242 58.664 219.023 58.383 c 218.812 58.102 218.531 57.961 218.18
 57.961 c h
218.18 57.383 m 218.762 57.383 219.219 57.578 219.555 57.961 c 219.887 
58.336 220.055 58.863 220.055 59.539 c 220.055 60.207 219.887 60.734 219.555
 61.117 c 219.219 61.504 218.762 61.695 218.18 61.695 c 217.586 61.695 217.121
 61.504 216.789 61.117 c 216.453 60.734 216.289 60.207 216.289 59.539 c 
216.289 58.863 216.453 58.336 216.789 57.961 c 217.121 57.578 217.586 57.383
 218.18 57.383 c h
218.18 57.383 m f
223.801 57.602 m 223.801 58.242 l 223.602 58.148 223.398 58.078 223.191
 58.023 c 222.992 57.973 222.785 57.945 222.566 57.945 c 222.23 57.945 221.98
 58 221.816 58.102 c 221.648 58.207 221.566 58.363 221.566 58.57 c 221.566
 58.727 221.621 58.852 221.738 58.945 c 221.863 59.031 222.102 59.109 222.457
 59.18 c 222.691 59.242 l 223.168 59.348 223.508 59.492 223.707 59.68 c 
223.914 59.859 224.02 60.117 224.02 60.461 c 224.02 60.836 223.867 61.141
 223.566 61.367 c 223.262 61.586 222.848 61.695 222.316 61.695 c 222.098
 61.695 221.867 61.672 221.629 61.633 c 221.387 61.59 221.137 61.523 220.879
 61.43 c 220.879 60.742 l 221.129 60.867 221.371 60.969 221.613 61.039 c
 221.852 61.102 222.09 61.133 222.332 61.133 c 222.652 61.133 222.898 61.082
 223.066 60.977 c 223.23 60.863 223.316 60.707 223.316 60.508 c 223.316 
60.32 223.254 60.18 223.129 60.086 c 223.012 59.992 222.746 59.898 222.332
 59.805 c 222.098 59.742 l 221.68 59.66 221.379 59.531 221.191 59.352 c 
221.004 59.164 220.91 58.914 220.91 58.602 c 220.91 58.207 221.043 57.906
 221.316 57.695 c 221.586 57.488 221.977 57.383 222.488 57.383 c 222.738
 57.383 222.973 57.406 223.191 57.445 c 223.41 57.477 223.613 57.531 223.801
 57.602 c h
223.801 57.602 m f
225.754 56.32 m 225.754 57.477 l 227.145 57.477 l 227.145 58.008 l 225.754
 58.008 l 225.754 60.242 l 225.754 60.578 225.793 60.789 225.879 60.883 
c 225.973 60.977 226.16 61.023 226.441 61.023 c 227.145 61.023 l 227.145
 61.586 l 226.441 61.586 l 225.93 61.586 225.574 61.492 225.379 61.305 c
 225.18 61.109 225.082 60.754 225.082 60.242 c 225.082 58.008 l 224.582 
58.008 l 224.582 57.477 l 225.082 57.477 l 225.082 56.32 l h
225.754 56.32 m f
228.008 55.883 m 228.68 55.883 l 228.68 59.258 l 230.695 57.477 l 231.555
 57.477 l 229.367 59.398 l 231.648 61.586 l 230.758 61.586 l 228.68 59.586
 l 228.68 61.586 l 228.008 61.586 l h
228.008 55.883 m f
233.801 61.961 m 233.613 62.449 233.426 62.766 233.238 62.914 c 233.059
 63.07 232.82 63.148 232.52 63.148 c 231.988 63.148 l 231.988 62.586 l 232.379
 62.586 l 232.566 62.586 232.711 62.539 232.816 62.445 c 232.918 62.359 
233.035 62.152 233.16 61.82 c 233.27 61.523 l 231.613 57.477 l 232.332 57.477
 l 233.613 60.695 l 234.895 57.477 l 235.613 57.477 l h
233.801 61.961 m f
236.43 55.898 m 237.023 55.898 l 237.387 56.473 237.656 57.035 237.836 
57.586 c 238.023 58.141 238.117 58.688 238.117 59.227 c 238.117 59.781 238.023
 60.332 237.836 60.883 c 237.656 61.438 237.387 61.996 237.023 62.57 c 236.43
 62.57 l 236.762 62.016 237.008 61.469 237.164 60.914 c 237.32 60.352 237.398
 59.789 237.398 59.227 c 237.398 58.664 237.32 58.113 237.164 57.57 c 237.008
 57.02 236.762 56.461 236.43 55.898 c h
236.43 55.898 m f
0.501961 0 0 rg
71.465 16.332 m 71.465 18.379 l 72.402 18.379 l 72.746 18.379 73.012 18.293
 73.199 18.113 c 73.387 17.938 73.48 17.688 73.48 17.363 c 73.48 17.031 
73.387 16.777 73.199 16.598 c 73.012 16.422 72.746 16.332 72.402 16.332 
c h
70.73 15.723 m 72.402 15.723 l 73.016 15.723 73.48 15.863 73.793 16.145
 c 74.105 16.418 74.262 16.824 74.262 17.363 c 74.262 17.895 74.105 18.301
 73.793 18.582 c 73.48 18.855 73.016 18.988 72.402 18.988 c 71.465 18.988
 l 71.465 21.191 l 70.73 21.191 l h
70.73 15.723 m f
75.059 17.082 m 75.73 17.082 l 75.73 21.191 l 75.059 21.191 l h
75.059 15.488 m 75.73 15.488 l 75.73 16.348 l 75.059 16.348 l h
75.059 15.488 m f
80.547 18.723 m 80.547 21.191 l 79.875 21.191 l 79.875 18.738 l 79.875 
18.355 79.797 18.066 79.641 17.879 c 79.492 17.684 79.27 17.582 78.969 17.582
 c 78.602 17.582 78.316 17.699 78.109 17.926 c 77.898 18.156 77.797 18.473
 77.797 18.879 c 77.797 21.191 l 77.125 21.191 l 77.125 17.082 l 77.797 
17.082 l 77.797 17.723 l 77.953 17.484 78.141 17.301 78.359 17.176 c 78.578
 17.051 78.832 16.988 79.125 16.988 c 79.594 16.988 79.945 17.137 80.188
 17.426 c 80.426 17.719 80.547 18.152 80.547 18.723 c h
80.547 18.723 m f
86.402 16.363 m 84.543 19.285 l 86.402 19.285 l h
86.215 15.723 m 87.152 15.723 l 87.152 19.285 l 87.918 19.285 l 87.918 
19.895 l 87.152 19.895 l 87.152 21.191 l 86.402 21.191 l 86.402 19.895 l
 83.934 19.895 l 83.934 19.191 l h
86.215 15.723 m f
0 g
89.223 20.254 m 90.004 20.254 l 90.004 21.191 l 89.223 21.191 l h
89.223 17.316 m 90.004 17.316 l 90.004 18.238 l 89.223 18.238 l h
89.223 17.316 m f
93.992 15.723 m 94.992 15.723 l 97.414 20.301 l 97.414 15.723 l 98.133 
15.723 l 98.133 21.191 l 97.133 21.191 l 94.711 16.613 l 94.711 21.191 l
 93.992 21.191 l h
93.992 15.723 m f
101.445 19.129 m 100.891 19.129 100.512 19.191 100.305 19.316 c 100.094
 19.441 99.992 19.656 99.992 19.957 c 99.992 20.199 100.07 20.391 100.227
 20.535 c 100.383 20.672 100.594 20.738 100.867 20.738 c 101.242 20.738 
101.539 20.609 101.758 20.348 c 101.984 20.078 102.102 19.723 102.102 19.285
 c 102.102 19.129 l h
102.789 18.848 m 102.789 21.191 l 102.102 21.191 l 102.102 20.566 l 101.953
 20.816 101.766 21.004 101.539 21.129 c 101.309 21.242 101.027 21.301 100.695
 21.301 c 100.266 21.301 99.93 21.188 99.68 20.957 c 99.438 20.719 99.32
 20.402 99.32 20.004 c 99.32 19.535 99.469 19.188 99.773 18.957 c 100.086
 18.719 100.547 18.598 101.164 18.598 c 102.102 18.598 l 102.102 18.535 
l 102.102 18.223 101.996 17.984 101.789 17.816 c 101.59 17.652 101.309 17.566
 100.945 17.566 c 100.703 17.566 100.477 17.598 100.258 17.66 c 100.039 
17.715 99.824 17.793 99.617 17.895 c 99.617 17.27 l 99.867 17.176 100.105
 17.109 100.336 17.066 c 100.562 17.016 100.789 16.988 101.008 16.988 c 
101.602 16.988 102.043 17.145 102.336 17.457 c 102.637 17.762 102.789 18.223
 102.789 18.848 c h
102.789 18.848 m f
104.824 20.582 m 104.824 22.754 l 104.152 22.754 l 104.152 17.082 l 104.824
 17.082 l 104.824 17.707 l 104.969 17.469 105.145 17.293 105.355 17.176 
c 105.574 17.051 105.832 16.988 106.137 16.988 c 106.637 16.988 107.035 
17.188 107.34 17.582 c 107.652 17.98 107.809 18.5 107.809 19.145 c 107.809
 19.793 107.652 20.312 107.34 20.707 c 107.035 21.105 106.637 21.301 106.137
 21.301 c 105.832 21.301 105.574 21.242 105.355 21.129 c 105.145 21.004 
104.969 20.824 104.824 20.582 c h
107.121 19.145 m 107.121 18.645 107.016 18.254 106.809 17.973 c 106.609
 17.691 106.328 17.551 105.965 17.551 c 105.609 17.551 105.328 17.691 105.121
 17.973 c 104.922 18.254 104.824 18.645 104.824 19.145 c 104.824 19.645 
104.922 20.035 105.121 20.316 c 105.328 20.598 105.609 20.738 105.965 20.738
 c 106.328 20.738 106.609 20.598 106.809 20.316 c 107.016 20.035 107.121
 19.645 107.121 19.145 c h
107.121 19.145 m f
110.805 19.129 m 110.25 19.129 109.871 19.191 109.664 19.316 c 109.453 
19.441 109.352 19.656 109.352 19.957 c 109.352 20.199 109.43 20.391 109.586
 20.535 c 109.742 20.672 109.953 20.738 110.227 20.738 c 110.602 20.738 
110.898 20.609 111.117 20.348 c 111.344 20.078 111.461 19.723 111.461 19.285
 c 111.461 19.129 l h
112.148 18.848 m 112.148 21.191 l 111.461 21.191 l 111.461 20.566 l 111.312
 20.816 111.125 21.004 110.898 21.129 c 110.668 21.242 110.387 21.301 110.055
 21.301 c 109.625 21.301 109.289 21.188 109.039 20.957 c 108.797 20.719 
108.68 20.402 108.68 20.004 c 108.68 19.535 108.828 19.188 109.133 18.957
 c 109.445 18.719 109.906 18.598 110.523 18.598 c 111.461 18.598 l 111.461
 18.535 l 111.461 18.223 111.355 17.984 111.148 17.816 c 110.949 17.652 
110.668 17.566 110.305 17.566 c 110.062 17.566 109.836 17.598 109.617 17.66
 c 109.398 17.715 109.184 17.793 108.977 17.895 c 108.977 17.27 l 109.227
 17.176 109.465 17.109 109.695 17.066 c 109.922 17.016 110.148 16.988 110.367
 16.988 c 110.961 16.988 111.402 17.145 111.695 17.457 c 111.996 17.762 
112.148 18.223 112.148 18.848 c h
110.914 15.191 m 111.633 15.191 l 110.445 16.566 l 109.883 16.566 l h
110.914 15.191 m f
113.523 17.082 m 114.195 17.082 l 114.195 21.27 l 114.195 21.789 114.094
 22.164 113.898 22.395 c 113.699 22.633 113.383 22.754 112.945 22.754 c 
112.68 22.754 l 112.68 22.176 l 112.867 22.176 l 113.117 22.176 113.289 
22.117 113.383 22.004 c 113.477 21.887 113.523 21.645 113.523 21.27 c h
113.523 15.488 m 114.195 15.488 l 114.195 16.348 l 113.523 16.348 l h
113.523 15.488 m f
119.125 18.973 m 119.125 19.301 l 116.016 19.301 l 116.047 19.77 116.188
 20.125 116.438 20.363 c 116.688 20.605 117.035 20.723 117.484 20.723 c 
117.742 20.723 117.992 20.691 118.234 20.629 c 118.484 20.566 118.727 20.473
 118.969 20.348 c 118.969 20.988 l 118.719 21.082 118.469 21.156 118.219
 21.207 c 117.969 21.27 117.711 21.301 117.453 21.301 c 116.797 21.301 116.273
 21.113 115.891 20.738 c 115.504 20.355 115.312 19.832 115.312 19.176 c 
115.312 18.512 115.492 17.98 115.859 17.582 c 116.223 17.188 116.711 16.988
 117.328 16.988 c 117.879 16.988 118.316 17.168 118.641 17.52 c 118.961 
17.875 119.125 18.359 119.125 18.973 c h
118.453 18.77 m 118.441 18.406 118.336 18.113 118.141 17.895 c 117.941 
17.676 117.676 17.566 117.344 17.566 c 116.969 17.566 116.664 17.676 116.438
 17.895 c 116.207 18.105 116.078 18.402 116.047 18.785 c h
118.453 18.77 m f
123.629 18.723 m 123.629 21.191 l 122.957 21.191 l 122.957 18.738 l 122.957
 18.355 122.879 18.066 122.723 17.879 c 122.574 17.684 122.352 17.582 122.051
 17.582 c 121.684 17.582 121.398 17.699 121.191 17.926 c 120.98 18.156 120.879
 18.473 120.879 18.879 c 120.879 21.191 l 120.207 21.191 l 120.207 17.082
 l 120.879 17.082 l 120.879 17.723 l 121.035 17.484 121.223 17.301 121.441
 17.176 c 121.66 17.051 121.914 16.988 122.207 16.988 c 122.676 16.988 123.027
 17.137 123.27 17.426 c 123.508 17.719 123.629 18.152 123.629 18.723 c h
123.629 18.723 m f
125.836 15.191 m 126.555 15.191 l 125.367 16.566 l 124.805 16.566 l h
124.977 17.082 m 125.648 17.082 l 125.648 21.191 l 124.977 21.191 l h
125.32 16.988 m h
125.32 16.988 m f
129.555 15.723 m 132.461 15.723 l 132.461 16.348 l 130.227 16.348 l 130.227
 17.691 l 130.328 17.652 130.434 17.625 130.539 17.613 c 130.652 17.594 
130.762 17.582 130.867 17.582 c 131.48 17.582 131.965 17.75 132.32 18.082
 c 132.672 18.418 132.852 18.871 132.852 19.441 c 132.852 20.027 132.668
 20.484 132.305 20.816 c 131.938 21.141 131.422 21.301 130.758 21.301 c 
130.527 21.301 130.293 21.277 130.055 21.238 c 129.812 21.195 129.57 21.141
 129.32 21.066 c 129.32 20.316 l 129.539 20.441 129.762 20.535 129.992 20.598
 c 130.23 20.652 130.48 20.676 130.742 20.676 c 131.168 20.676 131.5 20.566
 131.742 20.348 c 131.992 20.121 132.117 19.816 132.117 19.441 c 132.117
 19.059 131.992 18.754 131.742 18.535 c 131.5 18.316 131.168 18.207 130.742
 18.207 c 130.543 18.207 130.344 18.23 130.148 18.27 c 129.949 18.312 129.75
 18.379 129.555 18.473 c h
129.555 15.723 m f
138.035 21.191 m 135.957 15.723 l 136.723 15.723 l 138.457 20.332 l 140.191
 15.723 l 140.957 15.723 l 138.879 21.191 l h
138.035 21.191 m f
71.465 4.062 m 71.465 6.109 l 72.402 6.109 l 72.746 6.109 73.012 6.023 
73.199 5.844 c 73.387 5.668 73.48 5.418 73.48 5.094 c 73.48 4.762 73.387
 4.508 73.199 4.328 c 73.012 4.152 72.746 4.062 72.402 4.062 c h
70.73 3.453 m 72.402 3.453 l 73.016 3.453 73.48 3.594 73.793 3.875 c 74.105
 4.148 74.262 4.555 74.262 5.094 c 74.262 5.625 74.105 6.031 73.793 6.312
 c 73.48 6.586 73.016 6.719 72.402 6.719 c 71.465 6.719 l 71.465 8.922 l
 70.73 8.922 l h
70.73 3.453 m f
75.059 4.812 m 75.73 4.812 l 75.73 8.922 l 75.059 8.922 l h
75.059 3.219 m 75.73 3.219 l 75.73 4.078 l 75.059 4.078 l h
75.059 3.219 m f
80.547 6.453 m 80.547 8.922 l 79.875 8.922 l 79.875 6.469 l 79.875 6.086
 79.797 5.797 79.641 5.609 c 79.492 5.414 79.27 5.312 78.969 5.312 c 78.602
 5.312 78.316 5.43 78.109 5.656 c 77.898 5.887 77.797 6.203 77.797 6.609
 c 77.797 8.922 l 77.125 8.922 l 77.125 4.812 l 77.797 4.812 l 77.797 5.453
 l 77.953 5.215 78.141 5.031 78.359 4.906 c 78.578 4.781 78.832 4.719 79.125
 4.719 c 79.594 4.719 79.945 4.867 80.188 5.156 c 80.426 5.449 80.547 5.883
 80.547 6.453 c h
80.547 6.453 m f
86.621 5.969 m 86.973 6.055 87.25 6.215 87.449 6.453 c 87.645 6.695 87.746
 6.984 87.746 7.328 c 87.746 7.871 87.559 8.293 87.184 8.594 c 86.816 8.887
 86.293 9.031 85.605 9.031 c 85.375 9.031 85.137 9.004 84.887 8.953 c 84.645
 8.914 84.402 8.844 84.152 8.75 c 84.152 8.047 l 84.348 8.164 84.566 8.25
 84.809 8.312 c 85.059 8.375 85.316 8.406 85.59 8.406 c 86.047 8.406 86.395
 8.32 86.637 8.141 c 86.887 7.953 87.012 7.684 87.012 7.328 c 87.012 7.008
 86.895 6.758 86.668 6.578 c 86.438 6.391 86.125 6.297 85.73 6.297 c 85.09
 6.297 l 85.09 5.703 l 85.762 5.703 l 86.125 5.703 86.402 5.633 86.59 5.484
 c 86.785 5.34 86.887 5.125 86.887 4.844 c 86.887 4.562 86.781 4.352 86.574
 4.203 c 86.375 4.059 86.094 3.984 85.73 3.984 c 85.52 3.984 85.301 4.008
 85.074 4.047 c 84.844 4.09 84.59 4.156 84.309 4.25 c 84.309 3.594 l 84.59
 3.512 84.848 3.453 85.09 3.422 c 85.34 3.383 85.574 3.359 85.793 3.359 
c 86.355 3.359 86.797 3.492 87.121 3.75 c 87.453 4 87.621 4.34 87.621 4.766
 c 87.621 5.078 87.531 5.34 87.355 5.547 c 87.176 5.758 86.934 5.898 86.621
 5.969 c h
86.621 5.969 m f
89.223 7.984 m 90.004 7.984 l 90.004 8.922 l 89.223 8.922 l h
89.223 5.047 m 90.004 5.047 l 90.004 5.969 l 89.223 5.969 l h
89.223 5.047 m f
93.68 3.453 m 97.977 3.453 l 97.977 4.016 l 94.523 8.297 l 98.055 8.297
 l 98.055 8.922 l 93.602 8.922 l 93.602 8.359 l 97.055 4.078 l 93.68 4.078
 l h
93.68 3.453 m f
102.617 6.703 m 102.617 7.031 l 99.508 7.031 l 99.539 7.5 99.68 7.855 99.93
 8.094 c 100.18 8.336 100.527 8.453 100.977 8.453 c 101.234 8.453 101.484
 8.422 101.727 8.359 c 101.977 8.297 102.219 8.203 102.461 8.078 c 102.461
 8.719 l 102.211 8.812 101.961 8.887 101.711 8.938 c 101.461 9 101.203 9.031
 100.945 9.031 c 100.289 9.031 99.766 8.844 99.383 8.469 c 98.996 8.086 
98.805 7.562 98.805 6.906 c 98.805 6.242 98.984 5.711 99.352 5.312 c 99.715
 4.918 100.203 4.719 100.82 4.719 c 101.371 4.719 101.809 4.898 102.133 
5.25 c 102.453 5.605 102.617 6.09 102.617 6.703 c h
101.945 6.5 m 101.934 6.137 101.828 5.844 101.633 5.625 c 101.434 5.406
 101.168 5.297 100.836 5.297 c 100.461 5.297 100.156 5.406 99.93 5.625 c
 99.699 5.836 99.57 6.133 99.539 6.516 c h
101.945 6.5 m f
106.918 5.609 m 107.082 5.309 107.281 5.086 107.512 4.938 c 107.75 4.793
 108.027 4.719 108.34 4.719 c 108.766 4.719 109.094 4.871 109.324 5.172 
c 109.562 5.477 109.684 5.902 109.684 6.453 c 109.684 8.922 l 108.996 8.922
 l 108.996 6.469 l 108.996 6.074 108.926 5.781 108.793 5.594 c 108.656 5.406
 108.441 5.312 108.152 5.312 c 107.809 5.312 107.531 5.43 107.324 5.656 
c 107.125 5.887 107.027 6.203 107.027 6.609 c 107.027 8.922 l 106.355 8.922
 l 106.355 6.469 l 106.355 6.074 106.281 5.781 106.137 5.594 c 106 5.406
 105.785 5.312 105.496 5.312 c 105.152 5.312 104.875 5.43 104.668 5.656 
c 104.469 5.887 104.371 6.203 104.371 6.609 c 104.371 8.922 l 103.699 8.922
 l 103.699 4.812 l 104.371 4.812 l 104.371 5.453 l 104.527 5.203 104.707
 5.023 104.918 4.906 c 105.137 4.781 105.391 4.719 105.684 4.719 c 105.984
 4.719 106.238 4.797 106.449 4.953 c 106.656 5.102 106.812 5.32 106.918 
5.609 c h
106.918 5.609 m f
Q Q
showpage
%%Trailer
end
%%EOF
