%!PS-Adobe-3.0 EPSF-3.0
%%Creator: cairo 1.16.0 (https://cairographics.org)
%%CreationDate: Thu Apr  6 18:44:01 2023
%%Pages: 1
%%DocumentData: Clean7Bit
%%LanguageLevel: 2
%%BoundingBox: 0 0 174 57
%%EndComments
%%BeginProlog
50 dict begin
/q { gsave } bind def
/Q { grestore } bind def
/cm { 6 array astore concat } bind def
/w { setlinewidth } bind def
/J { setlinecap } bind def
/j { setlinejoin } bind def
/M { setmiterlimit } bind def
/d { setdash } bind def
/m { moveto } bind def
/l { lineto } bind def
/c { curveto } bind def
/h { closepath } bind def
/re { exch dup neg 3 1 roll 5 3 roll moveto 0 rlineto
      0 exch rlineto 0 rlineto closepath } bind def
/S { stroke } bind def
/f { fill } bind def
/f* { eofill } bind def
/n { newpath } bind def
/W { clip } bind def
/W* { eoclip } bind def
/BT { } bind def
/ET { } bind def
/BDC { mark 3 1 roll /BDC pdfmark } bind def
/EMC { mark /EMC pdfmark } bind def
/cairo_store_point { /cairo_point_y exch def /cairo_point_x exch def } def
/Tj { show currentpoint cairo_store_point } bind def
/TJ {
  {
    dup
    type /stringtype eq
    { show } { -0.001 mul 0 cairo_font_matrix dtransform rmoveto } ifelse
  } forall
  currentpoint cairo_store_point
} bind def
/cairo_selectfont { cairo_font_matrix aload pop pop pop 0 0 6 array astore
    cairo_font exch selectfont cairo_point_x cairo_point_y moveto } bind def
/Tf { pop /cairo_font exch def /cairo_font_matrix where
      { pop cairo_selectfont } if } bind def
/Td { matrix translate cairo_font_matrix matrix concatmatrix dup
      /cairo_font_matrix exch def dup 4 get exch 5 get cairo_store_point
      /cairo_font where { pop cairo_selectfont } if } bind def
/Tm { 2 copy 8 2 roll 6 array astore /cairo_font_matrix exch def
      cairo_store_point /cairo_font where { pop cairo_selectfont } if } bind def
/g { setgray } bind def
/rg { setrgbcolor } bind def
/d1 { setcachedevice } bind def
/cairo_data_source {
  CairoDataIndex CairoData length lt
    { CairoData CairoDataIndex get /CairoDataIndex CairoDataIndex 1 add def }
    { () } ifelse
} def
/cairo_flush_ascii85_file { cairo_ascii85_file status { cairo_ascii85_file flushfile } if } def
/cairo_image { image cairo_flush_ascii85_file } def
/cairo_imagemask { imagemask cairo_flush_ascii85_file } def
%%EndProlog
%%BeginSetup
%%EndSetup
%%Page: 1 1
%%BeginPageSetup
%%PageBoundingBox: 0 0 174 57
%%EndPageSetup
q 0 0 174 57 rectclip
1 0 0 -1 0 57 cm q
0.6 g
6.672 0.285 m 48.234 0.285 l 51.773 0.285 54.621 3.133 54.621 6.672 c 54.621
 49.594 l 54.621 53.133 51.773 55.98 48.234 55.98 c 6.672 55.98 l 3.133 
55.98 0.285 53.133 0.285 49.594 c 0.285 6.672 l 0.285 3.133 3.133 0.285 
6.672 0.285 c h
6.672 0.285 m f
0 g
0.566929 w
1 J
1 j
[] 0.0 d
4 M q 1 0 0 1 0 0 cm
6.672 0.285 m 48.234 0.285 l 51.773 0.285 54.621 3.133 54.621 6.672 c 54.621
 49.594 l 54.621 53.133 51.773 55.98 48.234 55.98 c 6.672 55.98 l 3.133 
55.98 0.285 53.133 0.285 49.594 c 0.285 6.672 l 0.285 3.133 3.133 0.285 
6.672 0.285 c h
6.672 0.285 m S Q
0.94902 g
25.375 9.562 m 25.375 17.055 l 7.371 17.055 l 7.371 46.703 l 47.535 46.703
 l 47.535 17.055 l 41.789 17.055 l 41.789 9.562 l h
25.375 9.562 m f
0 g
2 J
0 j
q 1 0 0 1 0 0 cm
25.375 9.562 m 25.375 17.055 l 7.371 17.055 l 7.371 46.703 l 47.535 46.703
 l 47.535 17.055 l 41.789 17.055 l 41.789 9.562 l h
25.375 9.562 m S Q
1 1 0 rg
12.086 35.219 3.273 7.965 re f
0 g
q 1 0 0 1 0 0 cm
12.086 35.219 3.273 7.965 re S Q
0 1 0 rg
17.578 35.219 3.273 7.965 re f
0 g
q 1 0 0 1 0 0 cm
17.578 35.219 3.273 7.965 re S Q
1 0 0 rg
23.07 35.219 3.273 7.965 re f
0 g
q 1 0 0 1 0 0 cm
23.07 35.219 3.273 7.965 re S Q
28.562 35.219 3.273 7.965 re f
q 1 0 0 1 0 0 cm
28.562 35.219 3.273 7.965 re S Q
0.901961 g
34.055 35.219 3.27 7.965 re f
0 g
q 1 0 0 1 0 0 cm
34.055 35.219 3.27 7.965 re S Q
0.901961 g
39.543 35.219 3.273 7.965 re f
0 g
q 1 0 0 1 0 0 cm
39.543 35.219 3.273 7.965 re S Q
13.777 30.699 m 13.504 30.699 13.293 30.793 13.137 30.98 c 12.98 31.16 
12.902 31.402 12.902 31.715 c 12.902 32.027 12.98 32.277 13.137 32.465 c
 13.293 32.645 13.504 32.73 13.777 32.73 c 14.035 32.73 14.246 32.645 14.402
 32.465 c 14.559 32.277 14.637 32.027 14.637 31.715 c 14.637 31.402 14.559
 31.16 14.402 30.98 c 14.246 30.793 14.035 30.699 13.777 30.699 c h
14.949 28.84 m 14.949 29.387 l 14.801 29.316 14.652 29.262 14.496 29.23
 c 14.348 29.191 14.199 29.168 14.043 29.168 c 13.656 29.168 13.359 29.301
 13.152 29.559 c 12.941 29.82 12.828 30.223 12.809 30.762 c 12.922 30.586
 13.062 30.457 13.23 30.371 c 13.406 30.277 13.598 30.23 13.809 30.23 c 
14.246 30.23 14.59 30.367 14.84 30.637 c 15.098 30.898 15.23 31.258 15.23
 31.715 c 15.23 32.164 15.094 32.523 14.824 32.793 c 14.562 33.066 14.215
 33.199 13.777 33.199 c 13.266 33.199 12.875 33.008 12.605 32.621 c 12.344
 32.238 12.215 31.676 12.215 30.934 c 12.215 30.246 12.375 29.699 12.699
 29.293 c 13.031 28.879 13.473 28.668 14.027 28.668 c 14.172 28.668 14.316
 28.684 14.465 28.715 c 14.621 28.746 14.781 28.789 14.949 28.84 c h
14.949 28.84 m f
17.977 28.715 m 20.305 28.715 l 20.305 29.215 l 18.523 29.215 l 18.523 
30.293 l 18.605 30.262 18.688 30.242 18.773 30.23 c 18.867 30.211 18.953
 30.199 19.039 30.199 c 19.527 30.199 19.914 30.336 20.195 30.605 c 20.484
 30.867 20.633 31.227 20.633 31.684 c 20.633 32.152 20.484 32.52 20.195 
32.777 c 19.902 33.039 19.484 33.168 18.945 33.168 c 18.766 33.168 18.578
 33.152 18.383 33.121 c 18.195 33.09 18 33.043 17.805 32.98 c 17.805 32.387
 l 17.98 32.492 18.164 32.57 18.352 32.621 c 18.539 32.664 18.734 32.684
 18.945 32.684 c 19.277 32.684 19.543 32.598 19.742 32.418 c 19.938 32.23
 20.039 31.988 20.039 31.684 c 20.039 31.383 19.938 31.145 19.742 30.965
 c 19.543 30.789 19.277 30.699 18.945 30.699 c 18.777 30.699 18.617 30.723
 18.461 30.762 c 18.305 30.793 18.141 30.848 17.977 30.918 c h
17.977 28.715 m f
25.086 29.262 m 23.602 31.59 l 25.086 31.59 l h
24.93 28.746 m 25.68 28.746 l 25.68 31.59 l 26.305 31.59 l 26.305 32.09
 l 25.68 32.09 l 25.68 33.121 l 25.086 33.121 l 25.086 32.09 l 23.117 32.09
 l 23.117 31.512 l h
24.93 28.746 m f
30.738 30.762 m 31.02 30.824 31.238 30.957 31.395 31.152 c 31.559 31.34
 31.645 31.574 31.645 31.855 c 31.645 32.285 31.492 32.617 31.191 32.855
 c 30.898 33.086 30.477 33.199 29.926 33.199 c 29.738 33.199 29.543 33.176
 29.348 33.137 c 29.16 33.105 28.961 33.059 28.754 32.996 c 28.754 32.418
 l 28.918 32.512 29.102 32.586 29.301 32.637 c 29.496 32.691 29.699 32.715
 29.91 32.715 c 30.285 32.715 30.566 32.645 30.754 32.496 c 30.949 32.34
 31.051 32.129 31.051 31.855 c 31.051 31.598 30.957 31.395 30.77 31.246 
c 30.59 31.102 30.34 31.027 30.02 31.027 c 29.52 31.027 l 29.52 30.543 l
 30.051 30.543 l 30.34 30.543 30.559 30.488 30.707 30.371 c 30.863 30.246
 30.941 30.074 30.941 29.855 c 30.941 29.637 30.863 29.473 30.707 29.355
 c 30.551 29.23 30.32 29.168 30.02 29.168 c 29.863 29.168 29.691 29.191 
29.504 29.23 c 29.316 29.262 29.113 29.316 28.895 29.387 c 28.895 28.855
 l 29.113 28.793 29.32 28.746 29.52 28.715 c 29.715 28.684 29.902 28.668
 30.082 28.668 c 30.527 28.668 30.883 28.773 31.145 28.98 c 31.402 29.18
 31.535 29.457 31.535 29.809 c 31.535 30.051 31.461 30.254 31.316 30.418
 c 31.18 30.586 30.988 30.699 30.738 30.762 c h
30.738 30.762 m f
35.02 32.652 m 37.082 32.652 l 37.082 33.152 l 34.301 33.152 l 34.301 32.652
 l 34.527 32.426 34.836 32.117 35.223 31.73 c 35.605 31.336 35.852 31.082
 35.957 30.965 c 36.145 30.746 36.273 30.566 36.348 30.418 c 36.418 30.273
 36.457 30.129 36.457 29.98 c 36.457 29.754 36.371 29.566 36.207 29.418 
c 36.051 29.273 35.84 29.199 35.582 29.199 c 35.395 29.199 35.195 29.23 
34.988 29.293 c 34.789 29.355 34.57 29.457 34.332 29.59 c 34.332 28.996 
l 34.57 28.895 34.793 28.82 35.004 28.777 c 35.211 28.727 35.398 28.699 
35.566 28.699 c 36.023 28.699 36.383 28.816 36.645 29.043 c 36.914 29.262
 37.051 29.566 37.051 29.949 c 37.051 30.129 37.012 30.301 36.941 30.465
 c 36.879 30.621 36.758 30.809 36.582 31.027 c 36.539 31.082 36.383 31.242
 36.113 31.512 c 35.852 31.785 35.488 32.164 35.02 32.652 c h
35.02 32.652 m f
39.969 32.621 m 40.938 32.621 l 40.938 29.293 l 39.875 29.496 l 39.875 
28.965 l 40.922 28.746 l 41.516 28.746 l 41.516 32.621 l 42.484 32.621 l
 42.484 33.121 l 39.969 33.121 l h
39.969 32.621 m f
0.501961 0.501961 0 rg
71.465 40.09 m 71.465 42.137 l 72.402 42.137 l 72.746 42.137 73.012 42.051
 73.199 41.871 c 73.387 41.695 73.48 41.445 73.48 41.121 c 73.48 40.789 
73.387 40.535 73.199 40.355 c 73.012 40.18 72.746 40.09 72.402 40.09 c h
70.73 39.48 m 72.402 39.48 l 73.016 39.48 73.48 39.621 73.793 39.902 c 
74.105 40.176 74.262 40.582 74.262 41.121 c 74.262 41.652 74.105 42.059 
73.793 42.34 c 73.48 42.613 73.016 42.746 72.402 42.746 c 71.465 42.746 
l 71.465 44.949 l 70.73 44.949 l h
70.73 39.48 m f
75.059 40.84 m 75.73 40.84 l 75.73 44.949 l 75.059 44.949 l h
75.059 39.246 m 75.73 39.246 l 75.73 40.105 l 75.059 40.105 l h
75.059 39.246 m f
80.547 42.48 m 80.547 44.949 l 79.875 44.949 l 79.875 42.496 l 79.875 42.113
 79.797 41.824 79.641 41.637 c 79.492 41.441 79.27 41.34 78.969 41.34 c 
78.602 41.34 78.316 41.457 78.109 41.684 c 77.898 41.914 77.797 42.23 77.797
 42.637 c 77.797 44.949 l 77.125 44.949 l 77.125 40.84 l 77.797 40.84 l 
77.797 41.48 l 77.953 41.242 78.141 41.059 78.359 40.934 c 78.578 40.809
 78.832 40.746 79.125 40.746 c 79.594 40.746 79.945 40.895 80.188 41.184
 c 80.426 41.477 80.547 41.91 80.547 42.48 c h
80.547 42.48 m f
86.043 41.918 m 85.719 41.918 85.457 42.035 85.262 42.262 c 85.062 42.492
 84.965 42.805 84.965 43.199 c 84.965 43.586 85.062 43.895 85.262 44.121
 c 85.457 44.352 85.719 44.465 86.043 44.465 c 86.375 44.465 86.641 44.352
 86.84 44.121 c 87.035 43.895 87.137 43.586 87.137 43.199 c 87.137 42.805
 87.035 42.492 86.84 42.262 c 86.641 42.035 86.375 41.918 86.043 41.918 
c h
87.512 39.605 m 87.512 40.277 l 87.332 40.184 87.145 40.117 86.949 40.074
 c 86.762 40.035 86.574 40.012 86.387 40.012 c 85.906 40.012 85.535 40.18
 85.277 40.512 c 85.016 40.836 84.871 41.332 84.84 41.996 c 84.973 41.777
 85.152 41.617 85.371 41.512 c 85.59 41.398 85.828 41.34 86.09 41.34 c 86.641
 41.34 87.074 41.508 87.387 41.84 c 87.707 42.176 87.871 42.629 87.871 43.199
 c 87.871 43.762 87.703 44.215 87.371 44.559 c 87.035 44.895 86.594 45.059
 86.043 45.059 c 85.418 45.059 84.938 44.82 84.605 44.34 c 84.27 43.852 
84.105 43.145 84.105 42.215 c 84.105 41.352 84.309 40.664 84.715 40.152 
c 85.121 39.645 85.672 39.387 86.371 39.387 c 86.547 39.387 86.73 39.41 
86.918 39.449 c 87.113 39.48 87.312 39.535 87.512 39.605 c h
87.512 39.605 m f
0 g
89.223 44.012 m 90.004 44.012 l 90.004 44.949 l 89.223 44.949 l h
89.223 41.074 m 90.004 41.074 l 90.004 41.996 l 89.223 41.996 l h
89.223 41.074 m f
93.914 39.48 m 94.648 39.48 l 94.648 42.809 l 94.648 43.395 94.75 43.816
 94.961 44.074 c 95.18 44.324 95.527 44.449 96.008 44.449 c 96.477 44.449
 96.812 44.324 97.023 44.074 c 97.242 43.816 97.352 43.395 97.352 42.809
 c 97.352 39.48 l 98.102 39.48 l 98.102 42.902 l 98.102 43.613 97.922 44.148
 97.57 44.512 c 97.215 44.879 96.695 45.059 96.008 45.059 c 95.309 45.059
 94.781 44.879 94.43 44.512 c 94.086 44.148 93.914 43.613 93.914 42.902 
c h
93.914 39.48 m f
101.312 40.215 m 100.312 42.934 l 102.328 42.934 l h
100.891 39.48 m 101.734 39.48 l 103.812 44.949 l 103.047 44.949 l 102.547
 43.543 l 100.094 43.543 l 99.594 44.949 l 98.812 44.949 l h
100.891 39.48 m f
107.207 42.387 m 107.363 42.441 107.512 42.555 107.66 42.73 c 107.816 42.91
 107.973 43.148 108.129 43.449 c 108.879 44.949 l 108.082 44.949 l 107.379
 43.543 l 107.199 43.18 107.023 42.941 106.848 42.824 c 106.68 42.699 106.449
 42.637 106.16 42.637 c 105.348 42.637 l 105.348 44.949 l 104.613 44.949
 l 104.613 39.48 l 106.285 39.48 l 106.91 39.48 107.371 39.613 107.676 39.871
 c 107.988 40.133 108.145 40.527 108.145 41.059 c 108.145 41.402 108.059
 41.691 107.895 41.918 c 107.738 42.137 107.508 42.293 107.207 42.387 c 
h
105.348 40.09 m 105.348 42.027 l 106.285 42.027 l 106.637 42.027 106.902
 41.949 107.082 41.793 c 107.27 41.629 107.363 41.383 107.363 41.059 c 107.363
 40.738 107.27 40.496 107.082 40.34 c 106.902 40.176 106.637 40.09 106.285
 40.09 c h
105.348 40.09 m f
108.527 39.48 m 113.152 39.48 l 113.152 40.105 l 111.199 40.105 l 111.199
 44.949 l 110.465 44.949 l 110.465 40.105 l 108.527 40.105 l h
108.527 39.48 m f
114 44.012 m 114.781 44.012 l 114.781 44.652 l 114.172 45.824 l 113.703
 45.824 l 114 44.652 l h
114 44.012 m f
121.223 40.965 m 121.223 41.605 l 121.023 41.512 120.82 41.441 120.613 
41.387 c 120.414 41.336 120.207 41.309 119.988 41.309 c 119.652 41.309 119.402
 41.363 119.238 41.465 c 119.07 41.57 118.988 41.727 118.988 41.934 c 118.988
 42.09 119.043 42.215 119.16 42.309 c 119.285 42.395 119.523 42.473 119.879
 42.543 c 120.113 42.605 l 120.59 42.711 120.93 42.855 121.129 43.043 c 
121.336 43.223 121.441 43.48 121.441 43.824 c 121.441 44.199 121.289 44.504
 120.988 44.73 c 120.684 44.949 120.27 45.059 119.738 45.059 c 119.52 45.059
 119.289 45.035 119.051 44.996 c 118.809 44.953 118.559 44.887 118.301 44.793
 c 118.301 44.105 l 118.551 44.23 118.793 44.332 119.035 44.402 c 119.273
 44.465 119.512 44.496 119.754 44.496 c 120.074 44.496 120.32 44.445 120.488
 44.34 c 120.652 44.227 120.738 44.07 120.738 43.871 c 120.738 43.684 120.676
 43.543 120.551 43.449 c 120.434 43.355 120.168 43.262 119.754 43.168 c 
119.52 43.105 l 119.102 43.023 118.801 42.895 118.613 42.715 c 118.426 42.527
 118.332 42.277 118.332 41.965 c 118.332 41.57 118.465 41.27 118.738 41.059
 c 119.008 40.852 119.398 40.746 119.91 40.746 c 120.16 40.746 120.395 40.77
 120.613 40.809 c 120.832 40.84 121.035 40.895 121.223 40.965 c h
121.223 40.965 m f
126.02 42.73 m 126.02 43.059 l 122.91 43.059 l 122.941 43.527 123.082 43.883
 123.332 44.121 c 123.582 44.363 123.93 44.48 124.379 44.48 c 124.637 44.48
 124.887 44.449 125.129 44.387 c 125.379 44.324 125.621 44.23 125.863 44.105
 c 125.863 44.746 l 125.613 44.84 125.363 44.914 125.113 44.965 c 124.863
 45.027 124.605 45.059 124.348 45.059 c 123.691 45.059 123.168 44.871 122.785
 44.496 c 122.398 44.113 122.207 43.59 122.207 42.934 c 122.207 42.27 122.387
 41.738 122.754 41.34 c 123.117 40.945 123.605 40.746 124.223 40.746 c 124.773
 40.746 125.211 40.926 125.535 41.277 c 125.855 41.633 126.02 42.117 126.02
 42.73 c h
125.348 42.527 m 125.336 42.164 125.23 41.871 125.035 41.652 c 124.836 
41.434 124.57 41.324 124.238 41.324 c 123.863 41.324 123.559 41.434 123.332
 41.652 c 123.102 41.863 122.973 42.16 122.941 42.543 c h
125.348 42.527 m f
130.523 42.48 m 130.523 44.949 l 129.852 44.949 l 129.852 42.496 l 129.852
 42.113 129.773 41.824 129.617 41.637 c 129.469 41.441 129.246 41.34 128.945
 41.34 c 128.578 41.34 128.293 41.457 128.086 41.684 c 127.875 41.914 127.773
 42.23 127.773 42.637 c 127.773 44.949 l 127.102 44.949 l 127.102 40.84 
l 127.773 40.84 l 127.773 41.48 l 127.93 41.242 128.117 41.059 128.336 40.934
 c 128.555 40.809 128.809 40.746 129.102 40.746 c 129.57 40.746 129.922 
40.895 130.164 41.184 c 130.402 41.477 130.523 41.91 130.523 42.48 c h
130.523 42.48 m f
131.574 40.84 m 134.777 40.84 l 134.777 41.465 l 132.246 44.418 l 134.777
 44.418 l 134.777 44.949 l 131.496 44.949 l 131.496 44.34 l 134.027 41.387
 l 131.574 41.387 l h
131.574 40.84 m f
137.402 41.324 m 137.035 41.324 136.75 41.465 136.543 41.746 c 136.332 
42.027 136.23 42.414 136.23 42.902 c 136.23 43.395 136.332 43.777 136.543
 44.059 c 136.75 44.34 137.035 44.48 137.402 44.48 c 137.754 44.48 138.035
 44.34 138.246 44.059 c 138.465 43.777 138.574 43.395 138.574 42.902 c 138.574
 42.414 138.465 42.027 138.246 41.746 c 138.035 41.465 137.754 41.324 137.402
 41.324 c h
137.402 40.746 m 137.984 40.746 138.441 40.941 138.777 41.324 c 139.109
 41.699 139.277 42.227 139.277 42.902 c 139.277 43.57 139.109 44.098 138.777
 44.48 c 138.441 44.867 137.984 45.059 137.402 45.059 c 136.809 45.059 136.344
 44.867 136.012 44.48 c 135.676 44.098 135.512 43.57 135.512 42.902 c 135.512
 42.227 135.676 41.699 136.012 41.324 c 136.344 40.941 136.809 40.746 137.402
 40.746 c h
137.402 40.746 m f
142.773 41.48 m 142.699 41.441 142.617 41.41 142.523 41.387 c 142.438 41.367
 142.344 41.355 142.242 41.355 c 141.855 41.355 141.559 41.48 141.352 41.73
 c 141.152 41.973 141.055 42.324 141.055 42.793 c 141.055 44.949 l 140.383
 44.949 l 140.383 40.84 l 141.055 40.84 l 141.055 41.48 l 141.199 41.23 
141.383 41.051 141.602 40.934 c 141.828 40.809 142.105 40.746 142.43 40.746
 c 142.48 40.746 142.531 40.754 142.586 40.762 c 142.648 40.762 142.711 
40.773 142.773 40.793 c h
142.773 41.48 m f
148.699 42.434 m 148.699 42.762 l 147.262 44.199 l 146.824 43.762 l 147.668
 42.902 l 143.199 42.902 l 143.199 42.293 l 147.668 42.293 l 146.824 41.434
 l 147.262 40.996 l h
148.699 42.434 m f
149.75 39.246 m 150.422 39.246 l 150.422 42.621 l 152.438 40.84 l 153.297
 40.84 l 151.109 42.762 l 153.391 44.949 l 152.5 44.949 l 150.422 42.949
 l 150.422 44.949 l 149.75 44.949 l h
149.75 39.246 m f
155.434 41.324 m 155.066 41.324 154.781 41.465 154.574 41.746 c 154.363
 42.027 154.262 42.414 154.262 42.902 c 154.262 43.395 154.363 43.777 154.574
 44.059 c 154.781 44.34 155.066 44.48 155.434 44.48 c 155.785 44.48 156.066
 44.34 156.277 44.059 c 156.496 43.777 156.605 43.395 156.605 42.902 c 156.605
 42.414 156.496 42.027 156.277 41.746 c 156.066 41.465 155.785 41.324 155.434
 41.324 c h
155.434 40.746 m 156.016 40.746 156.473 40.941 156.809 41.324 c 157.141
 41.699 157.309 42.227 157.309 42.902 c 157.309 43.57 157.141 44.098 156.809
 44.48 c 156.473 44.867 156.016 45.059 155.434 45.059 c 154.84 45.059 154.375
 44.867 154.043 44.48 c 153.707 44.098 153.543 43.57 153.543 42.902 c 153.543
 42.227 153.707 41.699 154.043 41.324 c 154.375 40.941 154.84 40.746 155.434
 40.746 c h
155.434 40.746 m f
161.055 40.965 m 161.055 41.605 l 160.855 41.512 160.652 41.441 160.445
 41.387 c 160.246 41.336 160.039 41.309 159.82 41.309 c 159.484 41.309 159.234
 41.363 159.07 41.465 c 158.902 41.57 158.82 41.727 158.82 41.934 c 158.82
 42.09 158.875 42.215 158.992 42.309 c 159.117 42.395 159.355 42.473 159.711
 42.543 c 159.945 42.605 l 160.422 42.711 160.762 42.855 160.961 43.043 
c 161.168 43.223 161.273 43.48 161.273 43.824 c 161.273 44.199 161.121 44.504
 160.82 44.73 c 160.516 44.949 160.102 45.059 159.57 45.059 c 159.352 45.059
 159.121 45.035 158.883 44.996 c 158.641 44.953 158.391 44.887 158.133 44.793
 c 158.133 44.105 l 158.383 44.23 158.625 44.332 158.867 44.402 c 159.105
 44.465 159.344 44.496 159.586 44.496 c 159.906 44.496 160.152 44.445 160.32
 44.34 c 160.484 44.227 160.57 44.07 160.57 43.871 c 160.57 43.684 160.508
 43.543 160.383 43.449 c 160.266 43.355 160 43.262 159.586 43.168 c 159.352
 43.105 l 158.934 43.023 158.633 42.895 158.445 42.715 c 158.258 42.527 
158.164 42.277 158.164 41.965 c 158.164 41.57 158.297 41.27 158.57 41.059
 c 158.84 40.852 159.23 40.746 159.742 40.746 c 159.992 40.746 160.227 40.77
 160.445 40.809 c 160.664 40.84 160.867 40.895 161.055 40.965 c h
161.055 40.965 m f
163.008 39.684 m 163.008 40.84 l 164.398 40.84 l 164.398 41.371 l 163.008
 41.371 l 163.008 43.605 l 163.008 43.941 163.047 44.152 163.133 44.246 
c 163.227 44.34 163.414 44.387 163.695 44.387 c 164.398 44.387 l 164.398
 44.949 l 163.695 44.949 l 163.184 44.949 162.828 44.855 162.633 44.668 
c 162.434 44.473 162.336 44.117 162.336 43.605 c 162.336 41.371 l 161.836
 41.371 l 161.836 40.84 l 162.336 40.84 l 162.336 39.684 l h
163.008 39.684 m f
165.262 39.246 m 165.934 39.246 l 165.934 42.621 l 167.949 40.84 l 168.809
 40.84 l 166.621 42.762 l 168.902 44.949 l 168.012 44.949 l 165.934 42.949
 l 165.934 44.949 l 165.262 44.949 l h
165.262 39.246 m f
171.363 42.887 m 170.809 42.887 170.43 42.949 170.223 43.074 c 170.012 
43.199 169.91 43.414 169.91 43.715 c 169.91 43.957 169.988 44.148 170.145
 44.293 c 170.301 44.43 170.512 44.496 170.785 44.496 c 171.16 44.496 171.457
 44.367 171.676 44.105 c 171.902 43.836 172.02 43.48 172.02 43.043 c 172.02
 42.887 l h
172.707 42.605 m 172.707 44.949 l 172.02 44.949 l 172.02 44.324 l 171.871
 44.574 171.684 44.762 171.457 44.887 c 171.227 45 170.945 45.059 170.613
 45.059 c 170.184 45.059 169.848 44.945 169.598 44.715 c 169.355 44.477 
169.238 44.16 169.238 43.762 c 169.238 43.293 169.387 42.945 169.691 42.715
 c 170.004 42.477 170.465 42.355 171.082 42.355 c 172.02 42.355 l 172.02
 42.293 l 172.02 41.98 171.914 41.742 171.707 41.574 c 171.508 41.41 171.227
 41.324 170.863 41.324 c 170.621 41.324 170.395 41.355 170.176 41.418 c 
169.957 41.473 169.742 41.551 169.535 41.652 c 169.535 41.027 l 169.785 
40.934 170.023 40.867 170.254 40.824 c 170.48 40.773 170.707 40.746 170.926
 40.746 c 171.52 40.746 171.961 40.902 172.254 41.215 c 172.555 41.52 172.707
 41.98 172.707 42.605 c h
172.707 42.605 m f
0 0.501961 0 rg
71.465 27.82 m 71.465 29.867 l 72.402 29.867 l 72.746 29.867 73.012 29.781
 73.199 29.602 c 73.387 29.426 73.48 29.176 73.48 28.852 c 73.48 28.52 73.387
 28.266 73.199 28.086 c 73.012 27.91 72.746 27.82 72.402 27.82 c h
70.73 27.211 m 72.402 27.211 l 73.016 27.211 73.48 27.352 73.793 27.633
 c 74.105 27.906 74.262 28.312 74.262 28.852 c 74.262 29.383 74.105 29.789
 73.793 30.07 c 73.48 30.344 73.016 30.477 72.402 30.477 c 71.465 30.477
 l 71.465 32.68 l 70.73 32.68 l h
70.73 27.211 m f
75.059 28.57 m 75.73 28.57 l 75.73 32.68 l 75.059 32.68 l h
75.059 26.977 m 75.73 26.977 l 75.73 27.836 l 75.059 27.836 l h
75.059 26.977 m f
80.547 30.211 m 80.547 32.68 l 79.875 32.68 l 79.875 30.227 l 79.875 29.844
 79.797 29.555 79.641 29.367 c 79.492 29.172 79.27 29.07 78.969 29.07 c 
78.602 29.07 78.316 29.188 78.109 29.414 c 77.898 29.645 77.797 29.961 77.797
 30.367 c 77.797 32.68 l 77.125 32.68 l 77.125 28.57 l 77.797 28.57 l 77.797
 29.211 l 77.953 28.973 78.141 28.789 78.359 28.664 c 78.578 28.539 78.832
 28.477 79.125 28.477 c 79.594 28.477 79.945 28.625 80.188 28.914 c 80.426
 29.207 80.547 29.641 80.547 30.211 c h
80.547 30.211 m f
84.387 27.211 m 87.293 27.211 l 87.293 27.836 l 85.059 27.836 l 85.059 
29.18 l 85.16 29.141 85.266 29.113 85.371 29.102 c 85.484 29.082 85.594 
29.07 85.699 29.07 c 86.312 29.07 86.797 29.238 87.152 29.57 c 87.504 29.906
 87.684 30.359 87.684 30.93 c 87.684 31.516 87.5 31.973 87.137 32.305 c 
86.77 32.629 86.254 32.789 85.59 32.789 c 85.359 32.789 85.125 32.766 84.887
 32.727 c 84.645 32.684 84.402 32.629 84.152 32.555 c 84.152 31.805 l 84.371
 31.93 84.594 32.023 84.824 32.086 c 85.062 32.141 85.312 32.164 85.574 
32.164 c 86 32.164 86.332 32.055 86.574 31.836 c 86.824 31.609 86.949 31.305
 86.949 30.93 c 86.949 30.547 86.824 30.242 86.574 30.023 c 86.332 29.805
 86 29.695 85.574 29.695 c 85.375 29.695 85.176 29.719 84.98 29.758 c 84.781
 29.801 84.582 29.867 84.387 29.961 c h
84.387 27.211 m f
0 g
89.223 31.742 m 90.004 31.742 l 90.004 32.68 l 89.223 32.68 l h
89.223 28.805 m 90.004 28.805 l 90.004 29.727 l 89.223 29.727 l h
89.223 28.805 m f
93.914 27.211 m 94.648 27.211 l 94.648 30.539 l 94.648 31.125 94.75 31.547
 94.961 31.805 c 95.18 32.055 95.527 32.18 96.008 32.18 c 96.477 32.18 96.812
 32.055 97.023 31.805 c 97.242 31.547 97.352 31.125 97.352 30.539 c 97.352
 27.211 l 98.102 27.211 l 98.102 30.633 l 98.102 31.344 97.922 31.879 97.57
 32.242 c 97.215 32.609 96.695 32.789 96.008 32.789 c 95.309 32.789 94.781
 32.609 94.43 32.242 c 94.086 31.879 93.914 31.344 93.914 30.633 c h
93.914 27.211 m f
101.312 27.945 m 100.312 30.664 l 102.328 30.664 l h
100.891 27.211 m 101.734 27.211 l 103.812 32.68 l 103.047 32.68 l 102.547
 31.273 l 100.094 31.273 l 99.594 32.68 l 98.812 32.68 l h
100.891 27.211 m f
107.207 30.117 m 107.363 30.172 107.512 30.285 107.66 30.461 c 107.816 
30.641 107.973 30.879 108.129 31.18 c 108.879 32.68 l 108.082 32.68 l 107.379
 31.273 l 107.199 30.91 107.023 30.672 106.848 30.555 c 106.68 30.43 106.449
 30.367 106.16 30.367 c 105.348 30.367 l 105.348 32.68 l 104.613 32.68 l
 104.613 27.211 l 106.285 27.211 l 106.91 27.211 107.371 27.344 107.676 
27.602 c 107.988 27.863 108.145 28.258 108.145 28.789 c 108.145 29.133 108.059
 29.422 107.895 29.648 c 107.738 29.867 107.508 30.023 107.207 30.117 c 
h
105.348 27.82 m 105.348 29.758 l 106.285 29.758 l 106.637 29.758 106.902
 29.68 107.082 29.523 c 107.27 29.359 107.363 29.113 107.363 28.789 c 107.363
 28.469 107.27 28.227 107.082 28.07 c 106.902 27.906 106.637 27.82 106.285
 27.82 c h
105.348 27.82 m f
108.527 27.211 m 113.152 27.211 l 113.152 27.836 l 111.199 27.836 l 111.199
 32.68 l 110.465 32.68 l 110.465 27.836 l 108.527 27.836 l h
108.527 27.211 m f
114 31.742 m 114.781 31.742 l 114.781 32.383 l 114.172 33.555 l 113.703
 33.555 l 114 32.383 l h
114 31.742 m f
118.582 26.977 m 119.254 26.977 l 119.254 30.352 l 121.27 28.57 l 122.129
 28.57 l 119.941 30.492 l 122.223 32.68 l 121.332 32.68 l 119.254 30.68 
l 119.254 32.68 l 118.582 32.68 l h
118.582 26.977 m f
124.266 29.055 m 123.898 29.055 123.613 29.195 123.406 29.477 c 123.195
 29.758 123.094 30.145 123.094 30.633 c 123.094 31.125 123.195 31.508 123.406
 31.789 c 123.613 32.07 123.898 32.211 124.266 32.211 c 124.617 32.211 124.898
 32.07 125.109 31.789 c 125.328 31.508 125.438 31.125 125.438 30.633 c 125.438
 30.145 125.328 29.758 125.109 29.477 c 124.898 29.195 124.617 29.055 124.266
 29.055 c h
124.266 28.477 m 124.848 28.477 125.305 28.672 125.641 29.055 c 125.973
 29.43 126.141 29.957 126.141 30.633 c 126.141 31.301 125.973 31.828 125.641
 32.211 c 125.305 32.598 124.848 32.789 124.266 32.789 c 123.672 32.789 
123.207 32.598 122.875 32.211 c 122.539 31.828 122.375 31.301 122.375 30.633
 c 122.375 29.957 122.539 29.43 122.875 29.055 c 123.207 28.672 123.672 
28.477 124.266 28.477 c h
124.266 28.477 m f
129.887 28.695 m 129.887 29.336 l 129.688 29.242 129.484 29.172 129.277
 29.117 c 129.078 29.066 128.871 29.039 128.652 29.039 c 128.316 29.039 
128.066 29.094 127.902 29.195 c 127.734 29.301 127.652 29.457 127.652 29.664
 c 127.652 29.82 127.707 29.945 127.824 30.039 c 127.949 30.125 128.188 
30.203 128.543 30.273 c 128.777 30.336 l 129.254 30.441 129.594 30.586 129.793
 30.773 c 130 30.953 130.105 31.211 130.105 31.555 c 130.105 31.93 129.953
 32.234 129.652 32.461 c 129.348 32.68 128.934 32.789 128.402 32.789 c 128.184
 32.789 127.953 32.766 127.715 32.727 c 127.473 32.684 127.223 32.617 126.965
 32.523 c 126.965 31.836 l 127.215 31.961 127.457 32.062 127.699 32.133 
c 127.938 32.195 128.176 32.227 128.418 32.227 c 128.738 32.227 128.984 
32.176 129.152 32.07 c 129.316 31.957 129.402 31.801 129.402 31.602 c 129.402
 31.414 129.34 31.273 129.215 31.18 c 129.098 31.086 128.832 30.992 128.418
 30.898 c 128.184 30.836 l 127.766 30.754 127.465 30.625 127.277 30.445 
c 127.09 30.258 126.996 30.008 126.996 29.695 c 126.996 29.301 127.129 29
 127.402 28.789 c 127.672 28.582 128.062 28.477 128.574 28.477 c 128.824
 28.477 129.059 28.5 129.277 28.539 c 129.496 28.57 129.699 28.625 129.887
 28.695 c h
129.887 28.695 m f
131.84 27.414 m 131.84 28.57 l 133.23 28.57 l 133.23 29.102 l 131.84 29.102
 l 131.84 31.336 l 131.84 31.672 131.879 31.883 131.965 31.977 c 132.059
 32.07 132.246 32.117 132.527 32.117 c 133.23 32.117 l 133.23 32.68 l 132.527
 32.68 l 132.016 32.68 131.66 32.586 131.465 32.398 c 131.266 32.203 131.168
 31.848 131.168 31.336 c 131.168 29.102 l 130.668 29.102 l 130.668 28.57
 l 131.168 28.57 l 131.168 27.414 l h
131.84 27.414 m f
134.094 26.977 m 134.766 26.977 l 134.766 30.352 l 136.781 28.57 l 137.641
 28.57 l 135.453 30.492 l 137.734 32.68 l 136.844 32.68 l 134.766 30.68 
l 134.766 32.68 l 134.094 32.68 l h
134.094 26.977 m f
140.195 30.617 m 139.641 30.617 139.262 30.68 139.055 30.805 c 138.844 
30.93 138.742 31.145 138.742 31.445 c 138.742 31.688 138.82 31.879 138.977
 32.023 c 139.133 32.16 139.344 32.227 139.617 32.227 c 139.992 32.227 140.289
 32.098 140.508 31.836 c 140.734 31.566 140.852 31.211 140.852 30.773 c 
140.852 30.617 l h
141.539 30.336 m 141.539 32.68 l 140.852 32.68 l 140.852 32.055 l 140.703
 32.305 140.516 32.492 140.289 32.617 c 140.059 32.73 139.777 32.789 139.445
 32.789 c 139.016 32.789 138.68 32.676 138.43 32.445 c 138.188 32.207 138.07
 31.891 138.07 31.492 c 138.07 31.023 138.219 30.676 138.523 30.445 c 138.836
 30.207 139.297 30.086 139.914 30.086 c 140.852 30.086 l 140.852 30.023 
l 140.852 29.711 140.746 29.473 140.539 29.305 c 140.34 29.141 140.059 29.055
 139.695 29.055 c 139.453 29.055 139.227 29.086 139.008 29.148 c 138.789
 29.203 138.574 29.281 138.367 29.383 c 138.367 28.758 l 138.617 28.664 
138.855 28.598 139.086 28.555 c 139.312 28.504 139.539 28.477 139.758 28.477
 c 140.352 28.477 140.793 28.633 141.086 28.945 c 141.387 29.25 141.539 
29.711 141.539 30.336 c h
141.539 30.336 m f
148.137 30.164 m 148.137 30.492 l 146.699 31.93 l 146.262 31.492 l 147.105
 30.633 l 142.637 30.633 l 142.637 30.023 l 147.105 30.023 l 146.262 29.164
 l 146.699 28.727 l h
148.137 30.164 m f
151.824 28.695 m 151.824 29.336 l 151.625 29.242 151.422 29.172 151.215
 29.117 c 151.016 29.066 150.809 29.039 150.59 29.039 c 150.254 29.039 150.004
 29.094 149.84 29.195 c 149.672 29.301 149.59 29.457 149.59 29.664 c 149.59
 29.82 149.645 29.945 149.762 30.039 c 149.887 30.125 150.125 30.203 150.48
 30.273 c 150.715 30.336 l 151.191 30.441 151.531 30.586 151.73 30.773 c
 151.938 30.953 152.043 31.211 152.043 31.555 c 152.043 31.93 151.891 32.234
 151.59 32.461 c 151.285 32.68 150.871 32.789 150.34 32.789 c 150.121 32.789
 149.891 32.766 149.652 32.727 c 149.41 32.684 149.16 32.617 148.902 32.523
 c 148.902 31.836 l 149.152 31.961 149.395 32.062 149.637 32.133 c 149.875
 32.195 150.113 32.227 150.355 32.227 c 150.676 32.227 150.922 32.176 151.09
 32.07 c 151.254 31.957 151.34 31.801 151.34 31.602 c 151.34 31.414 151.277
 31.273 151.152 31.18 c 151.035 31.086 150.77 30.992 150.355 30.898 c 150.121
 30.836 l 149.703 30.754 149.402 30.625 149.215 30.445 c 149.027 30.258 
148.934 30.008 148.934 29.695 c 148.934 29.301 149.066 29 149.34 28.789 
c 149.609 28.582 150 28.477 150.512 28.477 c 150.762 28.477 150.996 28.5
 151.215 28.539 c 151.434 28.57 151.637 28.625 151.824 28.695 c h
151.824 28.695 m f
156.625 30.461 m 156.625 30.789 l 153.516 30.789 l 153.547 31.258 153.688
 31.613 153.938 31.852 c 154.188 32.094 154.535 32.211 154.984 32.211 c 
155.242 32.211 155.492 32.18 155.734 32.117 c 155.984 32.055 156.227 31.961
 156.469 31.836 c 156.469 32.477 l 156.219 32.57 155.969 32.645 155.719 
32.695 c 155.469 32.758 155.211 32.789 154.953 32.789 c 154.297 32.789 153.773
 32.602 153.391 32.227 c 153.004 31.844 152.812 31.32 152.812 30.664 c 152.812
 30 152.992 29.469 153.359 29.07 c 153.723 28.676 154.211 28.477 154.828
 28.477 c 155.379 28.477 155.816 28.656 156.141 29.008 c 156.461 29.363 
156.625 29.848 156.625 30.461 c h
155.953 30.258 m 155.941 29.895 155.836 29.602 155.641 29.383 c 155.441
 29.164 155.176 29.055 154.844 29.055 c 154.469 29.055 154.164 29.164 153.938
 29.383 c 153.707 29.594 153.578 29.891 153.547 30.273 c h
155.953 30.258 m f
161.129 30.211 m 161.129 32.68 l 160.457 32.68 l 160.457 30.227 l 160.457
 29.844 160.379 29.555 160.223 29.367 c 160.074 29.172 159.852 29.07 159.551
 29.07 c 159.184 29.07 158.898 29.188 158.691 29.414 c 158.48 29.645 158.379
 29.961 158.379 30.367 c 158.379 32.68 l 157.707 32.68 l 157.707 28.57 l
 158.379 28.57 l 158.379 29.211 l 158.535 28.973 158.723 28.789 158.941 
28.664 c 159.16 28.539 159.414 28.477 159.707 28.477 c 160.176 28.477 160.527
 28.625 160.77 28.914 c 161.008 29.207 161.129 29.641 161.129 30.211 c h
161.129 30.211 m f
162.18 28.57 m 165.383 28.57 l 165.383 29.195 l 162.852 32.148 l 165.383
 32.148 l 165.383 32.68 l 162.102 32.68 l 162.102 32.07 l 164.633 29.117
 l 162.18 29.117 l h
162.18 28.57 m f
168.008 29.055 m 167.641 29.055 167.355 29.195 167.148 29.477 c 166.938
 29.758 166.836 30.145 166.836 30.633 c 166.836 31.125 166.938 31.508 167.148
 31.789 c 167.355 32.07 167.641 32.211 168.008 32.211 c 168.359 32.211 168.641
 32.07 168.852 31.789 c 169.07 31.508 169.18 31.125 169.18 30.633 c 169.18
 30.145 169.07 29.758 168.852 29.477 c 168.641 29.195 168.359 29.055 168.008
 29.055 c h
168.008 28.477 m 168.59 28.477 169.047 28.672 169.383 29.055 c 169.715 
29.43 169.883 29.957 169.883 30.633 c 169.883 31.301 169.715 31.828 169.383
 32.211 c 169.047 32.598 168.59 32.789 168.008 32.789 c 167.414 32.789 166.949
 32.598 166.617 32.211 c 166.281 31.828 166.117 31.301 166.117 30.633 c 
166.117 29.957 166.281 29.43 166.617 29.055 c 166.949 28.672 167.414 28.477
 168.008 28.477 c h
168.008 28.477 m f
173.375 29.211 m 173.301 29.172 173.219 29.141 173.125 29.117 c 173.039
 29.098 172.945 29.086 172.844 29.086 c 172.457 29.086 172.16 29.211 171.953
 29.461 c 171.754 29.703 171.656 30.055 171.656 30.523 c 171.656 32.68 l
 170.984 32.68 l 170.984 28.57 l 171.656 28.57 l 171.656 29.211 l 171.801
 28.961 171.984 28.781 172.203 28.664 c 172.43 28.539 172.707 28.477 173.031
 28.477 c 173.082 28.477 173.133 28.484 173.188 28.492 c 173.25 28.492 173.312
 28.504 173.375 28.523 c h
173.375 29.211 m f
0.501961 0 0 rg
71.465 15.551 m 71.465 17.598 l 72.402 17.598 l 72.746 17.598 73.012 17.512
 73.199 17.332 c 73.387 17.156 73.48 16.906 73.48 16.582 c 73.48 16.25 73.387
 15.996 73.199 15.816 c 73.012 15.641 72.746 15.551 72.402 15.551 c h
70.73 14.941 m 72.402 14.941 l 73.016 14.941 73.48 15.082 73.793 15.363
 c 74.105 15.637 74.262 16.043 74.262 16.582 c 74.262 17.113 74.105 17.52
 73.793 17.801 c 73.48 18.074 73.016 18.207 72.402 18.207 c 71.465 18.207
 l 71.465 20.41 l 70.73 20.41 l h
70.73 14.941 m f
75.059 16.301 m 75.73 16.301 l 75.73 20.41 l 75.059 20.41 l h
75.059 14.707 m 75.73 14.707 l 75.73 15.566 l 75.059 15.566 l h
75.059 14.707 m f
80.547 17.941 m 80.547 20.41 l 79.875 20.41 l 79.875 17.957 l 79.875 17.574
 79.797 17.285 79.641 17.098 c 79.492 16.902 79.27 16.801 78.969 16.801 
c 78.602 16.801 78.316 16.918 78.109 17.145 c 77.898 17.375 77.797 17.691
 77.797 18.098 c 77.797 20.41 l 77.125 20.41 l 77.125 16.301 l 77.797 16.301
 l 77.797 16.941 l 77.953 16.703 78.141 16.52 78.359 16.395 c 78.578 16.27
 78.832 16.207 79.125 16.207 c 79.594 16.207 79.945 16.355 80.188 16.645
 c 80.426 16.938 80.547 17.371 80.547 17.941 c h
80.547 17.941 m f
86.402 15.582 m 84.543 18.504 l 86.402 18.504 l h
86.215 14.941 m 87.152 14.941 l 87.152 18.504 l 87.918 18.504 l 87.918 
19.113 l 87.152 19.113 l 87.152 20.41 l 86.402 20.41 l 86.402 19.113 l 83.934
 19.113 l 83.934 18.41 l h
86.215 14.941 m f
0 g
89.223 19.473 m 90.004 19.473 l 90.004 20.41 l 89.223 20.41 l h
89.223 16.535 m 90.004 16.535 l 90.004 17.457 l 89.223 17.457 l h
89.223 16.535 m f
93.992 14.941 m 94.992 14.941 l 97.414 19.52 l 97.414 14.941 l 98.133 14.941
 l 98.133 20.41 l 97.133 20.41 l 94.711 15.832 l 94.711 20.41 l 93.992 20.41
 l h
93.992 14.941 m f
101.445 18.348 m 100.891 18.348 100.512 18.41 100.305 18.535 c 100.094 
18.66 99.992 18.875 99.992 19.176 c 99.992 19.418 100.07 19.609 100.227 
19.754 c 100.383 19.891 100.594 19.957 100.867 19.957 c 101.242 19.957 101.539
 19.828 101.758 19.566 c 101.984 19.297 102.102 18.941 102.102 18.504 c 
102.102 18.348 l h
102.789 18.066 m 102.789 20.41 l 102.102 20.41 l 102.102 19.785 l 101.953
 20.035 101.766 20.223 101.539 20.348 c 101.309 20.461 101.027 20.52 100.695
 20.52 c 100.266 20.52 99.93 20.406 99.68 20.176 c 99.438 19.938 99.32 19.621
 99.32 19.223 c 99.32 18.754 99.469 18.406 99.773 18.176 c 100.086 17.938
 100.547 17.816 101.164 17.816 c 102.102 17.816 l 102.102 17.754 l 102.102
 17.441 101.996 17.203 101.789 17.035 c 101.59 16.871 101.309 16.785 100.945
 16.785 c 100.703 16.785 100.477 16.816 100.258 16.879 c 100.039 16.934 
99.824 17.012 99.617 17.113 c 99.617 16.488 l 99.867 16.395 100.105 16.328
 100.336 16.285 c 100.562 16.234 100.789 16.207 101.008 16.207 c 101.602
 16.207 102.043 16.363 102.336 16.676 c 102.637 16.98 102.789 17.441 102.789
 18.066 c h
102.789 18.066 m f
104.824 19.801 m 104.824 21.973 l 104.152 21.973 l 104.152 16.301 l 104.824
 16.301 l 104.824 16.926 l 104.969 16.688 105.145 16.512 105.355 16.395 
c 105.574 16.27 105.832 16.207 106.137 16.207 c 106.637 16.207 107.035 16.406
 107.34 16.801 c 107.652 17.199 107.809 17.719 107.809 18.363 c 107.809 
19.012 107.652 19.531 107.34 19.926 c 107.035 20.324 106.637 20.52 106.137
 20.52 c 105.832 20.52 105.574 20.461 105.355 20.348 c 105.145 20.223 104.969
 20.043 104.824 19.801 c h
107.121 18.363 m 107.121 17.863 107.016 17.473 106.809 17.191 c 106.609
 16.91 106.328 16.77 105.965 16.77 c 105.609 16.77 105.328 16.91 105.121
 17.191 c 104.922 17.473 104.824 17.863 104.824 18.363 c 104.824 18.863 
104.922 19.254 105.121 19.535 c 105.328 19.816 105.609 19.957 105.965 19.957
 c 106.328 19.957 106.609 19.816 106.809 19.535 c 107.016 19.254 107.121
 18.863 107.121 18.363 c h
107.121 18.363 m f
110.805 18.348 m 110.25 18.348 109.871 18.41 109.664 18.535 c 109.453 18.66
 109.352 18.875 109.352 19.176 c 109.352 19.418 109.43 19.609 109.586 19.754
 c 109.742 19.891 109.953 19.957 110.227 19.957 c 110.602 19.957 110.898
 19.828 111.117 19.566 c 111.344 19.297 111.461 18.941 111.461 18.504 c 
111.461 18.348 l h
112.148 18.066 m 112.148 20.41 l 111.461 20.41 l 111.461 19.785 l 111.312
 20.035 111.125 20.223 110.898 20.348 c 110.668 20.461 110.387 20.52 110.055
 20.52 c 109.625 20.52 109.289 20.406 109.039 20.176 c 108.797 19.938 108.68
 19.621 108.68 19.223 c 108.68 18.754 108.828 18.406 109.133 18.176 c 109.445
 17.938 109.906 17.816 110.523 17.816 c 111.461 17.816 l 111.461 17.754 
l 111.461 17.441 111.355 17.203 111.148 17.035 c 110.949 16.871 110.668 
16.785 110.305 16.785 c 110.062 16.785 109.836 16.816 109.617 16.879 c 109.398
 16.934 109.184 17.012 108.977 17.113 c 108.977 16.488 l 109.227 16.395 
109.465 16.328 109.695 16.285 c 109.922 16.234 110.148 16.207 110.367 16.207
 c 110.961 16.207 111.402 16.363 111.695 16.676 c 111.996 16.98 112.148 
17.441 112.148 18.066 c h
110.914 14.41 m 111.633 14.41 l 110.445 15.785 l 109.883 15.785 l h
110.914 14.41 m f
113.523 16.301 m 114.195 16.301 l 114.195 20.488 l 114.195 21.008 114.094
 21.383 113.898 21.613 c 113.699 21.852 113.383 21.973 112.945 21.973 c 
112.68 21.973 l 112.68 21.395 l 112.867 21.395 l 113.117 21.395 113.289 
21.336 113.383 21.223 c 113.477 21.105 113.523 20.863 113.523 20.488 c h
113.523 14.707 m 114.195 14.707 l 114.195 15.566 l 113.523 15.566 l h
113.523 14.707 m f
119.125 18.191 m 119.125 18.52 l 116.016 18.52 l 116.047 18.988 116.188
 19.344 116.438 19.582 c 116.688 19.824 117.035 19.941 117.484 19.941 c 
117.742 19.941 117.992 19.91 118.234 19.848 c 118.484 19.785 118.727 19.691
 118.969 19.566 c 118.969 20.207 l 118.719 20.301 118.469 20.375 118.219
 20.426 c 117.969 20.488 117.711 20.52 117.453 20.52 c 116.797 20.52 116.273
 20.332 115.891 19.957 c 115.504 19.574 115.312 19.051 115.312 18.395 c 
115.312 17.73 115.492 17.199 115.859 16.801 c 116.223 16.406 116.711 16.207
 117.328 16.207 c 117.879 16.207 118.316 16.387 118.641 16.738 c 118.961
 17.094 119.125 17.578 119.125 18.191 c h
118.453 17.988 m 118.441 17.625 118.336 17.332 118.141 17.113 c 117.941
 16.895 117.676 16.785 117.344 16.785 c 116.969 16.785 116.664 16.895 116.438
 17.113 c 116.207 17.324 116.078 17.621 116.047 18.004 c h
118.453 17.988 m f
123.629 17.941 m 123.629 20.41 l 122.957 20.41 l 122.957 17.957 l 122.957
 17.574 122.879 17.285 122.723 17.098 c 122.574 16.902 122.352 16.801 122.051
 16.801 c 121.684 16.801 121.398 16.918 121.191 17.145 c 120.98 17.375 120.879
 17.691 120.879 18.098 c 120.879 20.41 l 120.207 20.41 l 120.207 16.301 
l 120.879 16.301 l 120.879 16.941 l 121.035 16.703 121.223 16.52 121.441
 16.395 c 121.66 16.27 121.914 16.207 122.207 16.207 c 122.676 16.207 123.027
 16.355 123.27 16.645 c 123.508 16.938 123.629 17.371 123.629 17.941 c h
123.629 17.941 m f
125.836 14.41 m 126.555 14.41 l 125.367 15.785 l 124.805 15.785 l h
124.977 16.301 m 125.648 16.301 l 125.648 20.41 l 124.977 20.41 l h
125.32 16.207 m h
125.32 16.207 m f
129.555 14.941 m 132.461 14.941 l 132.461 15.566 l 130.227 15.566 l 130.227
 16.91 l 130.328 16.871 130.434 16.844 130.539 16.832 c 130.652 16.812 130.762
 16.801 130.867 16.801 c 131.48 16.801 131.965 16.969 132.32 17.301 c 132.672
 17.637 132.852 18.09 132.852 18.66 c 132.852 19.246 132.668 19.703 132.305
 20.035 c 131.938 20.359 131.422 20.52 130.758 20.52 c 130.527 20.52 130.293
 20.496 130.055 20.457 c 129.812 20.414 129.57 20.359 129.32 20.285 c 129.32
 19.535 l 129.539 19.66 129.762 19.754 129.992 19.816 c 130.23 19.871 130.48
 19.895 130.742 19.895 c 131.168 19.895 131.5 19.785 131.742 19.566 c 131.992
 19.34 132.117 19.035 132.117 18.66 c 132.117 18.277 131.992 17.973 131.742
 17.754 c 131.5 17.535 131.168 17.426 130.742 17.426 c 130.543 17.426 130.344
 17.449 130.148 17.488 c 129.949 17.531 129.75 17.598 129.555 17.691 c h
129.555 14.941 m f
138.035 20.41 m 135.957 14.941 l 136.723 14.941 l 138.457 19.551 l 140.191
 14.941 l 140.957 14.941 l 138.879 20.41 l h
138.035 20.41 m f
71.465 3.582 m 71.465 5.629 l 72.402 5.629 l 72.746 5.629 73.012 5.543 
73.199 5.363 c 73.387 5.188 73.48 4.938 73.48 4.613 c 73.48 4.281 73.387
 4.027 73.199 3.848 c 73.012 3.672 72.746 3.582 72.402 3.582 c h
70.73 2.973 m 72.402 2.973 l 73.016 2.973 73.48 3.113 73.793 3.395 c 74.105
 3.668 74.262 4.074 74.262 4.613 c 74.262 5.145 74.105 5.551 73.793 5.832
 c 73.48 6.105 73.016 6.238 72.402 6.238 c 71.465 6.238 l 71.465 8.441 l
 70.73 8.441 l h
70.73 2.973 m f
75.059 4.332 m 75.73 4.332 l 75.73 8.441 l 75.059 8.441 l h
75.059 2.738 m 75.73 2.738 l 75.73 3.598 l 75.059 3.598 l h
75.059 2.738 m f
80.547 5.973 m 80.547 8.441 l 79.875 8.441 l 79.875 5.988 l 79.875 5.605
 79.797 5.316 79.641 5.129 c 79.492 4.934 79.27 4.832 78.969 4.832 c 78.602
 4.832 78.316 4.949 78.109 5.176 c 77.898 5.406 77.797 5.723 77.797 6.129
 c 77.797 8.441 l 77.125 8.441 l 77.125 4.332 l 77.797 4.332 l 77.797 4.973
 l 77.953 4.734 78.141 4.551 78.359 4.426 c 78.578 4.301 78.832 4.238 79.125
 4.238 c 79.594 4.238 79.945 4.387 80.188 4.676 c 80.426 4.969 80.547 5.402
 80.547 5.973 c h
80.547 5.973 m f
86.621 5.488 m 86.973 5.574 87.25 5.734 87.449 5.973 c 87.645 6.215 87.746
 6.504 87.746 6.848 c 87.746 7.391 87.559 7.812 87.184 8.113 c 86.816 8.406
 86.293 8.551 85.605 8.551 c 85.375 8.551 85.137 8.523 84.887 8.473 c 84.645
 8.434 84.402 8.363 84.152 8.27 c 84.152 7.566 l 84.348 7.684 84.566 7.77
 84.809 7.832 c 85.059 7.895 85.316 7.926 85.59 7.926 c 86.047 7.926 86.395
 7.84 86.637 7.66 c 86.887 7.473 87.012 7.203 87.012 6.848 c 87.012 6.527
 86.895 6.277 86.668 6.098 c 86.438 5.91 86.125 5.816 85.73 5.816 c 85.09
 5.816 l 85.09 5.223 l 85.762 5.223 l 86.125 5.223 86.402 5.152 86.59 5.004
 c 86.785 4.859 86.887 4.645 86.887 4.363 c 86.887 4.082 86.781 3.871 86.574
 3.723 c 86.375 3.578 86.094 3.504 85.73 3.504 c 85.52 3.504 85.301 3.527
 85.074 3.566 c 84.844 3.609 84.59 3.676 84.309 3.77 c 84.309 3.113 l 84.59
 3.031 84.848 2.973 85.09 2.941 c 85.34 2.902 85.574 2.879 85.793 2.879 
c 86.355 2.879 86.797 3.012 87.121 3.27 c 87.453 3.52 87.621 3.859 87.621
 4.285 c 87.621 4.598 87.531 4.859 87.355 5.066 c 87.176 5.277 86.934 5.418
 86.621 5.488 c h
86.621 5.488 m f
89.223 7.504 m 90.004 7.504 l 90.004 8.441 l 89.223 8.441 l h
89.223 4.566 m 90.004 4.566 l 90.004 5.488 l 89.223 5.488 l h
89.223 4.566 m f
93.68 2.973 m 97.977 2.973 l 97.977 3.535 l 94.523 7.816 l 98.055 7.816
 l 98.055 8.441 l 93.602 8.441 l 93.602 7.879 l 97.055 3.598 l 93.68 3.598
 l h
93.68 2.973 m f
102.617 6.223 m 102.617 6.551 l 99.508 6.551 l 99.539 7.02 99.68 7.375 
99.93 7.613 c 100.18 7.855 100.527 7.973 100.977 7.973 c 101.234 7.973 101.484
 7.941 101.727 7.879 c 101.977 7.816 102.219 7.723 102.461 7.598 c 102.461
 8.238 l 102.211 8.332 101.961 8.406 101.711 8.457 c 101.461 8.52 101.203
 8.551 100.945 8.551 c 100.289 8.551 99.766 8.363 99.383 7.988 c 98.996 
7.605 98.805 7.082 98.805 6.426 c 98.805 5.762 98.984 5.23 99.352 4.832 
c 99.715 4.438 100.203 4.238 100.82 4.238 c 101.371 4.238 101.809 4.418 
102.133 4.77 c 102.453 5.125 102.617 5.609 102.617 6.223 c h
101.945 6.02 m 101.934 5.656 101.828 5.363 101.633 5.145 c 101.434 4.926
 101.168 4.816 100.836 4.816 c 100.461 4.816 100.156 4.926 99.93 5.145 c
 99.699 5.355 99.57 5.652 99.539 6.035 c h
101.945 6.02 m f
106.918 5.129 m 107.082 4.828 107.281 4.605 107.512 4.457 c 107.75 4.312
 108.027 4.238 108.34 4.238 c 108.766 4.238 109.094 4.391 109.324 4.691 
c 109.562 4.996 109.684 5.422 109.684 5.973 c 109.684 8.441 l 108.996 8.441
 l 108.996 5.988 l 108.996 5.594 108.926 5.301 108.793 5.113 c 108.656 4.926
 108.441 4.832 108.152 4.832 c 107.809 4.832 107.531 4.949 107.324 5.176
 c 107.125 5.406 107.027 5.723 107.027 6.129 c 107.027 8.441 l 106.355 8.441
 l 106.355 5.988 l 106.355 5.594 106.281 5.301 106.137 5.113 c 106 4.926
 105.785 4.832 105.496 4.832 c 105.152 4.832 104.875 4.949 104.668 5.176
 c 104.469 5.406 104.371 5.723 104.371 6.129 c 104.371 8.441 l 103.699 8.441
 l 103.699 4.332 l 104.371 4.332 l 104.371 4.973 l 104.527 4.723 104.707
 4.543 104.918 4.426 c 105.137 4.301 105.391 4.238 105.684 4.238 c 105.984
 4.238 106.238 4.316 106.449 4.473 c 106.656 4.621 106.812 4.84 106.918 
5.129 c h
106.918 5.129 m f
Q Q
showpage
%%Trailer
end
%%EOF
