%!PS-Adobe-3.0 EPSF-3.0
%%Creator: cairo 1.16.0 (https://cairographics.org)
%%CreationDate: Thu Apr  6 18:43:50 2023
%%Pages: 1
%%DocumentData: Clean7Bit
%%LanguageLevel: 2
%%BoundingBox: 0 0 175 57
%%EndComments
%%BeginProlog
50 dict begin
/q { gsave } bind def
/Q { grestore } bind def
/cm { 6 array astore concat } bind def
/w { setlinewidth } bind def
/J { setlinecap } bind def
/j { setlinejoin } bind def
/M { setmiterlimit } bind def
/d { setdash } bind def
/m { moveto } bind def
/l { lineto } bind def
/c { curveto } bind def
/h { closepath } bind def
/re { exch dup neg 3 1 roll 5 3 roll moveto 0 rlineto
      0 exch rlineto 0 rlineto closepath } bind def
/S { stroke } bind def
/f { fill } bind def
/f* { eofill } bind def
/n { newpath } bind def
/W { clip } bind def
/W* { eoclip } bind def
/BT { } bind def
/ET { } bind def
/BDC { mark 3 1 roll /BDC pdfmark } bind def
/EMC { mark /EMC pdfmark } bind def
/cairo_store_point { /cairo_point_y exch def /cairo_point_x exch def } def
/Tj { show currentpoint cairo_store_point } bind def
/TJ {
  {
    dup
    type /stringtype eq
    { show } { -0.001 mul 0 cairo_font_matrix dtransform rmoveto } ifelse
  } forall
  currentpoint cairo_store_point
} bind def
/cairo_selectfont { cairo_font_matrix aload pop pop pop 0 0 6 array astore
    cairo_font exch selectfont cairo_point_x cairo_point_y moveto } bind def
/Tf { pop /cairo_font exch def /cairo_font_matrix where
      { pop cairo_selectfont } if } bind def
/Td { matrix translate cairo_font_matrix matrix concatmatrix dup
      /cairo_font_matrix exch def dup 4 get exch 5 get cairo_store_point
      /cairo_font where { pop cairo_selectfont } if } bind def
/Tm { 2 copy 8 2 roll 6 array astore /cairo_font_matrix exch def
      cairo_store_point /cairo_font where { pop cairo_selectfont } if } bind def
/g { setgray } bind def
/rg { setrgbcolor } bind def
/d1 { setcachedevice } bind def
/cairo_data_source {
  CairoDataIndex CairoData length lt
    { CairoData CairoDataIndex get /CairoDataIndex CairoDataIndex 1 add def }
    { () } ifelse
} def
/cairo_flush_ascii85_file { cairo_ascii85_file status { cairo_ascii85_file flushfile } if } def
/cairo_image { image cairo_flush_ascii85_file } def
/cairo_imagemask { imagemask cairo_flush_ascii85_file } def
%%EndProlog
%%BeginSetup
%%EndSetup
%%Page: 1 1
%%BeginPageSetup
%%PageBoundingBox: 0 0 175 57
%%EndPageSetup
q 0 0 175 57 rectclip
1 0 0 -1 0 57 cm q
0.6 g
6.672 0.285 m 48.234 0.285 l 51.773 0.285 54.621 3.133 54.621 6.672 c 54.621
 49.594 l 54.621 53.133 51.773 55.98 48.234 55.98 c 6.672 55.98 l 3.133 
55.98 0.285 53.133 0.285 49.594 c 0.285 6.672 l 0.285 3.133 3.133 0.285 
6.672 0.285 c h
6.672 0.285 m f
0 g
0.566929 w
1 J
1 j
[] 0.0 d
4 M q 1 0 0 1 0 0 cm
6.672 0.285 m 48.234 0.285 l 51.773 0.285 54.621 3.133 54.621 6.672 c 54.621
 49.594 l 54.621 53.133 51.773 55.98 48.234 55.98 c 6.672 55.98 l 3.133 
55.98 0.285 53.133 0.285 49.594 c 0.285 6.672 l 0.285 3.133 3.133 0.285 
6.672 0.285 c h
6.672 0.285 m S Q
0.94902 g
25.375 9.562 m 25.375 17.055 l 7.371 17.055 l 7.371 46.703 l 47.535 46.703
 l 47.535 17.055 l 41.789 17.055 l 41.789 9.562 l h
25.375 9.562 m f
0 g
2 J
0 j
q 1 0 0 1 0 0 cm
25.375 9.562 m 25.375 17.055 l 7.371 17.055 l 7.371 46.703 l 47.535 46.703
 l 47.535 17.055 l 41.789 17.055 l 41.789 9.562 l h
25.375 9.562 m S Q
1 1 0 rg
12.086 35.219 3.273 7.965 re f
0 g
q 1 0 0 1 0 0 cm
12.086 35.219 3.273 7.965 re S Q
1 1 0 rg
17.578 35.219 3.273 7.965 re f
0 g
q 1 0 0 1 0 0 cm
17.578 35.219 3.273 7.965 re S Q
1 0 0 rg
23.07 35.219 3.273 7.965 re f
0 g
q 1 0 0 1 0 0 cm
23.07 35.219 3.273 7.965 re S Q
28.562 35.219 3.273 7.965 re f
q 1 0 0 1 0 0 cm
28.562 35.219 3.273 7.965 re S Q
0 1 0 rg
34.055 35.219 3.27 7.965 re f
0 g
q 1 0 0 1 0 0 cm
34.055 35.219 3.27 7.965 re S Q
0 1 0 rg
39.543 35.219 3.273 7.965 re f
0 g
q 1 0 0 1 0 0 cm
39.543 35.219 3.273 7.965 re S Q
13.777 30.699 m 13.504 30.699 13.293 30.793 13.137 30.98 c 12.98 31.16 
12.902 31.402 12.902 31.715 c 12.902 32.027 12.98 32.277 13.137 32.465 c
 13.293 32.645 13.504 32.73 13.777 32.73 c 14.035 32.73 14.246 32.645 14.402
 32.465 c 14.559 32.277 14.637 32.027 14.637 31.715 c 14.637 31.402 14.559
 31.16 14.402 30.98 c 14.246 30.793 14.035 30.699 13.777 30.699 c h
14.949 28.84 m 14.949 29.387 l 14.801 29.316 14.652 29.262 14.496 29.23
 c 14.348 29.191 14.199 29.168 14.043 29.168 c 13.656 29.168 13.359 29.301
 13.152 29.559 c 12.941 29.82 12.828 30.223 12.809 30.762 c 12.922 30.586
 13.062 30.457 13.23 30.371 c 13.406 30.277 13.598 30.23 13.809 30.23 c 
14.246 30.23 14.59 30.367 14.84 30.637 c 15.098 30.898 15.23 31.258 15.23
 31.715 c 15.23 32.164 15.094 32.523 14.824 32.793 c 14.562 33.066 14.215
 33.199 13.777 33.199 c 13.266 33.199 12.875 33.008 12.605 32.621 c 12.344
 32.238 12.215 31.676 12.215 30.934 c 12.215 30.246 12.375 29.699 12.699
 29.293 c 13.031 28.879 13.473 28.668 14.027 28.668 c 14.172 28.668 14.316
 28.684 14.465 28.715 c 14.621 28.746 14.781 28.789 14.949 28.84 c h
14.949 28.84 m f
17.977 28.715 m 20.305 28.715 l 20.305 29.215 l 18.523 29.215 l 18.523 
30.293 l 18.605 30.262 18.688 30.242 18.773 30.23 c 18.867 30.211 18.953
 30.199 19.039 30.199 c 19.527 30.199 19.914 30.336 20.195 30.605 c 20.484
 30.867 20.633 31.227 20.633 31.684 c 20.633 32.152 20.484 32.52 20.195 
32.777 c 19.902 33.039 19.484 33.168 18.945 33.168 c 18.766 33.168 18.578
 33.152 18.383 33.121 c 18.195 33.09 18 33.043 17.805 32.98 c 17.805 32.387
 l 17.98 32.492 18.164 32.57 18.352 32.621 c 18.539 32.664 18.734 32.684
 18.945 32.684 c 19.277 32.684 19.543 32.598 19.742 32.418 c 19.938 32.23
 20.039 31.988 20.039 31.684 c 20.039 31.383 19.938 31.145 19.742 30.965
 c 19.543 30.789 19.277 30.699 18.945 30.699 c 18.777 30.699 18.617 30.723
 18.461 30.762 c 18.305 30.793 18.141 30.848 17.977 30.918 c h
17.977 28.715 m f
25.086 29.262 m 23.602 31.59 l 25.086 31.59 l h
24.93 28.746 m 25.68 28.746 l 25.68 31.59 l 26.305 31.59 l 26.305 32.09
 l 25.68 32.09 l 25.68 33.121 l 25.086 33.121 l 25.086 32.09 l 23.117 32.09
 l 23.117 31.512 l h
24.93 28.746 m f
30.738 30.762 m 31.02 30.824 31.238 30.957 31.395 31.152 c 31.559 31.34
 31.645 31.574 31.645 31.855 c 31.645 32.285 31.492 32.617 31.191 32.855
 c 30.898 33.086 30.477 33.199 29.926 33.199 c 29.738 33.199 29.543 33.176
 29.348 33.137 c 29.16 33.105 28.961 33.059 28.754 32.996 c 28.754 32.418
 l 28.918 32.512 29.102 32.586 29.301 32.637 c 29.496 32.691 29.699 32.715
 29.91 32.715 c 30.285 32.715 30.566 32.645 30.754 32.496 c 30.949 32.34
 31.051 32.129 31.051 31.855 c 31.051 31.598 30.957 31.395 30.77 31.246 
c 30.59 31.102 30.34 31.027 30.02 31.027 c 29.52 31.027 l 29.52 30.543 l
 30.051 30.543 l 30.34 30.543 30.559 30.488 30.707 30.371 c 30.863 30.246
 30.941 30.074 30.941 29.855 c 30.941 29.637 30.863 29.473 30.707 29.355
 c 30.551 29.23 30.32 29.168 30.02 29.168 c 29.863 29.168 29.691 29.191 
29.504 29.23 c 29.316 29.262 29.113 29.316 28.895 29.387 c 28.895 28.855
 l 29.113 28.793 29.32 28.746 29.52 28.715 c 29.715 28.684 29.902 28.668
 30.082 28.668 c 30.527 28.668 30.883 28.773 31.145 28.98 c 31.402 29.18
 31.535 29.457 31.535 29.809 c 31.535 30.051 31.461 30.254 31.316 30.418
 c 31.18 30.586 30.988 30.699 30.738 30.762 c h
30.738 30.762 m f
35.02 32.652 m 37.082 32.652 l 37.082 33.152 l 34.301 33.152 l 34.301 32.652
 l 34.527 32.426 34.836 32.117 35.223 31.73 c 35.605 31.336 35.852 31.082
 35.957 30.965 c 36.145 30.746 36.273 30.566 36.348 30.418 c 36.418 30.273
 36.457 30.129 36.457 29.98 c 36.457 29.754 36.371 29.566 36.207 29.418 
c 36.051 29.273 35.84 29.199 35.582 29.199 c 35.395 29.199 35.195 29.23 
34.988 29.293 c 34.789 29.355 34.57 29.457 34.332 29.59 c 34.332 28.996 
l 34.57 28.895 34.793 28.82 35.004 28.777 c 35.211 28.727 35.398 28.699 
35.566 28.699 c 36.023 28.699 36.383 28.816 36.645 29.043 c 36.914 29.262
 37.051 29.566 37.051 29.949 c 37.051 30.129 37.012 30.301 36.941 30.465
 c 36.879 30.621 36.758 30.809 36.582 31.027 c 36.539 31.082 36.383 31.242
 36.113 31.512 c 35.852 31.785 35.488 32.164 35.02 32.652 c h
35.02 32.652 m f
39.969 32.621 m 40.938 32.621 l 40.938 29.293 l 39.875 29.496 l 39.875 
28.965 l 40.922 28.746 l 41.516 28.746 l 41.516 32.621 l 42.484 32.621 l
 42.484 33.121 l 39.969 33.121 l h
39.969 32.621 m f
0.501961 0.501961 0 rg
71.465 40.09 m 71.465 42.137 l 72.402 42.137 l 72.746 42.137 73.012 42.051
 73.199 41.871 c 73.387 41.695 73.48 41.445 73.48 41.121 c 73.48 40.789 
73.387 40.535 73.199 40.355 c 73.012 40.18 72.746 40.09 72.402 40.09 c h
70.73 39.48 m 72.402 39.48 l 73.016 39.48 73.48 39.621 73.793 39.902 c 
74.105 40.176 74.262 40.582 74.262 41.121 c 74.262 41.652 74.105 42.059 
73.793 42.34 c 73.48 42.613 73.016 42.746 72.402 42.746 c 71.465 42.746 
l 71.465 44.949 l 70.73 44.949 l h
70.73 39.48 m f
75.059 40.84 m 75.73 40.84 l 75.73 44.949 l 75.059 44.949 l h
75.059 39.246 m 75.73 39.246 l 75.73 40.105 l 75.059 40.105 l h
75.059 39.246 m f
80.547 42.48 m 80.547 44.949 l 79.875 44.949 l 79.875 42.496 l 79.875 42.113
 79.797 41.824 79.641 41.637 c 79.492 41.441 79.27 41.34 78.969 41.34 c 
78.602 41.34 78.316 41.457 78.109 41.684 c 77.898 41.914 77.797 42.23 77.797
 42.637 c 77.797 44.949 l 77.125 44.949 l 77.125 40.84 l 77.797 40.84 l 
77.797 41.48 l 77.953 41.242 78.141 41.059 78.359 40.934 c 78.578 40.809
 78.832 40.746 79.125 40.746 c 79.594 40.746 79.945 40.895 80.188 41.184
 c 80.426 41.477 80.547 41.91 80.547 42.48 c h
80.547 42.48 m f
83.598 45.324 m 83.41 45.812 83.223 46.129 83.035 46.277 c 82.855 46.434
 82.617 46.512 82.316 46.512 c 81.785 46.512 l 81.785 45.949 l 82.176 45.949
 l 82.363 45.949 82.508 45.902 82.613 45.809 c 82.715 45.723 82.832 45.516
 82.957 45.184 c 83.066 44.887 l 81.41 40.84 l 82.129 40.84 l 83.41 44.059
 l 84.691 40.84 l 85.41 40.84 l h
83.598 45.324 m f
88.828 39.48 m 91.734 39.48 l 91.734 40.105 l 89.5 40.105 l 89.5 41.449
 l 89.602 41.41 89.707 41.383 89.812 41.371 c 89.926 41.352 90.035 41.34
 90.141 41.34 c 90.754 41.34 91.238 41.508 91.594 41.84 c 91.945 42.176 
92.125 42.629 92.125 43.199 c 92.125 43.785 91.941 44.242 91.578 44.574 
c 91.211 44.898 90.695 45.059 90.031 45.059 c 89.801 45.059 89.566 45.035
 89.328 44.996 c 89.086 44.953 88.844 44.898 88.594 44.824 c 88.594 44.074
 l 88.812 44.199 89.035 44.293 89.266 44.355 c 89.504 44.41 89.754 44.434
 90.016 44.434 c 90.441 44.434 90.773 44.324 91.016 44.105 c 91.266 43.879
 91.391 43.574 91.391 43.199 c 91.391 42.816 91.266 42.512 91.016 42.293
 c 90.773 42.074 90.441 41.965 90.016 41.965 c 89.816 41.965 89.617 41.988
 89.422 42.027 c 89.223 42.07 89.023 42.137 88.828 42.23 c h
88.828 39.48 m f
97.75 42.887 m 97.195 42.887 96.816 42.949 96.609 43.074 c 96.398 43.199
 96.297 43.414 96.297 43.715 c 96.297 43.957 96.375 44.148 96.531 44.293
 c 96.688 44.43 96.898 44.496 97.172 44.496 c 97.547 44.496 97.844 44.367
 98.062 44.105 c 98.289 43.836 98.406 43.48 98.406 43.043 c 98.406 42.887
 l h
99.094 42.605 m 99.094 44.949 l 98.406 44.949 l 98.406 44.324 l 98.258 
44.574 98.07 44.762 97.844 44.887 c 97.613 45 97.332 45.059 97 45.059 c 
96.57 45.059 96.234 44.945 95.984 44.715 c 95.742 44.477 95.625 44.16 95.625
 43.762 c 95.625 43.293 95.773 42.945 96.078 42.715 c 96.391 42.477 96.852
 42.355 97.469 42.355 c 98.406 42.355 l 98.406 42.293 l 98.406 41.98 98.301
 41.742 98.094 41.574 c 97.895 41.41 97.613 41.324 97.25 41.324 c 97.008
 41.324 96.781 41.355 96.562 41.418 c 96.344 41.473 96.129 41.551 95.922
 41.652 c 95.922 41.027 l 96.172 40.934 96.41 40.867 96.641 40.824 c 96.867
 40.773 97.094 40.746 97.312 40.746 c 97.906 40.746 98.348 40.902 98.641
 41.215 c 98.941 41.52 99.094 41.98 99.094 42.605 c h
99.094 42.605 m f
104.617 41.918 m 104.293 41.918 104.031 42.035 103.836 42.262 c 103.637
 42.492 103.539 42.805 103.539 43.199 c 103.539 43.586 103.637 43.895 103.836
 44.121 c 104.031 44.352 104.293 44.465 104.617 44.465 c 104.949 44.465 
105.215 44.352 105.414 44.121 c 105.609 43.895 105.711 43.586 105.711 43.199
 c 105.711 42.805 105.609 42.492 105.414 42.262 c 105.215 42.035 104.949
 41.918 104.617 41.918 c h
106.086 39.605 m 106.086 40.277 l 105.906 40.184 105.719 40.117 105.523
 40.074 c 105.336 40.035 105.148 40.012 104.961 40.012 c 104.48 40.012 104.109
 40.18 103.852 40.512 c 103.59 40.836 103.445 41.332 103.414 41.996 c 103.547
 41.777 103.727 41.617 103.945 41.512 c 104.164 41.398 104.402 41.34 104.664
 41.34 c 105.215 41.34 105.648 41.508 105.961 41.84 c 106.281 42.176 106.445
 42.629 106.445 43.199 c 106.445 43.762 106.277 44.215 105.945 44.559 c 
105.609 44.895 105.168 45.059 104.617 45.059 c 103.992 45.059 103.512 44.82
 103.18 44.34 c 102.844 43.852 102.68 43.145 102.68 42.215 c 102.68 41.352
 102.883 40.664 103.289 40.152 c 103.695 39.645 104.246 39.387 104.945 39.387
 c 105.121 39.387 105.305 39.41 105.492 39.449 c 105.688 39.48 105.887 39.535
 106.086 39.605 c h
106.086 39.605 m f
0 g
107.797 44.012 m 108.578 44.012 l 108.578 44.949 l 107.797 44.949 l h
107.797 41.074 m 108.578 41.074 l 108.578 41.996 l 107.797 41.996 l h
107.797 41.074 m f
113.973 44.949 m 111.895 39.48 l 112.66 39.48 l 114.395 44.09 l 116.129
 39.48 l 116.895 39.48 l 114.816 44.949 l h
113.973 44.949 m f
119.168 45.324 m 118.98 45.812 118.793 46.129 118.605 46.277 c 118.426 
46.434 118.188 46.512 117.887 46.512 c 117.355 46.512 l 117.355 45.949 l
 117.746 45.949 l 117.934 45.949 118.078 45.902 118.184 45.809 c 118.285
 45.723 118.402 45.516 118.527 45.184 c 118.637 44.887 l 116.98 40.84 l 
117.699 40.84 l 118.98 44.059 l 120.262 40.84 l 120.98 40.84 l h
119.496 38.949 m 120.215 38.949 l 119.027 40.324 l 118.465 40.324 l h
119.496 38.949 m f
124.527 40.965 m 124.527 41.605 l 124.328 41.512 124.125 41.441 123.918
 41.387 c 123.719 41.336 123.512 41.309 123.293 41.309 c 122.957 41.309 
122.707 41.363 122.543 41.465 c 122.375 41.57 122.293 41.727 122.293 41.934
 c 122.293 42.09 122.348 42.215 122.465 42.309 c 122.59 42.395 122.828 42.473
 123.184 42.543 c 123.418 42.605 l 123.895 42.711 124.234 42.855 124.434
 43.043 c 124.641 43.223 124.746 43.48 124.746 43.824 c 124.746 44.199 124.594
 44.504 124.293 44.73 c 123.988 44.949 123.574 45.059 123.043 45.059 c 122.824
 45.059 122.594 45.035 122.355 44.996 c 122.113 44.953 121.863 44.887 121.605
 44.793 c 121.605 44.105 l 121.855 44.23 122.098 44.332 122.34 44.402 c 
122.578 44.465 122.816 44.496 123.059 44.496 c 123.379 44.496 123.625 44.445
 123.793 44.34 c 123.957 44.227 124.043 44.07 124.043 43.871 c 124.043 43.684
 123.98 43.543 123.855 43.449 c 123.738 43.355 123.473 43.262 123.059 43.168
 c 122.824 43.105 l 122.406 43.023 122.105 42.895 121.918 42.715 c 121.73
 42.527 121.637 42.277 121.637 41.965 c 121.637 41.57 121.77 41.27 122.043
 41.059 c 122.312 40.852 122.703 40.746 123.215 40.746 c 123.465 40.746 
123.699 40.77 123.918 40.809 c 124.137 40.84 124.34 40.895 124.527 40.965
 c h
124.527 40.965 m f
126.484 39.684 m 126.484 40.84 l 127.875 40.84 l 127.875 41.371 l 126.484
 41.371 l 126.484 43.605 l 126.484 43.941 126.523 44.152 126.609 44.246 
c 126.703 44.34 126.891 44.387 127.172 44.387 c 127.875 44.387 l 127.875
 44.949 l 127.172 44.949 l 126.66 44.949 126.305 44.855 126.109 44.668 c
 125.91 44.473 125.812 44.117 125.812 43.605 c 125.812 41.371 l 125.312 
41.371 l 125.312 40.84 l 125.812 40.84 l 125.812 39.684 l h
126.484 39.684 m f
128.688 43.324 m 128.688 40.84 l 129.359 40.84 l 129.359 43.309 l 129.359
 43.695 129.43 43.988 129.578 44.184 c 129.734 44.371 129.961 44.465 130.266
 44.465 c 130.629 44.465 130.914 44.352 131.125 44.121 c 131.344 43.895 
131.453 43.574 131.453 43.168 c 131.453 40.84 l 132.125 40.84 l 132.125 
44.949 l 131.453 44.949 l 131.453 44.324 l 131.285 44.574 131.094 44.762
 130.875 44.887 c 130.656 45 130.406 45.059 130.125 45.059 c 129.656 45.059
 129.297 44.914 129.047 44.621 c 128.805 44.332 128.688 43.898 128.688 43.324
 c h
130.375 40.746 m h
130.375 40.746 m f
134.16 44.34 m 134.16 46.512 l 133.488 46.512 l 133.488 40.84 l 134.16 
40.84 l 134.16 41.465 l 134.305 41.227 134.48 41.051 134.691 40.934 c 134.91
 40.809 135.168 40.746 135.473 40.746 c 135.973 40.746 136.371 40.945 136.676
 41.34 c 136.988 41.738 137.145 42.258 137.145 42.902 c 137.145 43.551 136.988
 44.07 136.676 44.465 c 136.371 44.863 135.973 45.059 135.473 45.059 c 135.168
 45.059 134.91 45 134.691 44.887 c 134.48 44.762 134.305 44.582 134.16 44.34
 c h
136.457 42.902 m 136.457 42.402 136.352 42.012 136.145 41.73 c 135.945 
41.449 135.664 41.309 135.301 41.309 c 134.945 41.309 134.664 41.449 134.457
 41.73 c 134.258 42.012 134.16 42.402 134.16 42.902 c 134.16 43.402 134.258
 43.793 134.457 44.074 c 134.664 44.355 134.945 44.496 135.301 44.496 c 
135.664 44.496 135.945 44.355 136.145 44.074 c 136.352 43.793 136.457 43.402
 136.457 42.902 c h
136.457 42.902 m f
144.164 42.73 m 144.164 43.059 l 141.055 43.059 l 141.086 43.527 141.227
 43.883 141.477 44.121 c 141.727 44.363 142.074 44.48 142.523 44.48 c 142.781
 44.48 143.031 44.449 143.273 44.387 c 143.523 44.324 143.766 44.23 144.008
 44.105 c 144.008 44.746 l 143.758 44.84 143.508 44.914 143.258 44.965 c
 143.008 45.027 142.75 45.059 142.492 45.059 c 141.836 45.059 141.312 44.871
 140.93 44.496 c 140.543 44.113 140.352 43.59 140.352 42.934 c 140.352 42.27
 140.531 41.738 140.898 41.34 c 141.262 40.945 141.75 40.746 142.367 40.746
 c 142.918 40.746 143.355 40.926 143.68 41.277 c 144 41.633 144.164 42.117
 144.164 42.73 c h
143.492 42.527 m 143.48 42.164 143.375 41.871 143.18 41.652 c 142.98 41.434
 142.715 41.324 142.383 41.324 c 142.008 41.324 141.703 41.434 141.477 41.652
 c 141.246 41.863 141.117 42.16 141.086 42.543 c h
143.492 42.527 m f
148.672 42.48 m 148.672 44.949 l 148 44.949 l 148 42.496 l 148 42.113 147.922
 41.824 147.766 41.637 c 147.617 41.441 147.395 41.34 147.094 41.34 c 146.727
 41.34 146.441 41.457 146.234 41.684 c 146.023 41.914 145.922 42.23 145.922
 42.637 c 145.922 44.949 l 145.25 44.949 l 145.25 40.84 l 145.922 40.84 
l 145.922 41.48 l 146.078 41.242 146.266 41.059 146.484 40.934 c 146.703
 40.809 146.957 40.746 147.25 40.746 c 147.719 40.746 148.07 40.895 148.312
 41.184 c 148.551 41.477 148.672 41.91 148.672 42.48 c h
148.672 42.48 m f
150 39.246 m 150.672 39.246 l 150.672 42.621 l 152.688 40.84 l 153.547 
40.84 l 151.359 42.762 l 153.641 44.949 l 152.75 44.949 l 150.672 42.949
 l 150.672 44.949 l 150 44.949 l h
150 39.246 m f
155.688 41.324 m 155.32 41.324 155.035 41.465 154.828 41.746 c 154.617 
42.027 154.516 42.414 154.516 42.902 c 154.516 43.395 154.617 43.777 154.828
 44.059 c 155.035 44.34 155.32 44.48 155.688 44.48 c 156.039 44.48 156.32
 44.34 156.531 44.059 c 156.75 43.777 156.859 43.395 156.859 42.902 c 156.859
 42.414 156.75 42.027 156.531 41.746 c 156.32 41.465 156.039 41.324 155.688
 41.324 c h
155.688 40.746 m 156.27 40.746 156.727 40.941 157.062 41.324 c 157.395 
41.699 157.562 42.227 157.562 42.902 c 157.562 43.57 157.395 44.098 157.062
 44.48 c 156.727 44.867 156.27 45.059 155.688 45.059 c 155.094 45.059 154.629
 44.867 154.297 44.48 c 153.961 44.098 153.797 43.57 153.797 42.902 c 153.797
 42.227 153.961 41.699 154.297 41.324 c 154.629 40.941 155.094 40.746 155.688
 40.746 c h
155.688 40.746 m f
161.387 41.465 m 161.387 39.246 l 162.059 39.246 l 162.059 44.949 l 161.387
 44.949 l 161.387 44.34 l 161.238 44.582 161.059 44.762 160.84 44.887 c 
160.629 45 160.375 45.059 160.074 45.059 c 159.574 45.059 159.168 44.863
 158.855 44.465 c 158.543 44.07 158.387 43.551 158.387 42.902 c 158.387 
42.258 158.543 41.738 158.855 41.34 c 159.168 40.945 159.574 40.746 160.074
 40.746 c 160.375 40.746 160.629 40.809 160.84 40.934 c 161.059 41.051 161.238
 41.227 161.387 41.465 c h
159.09 42.902 m 159.09 43.402 159.188 43.793 159.387 44.074 c 159.594 44.355
 159.875 44.496 160.23 44.496 c 160.594 44.496 160.875 44.355 161.074 44.074
 c 161.281 43.793 161.387 43.402 161.387 42.902 c 161.387 42.402 161.281
 42.012 161.074 41.73 c 160.875 41.449 160.594 41.309 160.23 41.309 c 159.875
 41.309 159.594 41.449 159.387 41.73 c 159.188 42.012 159.09 42.402 159.09
 42.902 c h
159.09 42.902 m f
166.957 42.73 m 166.957 43.059 l 163.848 43.059 l 163.879 43.527 164.02
 43.883 164.27 44.121 c 164.52 44.363 164.867 44.48 165.316 44.48 c 165.574
 44.48 165.824 44.449 166.066 44.387 c 166.316 44.324 166.559 44.23 166.801
 44.105 c 166.801 44.746 l 166.551 44.84 166.301 44.914 166.051 44.965 c
 165.801 45.027 165.543 45.059 165.285 45.059 c 164.629 45.059 164.105 44.871
 163.723 44.496 c 163.336 44.113 163.145 43.59 163.145 42.934 c 163.145 
42.27 163.324 41.738 163.691 41.34 c 164.055 40.945 164.543 40.746 165.16
 40.746 c 165.711 40.746 166.148 40.926 166.473 41.277 c 166.793 41.633 
166.957 42.117 166.957 42.73 c h
166.285 42.527 m 166.273 42.164 166.168 41.871 165.973 41.652 c 165.773
 41.434 165.508 41.324 165.176 41.324 c 164.801 41.324 164.496 41.434 164.27
 41.652 c 164.039 41.863 163.91 42.16 163.879 42.543 c h
165.645 38.949 m 166.363 38.949 l 165.176 40.324 l 164.613 40.324 l h
165.645 38.949 m f
170.434 41.48 m 170.359 41.441 170.277 41.41 170.184 41.387 c 170.098 41.367
 170.004 41.355 169.902 41.355 c 169.516 41.355 169.219 41.48 169.012 41.73
 c 168.812 41.973 168.715 42.324 168.715 42.793 c 168.715 44.949 l 168.043
 44.949 l 168.043 40.84 l 168.715 40.84 l 168.715 41.48 l 168.859 41.23 
169.043 41.051 169.262 40.934 c 169.488 40.809 169.766 40.746 170.09 40.746
 c 170.141 40.746 170.191 40.754 170.246 40.762 c 170.309 40.762 170.371
 40.773 170.434 40.793 c h
170.434 41.48 m f
171.078 43.324 m 171.078 40.84 l 171.75 40.84 l 171.75 43.309 l 171.75 
43.695 171.82 43.988 171.969 44.184 c 172.125 44.371 172.352 44.465 172.656
 44.465 c 173.02 44.465 173.305 44.352 173.516 44.121 c 173.734 43.895 173.844
 43.574 173.844 43.168 c 173.844 40.84 l 174.516 40.84 l 174.516 44.949 
l 173.844 44.949 l 173.844 44.324 l 173.676 44.574 173.484 44.762 173.266
 44.887 c 173.047 45 172.797 45.059 172.516 45.059 c 172.047 45.059 171.688
 44.914 171.438 44.621 c 171.195 44.332 171.078 43.898 171.078 43.324 c 
h
172.766 40.746 m h
172.766 40.746 m f
0 0.501961 0 rg
71.465 27.82 m 71.465 29.867 l 72.402 29.867 l 72.746 29.867 73.012 29.781
 73.199 29.602 c 73.387 29.426 73.48 29.176 73.48 28.852 c 73.48 28.52 73.387
 28.266 73.199 28.086 c 73.012 27.91 72.746 27.82 72.402 27.82 c h
70.73 27.211 m 72.402 27.211 l 73.016 27.211 73.48 27.352 73.793 27.633
 c 74.105 27.906 74.262 28.312 74.262 28.852 c 74.262 29.383 74.105 29.789
 73.793 30.07 c 73.48 30.344 73.016 30.477 72.402 30.477 c 71.465 30.477
 l 71.465 32.68 l 70.73 32.68 l h
70.73 27.211 m f
75.059 28.57 m 75.73 28.57 l 75.73 32.68 l 75.059 32.68 l h
75.059 26.977 m 75.73 26.977 l 75.73 27.836 l 75.059 27.836 l h
75.059 26.977 m f
80.547 30.211 m 80.547 32.68 l 79.875 32.68 l 79.875 30.227 l 79.875 29.844
 79.797 29.555 79.641 29.367 c 79.492 29.172 79.27 29.07 78.969 29.07 c 
78.602 29.07 78.316 29.188 78.109 29.414 c 77.898 29.645 77.797 29.961 77.797
 30.367 c 77.797 32.68 l 77.125 32.68 l 77.125 28.57 l 77.797 28.57 l 77.797
 29.211 l 77.953 28.973 78.141 28.789 78.359 28.664 c 78.578 28.539 78.832
 28.477 79.125 28.477 c 79.594 28.477 79.945 28.625 80.188 28.914 c 80.426
 29.207 80.547 29.641 80.547 30.211 c h
80.547 30.211 m f
83.598 33.055 m 83.41 33.543 83.223 33.859 83.035 34.008 c 82.855 34.164
 82.617 34.242 82.316 34.242 c 81.785 34.242 l 81.785 33.68 l 82.176 33.68
 l 82.363 33.68 82.508 33.633 82.613 33.539 c 82.715 33.453 82.832 33.246
 82.957 32.914 c 83.066 32.617 l 81.41 28.57 l 82.129 28.57 l 83.41 31.789
 l 84.691 28.57 l 85.41 28.57 l h
83.598 33.055 m f
88.953 32.055 m 90.156 32.055 l 90.156 27.883 l 88.844 28.148 l 88.844 
27.477 l 90.141 27.211 l 90.891 27.211 l 90.891 32.055 l 92.094 32.055 l
 92.094 32.68 l 88.953 32.68 l h
88.953 32.055 m f
97.75 30.617 m 97.195 30.617 96.816 30.68 96.609 30.805 c 96.398 30.93 
96.297 31.145 96.297 31.445 c 96.297 31.688 96.375 31.879 96.531 32.023 
c 96.688 32.16 96.898 32.227 97.172 32.227 c 97.547 32.227 97.844 32.098
 98.062 31.836 c 98.289 31.566 98.406 31.211 98.406 30.773 c 98.406 30.617
 l h
99.094 30.336 m 99.094 32.68 l 98.406 32.68 l 98.406 32.055 l 98.258 32.305
 98.07 32.492 97.844 32.617 c 97.613 32.73 97.332 32.789 97 32.789 c 96.57
 32.789 96.234 32.676 95.984 32.445 c 95.742 32.207 95.625 31.891 95.625
 31.492 c 95.625 31.023 95.773 30.676 96.078 30.445 c 96.391 30.207 96.852
 30.086 97.469 30.086 c 98.406 30.086 l 98.406 30.023 l 98.406 29.711 98.301
 29.473 98.094 29.305 c 97.895 29.141 97.613 29.055 97.25 29.055 c 97.008
 29.055 96.781 29.086 96.562 29.148 c 96.344 29.203 96.129 29.281 95.922
 29.383 c 95.922 28.758 l 96.172 28.664 96.41 28.598 96.641 28.555 c 96.867
 28.504 97.094 28.477 97.312 28.477 c 97.906 28.477 98.348 28.633 98.641
 28.945 c 98.941 29.25 99.094 29.711 99.094 30.336 c h
99.094 30.336 m f
103.586 32.055 m 106.164 32.055 l 106.164 32.68 l 102.695 32.68 l 102.695
 32.055 l 102.977 31.766 103.355 31.375 103.836 30.883 c 104.324 30.395 
104.633 30.082 104.758 29.945 c 104.996 29.676 105.164 29.453 105.258 29.273
 c 105.352 29.086 105.398 28.906 105.398 28.727 c 105.398 28.438 105.293
 28.203 105.086 28.023 c 104.887 27.836 104.621 27.742 104.289 27.742 c 
104.059 27.742 103.812 27.785 103.555 27.867 c 103.305 27.941 103.031 28.062
 102.742 28.227 c 102.742 27.477 l 103.031 27.352 103.309 27.266 103.57 
27.211 c 103.828 27.148 104.062 27.117 104.273 27.117 c 104.844 27.117 105.297
 27.258 105.633 27.539 c 105.965 27.82 106.133 28.203 106.133 28.68 c 106.133
 28.898 106.09 29.113 106.008 29.32 c 105.922 29.52 105.773 29.754 105.555
 30.023 c 105.492 30.098 105.293 30.305 104.961 30.648 c 104.637 30.984 
104.18 31.453 103.586 32.055 c h
103.586 32.055 m f
0 g
107.797 31.742 m 108.578 31.742 l 108.578 32.68 l 107.797 32.68 l h
107.797 28.805 m 108.578 28.805 l 108.578 29.727 l 107.797 29.727 l h
107.797 28.805 m f
113.973 32.68 m 111.895 27.211 l 112.66 27.211 l 114.395 31.82 l 116.129
 27.211 l 116.895 27.211 l 114.816 32.68 l h
113.973 32.68 m f
117.5 28.57 m 118.172 28.57 l 118.172 32.68 l 117.5 32.68 l h
117.5 26.977 m 118.172 26.977 l 118.172 27.836 l 117.5 27.836 l h
117.5 26.977 m f
122.992 30.211 m 122.992 32.68 l 122.32 32.68 l 122.32 30.227 l 122.32 
29.844 122.242 29.555 122.086 29.367 c 121.938 29.172 121.715 29.07 121.414
 29.07 c 121.047 29.07 120.762 29.188 120.555 29.414 c 120.344 29.645 120.242
 29.961 120.242 30.367 c 120.242 32.68 l 119.57 32.68 l 119.57 28.57 l 120.242
 28.57 l 120.242 29.211 l 120.398 28.973 120.586 28.789 120.805 28.664 c
 121.023 28.539 121.277 28.477 121.57 28.477 c 122.039 28.477 122.391 28.625
 122.633 28.914 c 122.871 29.207 122.992 29.641 122.992 30.211 c h
122.992 30.211 m f
124.277 31.055 m 124.277 28.57 l 124.949 28.57 l 124.949 31.039 l 124.949
 31.426 125.02 31.719 125.168 31.914 c 125.324 32.102 125.551 32.195 125.855
 32.195 c 126.219 32.195 126.504 32.082 126.715 31.852 c 126.934 31.625 
127.043 31.305 127.043 30.898 c 127.043 28.57 l 127.715 28.57 l 127.715 
32.68 l 127.043 32.68 l 127.043 32.055 l 126.875 32.305 126.684 32.492 126.465
 32.617 c 126.246 32.73 125.996 32.789 125.715 32.789 c 125.246 32.789 124.887
 32.645 124.637 32.352 c 124.395 32.062 124.277 31.629 124.277 31.055 c 
h
125.965 28.477 m h
125.965 28.477 m f
129.766 27.414 m 129.766 28.57 l 131.156 28.57 l 131.156 29.102 l 129.766
 29.102 l 129.766 31.336 l 129.766 31.672 129.805 31.883 129.891 31.977 
c 129.984 32.07 130.172 32.117 130.453 32.117 c 131.156 32.117 l 131.156
 32.68 l 130.453 32.68 l 129.941 32.68 129.586 32.586 129.391 32.398 c 129.191
 32.203 129.094 31.848 129.094 31.336 c 129.094 29.102 l 128.594 29.102 
l 128.594 28.57 l 129.094 28.57 l 129.094 27.414 l h
129.766 27.414 m f
132.891 26.68 m 133.609 26.68 l 132.422 28.055 l 131.859 28.055 l h
132.031 28.57 m 132.703 28.57 l 132.703 32.68 l 132.031 32.68 l h
132.375 28.477 m h
132.375 28.477 m f
139.703 29.367 m 139.867 29.066 140.066 28.844 140.297 28.695 c 140.535
 28.551 140.812 28.477 141.125 28.477 c 141.551 28.477 141.879 28.629 142.109
 28.93 c 142.348 29.234 142.469 29.66 142.469 30.211 c 142.469 32.68 l 141.781
 32.68 l 141.781 30.227 l 141.781 29.832 141.711 29.539 141.578 29.352 c
 141.441 29.164 141.227 29.07 140.938 29.07 c 140.594 29.07 140.316 29.188
 140.109 29.414 c 139.91 29.645 139.812 29.961 139.812 30.367 c 139.812 
32.68 l 139.141 32.68 l 139.141 30.227 l 139.141 29.832 139.066 29.539 138.922
 29.352 c 138.785 29.164 138.57 29.07 138.281 29.07 c 137.938 29.07 137.66
 29.188 137.453 29.414 c 137.254 29.645 137.156 29.961 137.156 30.367 c 
137.156 32.68 l 136.484 32.68 l 136.484 28.57 l 137.156 28.57 l 137.156 
29.211 l 137.312 28.961 137.492 28.781 137.703 28.664 c 137.922 28.539 138.176
 28.477 138.469 28.477 c 138.77 28.477 139.023 28.555 139.234 28.711 c 139.441
 28.859 139.598 29.078 139.703 29.367 c h
139.703 29.367 m f
145.398 29.055 m 145.031 29.055 144.746 29.195 144.539 29.477 c 144.328
 29.758 144.227 30.145 144.227 30.633 c 144.227 31.125 144.328 31.508 144.539
 31.789 c 144.746 32.07 145.031 32.211 145.398 32.211 c 145.75 32.211 146.031
 32.07 146.242 31.789 c 146.461 31.508 146.57 31.125 146.57 30.633 c 146.57
 30.145 146.461 29.758 146.242 29.477 c 146.031 29.195 145.75 29.055 145.398
 29.055 c h
145.398 28.477 m 145.98 28.477 146.438 28.672 146.773 29.055 c 147.105 
29.43 147.273 29.957 147.273 30.633 c 147.273 31.301 147.105 31.828 146.773
 32.211 c 146.438 32.598 145.98 32.789 145.398 32.789 c 144.805 32.789 144.34
 32.598 144.008 32.211 c 143.672 31.828 143.508 31.301 143.508 30.633 c 
143.508 29.957 143.672 29.43 144.008 29.055 c 144.34 28.672 144.805 28.477
 145.398 28.477 c h
145.398 28.477 m f
149.066 27.414 m 149.066 28.57 l 150.457 28.57 l 150.457 29.102 l 149.066
 29.102 l 149.066 31.336 l 149.066 31.672 149.105 31.883 149.191 31.977 
c 149.285 32.07 149.473 32.117 149.754 32.117 c 150.457 32.117 l 150.457
 32.68 l 149.754 32.68 l 149.242 32.68 148.887 32.586 148.691 32.398 c 148.492
 32.203 148.395 31.848 148.395 31.336 c 148.395 29.102 l 147.895 29.102 
l 147.895 28.57 l 148.395 28.57 l 148.395 27.414 l h
149.066 27.414 m f
152.93 29.055 m 152.562 29.055 152.277 29.195 152.07 29.477 c 151.859 29.758
 151.758 30.145 151.758 30.633 c 151.758 31.125 151.859 31.508 152.07 31.789
 c 152.277 32.07 152.562 32.211 152.93 32.211 c 153.281 32.211 153.562 32.07
 153.773 31.789 c 153.992 31.508 154.102 31.125 154.102 30.633 c 154.102
 30.145 153.992 29.758 153.773 29.477 c 153.562 29.195 153.281 29.055 152.93
 29.055 c h
152.93 28.477 m 153.512 28.477 153.969 28.672 154.305 29.055 c 154.637 
29.43 154.805 29.957 154.805 30.633 c 154.805 31.301 154.637 31.828 154.305
 32.211 c 153.969 32.598 153.512 32.789 152.93 32.789 c 152.336 32.789 151.871
 32.598 151.539 32.211 c 151.203 31.828 151.039 31.301 151.039 30.633 c 
151.039 29.957 151.203 29.43 151.539 29.055 c 151.871 28.672 152.336 28.477
 152.93 28.477 c h
152.93 28.477 m f
158.301 29.211 m 158.227 29.172 158.145 29.141 158.051 29.117 c 157.965
 29.098 157.871 29.086 157.77 29.086 c 157.383 29.086 157.086 29.211 156.879
 29.461 c 156.68 29.703 156.582 30.055 156.582 30.523 c 156.582 32.68 l 
155.91 32.68 l 155.91 28.57 l 156.582 28.57 l 156.582 29.211 l 156.727 28.961
 156.91 28.781 157.129 28.664 c 157.355 28.539 157.633 28.477 157.957 28.477
 c 158.008 28.477 158.059 28.484 158.113 28.492 c 158.176 28.492 158.238
 28.504 158.301 28.523 c h
158.301 29.211 m f
158.945 31.055 m 158.945 28.57 l 159.617 28.57 l 159.617 31.039 l 159.617
 31.426 159.688 31.719 159.836 31.914 c 159.992 32.102 160.219 32.195 160.523
 32.195 c 160.887 32.195 161.172 32.082 161.383 31.852 c 161.602 31.625 
161.711 31.305 161.711 30.898 c 161.711 28.57 l 162.383 28.57 l 162.383 
32.68 l 161.711 32.68 l 161.711 32.055 l 161.543 32.305 161.352 32.492 161.133
 32.617 c 160.914 32.73 160.664 32.789 160.383 32.789 c 159.914 32.789 159.555
 32.645 159.305 32.352 c 159.062 32.062 158.945 31.629 158.945 31.055 c 
h
160.633 28.477 m h
160.633 28.477 m f
0.501961 0 0 rg
71.465 15.551 m 71.465 17.598 l 72.402 17.598 l 72.746 17.598 73.012 17.512
 73.199 17.332 c 73.387 17.156 73.48 16.906 73.48 16.582 c 73.48 16.25 73.387
 15.996 73.199 15.816 c 73.012 15.641 72.746 15.551 72.402 15.551 c h
70.73 14.941 m 72.402 14.941 l 73.016 14.941 73.48 15.082 73.793 15.363
 c 74.105 15.637 74.262 16.043 74.262 16.582 c 74.262 17.113 74.105 17.52
 73.793 17.801 c 73.48 18.074 73.016 18.207 72.402 18.207 c 71.465 18.207
 l 71.465 20.41 l 70.73 20.41 l h
70.73 14.941 m f
75.059 16.301 m 75.73 16.301 l 75.73 20.41 l 75.059 20.41 l h
75.059 14.707 m 75.73 14.707 l 75.73 15.566 l 75.059 15.566 l h
75.059 14.707 m f
80.547 17.941 m 80.547 20.41 l 79.875 20.41 l 79.875 17.957 l 79.875 17.574
 79.797 17.285 79.641 17.098 c 79.492 16.902 79.27 16.801 78.969 16.801 
c 78.602 16.801 78.316 16.918 78.109 17.145 c 77.898 17.375 77.797 17.691
 77.797 18.098 c 77.797 20.41 l 77.125 20.41 l 77.125 16.301 l 77.797 16.301
 l 77.797 16.941 l 77.953 16.703 78.141 16.52 78.359 16.395 c 78.578 16.27
 78.832 16.207 79.125 16.207 c 79.594 16.207 79.945 16.355 80.188 16.645
 c 80.426 16.938 80.547 17.371 80.547 17.941 c h
80.547 17.941 m f
86.402 15.582 m 84.543 18.504 l 86.402 18.504 l h
86.215 14.941 m 87.152 14.941 l 87.152 18.504 l 87.918 18.504 l 87.918 
19.113 l 87.152 19.113 l 87.152 20.41 l 86.402 20.41 l 86.402 19.113 l 83.934
 19.113 l 83.934 18.41 l h
86.215 14.941 m f
0 g
89.223 19.473 m 90.004 19.473 l 90.004 20.41 l 89.223 20.41 l h
89.223 16.535 m 90.004 16.535 l 90.004 17.457 l 89.223 17.457 l h
89.223 16.535 m f
93.992 14.941 m 94.992 14.941 l 97.414 19.52 l 97.414 14.941 l 98.133 14.941
 l 98.133 20.41 l 97.133 20.41 l 94.711 15.832 l 94.711 20.41 l 93.992 20.41
 l h
93.992 14.941 m f
101.445 18.348 m 100.891 18.348 100.512 18.41 100.305 18.535 c 100.094 
18.66 99.992 18.875 99.992 19.176 c 99.992 19.418 100.07 19.609 100.227 
19.754 c 100.383 19.891 100.594 19.957 100.867 19.957 c 101.242 19.957 101.539
 19.828 101.758 19.566 c 101.984 19.297 102.102 18.941 102.102 18.504 c 
102.102 18.348 l h
102.789 18.066 m 102.789 20.41 l 102.102 20.41 l 102.102 19.785 l 101.953
 20.035 101.766 20.223 101.539 20.348 c 101.309 20.461 101.027 20.52 100.695
 20.52 c 100.266 20.52 99.93 20.406 99.68 20.176 c 99.438 19.938 99.32 19.621
 99.32 19.223 c 99.32 18.754 99.469 18.406 99.773 18.176 c 100.086 17.938
 100.547 17.816 101.164 17.816 c 102.102 17.816 l 102.102 17.754 l 102.102
 17.441 101.996 17.203 101.789 17.035 c 101.59 16.871 101.309 16.785 100.945
 16.785 c 100.703 16.785 100.477 16.816 100.258 16.879 c 100.039 16.934 
99.824 17.012 99.617 17.113 c 99.617 16.488 l 99.867 16.395 100.105 16.328
 100.336 16.285 c 100.562 16.234 100.789 16.207 101.008 16.207 c 101.602
 16.207 102.043 16.363 102.336 16.676 c 102.637 16.98 102.789 17.441 102.789
 18.066 c h
102.789 18.066 m f
104.824 19.801 m 104.824 21.973 l 104.152 21.973 l 104.152 16.301 l 104.824
 16.301 l 104.824 16.926 l 104.969 16.688 105.145 16.512 105.355 16.395 
c 105.574 16.27 105.832 16.207 106.137 16.207 c 106.637 16.207 107.035 16.406
 107.34 16.801 c 107.652 17.199 107.809 17.719 107.809 18.363 c 107.809 
19.012 107.652 19.531 107.34 19.926 c 107.035 20.324 106.637 20.52 106.137
 20.52 c 105.832 20.52 105.574 20.461 105.355 20.348 c 105.145 20.223 104.969
 20.043 104.824 19.801 c h
107.121 18.363 m 107.121 17.863 107.016 17.473 106.809 17.191 c 106.609
 16.91 106.328 16.77 105.965 16.77 c 105.609 16.77 105.328 16.91 105.121
 17.191 c 104.922 17.473 104.824 17.863 104.824 18.363 c 104.824 18.863 
104.922 19.254 105.121 19.535 c 105.328 19.816 105.609 19.957 105.965 19.957
 c 106.328 19.957 106.609 19.816 106.809 19.535 c 107.016 19.254 107.121
 18.863 107.121 18.363 c h
107.121 18.363 m f
110.805 18.348 m 110.25 18.348 109.871 18.41 109.664 18.535 c 109.453 18.66
 109.352 18.875 109.352 19.176 c 109.352 19.418 109.43 19.609 109.586 19.754
 c 109.742 19.891 109.953 19.957 110.227 19.957 c 110.602 19.957 110.898
 19.828 111.117 19.566 c 111.344 19.297 111.461 18.941 111.461 18.504 c 
111.461 18.348 l h
112.148 18.066 m 112.148 20.41 l 111.461 20.41 l 111.461 19.785 l 111.312
 20.035 111.125 20.223 110.898 20.348 c 110.668 20.461 110.387 20.52 110.055
 20.52 c 109.625 20.52 109.289 20.406 109.039 20.176 c 108.797 19.938 108.68
 19.621 108.68 19.223 c 108.68 18.754 108.828 18.406 109.133 18.176 c 109.445
 17.938 109.906 17.816 110.523 17.816 c 111.461 17.816 l 111.461 17.754 
l 111.461 17.441 111.355 17.203 111.148 17.035 c 110.949 16.871 110.668 
16.785 110.305 16.785 c 110.062 16.785 109.836 16.816 109.617 16.879 c 109.398
 16.934 109.184 17.012 108.977 17.113 c 108.977 16.488 l 109.227 16.395 
109.465 16.328 109.695 16.285 c 109.922 16.234 110.148 16.207 110.367 16.207
 c 110.961 16.207 111.402 16.363 111.695 16.676 c 111.996 16.98 112.148 
17.441 112.148 18.066 c h
110.914 14.41 m 111.633 14.41 l 110.445 15.785 l 109.883 15.785 l h
110.914 14.41 m f
113.523 16.301 m 114.195 16.301 l 114.195 20.488 l 114.195 21.008 114.094
 21.383 113.898 21.613 c 113.699 21.852 113.383 21.973 112.945 21.973 c 
112.68 21.973 l 112.68 21.395 l 112.867 21.395 l 113.117 21.395 113.289 
21.336 113.383 21.223 c 113.477 21.105 113.523 20.863 113.523 20.488 c h
113.523 14.707 m 114.195 14.707 l 114.195 15.566 l 113.523 15.566 l h
113.523 14.707 m f
119.125 18.191 m 119.125 18.52 l 116.016 18.52 l 116.047 18.988 116.188
 19.344 116.438 19.582 c 116.688 19.824 117.035 19.941 117.484 19.941 c 
117.742 19.941 117.992 19.91 118.234 19.848 c 118.484 19.785 118.727 19.691
 118.969 19.566 c 118.969 20.207 l 118.719 20.301 118.469 20.375 118.219
 20.426 c 117.969 20.488 117.711 20.52 117.453 20.52 c 116.797 20.52 116.273
 20.332 115.891 19.957 c 115.504 19.574 115.312 19.051 115.312 18.395 c 
115.312 17.73 115.492 17.199 115.859 16.801 c 116.223 16.406 116.711 16.207
 117.328 16.207 c 117.879 16.207 118.316 16.387 118.641 16.738 c 118.961
 17.094 119.125 17.578 119.125 18.191 c h
118.453 17.988 m 118.441 17.625 118.336 17.332 118.141 17.113 c 117.941
 16.895 117.676 16.785 117.344 16.785 c 116.969 16.785 116.664 16.895 116.438
 17.113 c 116.207 17.324 116.078 17.621 116.047 18.004 c h
118.453 17.988 m f
123.629 17.941 m 123.629 20.41 l 122.957 20.41 l 122.957 17.957 l 122.957
 17.574 122.879 17.285 122.723 17.098 c 122.574 16.902 122.352 16.801 122.051
 16.801 c 121.684 16.801 121.398 16.918 121.191 17.145 c 120.98 17.375 120.879
 17.691 120.879 18.098 c 120.879 20.41 l 120.207 20.41 l 120.207 16.301 
l 120.879 16.301 l 120.879 16.941 l 121.035 16.703 121.223 16.52 121.441
 16.395 c 121.66 16.27 121.914 16.207 122.207 16.207 c 122.676 16.207 123.027
 16.355 123.27 16.645 c 123.508 16.938 123.629 17.371 123.629 17.941 c h
123.629 17.941 m f
125.836 14.41 m 126.555 14.41 l 125.367 15.785 l 124.805 15.785 l h
124.977 16.301 m 125.648 16.301 l 125.648 20.41 l 124.977 20.41 l h
125.32 16.207 m h
125.32 16.207 m f
129.555 14.941 m 132.461 14.941 l 132.461 15.566 l 130.227 15.566 l 130.227
 16.91 l 130.328 16.871 130.434 16.844 130.539 16.832 c 130.652 16.812 130.762
 16.801 130.867 16.801 c 131.48 16.801 131.965 16.969 132.32 17.301 c 132.672
 17.637 132.852 18.09 132.852 18.66 c 132.852 19.246 132.668 19.703 132.305
 20.035 c 131.938 20.359 131.422 20.52 130.758 20.52 c 130.527 20.52 130.293
 20.496 130.055 20.457 c 129.812 20.414 129.57 20.359 129.32 20.285 c 129.32
 19.535 l 129.539 19.66 129.762 19.754 129.992 19.816 c 130.23 19.871 130.48
 19.895 130.742 19.895 c 131.168 19.895 131.5 19.785 131.742 19.566 c 131.992
 19.34 132.117 19.035 132.117 18.66 c 132.117 18.277 131.992 17.973 131.742
 17.754 c 131.5 17.535 131.168 17.426 130.742 17.426 c 130.543 17.426 130.344
 17.449 130.148 17.488 c 129.949 17.531 129.75 17.598 129.555 17.691 c h
129.555 14.941 m f
138.035 20.41 m 135.957 14.941 l 136.723 14.941 l 138.457 19.551 l 140.191
 14.941 l 140.957 14.941 l 138.879 20.41 l h
138.035 20.41 m f
71.465 3.582 m 71.465 5.629 l 72.402 5.629 l 72.746 5.629 73.012 5.543 
73.199 5.363 c 73.387 5.188 73.48 4.938 73.48 4.613 c 73.48 4.281 73.387
 4.027 73.199 3.848 c 73.012 3.672 72.746 3.582 72.402 3.582 c h
70.73 2.973 m 72.402 2.973 l 73.016 2.973 73.48 3.113 73.793 3.395 c 74.105
 3.668 74.262 4.074 74.262 4.613 c 74.262 5.145 74.105 5.551 73.793 5.832
 c 73.48 6.105 73.016 6.238 72.402 6.238 c 71.465 6.238 l 71.465 8.441 l
 70.73 8.441 l h
70.73 2.973 m f
75.059 4.332 m 75.73 4.332 l 75.73 8.441 l 75.059 8.441 l h
75.059 2.738 m 75.73 2.738 l 75.73 3.598 l 75.059 3.598 l h
75.059 2.738 m f
80.547 5.973 m 80.547 8.441 l 79.875 8.441 l 79.875 5.988 l 79.875 5.605
 79.797 5.316 79.641 5.129 c 79.492 4.934 79.27 4.832 78.969 4.832 c 78.602
 4.832 78.316 4.949 78.109 5.176 c 77.898 5.406 77.797 5.723 77.797 6.129
 c 77.797 8.441 l 77.125 8.441 l 77.125 4.332 l 77.797 4.332 l 77.797 4.973
 l 77.953 4.734 78.141 4.551 78.359 4.426 c 78.578 4.301 78.832 4.238 79.125
 4.238 c 79.594 4.238 79.945 4.387 80.188 4.676 c 80.426 4.969 80.547 5.402
 80.547 5.973 c h
80.547 5.973 m f
86.621 5.488 m 86.973 5.574 87.25 5.734 87.449 5.973 c 87.645 6.215 87.746
 6.504 87.746 6.848 c 87.746 7.391 87.559 7.812 87.184 8.113 c 86.816 8.406
 86.293 8.551 85.605 8.551 c 85.375 8.551 85.137 8.523 84.887 8.473 c 84.645
 8.434 84.402 8.363 84.152 8.27 c 84.152 7.566 l 84.348 7.684 84.566 7.77
 84.809 7.832 c 85.059 7.895 85.316 7.926 85.59 7.926 c 86.047 7.926 86.395
 7.84 86.637 7.66 c 86.887 7.473 87.012 7.203 87.012 6.848 c 87.012 6.527
 86.895 6.277 86.668 6.098 c 86.438 5.91 86.125 5.816 85.73 5.816 c 85.09
 5.816 l 85.09 5.223 l 85.762 5.223 l 86.125 5.223 86.402 5.152 86.59 5.004
 c 86.785 4.859 86.887 4.645 86.887 4.363 c 86.887 4.082 86.781 3.871 86.574
 3.723 c 86.375 3.578 86.094 3.504 85.73 3.504 c 85.52 3.504 85.301 3.527
 85.074 3.566 c 84.844 3.609 84.59 3.676 84.309 3.77 c 84.309 3.113 l 84.59
 3.031 84.848 2.973 85.09 2.941 c 85.34 2.902 85.574 2.879 85.793 2.879 
c 86.355 2.879 86.797 3.012 87.121 3.27 c 87.453 3.52 87.621 3.859 87.621
 4.285 c 87.621 4.598 87.531 4.859 87.355 5.066 c 87.176 5.277 86.934 5.418
 86.621 5.488 c h
86.621 5.488 m f
89.223 7.504 m 90.004 7.504 l 90.004 8.441 l 89.223 8.441 l h
89.223 4.566 m 90.004 4.566 l 90.004 5.488 l 89.223 5.488 l h
89.223 4.566 m f
93.68 2.973 m 97.977 2.973 l 97.977 3.535 l 94.523 7.816 l 98.055 7.816
 l 98.055 8.441 l 93.602 8.441 l 93.602 7.879 l 97.055 3.598 l 93.68 3.598
 l h
93.68 2.973 m f
102.617 6.223 m 102.617 6.551 l 99.508 6.551 l 99.539 7.02 99.68 7.375 
99.93 7.613 c 100.18 7.855 100.527 7.973 100.977 7.973 c 101.234 7.973 101.484
 7.941 101.727 7.879 c 101.977 7.816 102.219 7.723 102.461 7.598 c 102.461
 8.238 l 102.211 8.332 101.961 8.406 101.711 8.457 c 101.461 8.52 101.203
 8.551 100.945 8.551 c 100.289 8.551 99.766 8.363 99.383 7.988 c 98.996 
7.605 98.805 7.082 98.805 6.426 c 98.805 5.762 98.984 5.23 99.352 4.832 
c 99.715 4.438 100.203 4.238 100.82 4.238 c 101.371 4.238 101.809 4.418 
102.133 4.77 c 102.453 5.125 102.617 5.609 102.617 6.223 c h
101.945 6.02 m 101.934 5.656 101.828 5.363 101.633 5.145 c 101.434 4.926
 101.168 4.816 100.836 4.816 c 100.461 4.816 100.156 4.926 99.93 5.145 c
 99.699 5.355 99.57 5.652 99.539 6.035 c h
101.945 6.02 m f
106.918 5.129 m 107.082 4.828 107.281 4.605 107.512 4.457 c 107.75 4.312
 108.027 4.238 108.34 4.238 c 108.766 4.238 109.094 4.391 109.324 4.691 
c 109.562 4.996 109.684 5.422 109.684 5.973 c 109.684 8.441 l 108.996 8.441
 l 108.996 5.988 l 108.996 5.594 108.926 5.301 108.793 5.113 c 108.656 4.926
 108.441 4.832 108.152 4.832 c 107.809 4.832 107.531 4.949 107.324 5.176
 c 107.125 5.406 107.027 5.723 107.027 6.129 c 107.027 8.441 l 106.355 8.441
 l 106.355 5.988 l 106.355 5.594 106.281 5.301 106.137 5.113 c 106 4.926
 105.785 4.832 105.496 4.832 c 105.152 4.832 104.875 4.949 104.668 5.176
 c 104.469 5.406 104.371 5.723 104.371 6.129 c 104.371 8.441 l 103.699 8.441
 l 103.699 4.332 l 104.371 4.332 l 104.371 4.973 l 104.527 4.723 104.707
 4.543 104.918 4.426 c 105.137 4.301 105.391 4.238 105.684 4.238 c 105.984
 4.238 106.238 4.316 106.449 4.473 c 106.656 4.621 106.812 4.84 106.918 
5.129 c h
106.918 5.129 m f
Q Q
showpage
%%Trailer
end
%%EOF
