%!PS-Adobe-3.0 EPSF-3.0
%%Creator: cairo 1.16.0 (https://cairographics.org)
%%CreationDate: Tue Mar 14 11:32:55 2023
%%Pages: 1
%%DocumentData: Clean7Bit
%%LanguageLevel: 2
%%BoundingBox: 0 0 198 115
%%EndComments
%%BeginProlog
50 dict begin
/q { gsave } bind def
/Q { grestore } bind def
/cm { 6 array astore concat } bind def
/w { setlinewidth } bind def
/J { setlinecap } bind def
/j { setlinejoin } bind def
/M { setmiterlimit } bind def
/d { setdash } bind def
/m { moveto } bind def
/l { lineto } bind def
/c { curveto } bind def
/h { closepath } bind def
/re { exch dup neg 3 1 roll 5 3 roll moveto 0 rlineto
      0 exch rlineto 0 rlineto closepath } bind def
/S { stroke } bind def
/f { fill } bind def
/f* { eofill } bind def
/n { newpath } bind def
/W { clip } bind def
/W* { eoclip } bind def
/BT { } bind def
/ET { } bind def
/BDC { mark 3 1 roll /BDC pdfmark } bind def
/EMC { mark /EMC pdfmark } bind def
/cairo_store_point { /cairo_point_y exch def /cairo_point_x exch def } def
/Tj { show currentpoint cairo_store_point } bind def
/TJ {
  {
    dup
    type /stringtype eq
    { show } { -0.001 mul 0 cairo_font_matrix dtransform rmoveto } ifelse
  } forall
  currentpoint cairo_store_point
} bind def
/cairo_selectfont { cairo_font_matrix aload pop pop pop 0 0 6 array astore
    cairo_font exch selectfont cairo_point_x cairo_point_y moveto } bind def
/Tf { pop /cairo_font exch def /cairo_font_matrix where
      { pop cairo_selectfont } if } bind def
/Td { matrix translate cairo_font_matrix matrix concatmatrix dup
      /cairo_font_matrix exch def dup 4 get exch 5 get cairo_store_point
      /cairo_font where { pop cairo_selectfont } if } bind def
/Tm { 2 copy 8 2 roll 6 array astore /cairo_font_matrix exch def
      cairo_store_point /cairo_font where { pop cairo_selectfont } if } bind def
/g { setgray } bind def
/rg { setrgbcolor } bind def
/d1 { setcachedevice } bind def
/cairo_data_source {
  CairoDataIndex CairoData length lt
    { CairoData CairoDataIndex get /CairoDataIndex CairoDataIndex 1 add def }
    { () } ifelse
} def
/cairo_flush_ascii85_file { cairo_ascii85_file status { cairo_ascii85_file flushfile } if } def
/cairo_image { image cairo_flush_ascii85_file } def
/cairo_imagemask { imagemask cairo_flush_ascii85_file } def
%%EndProlog
%%BeginSetup
%%EndSetup
%%Page: 1 1
%%BeginPageSetup
%%PageBoundingBox: 0 0 198 115
%%EndPageSetup
q 0 0 198 115 rectclip
1 0 0 -1 0 115 cm q
0.6 g
7.094 0.707 m 48.66 0.707 l 52.199 0.707 55.047 3.559 55.047 7.094 c 55.047
 50.02 l 55.047 53.559 52.199 56.406 48.66 56.406 c 7.094 56.406 l 3.559
 56.406 0.707 53.559 0.707 50.02 c 0.707 7.094 l 0.707 3.559 3.559 0.707
 7.094 0.707 c h
7.094 0.707 m f
0 g
1.41732 w
1 J
1 j
[] 0.0 d
4 M q 1 0 0 1 0 0 cm
7.094 0.707 m 48.66 0.707 l 52.199 0.707 55.047 3.559 55.047 7.094 c 55.047
 50.02 l 55.047 53.559 52.199 56.406 48.66 56.406 c 7.094 56.406 l 3.559
 56.406 0.707 53.559 0.707 50.02 c 0.707 7.094 l 0.707 3.559 3.559 0.707
 7.094 0.707 c h
7.094 0.707 m S Q
0.94902 g
25.801 9.988 m 25.801 17.48 l 7.797 17.48 l 7.797 47.129 l 47.961 47.129
 l 47.961 17.48 l 42.215 17.48 l 42.215 9.988 l h
25.801 9.988 m f
0 g
2 J
0 j
q 1 0 0 1 0 0 cm
25.801 9.988 m 25.801 17.48 l 7.797 17.48 l 7.797 47.129 l 47.961 47.129
 l 47.961 17.48 l 42.215 17.48 l 42.215 9.988 l h
25.801 9.988 m S Q
1 1 0 rg
12.512 35.645 3.273 7.965 re f
0 g
0.566929 w
q 1 0 0 1 0 0 cm
12.512 35.645 3.273 7.965 re S Q
1 1 0 rg
18.004 35.645 3.273 7.965 re f
0 g
q 1 0 0 1 0 0 cm
18.004 35.645 3.273 7.965 re S Q
1 1 0 rg
23.496 35.645 3.273 7.965 re f
0 g
q 1 0 0 1 0 0 cm
23.496 35.645 3.273 7.965 re S Q
1 1 0 rg
28.988 35.645 3.27 7.965 re f
0 g
q 1 0 0 1 0 0 cm
28.988 35.645 3.27 7.965 re S Q
1 1 0 rg
34.48 35.645 3.27 7.965 re f
0 g
q 1 0 0 1 0 0 cm
34.48 35.645 3.27 7.965 re S Q
1 1 0 rg
39.969 35.645 3.273 7.965 re f
0 g
q 1 0 0 1 0 0 cm
39.969 35.645 3.273 7.965 re S Q
14.242 31.73 m 14.043 31.73 13.887 31.801 13.773 31.934 c 13.656 32.07 
13.602 32.258 13.602 32.496 c 13.602 32.727 13.656 32.914 13.773 33.059 
c 13.887 33.195 14.043 33.262 14.242 33.262 c 14.438 33.262 14.594 33.195
 14.711 33.059 c 14.836 32.914 14.898 32.727 14.898 32.496 c 14.898 32.258
 14.836 32.07 14.711 31.934 c 14.594 31.801 14.438 31.73 14.242 31.73 c 
h
15.117 30.34 m 15.117 30.746 l 15.012 30.684 14.902 30.645 14.789 30.621
 c 14.672 30.59 14.559 30.574 14.445 30.574 c 14.152 30.574 13.93 30.676
 13.773 30.871 c 13.617 31.07 13.527 31.371 13.508 31.777 c 13.602 31.645
 13.711 31.543 13.836 31.48 c 13.969 31.41 14.117 31.371 14.273 31.371 c
 14.594 31.371 14.852 31.477 15.039 31.684 c 15.234 31.883 15.336 32.152
 15.336 32.496 c 15.336 32.832 15.234 33.102 15.039 33.309 c 14.84 33.508
 14.574 33.605 14.242 33.605 c 13.867 33.605 13.574 33.461 13.367 33.168
 c 13.168 32.879 13.07 32.457 13.07 31.902 c 13.07 31.383 13.188 30.973 
13.43 30.668 c 13.68 30.355 14.012 30.199 14.43 30.199 c 14.543 30.199 14.656
 30.211 14.773 30.23 c 14.887 30.254 15 30.289 15.117 30.34 c h
15.117 30.34 m f
18.773 30.234 m 20.523 30.234 l 20.523 30.609 l 19.18 30.609 l 19.18 31.406
 l 19.242 31.387 19.305 31.371 19.367 31.359 c 19.438 31.352 19.508 31.344
 19.57 31.344 c 19.934 31.344 20.219 31.449 20.43 31.656 c 20.648 31.855
 20.758 32.125 20.758 32.469 c 20.758 32.824 20.648 33.102 20.43 33.297 
c 20.211 33.484 19.898 33.578 19.492 33.578 c 19.355 33.578 19.215 33.566
 19.07 33.547 c 18.934 33.523 18.789 33.492 18.633 33.438 c 18.633 33 l 
18.766 33.062 18.902 33.117 19.039 33.156 c 19.184 33.188 19.336 33.203 
19.492 33.203 c 19.742 33.203 19.938 33.141 20.086 33.016 c 20.242 32.883
 20.32 32.699 20.32 32.469 c 20.32 32.242 20.242 32.059 20.086 31.922 c 
19.938 31.789 19.742 31.719 19.492 31.719 c 19.375 31.719 19.258 31.734 
19.133 31.766 c 19.016 31.789 18.898 31.828 18.773 31.891 c h
18.773 30.234 m f
25.48 30.656 m 24.355 32.406 l 25.48 32.406 l h
25.355 30.266 m 25.918 30.266 l 25.918 32.406 l 26.387 32.406 l 26.387 
32.766 l 25.918 32.766 l 25.918 33.547 l 25.48 33.547 l 25.48 32.766 l 23.996
 32.766 l 23.996 32.344 l h
25.355 30.266 m f
31.094 31.777 m 31.301 31.82 31.461 31.914 31.578 32.059 c 31.703 32.207
 31.766 32.383 31.766 32.59 c 31.766 32.914 31.648 33.164 31.422 33.34 c
 31.203 33.52 30.891 33.605 30.484 33.605 c 30.348 33.605 30.207 33.59 30.062
 33.559 c 29.914 33.539 29.766 33.504 29.609 33.449 c 29.609 33.012 l 29.734
 33.086 29.867 33.145 30.016 33.184 c 30.16 33.215 30.312 33.23 30.469 33.23
 c 30.75 33.23 30.961 33.18 31.109 33.074 c 31.254 32.961 31.328 32.801 
31.328 32.59 c 31.328 32.395 31.258 32.242 31.125 32.137 c 30.988 32.023
 30.801 31.965 30.562 31.965 c 30.172 31.965 l 30.172 31.605 l 30.578 31.605
 l 30.797 31.605 30.961 31.566 31.078 31.48 c 31.191 31.387 31.25 31.262
 31.25 31.105 c 31.25 30.93 31.188 30.801 31.062 30.715 c 30.945 30.621 
30.781 30.574 30.562 30.574 c 30.438 30.574 30.301 30.59 30.156 30.621 c
 30.02 30.645 29.867 30.684 29.703 30.746 c 29.703 30.34 l 29.867 30.301
 30.023 30.27 30.172 30.246 c 30.328 30.215 30.469 30.199 30.594 30.199 
c 30.938 30.199 31.203 30.277 31.391 30.434 c 31.586 30.59 31.688 30.801
 31.688 31.059 c 31.688 31.238 31.633 31.387 31.531 31.512 c 31.426 31.637
 31.281 31.727 31.094 31.777 c h
31.094 31.777 m f
35.668 33.203 m 37.215 33.203 l 37.215 33.578 l 35.137 33.578 l 35.137 
33.203 l 35.301 33.027 35.531 32.793 35.824 32.5 c 36.113 32.211 36.297 
32.023 36.371 31.938 c 36.516 31.773 36.613 31.637 36.668 31.531 c 36.73
 31.418 36.762 31.309 36.762 31.203 c 36.762 31.027 36.699 30.887 36.574
 30.781 c 36.449 30.668 36.285 30.609 36.09 30.609 c 35.953 30.609 35.809
 30.637 35.652 30.688 c 35.496 30.73 35.332 30.805 35.168 30.906 c 35.168
 30.453 l 35.344 30.383 35.504 30.328 35.652 30.297 c 35.809 30.258 35.953
 30.234 36.09 30.234 c 36.422 30.234 36.688 30.324 36.887 30.5 c 37.094 
30.668 37.199 30.891 37.199 31.172 c 37.199 31.309 37.172 31.438 37.121 
31.562 c 37.078 31.68 36.988 31.82 36.855 31.984 c 36.812 32.027 36.691 
32.152 36.496 32.359 c 36.309 32.559 36.031 32.84 35.668 33.203 c h
35.668 33.203 m f
40.766 33.172 m 41.484 33.172 l 41.484 30.672 l 40.703 30.828 l 40.703 
30.422 l 41.484 30.266 l 41.922 30.266 l 41.922 33.172 l 42.656 33.172 l
 42.656 33.547 l 40.766 33.547 l h
40.766 33.172 m f
58.117 75.988 m 58.117 78.035 l 59.055 78.035 l 59.398 78.035 59.664 77.949
 59.852 77.77 c 60.039 77.594 60.133 77.344 60.133 77.02 c 60.133 76.688
 60.039 76.434 59.852 76.254 c 59.664 76.078 59.398 75.988 59.055 75.988
 c h
57.383 75.379 m 59.055 75.379 l 59.668 75.379 60.133 75.52 60.445 75.801
 c 60.758 76.074 60.914 76.48 60.914 77.02 c 60.914 77.551 60.758 77.957
 60.445 78.238 c 60.133 78.512 59.668 78.645 59.055 78.645 c 58.117 78.645
 l 58.117 80.848 l 57.383 80.848 l h
57.383 75.379 m f
64 76.02 m 62.141 78.941 l 64 78.941 l h
63.812 75.379 m 64.75 75.379 l 64.75 78.941 l 65.516 78.941 l 65.516 79.551
 l 64.75 79.551 l 64.75 80.848 l 64 80.848 l 64 79.551 l 61.531 79.551 l
 61.531 78.848 l h
63.812 75.379 m f
66.82 79.91 m 67.602 79.91 l 67.602 80.848 l 66.82 80.848 l h
66.82 76.973 m 67.602 76.973 l 67.602 77.895 l 66.82 77.895 l h
66.82 76.973 m f
71.59 75.379 m 72.59 75.379 l 75.012 79.957 l 75.012 75.379 l 75.73 75.379
 l 75.73 80.848 l 74.73 80.848 l 72.309 76.27 l 72.309 80.848 l 71.59 80.848
 l h
71.59 75.379 m f
79.043 78.785 m 78.488 78.785 78.109 78.848 77.902 78.973 c 77.691 79.098
 77.59 79.312 77.59 79.613 c 77.59 79.855 77.668 80.047 77.824 80.191 c 
77.98 80.328 78.191 80.395 78.465 80.395 c 78.84 80.395 79.137 80.266 79.355
 80.004 c 79.582 79.734 79.699 79.379 79.699 78.941 c 79.699 78.785 l h
80.387 78.504 m 80.387 80.848 l 79.699 80.848 l 79.699 80.223 l 79.551 
80.473 79.363 80.66 79.137 80.785 c 78.906 80.898 78.625 80.957 78.293 80.957
 c 77.863 80.957 77.527 80.844 77.277 80.613 c 77.035 80.375 76.918 80.059
 76.918 79.66 c 76.918 79.191 77.066 78.844 77.371 78.613 c 77.684 78.375
 78.145 78.254 78.762 78.254 c 79.699 78.254 l 79.699 78.191 l 79.699 77.879
 79.594 77.641 79.387 77.473 c 79.188 77.309 78.906 77.223 78.543 77.223
 c 78.301 77.223 78.074 77.254 77.855 77.316 c 77.637 77.371 77.422 77.449
 77.215 77.551 c 77.215 76.926 l 77.465 76.832 77.703 76.766 77.934 76.723
 c 78.16 76.672 78.387 76.645 78.605 76.645 c 79.199 76.645 79.641 76.801
 79.934 77.113 c 80.234 77.418 80.387 77.879 80.387 78.504 c h
80.387 78.504 m f
82.422 80.238 m 82.422 82.41 l 81.75 82.41 l 81.75 76.738 l 82.422 76.738
 l 82.422 77.363 l 82.566 77.125 82.742 76.949 82.953 76.832 c 83.172 76.707
 83.43 76.645 83.734 76.645 c 84.234 76.645 84.633 76.844 84.938 77.238 
c 85.25 77.637 85.406 78.156 85.406 78.801 c 85.406 79.449 85.25 79.969 
84.938 80.363 c 84.633 80.762 84.234 80.957 83.734 80.957 c 83.43 80.957
 83.172 80.898 82.953 80.785 c 82.742 80.66 82.566 80.48 82.422 80.238 c
 h
84.719 78.801 m 84.719 78.301 84.613 77.91 84.406 77.629 c 84.207 77.348
 83.926 77.207 83.562 77.207 c 83.207 77.207 82.926 77.348 82.719 77.629
 c 82.52 77.91 82.422 78.301 82.422 78.801 c 82.422 79.301 82.52 79.691 
82.719 79.973 c 82.926 80.254 83.207 80.395 83.562 80.395 c 83.926 80.395
 84.207 80.254 84.406 79.973 c 84.613 79.691 84.719 79.301 84.719 78.801
 c h
84.719 78.801 m f
88.402 78.785 m 87.848 78.785 87.469 78.848 87.262 78.973 c 87.051 79.098
 86.949 79.312 86.949 79.613 c 86.949 79.855 87.027 80.047 87.184 80.191
 c 87.34 80.328 87.551 80.395 87.824 80.395 c 88.199 80.395 88.496 80.266
 88.715 80.004 c 88.941 79.734 89.059 79.379 89.059 78.941 c 89.059 78.785
 l h
89.746 78.504 m 89.746 80.848 l 89.059 80.848 l 89.059 80.223 l 88.91 80.473
 88.723 80.66 88.496 80.785 c 88.266 80.898 87.984 80.957 87.652 80.957 
c 87.223 80.957 86.887 80.844 86.637 80.613 c 86.395 80.375 86.277 80.059
 86.277 79.66 c 86.277 79.191 86.426 78.844 86.73 78.613 c 87.043 78.375
 87.504 78.254 88.121 78.254 c 89.059 78.254 l 89.059 78.191 l 89.059 77.879
 88.953 77.641 88.746 77.473 c 88.547 77.309 88.266 77.223 87.902 77.223
 c 87.66 77.223 87.434 77.254 87.215 77.316 c 86.996 77.371 86.781 77.449
 86.574 77.551 c 86.574 76.926 l 86.824 76.832 87.062 76.766 87.293 76.723
 c 87.52 76.672 87.746 76.645 87.965 76.645 c 88.559 76.645 89 76.801 89.293
 77.113 c 89.594 77.418 89.746 77.879 89.746 78.504 c h
88.512 74.848 m 89.23 74.848 l 88.043 76.223 l 87.48 76.223 l h
88.512 74.848 m f
91.121 76.738 m 91.793 76.738 l 91.793 80.926 l 91.793 81.445 91.691 81.82
 91.496 82.051 c 91.297 82.289 90.98 82.41 90.543 82.41 c 90.277 82.41 l
 90.277 81.832 l 90.465 81.832 l 90.715 81.832 90.887 81.773 90.98 81.66
 c 91.074 81.543 91.121 81.301 91.121 80.926 c h
91.121 75.145 m 91.793 75.145 l 91.793 76.004 l 91.121 76.004 l h
91.121 75.145 m f
96.723 78.629 m 96.723 78.957 l 93.613 78.957 l 93.645 79.426 93.785 79.781
 94.035 80.02 c 94.285 80.262 94.633 80.379 95.082 80.379 c 95.34 80.379
 95.59 80.348 95.832 80.285 c 96.082 80.223 96.324 80.129 96.566 80.004 
c 96.566 80.645 l 96.316 80.738 96.066 80.812 95.816 80.863 c 95.566 80.926
 95.309 80.957 95.051 80.957 c 94.395 80.957 93.871 80.77 93.488 80.395 
c 93.102 80.012 92.91 79.488 92.91 78.832 c 92.91 78.168 93.09 77.637 93.457
 77.238 c 93.82 76.844 94.309 76.645 94.926 76.645 c 95.477 76.645 95.914
 76.824 96.238 77.176 c 96.559 77.531 96.723 78.016 96.723 78.629 c h
96.051 78.426 m 96.039 78.062 95.934 77.77 95.738 77.551 c 95.539 77.332
 95.273 77.223 94.941 77.223 c 94.566 77.223 94.262 77.332 94.035 77.551
 c 93.805 77.762 93.676 78.059 93.645 78.441 c h
96.051 78.426 m f
101.227 78.379 m 101.227 80.848 l 100.555 80.848 l 100.555 78.395 l 100.555
 78.012 100.477 77.723 100.32 77.535 c 100.172 77.34 99.949 77.238 99.648
 77.238 c 99.281 77.238 98.996 77.355 98.789 77.582 c 98.578 77.812 98.477
 78.129 98.477 78.535 c 98.477 80.848 l 97.805 80.848 l 97.805 76.738 l 
98.477 76.738 l 98.477 77.379 l 98.633 77.141 98.82 76.957 99.039 76.832
 c 99.258 76.707 99.512 76.645 99.805 76.645 c 100.273 76.645 100.625 76.793
 100.867 77.082 c 101.105 77.375 101.227 77.809 101.227 78.379 c h
101.227 78.379 m f
103.434 74.848 m 104.152 74.848 l 102.965 76.223 l 102.402 76.223 l h
102.574 76.738 m 103.246 76.738 l 103.246 80.848 l 102.574 80.848 l h
102.918 76.645 m h
102.918 76.645 m f
109.789 76.145 m 109.789 78.191 l 111.82 78.191 l 111.82 78.801 l 109.789
 78.801 l 109.789 80.848 l 109.164 80.848 l 109.164 78.801 l 107.133 78.801
 l 107.133 78.191 l 109.164 78.191 l 109.164 76.145 l h
109.789 76.145 m f
113.434 75.379 m 116.34 75.379 l 116.34 76.004 l 114.105 76.004 l 114.105
 77.348 l 114.207 77.309 114.312 77.281 114.418 77.27 c 114.531 77.25 114.641
 77.238 114.746 77.238 c 115.359 77.238 115.844 77.406 116.199 77.738 c 
116.551 78.074 116.73 78.527 116.73 79.098 c 116.73 79.684 116.547 80.141
 116.184 80.473 c 115.816 80.797 115.301 80.957 114.637 80.957 c 114.406
 80.957 114.172 80.934 113.934 80.895 c 113.691 80.852 113.449 80.797 113.199
 80.723 c 113.199 79.973 l 113.418 80.098 113.641 80.191 113.871 80.254 
c 114.109 80.309 114.359 80.332 114.621 80.332 c 115.047 80.332 115.379 
80.223 115.621 80.004 c 115.871 79.777 115.996 79.473 115.996 79.098 c 115.996
 78.715 115.871 78.41 115.621 78.191 c 115.379 77.973 115.047 77.863 114.621
 77.863 c 114.422 77.863 114.223 77.887 114.027 77.926 c 113.828 77.969 
113.629 78.035 113.434 78.129 c h
113.434 75.379 m f
119.535 80.848 m 117.457 75.379 l 118.223 75.379 l 119.957 79.988 l 121.691
 75.379 l 122.457 75.379 l 120.379 80.848 l h
119.535 80.848 m f
58.52 64.273 m 58.52 66.32 l 59.457 66.32 l 59.801 66.32 60.066 66.234 
60.254 66.055 c 60.441 65.879 60.535 65.629 60.535 65.305 c 60.535 64.973
 60.441 64.719 60.254 64.539 c 60.066 64.363 59.801 64.273 59.457 64.273
 c h
57.785 63.664 m 59.457 63.664 l 60.07 63.664 60.535 63.805 60.848 64.086
 c 61.16 64.359 61.316 64.766 61.316 65.305 c 61.316 65.836 61.16 66.242
 60.848 66.523 c 60.535 66.797 60.07 66.93 59.457 66.93 c 58.52 66.93 l 
58.52 69.133 l 57.785 69.133 l h
57.785 63.664 m f
64.617 66.18 m 64.969 66.266 65.246 66.426 65.445 66.664 c 65.641 66.906
 65.742 67.195 65.742 67.539 c 65.742 68.082 65.555 68.504 65.18 68.805 
c 64.812 69.098 64.289 69.242 63.602 69.242 c 63.371 69.242 63.133 69.215
 62.883 69.164 c 62.641 69.125 62.398 69.055 62.148 68.961 c 62.148 68.258
 l 62.344 68.375 62.562 68.461 62.805 68.523 c 63.055 68.586 63.312 68.617
 63.586 68.617 c 64.043 68.617 64.391 68.531 64.633 68.352 c 64.883 68.164
 65.008 67.895 65.008 67.539 c 65.008 67.219 64.891 66.969 64.664 66.789
 c 64.434 66.602 64.121 66.508 63.727 66.508 c 63.086 66.508 l 63.086 65.914
 l 63.758 65.914 l 64.121 65.914 64.398 65.844 64.586 65.695 c 64.781 65.551
 64.883 65.336 64.883 65.055 c 64.883 64.773 64.777 64.562 64.57 64.414 
c 64.371 64.27 64.09 64.195 63.727 64.195 c 63.516 64.195 63.297 64.219 
63.07 64.258 c 62.84 64.301 62.586 64.367 62.305 64.461 c 62.305 63.805 
l 62.586 63.723 62.844 63.664 63.086 63.633 c 63.336 63.594 63.57 63.57 
63.789 63.57 c 64.352 63.57 64.793 63.703 65.117 63.961 c 65.449 64.211 
65.617 64.551 65.617 64.977 c 65.617 65.289 65.527 65.551 65.352 65.758 
c 65.172 65.969 64.93 66.109 64.617 66.18 c h
64.617 66.18 m f
67.219 68.195 m 68 68.195 l 68 69.133 l 67.219 69.133 l h
67.219 65.258 m 68 65.258 l 68 66.18 l 67.219 66.18 l h
67.219 65.258 m f
71.676 63.664 m 75.973 63.664 l 75.973 64.227 l 72.52 68.508 l 76.051 68.508
 l 76.051 69.133 l 71.598 69.133 l 71.598 68.57 l 75.051 64.289 l 71.676
 64.289 l h
71.676 63.664 m f
80.613 66.914 m 80.613 67.242 l 77.504 67.242 l 77.535 67.711 77.676 68.066
 77.926 68.305 c 78.176 68.547 78.523 68.664 78.973 68.664 c 79.23 68.664
 79.48 68.633 79.723 68.57 c 79.973 68.508 80.215 68.414 80.457 68.289 c
 80.457 68.93 l 80.207 69.023 79.957 69.098 79.707 69.148 c 79.457 69.211
 79.199 69.242 78.941 69.242 c 78.285 69.242 77.762 69.055 77.379 68.68 
c 76.992 68.297 76.801 67.773 76.801 67.117 c 76.801 66.453 76.98 65.922
 77.348 65.523 c 77.711 65.129 78.199 64.93 78.816 64.93 c 79.367 64.93 
79.805 65.109 80.129 65.461 c 80.449 65.816 80.613 66.301 80.613 66.914 
c h
79.941 66.711 m 79.93 66.348 79.824 66.055 79.629 65.836 c 79.43 65.617
 79.164 65.508 78.832 65.508 c 78.457 65.508 78.152 65.617 77.926 65.836
 c 77.695 66.047 77.566 66.344 77.535 66.727 c h
79.941 66.711 m f
84.914 65.82 m 85.078 65.52 85.277 65.297 85.508 65.148 c 85.746 65.004
 86.023 64.93 86.336 64.93 c 86.762 64.93 87.09 65.082 87.32 65.383 c 87.559
 65.688 87.68 66.113 87.68 66.664 c 87.68 69.133 l 86.992 69.133 l 86.992
 66.68 l 86.992 66.285 86.922 65.992 86.789 65.805 c 86.652 65.617 86.438
 65.523 86.148 65.523 c 85.805 65.523 85.527 65.641 85.32 65.867 c 85.121
 66.098 85.023 66.414 85.023 66.82 c 85.023 69.133 l 84.352 69.133 l 84.352
 66.68 l 84.352 66.285 84.277 65.992 84.133 65.805 c 83.996 65.617 83.781
 65.523 83.492 65.523 c 83.148 65.523 82.871 65.641 82.664 65.867 c 82.465
 66.098 82.367 66.414 82.367 66.82 c 82.367 69.133 l 81.695 69.133 l 81.695
 65.023 l 82.367 65.023 l 82.367 65.664 l 82.523 65.414 82.703 65.234 82.914
 65.117 c 83.133 64.992 83.387 64.93 83.68 64.93 c 83.98 64.93 84.234 65.008
 84.445 65.164 c 84.652 65.312 84.809 65.531 84.914 65.82 c h
84.914 65.82 m f
58.855 89.152 m 58.855 91.199 l 59.793 91.199 l 60.137 91.199 60.402 91.113
 60.59 90.934 c 60.777 90.758 60.871 90.508 60.871 90.184 c 60.871 89.852
 60.777 89.598 60.59 89.418 c 60.402 89.242 60.137 89.152 59.793 89.152 
c h
58.121 88.543 m 59.793 88.543 l 60.406 88.543 60.871 88.684 61.184 88.965
 c 61.496 89.238 61.652 89.645 61.652 90.184 c 61.652 90.715 61.496 91.121
 61.184 91.402 c 60.871 91.676 60.406 91.809 59.793 91.809 c 58.855 91.809
 l 58.855 94.012 l 58.121 94.012 l h
58.121 88.543 m f
64.379 90.98 m 64.055 90.98 63.793 91.098 63.598 91.324 c 63.398 91.555
 63.301 91.867 63.301 92.262 c 63.301 92.648 63.398 92.957 63.598 93.184
 c 63.793 93.414 64.055 93.527 64.379 93.527 c 64.711 93.527 64.977 93.414
 65.176 93.184 c 65.371 92.957 65.473 92.648 65.473 92.262 c 65.473 91.867
 65.371 91.555 65.176 91.324 c 64.977 91.098 64.711 90.98 64.379 90.98 c
 h
65.848 88.668 m 65.848 89.34 l 65.668 89.246 65.48 89.18 65.285 89.137 
c 65.098 89.098 64.91 89.074 64.723 89.074 c 64.242 89.074 63.871 89.242
 63.613 89.574 c 63.352 89.898 63.207 90.395 63.176 91.059 c 63.309 90.84
 63.488 90.68 63.707 90.574 c 63.926 90.461 64.164 90.402 64.426 90.402 
c 64.977 90.402 65.41 90.57 65.723 90.902 c 66.043 91.238 66.207 91.691 
66.207 92.262 c 66.207 92.824 66.039 93.277 65.707 93.621 c 65.371 93.957
 64.93 94.121 64.379 94.121 c 63.754 94.121 63.273 93.883 62.941 93.402 
c 62.605 92.914 62.441 92.207 62.441 91.277 c 62.441 90.414 62.645 89.727
 63.051 89.215 c 63.457 88.707 64.008 88.449 64.707 88.449 c 64.883 88.449
 65.066 88.473 65.254 88.512 c 65.449 88.543 65.648 88.598 65.848 88.668
 c h
65.848 88.668 m f
67.555 93.074 m 68.336 93.074 l 68.336 94.012 l 67.555 94.012 l h
67.555 90.137 m 68.336 90.137 l 68.336 91.059 l 67.555 91.059 l h
67.555 90.137 m f
75.605 88.73 m 75.605 89.449 l 75.324 89.316 75.059 89.215 74.809 89.152
 c 74.559 89.082 74.316 89.043 74.09 89.043 c 73.684 89.043 73.371 89.121
 73.152 89.277 c 72.934 89.434 72.824 89.66 72.824 89.949 c 72.824 90.191
 72.895 90.371 73.043 90.496 c 73.188 90.621 73.465 90.723 73.871 90.793
 c 74.324 90.887 l 74.875 90.992 75.281 91.18 75.543 91.449 c 75.801 91.711
 75.934 92.059 75.934 92.496 c 75.934 93.027 75.754 93.434 75.402 93.715
 c 75.047 93.988 74.527 94.121 73.84 94.121 c 73.578 94.121 73.301 94.09
 73.012 94.027 c 72.719 93.977 72.418 93.895 72.105 93.777 c 72.105 93.012
 l 72.406 93.18 72.699 93.305 72.98 93.387 c 73.27 93.473 73.559 93.512 
73.84 93.512 c 74.254 93.512 74.578 93.43 74.809 93.262 c 75.047 93.098 
75.168 92.863 75.168 92.559 c 75.168 92.289 75.082 92.082 74.918 91.934 
c 74.75 91.777 74.48 91.664 74.105 91.59 c 73.652 91.496 l 73.098 91.395
 72.699 91.227 72.449 90.996 c 72.207 90.758 72.09 90.43 72.09 90.012 c 
72.09 89.523 72.254 89.145 72.59 88.871 c 72.934 88.59 73.402 88.449 73.996
 88.449 c 74.254 88.449 74.516 88.477 74.777 88.527 c 75.047 88.57 75.324
 88.637 75.605 88.73 c h
75.605 88.73 m f
77.727 88.746 m 77.727 89.902 l 79.117 89.902 l 79.117 90.434 l 77.727 
90.434 l 77.727 92.668 l 77.727 93.004 77.766 93.215 77.852 93.309 c 77.945
 93.402 78.133 93.449 78.414 93.449 c 79.117 93.449 l 79.117 94.012 l 78.414
 94.012 l 77.902 94.012 77.547 93.918 77.352 93.73 c 77.152 93.535 77.055
 93.18 77.055 92.668 c 77.055 90.434 l 76.555 90.434 l 76.555 89.902 l 77.055
 89.902 l 77.055 88.746 l h
77.727 88.746 m f
81.871 91.949 m 81.316 91.949 80.938 92.012 80.73 92.137 c 80.52 92.262
 80.418 92.477 80.418 92.777 c 80.418 93.02 80.496 93.211 80.652 93.355 
c 80.809 93.492 81.02 93.559 81.293 93.559 c 81.668 93.559 81.965 93.43 
82.184 93.168 c 82.41 92.898 82.527 92.543 82.527 92.105 c 82.527 91.949
 l h
83.215 91.668 m 83.215 94.012 l 82.527 94.012 l 82.527 93.387 l 82.379 
93.637 82.191 93.824 81.965 93.949 c 81.734 94.062 81.453 94.121 81.121 
94.121 c 80.691 94.121 80.355 94.008 80.105 93.777 c 79.863 93.539 79.746
 93.223 79.746 92.824 c 79.746 92.355 79.895 92.008 80.199 91.777 c 80.512
 91.539 80.973 91.418 81.59 91.418 c 82.527 91.418 l 82.527 91.355 l 82.527
 91.043 82.422 90.805 82.215 90.637 c 82.016 90.473 81.734 90.387 81.371
 90.387 c 81.129 90.387 80.902 90.418 80.684 90.48 c 80.465 90.535 80.25
 90.613 80.043 90.715 c 80.043 90.09 l 80.293 89.996 80.531 89.93 80.762
 89.887 c 80.988 89.836 81.215 89.809 81.434 89.809 c 82.027 89.809 82.469
 89.965 82.762 90.277 c 83.062 90.582 83.215 91.043 83.215 91.668 c h
83.215 91.668 m f
84.109 89.902 m 84.828 89.902 l 86.109 93.355 l 87.391 89.902 l 88.109 
89.902 l 86.562 94.012 l 85.656 94.012 l h
84.109 89.902 m f
92.086 88.746 m 92.086 89.902 l 93.477 89.902 l 93.477 90.434 l 92.086 
90.434 l 92.086 92.668 l 92.086 93.004 92.125 93.215 92.211 93.309 c 92.305
 93.402 92.492 93.449 92.773 93.449 c 93.477 93.449 l 93.477 94.012 l 92.773
 94.012 l 92.262 94.012 91.906 93.918 91.711 93.73 c 91.512 93.535 91.414
 93.18 91.414 92.668 c 91.414 90.434 l 90.914 90.434 l 90.914 89.902 l 91.414
 89.902 l 91.414 88.746 l h
92.086 88.746 m f
94.355 88.309 0.672 5.703 re f
98.312 91.949 m 97.758 91.949 97.379 92.012 97.172 92.137 c 96.961 92.262
 96.859 92.477 96.859 92.777 c 96.859 93.02 96.938 93.211 97.094 93.355 
c 97.25 93.492 97.461 93.559 97.734 93.559 c 98.109 93.559 98.406 93.43 
98.625 93.168 c 98.852 92.898 98.969 92.543 98.969 92.105 c 98.969 91.949
 l h
99.656 91.668 m 99.656 94.012 l 98.969 94.012 l 98.969 93.387 l 98.82 93.637
 98.633 93.824 98.406 93.949 c 98.176 94.062 97.895 94.121 97.562 94.121
 c 97.133 94.121 96.797 94.008 96.547 93.777 c 96.305 93.539 96.188 93.223
 96.188 92.824 c 96.188 92.355 96.336 92.008 96.641 91.777 c 96.953 91.539
 97.414 91.418 98.031 91.418 c 98.969 91.418 l 98.969 91.355 l 98.969 91.043
 98.863 90.805 98.656 90.637 c 98.457 90.473 98.176 90.387 97.812 90.387
 c 97.57 90.387 97.344 90.418 97.125 90.48 c 96.906 90.535 96.691 90.613
 96.484 90.715 c 96.484 90.09 l 96.734 89.996 96.973 89.93 97.203 89.887
 c 97.43 89.836 97.656 89.809 97.875 89.809 c 98.469 89.809 98.91 89.965
 99.203 90.277 c 99.504 90.582 99.656 91.043 99.656 91.668 c h
99.656 91.668 m f
103.988 90.074 m 103.988 90.699 l 103.801 90.598 103.605 90.52 103.41 90.465
 c 103.223 90.414 103.027 90.387 102.832 90.387 c 102.395 90.387 102.055
 90.527 101.816 90.809 c 101.574 91.082 101.457 91.465 101.457 91.965 c 
101.457 92.465 101.574 92.855 101.816 93.137 c 102.055 93.41 102.395 93.543
 102.832 93.543 c 103.027 93.543 103.223 93.52 103.41 93.465 c 103.605 93.414
 103.801 93.336 103.988 93.23 c 103.988 93.855 l 103.801 93.941 103.602 
94.004 103.395 94.043 c 103.195 94.094 102.988 94.121 102.77 94.121 c 102.145
 94.121 101.648 93.93 101.285 93.543 c 100.918 93.148 100.738 92.621 100.738
 91.965 c 100.738 91.301 100.918 90.773 101.285 90.387 c 101.66 90.004 102.164
 89.809 102.801 89.809 c 103.008 89.809 103.211 89.832 103.41 89.871 c 103.605
 89.914 103.801 89.98 103.988 90.074 c h
102.441 89.387 m 101.535 88.012 l 102.051 88.012 l 102.707 88.918 l 103.363
 88.012 l 103.879 88.012 l 102.973 89.387 l h
102.441 89.387 m f
106.02 88.012 m 106.738 88.012 l 105.551 89.387 l 104.988 89.387 l h
105.16 89.902 m 105.832 89.902 l 105.832 94.012 l 105.16 94.012 l h
105.504 89.809 m h
105.504 89.809 m f
107.914 88.746 m 107.914 89.902 l 109.305 89.902 l 109.305 90.434 l 107.914
 90.434 l 107.914 92.668 l 107.914 93.004 107.953 93.215 108.039 93.309 
c 108.133 93.402 108.32 93.449 108.602 93.449 c 109.305 93.449 l 109.305
 94.012 l 108.602 94.012 l 108.09 94.012 107.734 93.918 107.539 93.73 c 
107.34 93.535 107.242 93.18 107.242 92.668 c 107.242 90.434 l 106.742 90.434
 l 106.742 89.902 l 107.242 89.902 l 107.242 88.746 l h
107.914 88.746 m f
110.168 88.309 m 110.84 88.309 l 110.84 91.684 l 112.855 89.902 l 113.715
 89.902 l 111.527 91.824 l 113.809 94.012 l 112.918 94.012 l 110.84 92.012
 l 110.84 94.012 l 110.168 94.012 l h
110.168 88.309 m f
116.27 91.949 m 115.715 91.949 115.336 92.012 115.129 92.137 c 114.918 
92.262 114.816 92.477 114.816 92.777 c 114.816 93.02 114.895 93.211 115.051
 93.355 c 115.207 93.492 115.418 93.559 115.691 93.559 c 116.066 93.559 
116.363 93.43 116.582 93.168 c 116.809 92.898 116.926 92.543 116.926 92.105
 c 116.926 91.949 l h
117.613 91.668 m 117.613 94.012 l 116.926 94.012 l 116.926 93.387 l 116.777
 93.637 116.59 93.824 116.363 93.949 c 116.133 94.062 115.852 94.121 115.52
 94.121 c 115.09 94.121 114.754 94.008 114.504 93.777 c 114.262 93.539 114.145
 93.223 114.145 92.824 c 114.145 92.355 114.293 92.008 114.598 91.777 c 
114.91 91.539 115.371 91.418 115.988 91.418 c 116.926 91.418 l 116.926 91.355
 l 116.926 91.043 116.82 90.805 116.613 90.637 c 116.414 90.473 116.133 
90.387 115.77 90.387 c 115.527 90.387 115.301 90.418 115.082 90.48 c 114.863
 90.535 114.648 90.613 114.441 90.715 c 114.441 90.09 l 114.691 89.996 114.93
 89.93 115.16 89.887 c 115.387 89.836 115.613 89.809 115.832 89.809 c 116.426
 89.809 116.867 89.965 117.16 90.277 c 117.461 90.582 117.613 91.043 117.613
 91.668 c h
117.613 91.668 m f
119.164 93.074 m 119.945 93.074 l 119.945 94.012 l 119.164 94.012 l h
119.164 90.137 m 119.945 90.137 l 119.945 91.059 l 119.164 91.059 l h
119.164 90.137 m f
62.516 101.027 1.984 0.609 re f
67.887 101.762 m 67.887 99.277 l 68.559 99.277 l 68.559 101.746 l 68.559
 102.133 68.629 102.426 68.777 102.621 c 68.934 102.809 69.16 102.902 69.465
 102.902 c 69.828 102.902 70.113 102.789 70.324 102.559 c 70.543 102.332
 70.652 102.012 70.652 101.605 c 70.652 99.277 l 71.324 99.277 l 71.324 
103.387 l 70.652 103.387 l 70.652 102.762 l 70.484 103.012 70.293 103.199
 70.074 103.324 c 69.855 103.438 69.605 103.496 69.324 103.496 c 68.855 
103.496 68.496 103.352 68.246 103.059 c 68.004 102.77 67.887 102.336 67.887
 101.762 c h
69.574 99.184 m h
69.574 99.184 m f
72.219 99.277 m 72.938 99.277 l 74.219 102.73 l 75.5 99.277 l 76.219 99.277
 l 74.672 103.387 l 73.766 103.387 l h
72.219 99.277 m f
78.734 99.762 m 78.367 99.762 78.082 99.902 77.875 100.184 c 77.664 100.465
 77.562 100.852 77.562 101.34 c 77.562 101.832 77.664 102.215 77.875 102.496
 c 78.082 102.777 78.367 102.918 78.734 102.918 c 79.086 102.918 79.367 
102.777 79.578 102.496 c 79.797 102.215 79.906 101.832 79.906 101.34 c 79.906
 100.852 79.797 100.465 79.578 100.184 c 79.367 99.902 79.086 99.762 78.734
 99.762 c h
78.734 99.184 m 79.316 99.184 79.773 99.379 80.109 99.762 c 80.441 100.137
 80.609 100.664 80.609 101.34 c 80.609 102.008 80.441 102.535 80.109 102.918
 c 79.773 103.305 79.316 103.496 78.734 103.496 c 78.141 103.496 77.676 
103.305 77.344 102.918 c 77.008 102.535 76.844 102.008 76.844 101.34 c 76.844
 100.664 77.008 100.137 77.344 99.762 c 77.676 99.379 78.141 99.184 78.734
 99.184 c h
78.734 99.184 m f
81.727 97.684 0.672 5.703 re f
87.219 100.918 m 87.219 103.387 l 86.547 103.387 l 86.547 100.934 l 86.547
 100.551 86.469 100.262 86.312 100.074 c 86.164 99.879 85.941 99.777 85.641
 99.777 c 85.273 99.777 84.988 99.895 84.781 100.121 c 84.57 100.352 84.469
 100.668 84.469 101.074 c 84.469 103.387 l 83.797 103.387 l 83.797 99.277
 l 84.469 99.277 l 84.469 99.918 l 84.625 99.68 84.812 99.496 85.031 99.371
 c 85.25 99.246 85.504 99.184 85.797 99.184 c 86.266 99.184 86.617 99.332
 86.859 99.621 c 87.098 99.914 87.219 100.348 87.219 100.918 c h
87.219 100.918 m f
92.082 101.168 m 92.082 101.496 l 88.973 101.496 l 89.004 101.965 89.145
 102.32 89.395 102.559 c 89.645 102.801 89.992 102.918 90.441 102.918 c 
90.699 102.918 90.949 102.887 91.191 102.824 c 91.441 102.762 91.684 102.668
 91.926 102.543 c 91.926 103.184 l 91.676 103.277 91.426 103.352 91.176 
103.402 c 90.926 103.465 90.668 103.496 90.41 103.496 c 89.754 103.496 89.23
 103.309 88.848 102.934 c 88.461 102.551 88.27 102.027 88.27 101.371 c 88.27
 100.707 88.449 100.176 88.816 99.777 c 89.18 99.383 89.668 99.184 90.285
 99.184 c 90.836 99.184 91.273 99.363 91.598 99.715 c 91.918 100.07 92.082
 100.555 92.082 101.168 c h
91.41 100.965 m 91.398 100.602 91.293 100.309 91.098 100.09 c 90.898 99.871
 90.633 99.762 90.301 99.762 c 89.926 99.762 89.621 99.871 89.395 100.09
 c 89.164 100.301 89.035 100.598 89.004 100.98 c h
90.02 98.777 m 89.113 97.402 l 89.629 97.402 l 90.285 98.309 l 90.941 97.402
 l 91.457 97.402 l 90.551 98.777 l h
90.02 98.777 m f
96.586 100.918 m 96.586 103.387 l 95.914 103.387 l 95.914 100.934 l 95.914
 100.551 95.836 100.262 95.68 100.074 c 95.531 99.879 95.309 99.777 95.008
 99.777 c 94.641 99.777 94.355 99.895 94.148 100.121 c 93.938 100.352 93.836
 100.668 93.836 101.074 c 93.836 103.387 l 93.164 103.387 l 93.164 99.277
 l 93.836 99.277 l 93.836 99.918 l 93.992 99.68 94.18 99.496 94.398 99.371
 c 94.617 99.246 94.871 99.184 95.164 99.184 c 95.633 99.184 95.984 99.332
 96.227 99.621 c 96.465 99.914 96.586 100.348 96.586 100.918 c h
96.586 100.918 m f
99.527 99.762 m 99.16 99.762 98.875 99.902 98.668 100.184 c 98.457 100.465
 98.355 100.852 98.355 101.34 c 98.355 101.832 98.457 102.215 98.668 102.496
 c 98.875 102.777 99.16 102.918 99.527 102.918 c 99.879 102.918 100.16 102.777
 100.371 102.496 c 100.59 102.215 100.699 101.832 100.699 101.34 c 100.699
 100.852 100.59 100.465 100.371 100.184 c 100.16 99.902 99.879 99.762 99.527
 99.762 c h
99.527 99.184 m 100.109 99.184 100.566 99.379 100.902 99.762 c 101.234 
100.137 101.402 100.664 101.402 101.34 c 101.402 102.008 101.234 102.535
 100.902 102.918 c 100.566 103.305 100.109 103.496 99.527 103.496 c 98.934
 103.496 98.469 103.305 98.137 102.918 c 97.801 102.535 97.637 102.008 97.637
 101.34 c 97.637 100.664 97.801 100.137 98.137 99.762 c 98.469 99.379 98.934
 99.184 99.527 99.184 c h
99.527 99.184 m f
102.695 102.449 m 103.477 102.449 l 103.477 103.387 l 102.695 103.387 l
 h
102.695 99.512 m 103.477 99.512 l 103.477 100.434 l 102.695 100.434 l h
102.695 99.512 m f
106.949 99.277 m 107.668 99.277 l 108.949 102.73 l 110.23 99.277 l 110.949
 99.277 l 109.402 103.387 l 108.496 103.387 l h
106.949 99.277 m f
113.574 103.762 m 113.387 104.25 113.199 104.566 113.012 104.715 c 112.832
 104.871 112.594 104.949 112.293 104.949 c 111.762 104.949 l 111.762 104.387
 l 112.152 104.387 l 112.34 104.387 112.484 104.34 112.59 104.246 c 112.691
 104.16 112.809 103.953 112.934 103.621 c 113.043 103.324 l 111.387 99.277
 l 112.105 99.277 l 113.387 102.496 l 114.668 99.277 l 115.387 99.277 l 
h
113.574 103.762 m f
118.934 99.402 m 118.934 100.043 l 118.734 99.949 118.531 99.879 118.324
 99.824 c 118.125 99.773 117.918 99.746 117.699 99.746 c 117.363 99.746 
117.113 99.801 116.949 99.902 c 116.781 100.008 116.699 100.164 116.699 
100.371 c 116.699 100.527 116.754 100.652 116.871 100.746 c 116.996 100.832
 117.234 100.91 117.59 100.98 c 117.824 101.043 l 118.301 101.148 118.641
 101.293 118.84 101.48 c 119.047 101.66 119.152 101.918 119.152 102.262 
c 119.152 102.637 119 102.941 118.699 103.168 c 118.395 103.387 117.98 103.496
 117.449 103.496 c 117.23 103.496 117 103.473 116.762 103.434 c 116.52 103.391
 116.27 103.324 116.012 103.23 c 116.012 102.543 l 116.262 102.668 116.504
 102.77 116.746 102.84 c 116.984 102.902 117.223 102.934 117.465 102.934
 c 117.785 102.934 118.031 102.883 118.199 102.777 c 118.363 102.664 118.449
 102.508 118.449 102.309 c 118.449 102.121 118.387 101.98 118.262 101.887
 c 118.145 101.793 117.879 101.699 117.465 101.605 c 117.23 101.543 l 116.812
 101.461 116.512 101.332 116.324 101.152 c 116.137 100.965 116.043 100.715
 116.043 100.402 c 116.043 100.008 116.176 99.707 116.449 99.496 c 116.719
 99.289 117.109 99.184 117.621 99.184 c 117.871 99.184 118.105 99.207 118.324
 99.246 c 118.543 99.277 118.746 99.332 118.934 99.402 c h
118.934 99.402 m f
121.812 99.762 m 121.445 99.762 121.16 99.902 120.953 100.184 c 120.742
 100.465 120.641 100.852 120.641 101.34 c 120.641 101.832 120.742 102.215
 120.953 102.496 c 121.16 102.777 121.445 102.918 121.812 102.918 c 122.164
 102.918 122.445 102.777 122.656 102.496 c 122.875 102.215 122.984 101.832
 122.984 101.34 c 122.984 100.852 122.875 100.465 122.656 100.184 c 122.445
 99.902 122.164 99.762 121.812 99.762 c h
121.812 99.184 m 122.395 99.184 122.852 99.379 123.188 99.762 c 123.52 
100.137 123.688 100.664 123.688 101.34 c 123.688 102.008 123.52 102.535 
123.188 102.918 c 122.852 103.305 122.395 103.496 121.812 103.496 c 121.219
 103.496 120.754 103.305 120.422 102.918 c 120.086 102.535 119.922 102.008
 119.922 101.34 c 119.922 100.664 120.086 100.137 120.422 99.762 c 120.754
 99.379 121.219 99.184 121.812 99.184 c h
121.812 99.184 m f
124.789 97.684 m 125.461 97.684 l 125.461 101.059 l 127.477 99.277 l 128.336
 99.277 l 126.148 101.199 l 128.43 103.387 l 127.539 103.387 l 125.461 101.387
 l 125.461 103.387 l 124.789 103.387 l h
124.789 97.684 m f
130.891 101.324 m 130.336 101.324 129.957 101.387 129.75 101.512 c 129.539
 101.637 129.438 101.852 129.438 102.152 c 129.438 102.395 129.516 102.586
 129.672 102.73 c 129.828 102.867 130.039 102.934 130.312 102.934 c 130.688
 102.934 130.984 102.805 131.203 102.543 c 131.43 102.273 131.547 101.918
 131.547 101.48 c 131.547 101.324 l h
132.234 101.043 m 132.234 103.387 l 131.547 103.387 l 131.547 102.762 l
 131.398 103.012 131.211 103.199 130.984 103.324 c 130.754 103.438 130.473
 103.496 130.141 103.496 c 129.711 103.496 129.375 103.383 129.125 103.152
 c 128.883 102.914 128.766 102.598 128.766 102.199 c 128.766 101.73 128.914
 101.383 129.219 101.152 c 129.531 100.914 129.992 100.793 130.609 100.793
 c 131.547 100.793 l 131.547 100.73 l 131.547 100.418 131.441 100.18 131.234
 100.012 c 131.035 99.848 130.754 99.762 130.391 99.762 c 130.148 99.762
 129.922 99.793 129.703 99.855 c 129.484 99.91 129.27 99.988 129.062 100.09
 c 129.062 99.465 l 129.312 99.371 129.551 99.305 129.781 99.262 c 130.008
 99.211 130.234 99.184 130.453 99.184 c 131.047 99.184 131.488 99.34 131.781
 99.652 c 132.082 99.957 132.234 100.418 132.234 101.043 c h
131 97.387 m 131.719 97.387 l 130.531 98.762 l 129.969 98.762 l h
131 97.387 m f
135.996 99.277 m 136.668 99.277 l 136.668 103.387 l 135.996 103.387 l h
135.996 97.684 m 136.668 97.684 l 136.668 98.543 l 135.996 98.543 l h
135.996 97.684 m f
141.285 100.074 m 141.449 99.773 141.648 99.551 141.879 99.402 c 142.117
 99.258 142.395 99.184 142.707 99.184 c 143.133 99.184 143.461 99.336 143.691
 99.637 c 143.93 99.941 144.051 100.367 144.051 100.918 c 144.051 103.387
 l 143.363 103.387 l 143.363 100.934 l 143.363 100.539 143.293 100.246 143.16
 100.059 c 143.023 99.871 142.809 99.777 142.52 99.777 c 142.176 99.777 
141.898 99.895 141.691 100.121 c 141.492 100.352 141.395 100.668 141.395
 101.074 c 141.395 103.387 l 140.723 103.387 l 140.723 100.934 l 140.723
 100.539 140.648 100.246 140.504 100.059 c 140.367 99.871 140.152 99.777
 139.863 99.777 c 139.52 99.777 139.242 99.895 139.035 100.121 c 138.836
 100.352 138.738 100.668 138.738 101.074 c 138.738 103.387 l 138.066 103.387
 l 138.066 99.277 l 138.738 99.277 l 138.738 99.918 l 138.895 99.668 139.074
 99.488 139.285 99.371 c 139.504 99.246 139.758 99.184 140.051 99.184 c 
140.352 99.184 140.605 99.262 140.816 99.418 c 141.023 99.566 141.18 99.785
 141.285 100.074 c h
141.285 100.074 m f
146.043 102.777 m 146.043 104.949 l 145.371 104.949 l 145.371 99.277 l 
146.043 99.277 l 146.043 99.902 l 146.188 99.664 146.363 99.488 146.574 
99.371 c 146.793 99.246 147.051 99.184 147.355 99.184 c 147.855 99.184 148.254
 99.383 148.559 99.777 c 148.871 100.176 149.027 100.695 149.027 101.34 
c 149.027 101.988 148.871 102.508 148.559 102.902 c 148.254 103.301 147.855
 103.496 147.355 103.496 c 147.051 103.496 146.793 103.438 146.574 103.324
 c 146.363 103.199 146.188 103.02 146.043 102.777 c h
148.34 101.34 m 148.34 100.84 148.234 100.449 148.027 100.168 c 147.828
 99.887 147.547 99.746 147.184 99.746 c 146.828 99.746 146.547 99.887 146.34
 100.168 c 146.141 100.449 146.043 100.84 146.043 101.34 c 146.043 101.84
 146.141 102.23 146.34 102.512 c 146.547 102.793 146.828 102.934 147.184
 102.934 c 147.547 102.934 147.828 102.793 148.027 102.512 c 148.234 102.23
 148.34 101.84 148.34 101.34 c h
148.34 101.34 m f
153.664 101.168 m 153.664 101.496 l 150.555 101.496 l 150.586 101.965 150.727
 102.32 150.977 102.559 c 151.227 102.801 151.574 102.918 152.023 102.918
 c 152.281 102.918 152.531 102.887 152.773 102.824 c 153.023 102.762 153.266
 102.668 153.508 102.543 c 153.508 103.184 l 153.258 103.277 153.008 103.352
 152.758 103.402 c 152.508 103.465 152.25 103.496 151.992 103.496 c 151.336
 103.496 150.812 103.309 150.43 102.934 c 150.043 102.551 149.852 102.027
 149.852 101.371 c 149.852 100.707 150.031 100.176 150.398 99.777 c 150.762
 99.383 151.25 99.184 151.867 99.184 c 152.418 99.184 152.855 99.363 153.18
 99.715 c 153.5 100.07 153.664 100.555 153.664 101.168 c h
152.992 100.965 m 152.98 100.602 152.875 100.309 152.68 100.09 c 152.48
 99.871 152.215 99.762 151.883 99.762 c 151.508 99.762 151.203 99.871 150.977
 100.09 c 150.746 100.301 150.617 100.598 150.586 100.98 c h
152.992 100.965 m f
157.465 99.902 m 157.465 97.684 l 158.137 97.684 l 158.137 103.387 l 157.465
 103.387 l 157.465 102.777 l 157.316 103.02 157.137 103.199 156.918 103.324
 c 156.707 103.438 156.453 103.496 156.152 103.496 c 155.652 103.496 155.246
 103.301 154.934 102.902 c 154.621 102.508 154.465 101.988 154.465 101.34
 c 154.465 100.695 154.621 100.176 154.934 99.777 c 155.246 99.383 155.652
 99.184 156.152 99.184 c 156.453 99.184 156.707 99.246 156.918 99.371 c 
157.137 99.488 157.316 99.664 157.465 99.902 c h
155.168 101.34 m 155.168 101.84 155.266 102.23 155.465 102.512 c 155.672
 102.793 155.953 102.934 156.309 102.934 c 156.672 102.934 156.953 102.793
 157.152 102.512 c 157.359 102.23 157.465 101.84 157.465 101.34 c 157.465
 100.84 157.359 100.449 157.152 100.168 c 156.953 99.887 156.672 99.746 
156.309 99.746 c 155.953 99.746 155.672 99.887 155.465 100.168 c 155.266
 100.449 155.168 100.84 155.168 101.34 c h
155.168 101.34 m f
161.398 101.324 m 160.844 101.324 160.465 101.387 160.258 101.512 c 160.047
 101.637 159.945 101.852 159.945 102.152 c 159.945 102.395 160.023 102.586
 160.18 102.73 c 160.336 102.867 160.547 102.934 160.82 102.934 c 161.195
 102.934 161.492 102.805 161.711 102.543 c 161.938 102.273 162.055 101.918
 162.055 101.48 c 162.055 101.324 l h
162.742 101.043 m 162.742 103.387 l 162.055 103.387 l 162.055 102.762 l
 161.906 103.012 161.719 103.199 161.492 103.324 c 161.262 103.438 160.98
 103.496 160.648 103.496 c 160.219 103.496 159.883 103.383 159.633 103.152
 c 159.391 102.914 159.273 102.598 159.273 102.199 c 159.273 101.73 159.422
 101.383 159.727 101.152 c 160.039 100.914 160.5 100.793 161.117 100.793
 c 162.055 100.793 l 162.055 100.73 l 162.055 100.418 161.949 100.18 161.742
 100.012 c 161.543 99.848 161.262 99.762 160.898 99.762 c 160.656 99.762
 160.43 99.793 160.211 99.855 c 159.992 99.91 159.777 99.988 159.57 100.09
 c 159.57 99.465 l 159.82 99.371 160.059 99.305 160.289 99.262 c 160.516
 99.211 160.742 99.184 160.961 99.184 c 161.555 99.184 161.996 99.34 162.289
 99.652 c 162.59 99.957 162.742 100.418 162.742 101.043 c h
162.742 101.043 m f
167.523 100.918 m 167.523 103.387 l 166.852 103.387 l 166.852 100.934 l
 166.852 100.551 166.773 100.262 166.617 100.074 c 166.469 99.879 166.246
 99.777 165.945 99.777 c 165.578 99.777 165.293 99.895 165.086 100.121 c
 164.875 100.352 164.773 100.668 164.773 101.074 c 164.773 103.387 l 164.102
 103.387 l 164.102 99.277 l 164.773 99.277 l 164.773 99.918 l 164.93 99.68
 165.117 99.496 165.336 99.371 c 165.555 99.246 165.809 99.184 166.102 99.184
 c 166.57 99.184 166.922 99.332 167.164 99.621 c 167.402 99.914 167.523 
100.348 167.523 100.918 c h
167.523 100.918 m f
171.824 99.449 m 171.824 100.074 l 171.637 99.973 171.441 99.895 171.246
 99.84 c 171.059 99.789 170.863 99.762 170.668 99.762 c 170.23 99.762 169.891
 99.902 169.652 100.184 c 169.41 100.457 169.293 100.84 169.293 101.34 c
 169.293 101.84 169.41 102.23 169.652 102.512 c 169.891 102.785 170.23 102.918
 170.668 102.918 c 170.863 102.918 171.059 102.895 171.246 102.84 c 171.441
 102.789 171.637 102.711 171.824 102.605 c 171.824 103.23 l 171.637 103.316
 171.438 103.379 171.23 103.418 c 171.031 103.469 170.824 103.496 170.605
 103.496 c 169.98 103.496 169.484 103.305 169.121 102.918 c 168.754 102.523
 168.574 101.996 168.574 101.34 c 168.574 100.676 168.754 100.148 169.121
 99.762 c 169.496 99.379 170 99.184 170.637 99.184 c 170.844 99.184 171.047
 99.207 171.246 99.246 c 171.441 99.289 171.637 99.355 171.824 99.449 c 
h
171.824 99.449 m f
176.512 101.168 m 176.512 101.496 l 173.402 101.496 l 173.434 101.965 173.574
 102.32 173.824 102.559 c 174.074 102.801 174.422 102.918 174.871 102.918
 c 175.129 102.918 175.379 102.887 175.621 102.824 c 175.871 102.762 176.113
 102.668 176.355 102.543 c 176.355 103.184 l 176.105 103.277 175.855 103.352
 175.605 103.402 c 175.355 103.465 175.098 103.496 174.84 103.496 c 174.184
 103.496 173.66 103.309 173.277 102.934 c 172.891 102.551 172.699 102.027
 172.699 101.371 c 172.699 100.707 172.879 100.176 173.246 99.777 c 173.609
 99.383 174.098 99.184 174.715 99.184 c 175.266 99.184 175.703 99.363 176.027
 99.715 c 176.348 100.07 176.512 100.555 176.512 101.168 c h
175.84 100.965 m 175.828 100.602 175.723 100.309 175.527 100.09 c 175.328
 99.871 175.062 99.762 174.73 99.762 c 174.355 99.762 174.051 99.871 173.824
 100.09 c 173.594 100.301 173.465 100.598 173.434 100.98 c h
175.84 100.965 m f
62.516 110.402 1.984 0.609 re f
70.574 108.777 m 70.574 109.418 l 70.375 109.324 70.172 109.254 69.965 
109.199 c 69.766 109.148 69.559 109.121 69.34 109.121 c 69.004 109.121 68.754
 109.176 68.59 109.277 c 68.422 109.383 68.34 109.539 68.34 109.746 c 68.34
 109.902 68.395 110.027 68.512 110.121 c 68.637 110.207 68.875 110.285 69.23
 110.355 c 69.465 110.418 l 69.941 110.523 70.281 110.668 70.48 110.855 
c 70.688 111.035 70.793 111.293 70.793 111.637 c 70.793 112.012 70.641 112.316
 70.34 112.543 c 70.035 112.762 69.621 112.871 69.09 112.871 c 68.871 112.871
 68.641 112.848 68.402 112.809 c 68.16 112.766 67.91 112.699 67.652 112.605
 c 67.652 111.918 l 67.902 112.043 68.145 112.145 68.387 112.215 c 68.625
 112.277 68.863 112.309 69.105 112.309 c 69.426 112.309 69.672 112.258 69.84
 112.152 c 70.004 112.039 70.09 111.883 70.09 111.684 c 70.09 111.496 70.027
 111.355 69.902 111.262 c 69.785 111.168 69.52 111.074 69.105 110.98 c 68.871
 110.918 l 68.453 110.836 68.152 110.707 67.965 110.527 c 67.777 110.34 
67.684 110.09 67.684 109.777 c 67.684 109.383 67.816 109.082 68.09 108.871
 c 68.359 108.664 68.75 108.559 69.262 108.559 c 69.512 108.559 69.746 108.582
 69.965 108.621 c 70.184 108.652 70.387 108.707 70.574 108.777 c h
70.574 108.777 m f
72.527 107.496 m 72.527 108.652 l 73.918 108.652 l 73.918 109.184 l 72.527
 109.184 l 72.527 111.418 l 72.527 111.754 72.566 111.965 72.652 112.059
 c 72.746 112.152 72.934 112.199 73.215 112.199 c 73.918 112.199 l 73.918
 112.762 l 73.215 112.762 l 72.703 112.762 72.348 112.668 72.152 112.48 
c 71.953 112.285 71.855 111.93 71.855 111.418 c 71.855 109.184 l 71.355 
109.184 l 71.355 108.652 l 71.855 108.652 l 71.855 107.496 l h
72.527 107.496 m f
74.797 108.652 m 75.469 108.652 l 75.469 112.762 l 74.797 112.762 l h
74.797 107.059 m 75.469 107.059 l 75.469 107.918 l 74.797 107.918 l h
74.797 107.059 m f
79.504 108.777 m 79.504 109.418 l 79.305 109.324 79.102 109.254 78.895 
109.199 c 78.695 109.148 78.488 109.121 78.27 109.121 c 77.934 109.121 77.684
 109.176 77.52 109.277 c 77.352 109.383 77.27 109.539 77.27 109.746 c 77.27
 109.902 77.324 110.027 77.441 110.121 c 77.566 110.207 77.805 110.285 78.16
 110.355 c 78.395 110.418 l 78.871 110.523 79.211 110.668 79.41 110.855 
c 79.617 111.035 79.723 111.293 79.723 111.637 c 79.723 112.012 79.57 112.316
 79.27 112.543 c 78.965 112.762 78.551 112.871 78.02 112.871 c 77.801 112.871
 77.57 112.848 77.332 112.809 c 77.09 112.766 76.84 112.699 76.582 112.605
 c 76.582 111.918 l 76.832 112.043 77.074 112.145 77.316 112.215 c 77.555
 112.277 77.793 112.309 78.035 112.309 c 78.355 112.309 78.602 112.258 78.77
 112.152 c 78.934 112.039 79.02 111.883 79.02 111.684 c 79.02 111.496 78.957
 111.355 78.832 111.262 c 78.715 111.168 78.449 111.074 78.035 110.98 c 
77.801 110.918 l 77.383 110.836 77.082 110.707 76.895 110.527 c 76.707 110.34
 76.613 110.09 76.613 109.777 c 76.613 109.383 76.746 109.082 77.02 108.871
 c 77.289 108.664 77.68 108.559 78.191 108.559 c 78.441 108.559 78.676 108.582
 78.895 108.621 c 79.113 108.652 79.316 108.707 79.504 108.777 c h
79.504 108.777 m f
80.773 107.059 m 81.445 107.059 l 81.445 110.434 l 83.461 108.652 l 84.32
 108.652 l 82.133 110.574 l 84.414 112.762 l 83.523 112.762 l 81.445 110.762
 l 81.445 112.762 l 80.773 112.762 l h
80.773 107.059 m f
88.535 110.293 m 88.535 112.762 l 87.863 112.762 l 87.863 110.309 l 87.863
 109.926 87.785 109.637 87.629 109.449 c 87.48 109.254 87.258 109.152 86.957
 109.152 c 86.59 109.152 86.305 109.27 86.098 109.496 c 85.887 109.727 85.785
 110.043 85.785 110.449 c 85.785 112.762 l 85.113 112.762 l 85.113 108.652
 l 85.785 108.652 l 85.785 109.293 l 85.941 109.055 86.129 108.871 86.348
 108.746 c 86.566 108.621 86.82 108.559 87.113 108.559 c 87.582 108.559 
87.934 108.707 88.176 108.996 c 88.414 109.289 88.535 109.723 88.535 110.293
 c h
88.535 110.293 m f
89.82 111.137 m 89.82 108.652 l 90.492 108.652 l 90.492 111.121 l 90.492
 111.508 90.562 111.801 90.711 111.996 c 90.867 112.184 91.094 112.277 91.398
 112.277 c 91.762 112.277 92.047 112.164 92.258 111.934 c 92.477 111.707
 92.586 111.387 92.586 110.98 c 92.586 108.652 l 93.258 108.652 l 93.258
 112.762 l 92.586 112.762 l 92.586 112.137 l 92.418 112.387 92.227 112.574
 92.008 112.699 c 91.789 112.812 91.539 112.871 91.258 112.871 c 90.789 
112.871 90.43 112.727 90.18 112.434 c 89.938 112.145 89.82 111.711 89.82
 111.137 c h
91.508 108.559 m h
91.508 108.559 m f
95.309 107.496 m 95.309 108.652 l 96.699 108.652 l 96.699 109.184 l 95.309
 109.184 l 95.309 111.418 l 95.309 111.754 95.348 111.965 95.434 112.059
 c 95.527 112.152 95.715 112.199 95.996 112.199 c 96.699 112.199 l 96.699
 112.762 l 95.996 112.762 l 95.484 112.762 95.129 112.668 94.934 112.48 
c 94.734 112.285 94.637 111.93 94.637 111.418 c 94.637 109.184 l 94.137 
109.184 l 94.137 108.652 l 94.637 108.652 l 94.637 107.496 l h
95.309 107.496 m f
99.172 109.137 m 98.805 109.137 98.52 109.277 98.312 109.559 c 98.102 109.84
 98 110.227 98 110.715 c 98 111.207 98.102 111.59 98.312 111.871 c 98.52
 112.152 98.805 112.293 99.172 112.293 c 99.523 112.293 99.805 112.152 100.016
 111.871 c 100.234 111.59 100.344 111.207 100.344 110.715 c 100.344 110.227
 100.234 109.84 100.016 109.559 c 99.805 109.277 99.523 109.137 99.172 109.137
 c h
99.172 108.559 m 99.754 108.559 100.211 108.754 100.547 109.137 c 100.879
 109.512 101.047 110.039 101.047 110.715 c 101.047 111.383 100.879 111.91
 100.547 112.293 c 100.211 112.68 99.754 112.871 99.172 112.871 c 98.578
 112.871 98.113 112.68 97.781 112.293 c 97.445 111.91 97.281 111.383 97.281
 110.715 c 97.281 110.039 97.445 109.512 97.781 109.137 c 98.113 108.754
 98.578 108.559 99.172 108.559 c h
99.172 108.559 m f
102.34 111.824 m 103.121 111.824 l 103.121 112.762 l 102.34 112.762 l h
102.34 108.887 m 103.121 108.887 l 103.121 109.809 l 102.34 109.809 l h
102.34 108.887 m f
107.188 107.293 m 110.094 107.293 l 110.094 107.918 l 107.859 107.918 l
 107.859 109.262 l 107.961 109.223 108.066 109.195 108.172 109.184 c 108.285
 109.164 108.395 109.152 108.5 109.152 c 109.113 109.152 109.598 109.32 
109.953 109.652 c 110.305 109.988 110.484 110.441 110.484 111.012 c 110.484
 111.598 110.301 112.055 109.938 112.387 c 109.57 112.711 109.055 112.871
 108.391 112.871 c 108.16 112.871 107.926 112.848 107.688 112.809 c 107.445
 112.766 107.203 112.711 106.953 112.637 c 106.953 111.887 l 107.172 112.012
 107.395 112.105 107.625 112.168 c 107.863 112.223 108.113 112.246 108.375
 112.246 c 108.801 112.246 109.133 112.137 109.375 111.918 c 109.625 111.691
 109.75 111.387 109.75 111.012 c 109.75 110.629 109.625 110.324 109.375 
110.105 c 109.133 109.887 108.801 109.777 108.375 109.777 c 108.176 109.777
 107.977 109.801 107.781 109.84 c 107.582 109.883 107.383 109.949 107.188
 110.043 c h
107.188 107.293 m f
115.672 112.762 m 113.594 107.293 l 114.359 107.293 l 116.094 111.902 l
 117.828 107.293 l 118.594 107.293 l 116.516 112.762 l h
115.672 112.762 m f
122.402 112.152 m 122.402 114.324 l 121.73 114.324 l 121.73 108.652 l 122.402
 108.652 l 122.402 109.277 l 122.547 109.039 122.723 108.863 122.934 108.746
 c 123.152 108.621 123.41 108.559 123.715 108.559 c 124.215 108.559 124.613
 108.758 124.918 109.152 c 125.23 109.551 125.387 110.07 125.387 110.715
 c 125.387 111.363 125.23 111.883 124.918 112.277 c 124.613 112.676 124.215
 112.871 123.715 112.871 c 123.41 112.871 123.152 112.812 122.934 112.699
 c 122.723 112.574 122.547 112.395 122.402 112.152 c h
124.699 110.715 m 124.699 110.215 124.594 109.824 124.387 109.543 c 124.188
 109.262 123.906 109.121 123.543 109.121 c 123.188 109.121 122.906 109.262
 122.699 109.543 c 122.5 109.824 122.402 110.215 122.402 110.715 c 122.402
 111.215 122.5 111.605 122.699 111.887 c 122.906 112.168 123.188 112.309
 123.543 112.309 c 123.906 112.309 124.188 112.168 124.387 111.887 c 124.594
 111.605 124.699 111.215 124.699 110.715 c h
124.699 110.715 m f
128.883 109.293 m 128.809 109.254 128.727 109.223 128.633 109.199 c 128.547
 109.18 128.453 109.168 128.352 109.168 c 127.965 109.168 127.668 109.293
 127.461 109.543 c 127.262 109.785 127.164 110.137 127.164 110.605 c 127.164
 112.762 l 126.492 112.762 l 126.492 108.652 l 127.164 108.652 l 127.164
 109.293 l 127.309 109.043 127.492 108.863 127.711 108.746 c 127.938 108.621
 128.215 108.559 128.539 108.559 c 128.59 108.559 128.641 108.566 128.695
 108.574 c 128.758 108.574 128.82 108.586 128.883 108.605 c h
127.508 108.137 m 126.602 106.762 l 127.117 106.762 l 127.773 107.668 l
 128.43 106.762 l 128.945 106.762 l 128.039 108.137 l h
127.508 108.137 m f
132.941 110.543 m 132.941 110.871 l 129.832 110.871 l 129.863 111.34 130.004
 111.695 130.254 111.934 c 130.504 112.176 130.852 112.293 131.301 112.293
 c 131.559 112.293 131.809 112.262 132.051 112.199 c 132.301 112.137 132.543
 112.043 132.785 111.918 c 132.785 112.559 l 132.535 112.652 132.285 112.727
 132.035 112.777 c 131.785 112.84 131.527 112.871 131.27 112.871 c 130.613
 112.871 130.09 112.684 129.707 112.309 c 129.32 111.926 129.129 111.402
 129.129 110.746 c 129.129 110.082 129.309 109.551 129.676 109.152 c 130.039
 108.758 130.527 108.559 131.145 108.559 c 131.695 108.559 132.133 108.738
 132.457 109.09 c 132.777 109.445 132.941 109.93 132.941 110.543 c h
132.27 110.34 m 132.258 109.977 132.152 109.684 131.957 109.465 c 131.758
 109.246 131.492 109.137 131.16 109.137 c 130.785 109.137 130.48 109.246
 130.254 109.465 c 130.023 109.676 129.895 109.973 129.863 110.355 c h
132.27 110.34 m f
136.668 108.777 m 136.668 109.418 l 136.469 109.324 136.266 109.254 136.059
 109.199 c 135.859 109.148 135.652 109.121 135.434 109.121 c 135.098 109.121
 134.848 109.176 134.684 109.277 c 134.516 109.383 134.434 109.539 134.434
 109.746 c 134.434 109.902 134.488 110.027 134.605 110.121 c 134.73 110.207
 134.969 110.285 135.324 110.355 c 135.559 110.418 l 136.035 110.523 136.375
 110.668 136.574 110.855 c 136.781 111.035 136.887 111.293 136.887 111.637
 c 136.887 112.012 136.734 112.316 136.434 112.543 c 136.129 112.762 135.715
 112.871 135.184 112.871 c 134.965 112.871 134.734 112.848 134.496 112.809
 c 134.254 112.766 134.004 112.699 133.746 112.605 c 133.746 111.918 l 133.996
 112.043 134.238 112.145 134.48 112.215 c 134.719 112.277 134.957 112.309
 135.199 112.309 c 135.52 112.309 135.766 112.258 135.934 112.152 c 136.098
 112.039 136.184 111.883 136.184 111.684 c 136.184 111.496 136.121 111.355
 135.996 111.262 c 135.879 111.168 135.613 111.074 135.199 110.98 c 134.965
 110.918 l 134.547 110.836 134.246 110.707 134.059 110.527 c 133.871 110.34
 133.777 110.09 133.777 109.777 c 133.777 109.383 133.91 109.082 134.184
 108.871 c 134.453 108.664 134.844 108.559 135.355 108.559 c 135.605 108.559
 135.84 108.582 136.059 108.621 c 136.277 108.652 136.48 108.707 136.668
 108.777 c h
136.668 108.777 m f
141.926 109.137 m 141.559 109.137 141.273 109.277 141.066 109.559 c 140.855
 109.84 140.754 110.227 140.754 110.715 c 140.754 111.207 140.855 111.59
 141.066 111.871 c 141.273 112.152 141.559 112.293 141.926 112.293 c 142.277
 112.293 142.559 112.152 142.77 111.871 c 142.988 111.59 143.098 111.207
 143.098 110.715 c 143.098 110.227 142.988 109.84 142.77 109.559 c 142.559
 109.277 142.277 109.137 141.926 109.137 c h
141.926 108.559 m 142.508 108.559 142.965 108.754 143.301 109.137 c 143.633
 109.512 143.801 110.039 143.801 110.715 c 143.801 111.383 143.633 111.91
 143.301 112.293 c 142.965 112.68 142.508 112.871 141.926 112.871 c 141.332
 112.871 140.867 112.68 140.535 112.293 c 140.199 111.91 140.035 111.383
 140.035 110.715 c 140.035 110.039 140.199 109.512 140.535 109.137 c 140.867
 108.754 141.332 108.559 141.926 108.559 c h
141.926 108.559 m f
147.625 109.277 m 147.625 107.059 l 148.297 107.059 l 148.297 112.762 l
 147.625 112.762 l 147.625 112.152 l 147.477 112.395 147.297 112.574 147.078
 112.699 c 146.867 112.812 146.613 112.871 146.312 112.871 c 145.812 112.871
 145.406 112.676 145.094 112.277 c 144.781 111.883 144.625 111.363 144.625
 110.715 c 144.625 110.07 144.781 109.551 145.094 109.152 c 145.406 108.758
 145.812 108.559 146.312 108.559 c 146.613 108.559 146.867 108.621 147.078
 108.746 c 147.297 108.863 147.477 109.039 147.625 109.277 c h
145.328 110.715 m 145.328 111.215 145.426 111.605 145.625 111.887 c 145.832
 112.168 146.113 112.309 146.469 112.309 c 146.832 112.309 147.113 112.168
 147.312 111.887 c 147.52 111.605 147.625 111.215 147.625 110.715 c 147.625
 110.215 147.52 109.824 147.312 109.543 c 147.113 109.262 146.832 109.121
 146.469 109.121 c 146.113 109.121 145.832 109.262 145.625 109.543 c 145.426
 109.824 145.328 110.215 145.328 110.715 c h
145.328 110.715 m f
150.34 112.152 m 150.34 114.324 l 149.668 114.324 l 149.668 108.652 l 150.34
 108.652 l 150.34 109.277 l 150.484 109.039 150.66 108.863 150.871 108.746
 c 151.09 108.621 151.348 108.559 151.652 108.559 c 152.152 108.559 152.551
 108.758 152.855 109.152 c 153.168 109.551 153.324 110.07 153.324 110.715
 c 153.324 111.363 153.168 111.883 152.855 112.277 c 152.551 112.676 152.152
 112.871 151.652 112.871 c 151.348 112.871 151.09 112.812 150.871 112.699
 c 150.66 112.574 150.484 112.395 150.34 112.152 c h
152.637 110.715 m 152.637 110.215 152.531 109.824 152.324 109.543 c 152.125
 109.262 151.844 109.121 151.48 109.121 c 151.125 109.121 150.844 109.262
 150.637 109.543 c 150.438 109.824 150.34 110.215 150.34 110.715 c 150.34
 111.215 150.438 111.605 150.637 111.887 c 150.844 112.168 151.125 112.309
 151.48 112.309 c 151.844 112.309 152.125 112.168 152.324 111.887 c 152.531
 111.605 152.637 111.215 152.637 110.715 c h
152.637 110.715 m f
156.035 109.137 m 155.668 109.137 155.383 109.277 155.176 109.559 c 154.965
 109.84 154.863 110.227 154.863 110.715 c 154.863 111.207 154.965 111.59
 155.176 111.871 c 155.383 112.152 155.668 112.293 156.035 112.293 c 156.387
 112.293 156.668 112.152 156.879 111.871 c 157.098 111.59 157.207 111.207
 157.207 110.715 c 157.207 110.227 157.098 109.84 156.879 109.559 c 156.668
 109.277 156.387 109.137 156.035 109.137 c h
156.035 108.559 m 156.617 108.559 157.074 108.754 157.41 109.137 c 157.742
 109.512 157.91 110.039 157.91 110.715 c 157.91 111.383 157.742 111.91 157.41
 112.293 c 157.074 112.68 156.617 112.871 156.035 112.871 c 155.441 112.871
 154.977 112.68 154.645 112.293 c 154.309 111.91 154.145 111.383 154.145
 110.715 c 154.145 110.039 154.309 109.512 154.645 109.137 c 154.977 108.754
 155.441 108.559 156.035 108.559 c h
156.035 108.559 m f
161.406 109.293 m 161.332 109.254 161.25 109.223 161.156 109.199 c 161.07
 109.18 160.977 109.168 160.875 109.168 c 160.488 109.168 160.191 109.293
 159.984 109.543 c 159.785 109.785 159.688 110.137 159.688 110.605 c 159.688
 112.762 l 159.016 112.762 l 159.016 108.652 l 159.688 108.652 l 159.688
 109.293 l 159.832 109.043 160.016 108.863 160.234 108.746 c 160.461 108.621
 160.738 108.559 161.062 108.559 c 161.113 108.559 161.164 108.566 161.219
 108.574 c 161.281 108.574 161.344 108.586 161.406 108.605 c h
161.406 109.293 m f
165.234 112.137 m 167.812 112.137 l 167.812 112.762 l 164.344 112.762 l
 164.344 112.137 l 164.625 111.848 165.004 111.457 165.484 110.965 c 165.973
 110.477 166.281 110.164 166.406 110.027 c 166.645 109.758 166.812 109.535
 166.906 109.355 c 167 109.168 167.047 108.988 167.047 108.809 c 167.047
 108.52 166.941 108.285 166.734 108.105 c 166.535 107.918 166.27 107.824
 165.938 107.824 c 165.707 107.824 165.461 107.867 165.203 107.949 c 164.953
 108.023 164.68 108.145 164.391 108.309 c 164.391 107.559 l 164.68 107.434
 164.957 107.348 165.219 107.293 c 165.477 107.23 165.711 107.199 165.922
 107.199 c 166.492 107.199 166.945 107.34 167.281 107.621 c 167.613 107.902
 167.781 108.285 167.781 108.762 c 167.781 108.98 167.738 109.195 167.656
 109.402 c 167.57 109.602 167.422 109.836 167.203 110.105 c 167.141 110.18
 166.941 110.387 166.609 110.73 c 166.285 111.066 165.828 111.535 165.234
 112.137 c h
165.234 112.137 m f
169.363 111.824 0.781 0.938 re f
172.391 112.137 m 174.969 112.137 l 174.969 112.762 l 171.5 112.762 l 171.5
 112.137 l 171.781 111.848 172.16 111.457 172.641 110.965 c 173.129 110.477
 173.438 110.164 173.562 110.027 c 173.801 109.758 173.969 109.535 174.062
 109.355 c 174.156 109.168 174.203 108.988 174.203 108.809 c 174.203 108.52
 174.098 108.285 173.891 108.105 c 173.691 107.918 173.426 107.824 173.094
 107.824 c 172.863 107.824 172.617 107.867 172.359 107.949 c 172.109 108.023
 171.836 108.145 171.547 108.309 c 171.547 107.559 l 171.836 107.434 172.113
 107.348 172.375 107.293 c 172.633 107.23 172.867 107.199 173.078 107.199
 c 173.648 107.199 174.102 107.34 174.438 107.621 c 174.77 107.902 174.938
 108.285 174.938 108.762 c 174.938 108.98 174.895 109.195 174.812 109.402
 c 174.727 109.602 174.578 109.836 174.359 110.105 c 174.297 110.18 174.098
 110.387 173.766 110.73 c 173.441 111.066 172.984 111.535 172.391 112.137
 c h
172.391 112.137 m f
176.41 107.059 m 177.082 107.059 l 177.082 110.434 l 179.098 108.652 l 
179.957 108.652 l 177.77 110.574 l 180.051 112.762 l 179.16 112.762 l 177.082
 110.762 l 177.082 112.762 l 176.41 112.762 l h
176.41 107.059 m f
183.02 107.793 m 182.488 107.793 182.059 107.996 181.738 108.402 c 181.426
 108.801 181.27 109.34 181.27 110.027 c 181.27 110.715 181.426 111.262 181.738
 111.668 c 182.059 112.066 182.488 112.262 183.02 112.262 c 183.559 112.262
 183.988 112.066 184.301 111.668 c 184.613 111.262 184.77 110.715 184.77
 110.027 c 184.77 109.34 184.613 108.801 184.301 108.402 c 183.988 107.996
 183.559 107.793 183.02 107.793 c h
183.02 107.199 m 183.789 107.199 184.402 107.457 184.863 107.965 c 185.32
 108.477 185.551 109.164 185.551 110.027 c 185.551 110.895 185.32 111.586
 184.863 112.105 c 184.402 112.617 183.789 112.871 183.02 112.871 c 182.246
 112.871 181.633 112.617 181.176 112.105 c 180.715 111.586 180.488 110.895
 180.488 110.027 c 180.488 109.164 180.715 108.477 181.176 107.965 c 181.633
 107.457 182.246 107.199 183.02 107.199 c h
183.02 107.199 m f
190.078 110.293 m 190.078 112.762 l 189.406 112.762 l 189.406 110.309 l
 189.406 109.926 189.328 109.637 189.172 109.449 c 189.023 109.254 188.801
 109.152 188.5 109.152 c 188.133 109.152 187.848 109.27 187.641 109.496 
c 187.43 109.727 187.328 110.043 187.328 110.449 c 187.328 112.762 l 186.656
 112.762 l 186.656 107.059 l 187.328 107.059 l 187.328 109.293 l 187.484
 109.055 187.672 108.871 187.891 108.746 c 188.109 108.621 188.363 108.559
 188.656 108.559 c 189.125 108.559 189.477 108.707 189.719 108.996 c 189.957
 109.289 190.078 109.723 190.078 110.293 c h
190.078 110.293 m f
194.629 109.449 m 194.793 109.148 194.992 108.926 195.223 108.777 c 195.461
 108.633 195.738 108.559 196.051 108.559 c 196.477 108.559 196.805 108.711
 197.035 109.012 c 197.273 109.316 197.395 109.742 197.395 110.293 c 197.395
 112.762 l 196.707 112.762 l 196.707 110.309 l 196.707 109.914 196.637 109.621
 196.504 109.434 c 196.367 109.246 196.152 109.152 195.863 109.152 c 195.52
 109.152 195.242 109.27 195.035 109.496 c 194.836 109.727 194.738 110.043
 194.738 110.449 c 194.738 112.762 l 194.066 112.762 l 194.066 110.309 l
 194.066 109.914 193.992 109.621 193.848 109.434 c 193.711 109.246 193.496
 109.152 193.207 109.152 c 192.863 109.152 192.586 109.27 192.379 109.496
 c 192.18 109.727 192.082 110.043 192.082 110.449 c 192.082 112.762 l 191.41
 112.762 l 191.41 108.652 l 192.082 108.652 l 192.082 109.293 l 192.238 
109.043 192.418 108.863 192.629 108.746 c 192.848 108.621 193.102 108.559
 193.395 108.559 c 193.695 108.559 193.949 108.637 194.16 108.793 c 194.367
 108.941 194.523 109.16 194.629 109.449 c h
194.629 109.449 m f
0.749999 w
0 J
q 1 0 0 1 0 0 cm
30.715 45.418 m 39.477 66.555 l 54.09 66.555 l S Q
q 1 0 0 1 0 0 cm
25.125 45.23 m 38.473 78.062 l 53.336 78.062 l S Q
q 1 0 0 1 0 0 cm
14.438 45.68 m 31.188 91.508 l 53.891 91.508 l S Q
Q Q
showpage
%%Trailer
end
%%EOF
