%!PS-Adobe-3.0 EPSF-3.0
%%Creator: (MATLAB, The Mathworks, Inc. Version 9.13.0.2193358 \(R2022b\) Update 5. Operating System: Linux)
%%Title: /home/kuba/skola/vs/semestr/bp/tex/img/lmotor-step.eps
%%CreationDate: 2023-05-13T14:19:43
%%Pages: (atend)
%%BoundingBox:     0     1   211   186
%%LanguageLevel: 3
%%EndComments
%%BeginProlog
%%BeginResource: procset (Apache XML Graphics Std ProcSet) 1.2 0
%%Version: 1.2 0
%%Copyright: (Copyright 2001-2003,2010 The Apache Software Foundation. License terms: http://www.apache.org/licenses/LICENSE-2.0)
/bd{bind def}bind def
/ld{load def}bd
/GR/grestore ld
/GS/gsave ld
/RM/rmoveto ld
/C/curveto ld
/t/show ld
/L/lineto ld
/ML/setmiterlimit ld
/CT/concat ld
/f/fill ld
/N/newpath ld
/S/stroke ld
/CC/setcmykcolor ld
/A/ashow ld
/cp/closepath ld
/RC/setrgbcolor ld
/LJ/setlinejoin ld
/GC/setgray ld
/LW/setlinewidth ld
/M/moveto ld
/re {4 2 roll M
1 index 0 rlineto
0 exch rlineto
neg 0 rlineto
cp } bd
/_ctm matrix def
/_tm matrix def
/BT { _ctm currentmatrix pop matrix _tm copy pop 0 0 moveto } bd
/ET { _ctm setmatrix } bd
/iTm { _ctm setmatrix _tm concat } bd
/Tm { _tm astore pop iTm 0 0 moveto } bd
/ux 0.0 def
/uy 0.0 def
/F {
  /Tp exch def
  /Tf exch def
  Tf findfont Tp scalefont setfont
  /cf Tf def  /cs Tp def
} bd
/ULS {currentpoint /uy exch def /ux exch def} bd
/ULE {
  /Tcx currentpoint pop def
  gsave
  newpath
  cf findfont cs scalefont dup
  /FontMatrix get 0 get /Ts exch def /FontInfo get dup
  /UnderlinePosition get Ts mul /To exch def
  /UnderlineThickness get Ts mul /Tt exch def
  ux uy To add moveto  Tcx uy To add lineto
  Tt setlinewidth stroke
  grestore
} bd
/OLE {
  /Tcx currentpoint pop def
  gsave
  newpath
  cf findfont cs scalefont dup
  /FontMatrix get 0 get /Ts exch def /FontInfo get dup
  /UnderlinePosition get Ts mul /To exch def
  /UnderlineThickness get Ts mul /Tt exch def
  ux uy To add cs add moveto Tcx uy To add cs add lineto
  Tt setlinewidth stroke
  grestore
} bd
/SOE {
  /Tcx currentpoint pop def
  gsave
  newpath
  cf findfont cs scalefont dup
  /FontMatrix get 0 get /Ts exch def /FontInfo get dup
  /UnderlinePosition get Ts mul /To exch def
  /UnderlineThickness get Ts mul /Tt exch def
  ux uy To add cs 10 mul 26 idiv add moveto Tcx uy To add cs 10 mul 26 idiv add lineto
  Tt setlinewidth stroke
  grestore
} bd
/QT {
/Y22 exch store
/X22 exch store
/Y21 exch store
/X21 exch store
currentpoint
/Y21 load 2 mul add 3 div exch
/X21 load 2 mul add 3 div exch
/X21 load 2 mul /X22 load add 3 div
/Y21 load 2 mul /Y22 load add 3 div
/X22 load /Y22 load curveto
} bd
/SSPD {
dup length /d exch dict def
{
/v exch def
/k exch def
currentpagedevice k known {
/cpdv currentpagedevice k get def
v cpdv ne {
/upd false def
/nullv v type /nulltype eq def
/nullcpdv cpdv type /nulltype eq def
nullv nullcpdv or
{
/upd true def
} {
/sametype v type cpdv type eq def
sametype {
v type /arraytype eq {
/vlen v length def
/cpdvlen cpdv length def
vlen cpdvlen eq {
0 1 vlen 1 sub {
/i exch def
/obj v i get def
/cpdobj cpdv i get def
obj cpdobj ne {
/upd true def
exit
} if
} for
} {
/upd true def
} ifelse
} {
v type /dicttype eq {
v {
/dv exch def
/dk exch def
/cpddv cpdv dk get def
dv cpddv ne {
/upd true def
exit
} if
} forall
} {
/upd true def
} ifelse
} ifelse
} if
} ifelse
upd true eq {
d k v put
} if
} if
} if
} forall
d length 0 gt {
d setpagedevice
} if
} bd
/RE { % /NewFontName [NewEncodingArray] /FontName RE -
  findfont dup length dict begin
  {
    1 index /FID ne
    {def} {pop pop} ifelse
  } forall
  /Encoding exch def
  /FontName 1 index def
  currentdict definefont pop
  end
} bind def
%%EndResource
%%BeginResource: procset (Apache XML Graphics EPS ProcSet) 1.0 0
%%Version: 1.0 0
%%Copyright: (Copyright 2002-2003 The Apache Software Foundation. License terms: http://www.apache.org/licenses/LICENSE-2.0)
/BeginEPSF { %def
/b4_Inc_state save def         % Save state for cleanup
/dict_count countdictstack def % Count objects on dict stack
/op_count count 1 sub def      % Count objects on operand stack
userdict begin                 % Push userdict on dict stack
/showpage { } def              % Redefine showpage, { } = null proc
0 setgray 0 setlinecap         % Prepare graphics state
1 setlinewidth 0 setlinejoin
10 setmiterlimit [ ] 0 setdash newpath
/languagelevel where           % If level not equal to 1 then
{pop languagelevel             % set strokeadjust and
1 ne                           % overprint to their defaults.
{false setstrokeadjust false setoverprint
} if
} if
} bd
/EndEPSF { %def
count op_count sub {pop} repeat            % Clean up stacks
countdictstack dict_count sub {end} repeat
b4_Inc_state restore
} bd
%%EndResource
%FOPBeginFontDict
%%IncludeResource: font Courier-Oblique
%%IncludeResource: font Courier-BoldOblique
%%IncludeResource: font Courier-Bold
%%IncludeResource: font ZapfDingbats
%%IncludeResource: font Symbol
%%IncludeResource: font Helvetica
%%IncludeResource: font Helvetica-Oblique
%%IncludeResource: font Helvetica-Bold
%%IncludeResource: font Helvetica-BoldOblique
%%IncludeResource: font Times-Roman
%%IncludeResource: font Times-Italic
%%IncludeResource: font Times-Bold
%%IncludeResource: font Times-BoldItalic
%%IncludeResource: font Courier
%FOPEndFontDict
%%BeginResource: encoding WinAnsiEncoding
/WinAnsiEncoding [
/.notdef /.notdef /.notdef /.notdef /.notdef
/.notdef /.notdef /.notdef /.notdef /.notdef
/.notdef /.notdef /.notdef /.notdef /.notdef
/.notdef /.notdef /.notdef /.notdef /.notdef
/.notdef /.notdef /.notdef /.notdef /.notdef
/.notdef /.notdef /.notdef /.notdef /.notdef
/.notdef /.notdef /space /exclam /quotedbl
/numbersign /dollar /percent /ampersand /quotesingle
/parenleft /parenright /asterisk /plus /comma
/hyphen /period /slash /zero /one
/two /three /four /five /six
/seven /eight /nine /colon /semicolon
/less /equal /greater /question /at
/A /B /C /D /E
/F /G /H /I /J
/K /L /M /N /O
/P /Q /R /S /T
/U /V /W /X /Y
/Z /bracketleft /backslash /bracketright /asciicircum
/underscore /quoteleft /a /b /c
/d /e /f /g /h
/i /j /k /l /m
/n /o /p /q /r
/s /t /u /v /w
/x /y /z /braceleft /bar
/braceright /asciitilde /bullet /Euro /bullet
/quotesinglbase /florin /quotedblbase /ellipsis /dagger
/daggerdbl /circumflex /perthousand /Scaron /guilsinglleft
/OE /bullet /Zcaron /bullet /bullet
/quoteleft /quoteright /quotedblleft /quotedblright /bullet
/endash /emdash /asciitilde /trademark /scaron
/guilsinglright /oe /bullet /zcaron /Ydieresis
/space /exclamdown /cent /sterling /currency
/yen /brokenbar /section /dieresis /copyright
/ordfeminine /guillemotleft /logicalnot /sfthyphen /registered
/macron /degree /plusminus /twosuperior /threesuperior
/acute /mu /paragraph /middot /cedilla
/onesuperior /ordmasculine /guillemotright /onequarter /onehalf
/threequarters /questiondown /Agrave /Aacute /Acircumflex
/Atilde /Adieresis /Aring /AE /Ccedilla
/Egrave /Eacute /Ecircumflex /Edieresis /Igrave
/Iacute /Icircumflex /Idieresis /Eth /Ntilde
/Ograve /Oacute /Ocircumflex /Otilde /Odieresis
/multiply /Oslash /Ugrave /Uacute /Ucircumflex
/Udieresis /Yacute /Thorn /germandbls /agrave
/aacute /acircumflex /atilde /adieresis /aring
/ae /ccedilla /egrave /eacute /ecircumflex
/edieresis /igrave /iacute /icircumflex /idieresis
/eth /ntilde /ograve /oacute /ocircumflex
/otilde /odieresis /divide /oslash /ugrave
/uacute /ucircumflex /udieresis /yacute /thorn
/ydieresis
] def
%%EndResource
%FOPBeginFontReencode
/Courier-Oblique findfont
dup length dict begin
  {1 index /FID ne {def} {pop pop} ifelse} forall
  /Encoding WinAnsiEncoding def
  currentdict
end
/Courier-Oblique exch definefont pop
/Courier-BoldOblique findfont
dup length dict begin
  {1 index /FID ne {def} {pop pop} ifelse} forall
  /Encoding WinAnsiEncoding def
  currentdict
end
/Courier-BoldOblique exch definefont pop
/Courier-Bold findfont
dup length dict begin
  {1 index /FID ne {def} {pop pop} ifelse} forall
  /Encoding WinAnsiEncoding def
  currentdict
end
/Courier-Bold exch definefont pop
/Helvetica findfont
dup length dict begin
  {1 index /FID ne {def} {pop pop} ifelse} forall
  /Encoding WinAnsiEncoding def
  currentdict
end
/Helvetica exch definefont pop
/Helvetica-Oblique findfont
dup length dict begin
  {1 index /FID ne {def} {pop pop} ifelse} forall
  /Encoding WinAnsiEncoding def
  currentdict
end
/Helvetica-Oblique exch definefont pop
/Helvetica-Bold findfont
dup length dict begin
  {1 index /FID ne {def} {pop pop} ifelse} forall
  /Encoding WinAnsiEncoding def
  currentdict
end
/Helvetica-Bold exch definefont pop
/Helvetica-BoldOblique findfont
dup length dict begin
  {1 index /FID ne {def} {pop pop} ifelse} forall
  /Encoding WinAnsiEncoding def
  currentdict
end
/Helvetica-BoldOblique exch definefont pop
/Times-Roman findfont
dup length dict begin
  {1 index /FID ne {def} {pop pop} ifelse} forall
  /Encoding WinAnsiEncoding def
  currentdict
end
/Times-Roman exch definefont pop
/Times-Italic findfont
dup length dict begin
  {1 index /FID ne {def} {pop pop} ifelse} forall
  /Encoding WinAnsiEncoding def
  currentdict
end
/Times-Italic exch definefont pop
/Times-Bold findfont
dup length dict begin
  {1 index /FID ne {def} {pop pop} ifelse} forall
  /Encoding WinAnsiEncoding def
  currentdict
end
/Times-Bold exch definefont pop
/Times-BoldItalic findfont
dup length dict begin
  {1 index /FID ne {def} {pop pop} ifelse} forall
  /Encoding WinAnsiEncoding def
  currentdict
end
/Times-BoldItalic exch definefont pop
/Courier findfont
dup length dict begin
  {1 index /FID ne {def} {pop pop} ifelse} forall
  /Encoding WinAnsiEncoding def
  currentdict
end
/Courier exch definefont pop
%FOPEndFontReencode
%%EndProlog
%%Page: 1 1
%%PageBoundingBox: 0 0 225 188
%%BeginPageSetup
N
    0     1 M
  211     1 L
  211   187 L
    0   187 L
cp
clip
[1 0 0 -1 0 188] CT
%%EndPageSetup
GS
[0.75 0 0 0.75 0 0.5] CT
1 GC
N
0 0 300 250 re
f
GR
GS
[0.75 0 0 0.75 0 0.5] CT
1 GC
N
0 0 300 250 re
f
GR
GS
[0.75 0 0 0.75 0 0.5] CT
1 GC
N
50 213 M
272 213 L
272 20 L
50 20 L
cp
f
GR
GS
[0.75 0 0 0.75 0 0.5] CT
0.873 GC
1 LJ
0.667 LW
N
81.714 213 M
81.714 20 L
S
GR
GS
[0.75 0 0 0.75 0 0.5] CT
0.873 GC
1 LJ
0.667 LW
N
145.143 213 M
145.143 20 L
S
GR
GS
[0.75 0 0 0.75 0 0.5] CT
0.873 GC
1 LJ
0.667 LW
N
208.571 213 M
208.571 20 L
S
GR
GS
[0.75 0 0 0.75 0 0.5] CT
0.873 GC
1 LJ
0.667 LW
N
272 213 M
272 20 L
S
GR
GS
[0.75 0 0 0.75 0 0.5] CT
0.873 GC
1 LJ
0.667 LW
N
272 213 M
50 213 L
S
GR
GS
[0.75 0 0 0.75 0 0.5] CT
0.873 GC
1 LJ
0.667 LW
N
272 180.833 M
50 180.833 L
S
GR
GS
[0.75 0 0 0.75 0 0.5] CT
0.873 GC
1 LJ
0.667 LW
N
272 148.667 M
50 148.667 L
S
GR
GS
[0.75 0 0 0.75 0 0.5] CT
0.873 GC
1 LJ
0.667 LW
N
272 116.5 M
50 116.5 L
S
GR
GS
[0.75 0 0 0.75 0 0.5] CT
0.873 GC
1 LJ
0.667 LW
N
272 84.333 M
50 84.333 L
S
GR
GS
[0.75 0 0 0.75 0 0.5] CT
0.873 GC
1 LJ
0.667 LW
N
272 52.167 M
50 52.167 L
S
GR
GS
[0.75 0 0 0.75 0 0.5] CT
0.873 GC
1 LJ
0.667 LW
N
272 20 M
50 20 L
S
GR
GS
[0.75 0 0 0.75 0 0.5] CT
0.149 GC
2 setlinecap
1 LJ
0.667 LW
N
50 213 M
272 213 L
S
GR
GS
[0.75 0 0 0.75 0 0.5] CT
0.149 GC
2 setlinecap
1 LJ
0.667 LW
N
50 20 M
272 20 L
S
GR
GS
[0.75 0 0 0.75 0 0.5] CT
0.149 GC
2 setlinecap
1 LJ
0.667 LW
N
81.714 213 M
81.714 210.78 L
S
GR
GS
[0.75 0 0 0.75 0 0.5] CT
0.149 GC
2 setlinecap
1 LJ
0.667 LW
N
145.143 213 M
145.143 210.78 L
S
GR
GS
[0.75 0 0 0.75 0 0.5] CT
0.149 GC
2 setlinecap
1 LJ
0.667 LW
N
208.571 213 M
208.571 210.78 L
S
GR
GS
[0.75 0 0 0.75 0 0.5] CT
0.149 GC
2 setlinecap
1 LJ
0.667 LW
N
272 213 M
272 210.78 L
S
GR
GS
[0.75 0 0 0.75 0 0.5] CT
0.149 GC
2 setlinecap
1 LJ
0.667 LW
N
81.714 20 M
81.714 22.22 L
S
GR
GS
[0.75 0 0 0.75 0 0.5] CT
0.149 GC
2 setlinecap
1 LJ
0.667 LW
N
145.143 20 M
145.143 22.22 L
S
GR
GS
[0.75 0 0 0.75 0 0.5] CT
0.149 GC
2 setlinecap
1 LJ
0.667 LW
N
208.571 20 M
208.571 22.22 L
S
GR
GS
[0.75 0 0 0.75 0 0.5] CT
0.149 GC
2 setlinecap
1 LJ
0.667 LW
N
272 20 M
272 22.22 L
S
GR
GS
[0.75 0 0 0.75 61.28572 163.65001] CT
0.149 GC
/Helvetica 12.667 F
GS
[1 0 0 1 0 0] CT
-4.5 12 moveto 
1 -1 scale
(1) t 
GR
GR
GS
[0.75 0 0 0.75 108.85715 163.65001] CT
0.149 GC
/Helvetica 12.667 F
GS
[1 0 0 1 0 0] CT
-10.5 12 moveto 
1 -1 scale
(1.2) t 
GR
GR
GS
[0.75 0 0 0.75 156.42857 163.65001] CT
0.149 GC
/Helvetica 12.667 F
GS
[1 0 0 1 0 0] CT
-10.5 12 moveto 
1 -1 scale
(1.4) t 
GR
GR
GS
[0.75 0 0 0.75 204 163.65001] CT
0.149 GC
/Helvetica 12.667 F
GS
[1 0 0 1 0 0] CT
-10.5 12 moveto 
1 -1 scale
(1.6) t 
GR
GR
GS
[0.75 0 0 0.75 120.75008 174.90001] CT
0.149 GC
N
-14.984 3.578 M
-14.984 5.031 L
-15.688 4.391 -16.477 4.07 QT
-17.266 3.75 -18.141 3.75 QT
-19.891 3.75 -20.82 4.82 QT
-21.75 5.891 -21.75 7.906 QT
-21.75 9.922 -20.82 10.992 QT
-19.891 12.063 -18.141 12.063 QT
-17.266 12.063 -16.477 11.742 QT
-15.688 11.422 -14.984 10.766 QT
-14.984 12.219 L
-15.703 12.703 -16.516 12.953 QT
-17.328 13.203 -18.234 13.203 QT
-20.547 13.203 -21.883 11.781 QT
-23.219 10.359 -23.219 7.906 QT
-23.219 5.453 -21.883 4.031 QT
-20.547 2.609 -18.234 2.609 QT
-17.313 2.609 -16.5 2.852 QT
-15.688 3.094 -14.984 3.578 QT
cp
-19.141 1.375 M
-20.578 -0.453 L
-19.641 -0.453 L
-18.5 0.766 L
-17.359 -0.453 L
-16.422 -0.453 L
-17.859 1.375 L
-19.141 1.375 L
cp
-9.493 9.156 M
-11.009 9.156 -11.603 9.5 QT
-12.196 9.844 -12.196 10.688 QT
-12.196 11.359 -11.751 11.75 QT
-11.306 12.141 -10.556 12.141 QT
-9.509 12.141 -8.876 11.398 QT
-8.243 10.656 -8.243 9.438 QT
-8.243 9.156 L
-9.493 9.156 L
cp
-6.978 8.625 M
-6.978 13 L
-8.243 13 L
-8.243 11.844 L
-8.665 12.531 -9.314 12.867 QT
-9.962 13.203 -10.884 13.203 QT
-12.056 13.203 -12.751 12.539 QT
-13.446 11.875 -13.446 10.766 QT
-13.446 9.484 -12.579 8.828 QT
-11.712 8.172 -10.009 8.172 QT
-8.243 8.172 L
-8.243 8.047 L
-8.243 7.172 -8.814 6.695 QT
-9.384 6.219 -10.415 6.219 QT
-11.071 6.219 -11.696 6.383 QT
-12.321 6.547 -12.884 6.859 QT
-12.884 5.688 L
-12.196 5.422 -11.548 5.289 QT
-10.899 5.156 -10.29 5.156 QT
-8.618 5.156 -7.798 6.016 QT
-6.978 6.875 -6.978 8.625 QT
cp
0.435 5.563 M
0.435 6.766 L
-0.097 6.484 -0.675 6.352 QT
-1.253 6.219 -1.862 6.219 QT
-2.8 6.219 -3.268 6.5 QT
-3.737 6.781 -3.737 7.359 QT
-3.737 7.797 -3.401 8.047 QT
-3.065 8.297 -2.05 8.516 QT
-1.628 8.625 L
-0.284 8.906 0.278 9.43 QT
0.841 9.953 0.841 10.891 QT
0.841 11.953 -0.003 12.578 QT
-0.847 13.203 -2.315 13.203 QT
-2.94 13.203 -3.604 13.078 QT
-4.268 12.953 -5.003 12.719 QT
-5.003 11.422 L
-4.315 11.781 -3.636 11.961 QT
-2.956 12.141 -2.3 12.141 QT
-1.409 12.141 -0.932 11.836 QT
-0.456 11.531 -0.456 10.984 QT
-0.456 10.469 -0.8 10.195 QT
-1.143 9.922 -2.315 9.672 QT
-2.753 9.563 L
-3.909 9.328 -4.432 8.813 QT
-4.956 8.297 -4.956 7.422 QT
-4.956 6.328 -4.19 5.742 QT
-3.425 5.156 -2.018 5.156 QT
-1.315 5.156 -0.698 5.258 QT
-0.081 5.359 0.435 5.563 QT
cp
7.1 2.359 M
10.006 2.359 L
10.006 3.344 L
8.366 3.344 L
8.366 13.875 L
10.006 13.875 L
10.006 14.844 L
7.1 14.844 L
7.1 2.359 L
cp
17.526 5.563 M
17.526 6.766 L
16.994 6.484 16.416 6.352 QT
15.838 6.219 15.229 6.219 QT
14.291 6.219 13.822 6.5 QT
13.354 6.781 13.354 7.359 QT
13.354 7.797 13.69 8.047 QT
14.026 8.297 15.041 8.516 QT
15.463 8.625 L
16.807 8.906 17.369 9.43 QT
17.932 9.953 17.932 10.891 QT
17.932 11.953 17.088 12.578 QT
16.244 13.203 14.776 13.203 QT
14.151 13.203 13.486 13.078 QT
12.822 12.953 12.088 12.719 QT
12.088 11.422 L
12.776 11.781 13.455 11.961 QT
14.135 12.141 14.791 12.141 QT
15.682 12.141 16.158 11.836 QT
16.635 11.531 16.635 10.984 QT
16.635 10.469 16.291 10.195 QT
15.947 9.922 14.776 9.672 QT
14.338 9.563 L
13.182 9.328 12.658 8.813 QT
12.135 8.297 12.135 7.422 QT
12.135 6.328 12.901 5.742 QT
13.666 5.156 15.072 5.156 QT
15.776 5.156 16.393 5.258 QT
17.01 5.359 17.526 5.563 QT
cp
22.833 2.359 M
22.833 14.844 L
19.927 14.844 L
19.927 13.875 L
21.568 13.875 L
21.568 3.344 L
19.927 3.344 L
19.927 2.359 L
22.833 2.359 L
cp
f
GR
GS
[0.75 0 0 0.75 0 0.5] CT
0.149 GC
2 setlinecap
1 LJ
0.667 LW
N
50 213 M
50 20 L
S
GR
GS
[0.75 0 0 0.75 0 0.5] CT
0.149 GC
2 setlinecap
1 LJ
0.667 LW
N
272 213 M
272 20 L
S
GR
GS
[0.75 0 0 0.75 0 0.5] CT
0.149 GC
2 setlinecap
1 LJ
0.667 LW
N
50 213 M
52.22 213 L
S
GR
GS
[0.75 0 0 0.75 0 0.5] CT
0.149 GC
2 setlinecap
1 LJ
0.667 LW
N
50 180.833 M
52.22 180.833 L
S
GR
GS
[0.75 0 0 0.75 0 0.5] CT
0.149 GC
2 setlinecap
1 LJ
0.667 LW
N
50 148.667 M
52.22 148.667 L
S
GR
GS
[0.75 0 0 0.75 0 0.5] CT
0.149 GC
2 setlinecap
1 LJ
0.667 LW
N
50 116.5 M
52.22 116.5 L
S
GR
GS
[0.75 0 0 0.75 0 0.5] CT
0.149 GC
2 setlinecap
1 LJ
0.667 LW
N
50 84.333 M
52.22 84.333 L
S
GR
GS
[0.75 0 0 0.75 0 0.5] CT
0.149 GC
2 setlinecap
1 LJ
0.667 LW
N
50 52.167 M
52.22 52.167 L
S
GR
GS
[0.75 0 0 0.75 0 0.5] CT
0.149 GC
2 setlinecap
1 LJ
0.667 LW
N
50 20 M
52.22 20 L
S
GR
GS
[0.75 0 0 0.75 0 0.5] CT
0.149 GC
2 setlinecap
1 LJ
0.667 LW
N
272 213 M
269.78 213 L
S
GR
GS
[0.75 0 0 0.75 0 0.5] CT
0.149 GC
2 setlinecap
1 LJ
0.667 LW
N
272 180.833 M
269.78 180.833 L
S
GR
GS
[0.75 0 0 0.75 0 0.5] CT
0.149 GC
2 setlinecap
1 LJ
0.667 LW
N
272 148.667 M
269.78 148.667 L
S
GR
GS
[0.75 0 0 0.75 0 0.5] CT
0.149 GC
2 setlinecap
1 LJ
0.667 LW
N
272 116.5 M
269.78 116.5 L
S
GR
GS
[0.75 0 0 0.75 0 0.5] CT
0.149 GC
2 setlinecap
1 LJ
0.667 LW
N
272 84.333 M
269.78 84.333 L
S
GR
GS
[0.75 0 0 0.75 0 0.5] CT
0.149 GC
2 setlinecap
1 LJ
0.667 LW
N
272 52.167 M
269.78 52.167 L
S
GR
GS
[0.75 0 0 0.75 0 0.5] CT
0.149 GC
2 setlinecap
1 LJ
0.667 LW
N
272 20 M
269.78 20 L
S
GR
GS
[0.75 0 0 0.75 34.1 160.25] CT
0.149 GC
/Helvetica 12.667 F
GS
[1 0 0 1 0 0] CT
-9 4.5 moveto 
1 -1 scale
(0) t 
GR
GR
GS
[0.75 0 0 0.75 34.1 136.125] CT
0.149 GC
/Helvetica 12.667 F
GS
[1 0 0 1 0 0] CT
-25 4.5 moveto 
1 -1 scale
(100) t 
GR
GR
GS
[0.75 0 0 0.75 34.1 112] CT
0.149 GC
/Helvetica 12.667 F
GS
[1 0 0 1 0 0] CT
-25 4.5 moveto 
1 -1 scale
(200) t 
GR
GR
GS
[0.75 0 0 0.75 34.1 87.875] CT
0.149 GC
/Helvetica 12.667 F
GS
[1 0 0 1 0 0] CT
-25 4.5 moveto 
1 -1 scale
(300) t 
GR
GR
GS
[0.75 0 0 0.75 34.1 63.75] CT
0.149 GC
/Helvetica 12.667 F
GS
[1 0 0 1 0 0] CT
-25 4.5 moveto 
1 -1 scale
(400) t 
GR
GR
GS
[0.75 0 0 0.75 34.1 39.625] CT
0.149 GC
/Helvetica 12.667 F
GS
[1 0 0 1 0 0] CT
-25 4.5 moveto 
1 -1 scale
(500) t 
GR
GR
GS
[0.75 0 0 0.75 34.1 15.5] CT
0.149 GC
/Helvetica 12.667 F
GS
[1 0 0 1 0 0] CT
-25 4.5 moveto 
1 -1 scale
(600) t 
GR
GR
GS
[0 -0.75 0.75 0 12.84999 87.87493] CT
0.149 GC
/Helvetica 13.933 F
GS
[1 0 0 1 0 0] CT
-27 -4 moveto 
1 -1 scale
(\332hel [\260]) t 
GR
GR
GS
[0.75 0 0 0.75 120.75011 13.53042] CT
/Helvetica-Bold 13.933 F
GS
[1 0 0 1 0 0] CT
-93 -4 moveto 
1 -1 scale
(Odezva velk\351ho motoru) t 
GR
GR
GS
[0.75 0 0 0.75 0 0.5] CT
0 0.447 0.741 RC
1 LJ
2.667 LW
N
49.974 213 M
50 213 L
50.063 213 L
50.127 213 L
50.19 213 L
50.254 213 L
50.317 213 L
50.381 213 L
50.444 213 L
50.507 213 L
50.571 213 L
50.634 213 L
50.698 213 L
50.761 213 L
50.825 213 L
50.888 213 L
50.951 213 L
51.015 213 L
51.078 213 L
51.142 213 L
51.205 213 L
51.269 213 L
51.332 213 L
51.395 213 L
51.459 213 L
51.522 213 L
51.586 213 L
51.649 213 L
51.713 213 L
51.776 213 L
51.839 213 L
51.903 213 L
51.966 213 L
52.03 213 L
52.093 213 L
52.157 213 L
52.22 213 L
52.283 213 L
52.347 213 L
52.41 213 L
52.474 213 L
52.537 213 L
52.601 213 L
52.664 213 L
52.727 213 L
52.791 213 L
52.854 213 L
52.918 213 L
52.981 213 L
53.045 213 L
53.108 213 L
53.171 213 L
53.235 213 L
53.298 213 L
53.362 213 L
53.425 213 L
53.489 213 L
53.552 213 L
53.615 213 L
53.679 213 L
53.742 213 L
53.806 213 L
53.869 213 L
53.933 213 L
53.996 213 L
54.059 213 L
54.123 213 L
54.186 213 L
54.25 213 L
54.313 213 L
54.377 213 L
54.44 213 L
54.503 213 L
54.567 213 L
54.63 213 L
54.694 213 L
54.757 213 L
54.821 213 L
54.884 213 L
54.947 213 L
55.011 213 L
55.074 213 L
55.138 213 L
55.201 213 L
55.265 213 L
55.328 213 L
55.391 213 L
55.455 213 L
55.518 213 L
55.582 213 L
55.645 213 L
55.709 213 L
55.772 213 L
55.835 213 L
55.899 213 L
55.962 213 L
56.026 213 L
56.089 213 L
56.153 213 L
56.216 213 L
56.279 213 L
56.343 213 L
56.406 213 L
56.47 213 L
56.533 213 L
56.597 213 L
56.66 213 L
56.723 213 L
56.787 213 L
56.85 213 L
56.914 213 L
56.977 213 L
57.041 213 L
57.104 213 L
57.167 213 L
57.231 213 L
57.294 213 L
57.358 213 L
57.421 213 L
57.485 213 L
57.548 213 L
57.611 213 L
57.675 213 L
57.738 213 L
57.802 213 L
57.865 213 L
57.929 213 L
57.992 213 L
58.055 213 L
58.119 213 L
58.182 213 L
58.246 213 L
58.309 213 L
58.373 213 L
58.436 213 L
58.499 213 L
58.563 213 L
58.626 213 L
58.69 213 L
58.753 213 L
58.817 213 L
58.88 213 L
58.943 213 L
59.007 213 L
59.07 213 L
59.134 213 L
59.197 213 L
59.261 213 L
59.324 213 L
59.387 213 L
59.451 213 L
59.514 213 L
59.578 213 L
59.641 213 L
59.705 213 L
59.768 213 L
59.831 213 L
59.895 213 L
59.958 213 L
60.022 213 L
60.085 213 L
60.149 213 L
60.212 213 L
60.275 213 L
60.339 213 L
60.402 213 L
60.466 213 L
60.529 213 L
60.593 213 L
60.656 213 L
60.719 213 L
60.783 213 L
60.846 213 L
60.91 213 L
60.973 213 L
61.037 213 L
61.1 213 L
61.163 213 L
61.227 213 L
61.29 213 L
61.354 213 L
61.417 213 L
61.481 213 L
61.544 213 L
61.607 213 L
61.671 213 L
61.734 213 L
61.798 213 L
61.861 213 L
61.925 213 L
61.988 213 L
62.051 213 L
62.115 213 L
62.178 213 L
62.242 213 L
62.305 213 L
62.369 213 L
62.432 213 L
62.495 213 L
62.559 213 L
62.622 213 L
62.686 213 L
62.749 213 L
62.813 213 L
62.876 213 L
62.939 213 L
63.003 213 L
63.066 213 L
63.13 213 L
63.193 213 L
63.257 213 L
63.32 213 L
63.383 213 L
63.447 213 L
63.51 213 L
63.574 213 L
63.637 213 L
63.701 213 L
63.764 213 L
63.827 213 L
63.891 213 L
63.954 213 L
64.018 213 L
64.081 213 L
64.145 213 L
64.208 213 L
64.271 213 L
64.335 213 L
64.398 213 L
64.462 213 L
64.525 213 L
64.589 213 L
64.652 213 L
64.715 213 L
64.779 213 L
64.842 213 L
64.906 213 L
64.969 213 L
65.033 213 L
65.096 213 L
65.159 213 L
65.223 213 L
65.286 213 L
65.35 213 L
65.413 213 L
65.477 213 L
65.54 213 L
65.603 213 L
65.667 213 L
65.73 213 L
65.794 213 L
65.857 213 L
65.921 213 L
65.984 213 L
66.047 213 L
66.111 213 L
66.174 213 L
66.238 213 L
66.301 213 L
66.365 213 L
66.428 213 L
66.491 213 L
66.555 213 L
66.618 213 L
66.682 213 L
66.745 213 L
66.809 213 L
66.872 213 L
66.935 213 L
66.999 213 L
67.062 213 L
67.126 213 L
67.189 213 L
67.253 213 L
67.316 213 L
67.379 213 L
67.443 213 L
67.506 213 L
67.57 213 L
67.633 213 L
67.697 213 L
67.76 213 L
67.823 213 L
67.887 213 L
67.95 213 L
68.014 213 L
68.077 213 L
68.141 213 L
68.204 213 L
68.267 213 L
68.331 212.678 L
68.394 212.678 L
68.458 212.678 L
68.521 212.678 L
68.585 212.678 L
68.648 212.678 L
68.711 212.678 L
68.775 212.678 L
68.838 212.678 L
68.902 212.678 L
68.965 212.678 L
69.029 212.678 L
69.092 212.678 L
69.155 212.678 L
69.219 212.678 L
69.282 212.678 L
69.346 212.678 L
69.409 212.678 L
69.473 212.678 L
69.536 212.678 L
69.599 212.678 L
69.663 212.678 L
69.726 212.678 L
69.79 212.678 L
69.853 212.678 L
69.917 212.678 L
69.98 212.678 L
70.043 212.678 L
70.107 212.678 L
70.17 212.678 L
70.234 212.678 L
70.297 212.678 L
70.361 212.678 L
70.424 212.678 L
70.487 212.678 L
70.551 212.678 L
70.614 212.678 L
70.678 212.357 L
70.741 212.357 L
70.805 212.357 L
70.868 212.357 L
70.931 212.357 L
70.995 212.357 L
71.058 212.357 L
71.122 212.357 L
71.185 212.357 L
71.249 212.357 L
71.312 212.357 L
71.375 212.357 L
71.439 212.357 L
71.502 212.357 L
71.566 212.357 L
71.629 212.357 L
71.693 212.357 L
71.756 212.357 L
71.819 212.357 L
71.883 212.357 L
71.946 212.357 L
72.01 212.357 L
72.073 212.035 L
72.137 212.035 L
72.2 212.035 L
72.263 212.035 L
72.327 212.035 L
72.39 212.035 L
72.454 212.035 L
72.517 212.035 L
72.581 212.035 L
72.644 212.035 L
72.707 212.035 L
72.771 212.035 L
72.834 212.035 L
72.898 212.035 L
72.961 212.035 L
73.025 212.035 L
73.088 212.035 L
73.151 212.035 L
73.215 212.035 L
73.278 211.713 L
73.342 211.713 L
73.405 211.713 L
73.469 211.713 L
73.532 211.713 L
73.595 211.713 L
73.659 211.713 L
73.722 211.713 L
73.786 211.713 L
73.849 211.713 L
73.913 211.713 L
73.976 211.713 L
74.039 211.713 L
74.103 211.713 L
74.166 211.713 L
74.23 211.713 L
74.293 211.392 L
74.357 211.392 L
74.42 211.392 L
74.483 211.392 L
74.547 211.392 L
74.61 211.392 L
74.674 211.392 L
74.737 211.392 L
74.801 211.392 L
74.864 211.392 L
74.927 211.392 L
74.991 211.392 L
75.054 211.392 L
75.118 211.392 L
75.181 211.392 L
75.245 211.392 L
75.308 211.07 L
75.371 211.07 L
75.435 211.07 L
75.498 211.07 L
75.562 211.07 L
75.625 211.07 L
75.689 211.07 L
75.752 211.07 L
75.815 211.07 L
75.879 211.07 L
75.942 211.07 L
76.006 211.07 L
76.069 211.07 L
76.133 210.748 L
76.196 210.748 L
76.259 210.748 L
76.323 210.748 L
76.386 210.748 L
76.45 210.748 L
76.513 210.748 L
76.577 210.748 L
76.64 210.748 L
76.703 210.748 L
76.767 210.748 L
76.83 210.748 L
76.894 210.748 L
76.957 210.748 L
77.021 210.427 L
77.084 210.427 L
77.147 210.427 L
77.211 210.427 L
77.274 210.427 L
77.338 210.427 L
77.401 210.427 L
77.465 210.427 L
77.528 210.427 L
77.591 210.427 L
77.655 210.427 L
77.718 210.105 L
77.782 210.105 L
77.845 210.105 L
77.909 210.105 L
77.972 210.105 L
78.035 210.105 L
78.099 210.105 L
78.162 210.105 L
78.226 210.105 L
78.289 210.105 L
78.353 210.105 L
78.416 210.105 L
78.479 209.783 L
78.543 209.783 L
78.606 209.783 L
78.67 209.783 L
78.733 209.783 L
78.797 209.783 L
78.86 209.783 L
78.923 209.783 L
78.987 209.783 L
79.05 209.783 L
79.114 209.783 L
79.177 209.462 L
79.241 209.462 L
79.304 209.462 L
79.367 209.462 L
79.431 209.462 L
79.494 209.462 L
79.558 209.462 L
79.621 209.462 L
79.685 209.462 L
79.748 209.462 L
79.811 209.462 L
79.875 209.462 L
79.938 209.14 L
80.002 209.14 L
80.065 209.14 L
80.129 209.14 L
80.192 209.14 L
80.255 209.14 L
80.319 209.14 L
80.382 209.14 L
80.446 209.14 L
80.509 209.14 L
80.573 208.818 L
80.636 208.818 L
80.699 208.818 L
80.763 208.818 L
80.826 208.818 L
80.89 208.818 L
80.953 208.818 L
81.017 208.818 L
81.08 208.818 L
81.143 208.818 L
81.207 208.818 L
81.27 208.497 L
81.334 208.497 L
81.397 208.497 L
81.461 208.497 L
81.524 208.497 L
81.587 208.497 L
81.651 208.497 L
81.714 208.497 L
81.778 208.497 L
81.841 208.175 L
81.905 208.175 L
81.968 208.175 L
82.031 208.175 L
82.095 208.175 L
82.158 208.175 L
82.222 208.175 L
82.285 208.175 L
82.349 208.175 L
82.412 208.175 L
82.475 207.853 L
82.539 207.853 L
82.602 207.853 L
82.666 207.853 L
82.729 207.853 L
82.793 207.853 L
82.856 207.853 L
82.919 207.853 L
82.983 207.853 L
83.046 207.532 L
83.11 207.532 L
83.173 207.532 L
83.237 207.532 L
83.3 207.532 L
83.363 207.532 L
83.427 207.532 L
83.49 207.532 L
83.554 207.532 L
83.617 207.532 L
83.681 207.21 L
83.744 207.21 L
83.807 207.21 L
83.871 207.21 L
83.934 207.21 L
83.998 207.21 L
84.061 207.21 L
84.125 207.21 L
84.188 207.21 L
84.251 206.888 L
84.315 206.888 L
84.378 206.888 L
84.442 206.888 L
84.505 206.888 L
84.569 206.888 L
84.632 206.888 L
84.695 206.888 L
84.759 206.888 L
84.822 206.567 L
84.886 206.567 L
84.949 206.567 L
85.013 206.567 L
85.076 206.567 L
85.139 206.567 L
85.203 206.567 L
85.266 206.567 L
85.33 206.245 L
85.393 206.245 L
85.457 206.245 L
85.52 206.245 L
85.583 206.245 L
85.647 206.245 L
85.71 206.245 L
85.774 206.245 L
85.837 206.245 L
85.901 206.245 L
85.964 205.923 L
86.027 205.923 L
86.091 205.923 L
86.154 205.923 L
86.218 205.923 L
86.281 205.923 L
86.345 205.923 L
86.408 205.923 L
86.471 205.602 L
86.535 205.602 L
86.598 205.602 L
86.662 205.602 L
86.725 205.602 L
86.789 205.602 L
86.852 205.602 L
86.915 205.602 L
86.979 205.28 L
87.042 205.28 L
87.106 205.28 L
87.169 205.28 L
87.233 205.28 L
87.296 205.28 L
87.359 205.28 L
87.423 205.28 L
87.486 204.958 L
87.55 204.958 L
87.613 204.958 L
87.677 204.958 L
87.74 204.958 L
87.803 204.958 L
87.867 204.958 L
87.93 204.958 L
87.994 204.958 L
88.057 204.637 L
88.121 204.637 L
88.184 204.637 L
88.247 204.637 L
88.311 204.637 L
88.374 204.637 L
88.438 204.637 L
88.501 204.637 L
88.565 204.315 L
88.628 204.315 L
88.691 204.315 L
88.755 204.315 L
88.818 204.315 L
88.882 204.315 L
88.945 204.315 L
89.009 204.315 L
89.072 203.993 L
89.135 203.993 L
89.199 203.993 L
89.262 203.993 L
89.326 203.993 L
89.389 203.993 L
89.453 203.993 L
89.516 203.993 L
89.579 203.672 L
89.643 203.672 L
89.706 203.672 L
89.77 203.672 L
89.833 203.672 L
89.897 203.672 L
89.96 203.672 L
90.023 203.672 L
90.087 203.35 L
90.15 203.35 L
90.214 203.35 L
90.277 203.35 L
90.341 203.35 L
90.404 203.35 L
90.467 203.35 L
90.531 203.028 L
90.594 203.028 L
90.658 203.028 L
90.721 203.028 L
90.785 203.028 L
90.848 203.028 L
90.911 203.028 L
90.975 203.028 L
91.038 203.028 L
91.102 202.707 L
91.165 202.707 L
91.229 202.707 L
91.292 202.707 L
91.355 202.707 L
91.419 202.707 L
91.482 202.707 L
91.546 202.385 L
91.609 202.385 L
91.673 202.385 L
91.736 202.385 L
91.799 202.385 L
91.863 202.385 L
91.926 202.385 L
91.99 202.385 L
92.053 202.063 L
92.117 202.063 L
92.18 202.063 L
92.243 202.063 L
92.307 202.063 L
92.37 202.063 L
92.434 202.063 L
92.497 202.063 L
92.561 201.742 L
92.624 201.742 L
92.687 201.742 L
92.751 201.742 L
92.814 201.742 L
92.878 201.742 L
92.941 201.742 L
93.005 201.742 L
93.068 201.42 L
93.131 201.42 L
93.195 201.42 L
93.258 201.42 L
93.322 201.42 L
93.385 201.42 L
93.449 201.42 L
93.512 201.098 L
93.575 201.098 L
93.639 201.098 L
93.702 201.098 L
93.766 201.098 L
93.829 201.098 L
93.893 201.098 L
93.956 201.098 L
94.019 200.777 L
94.083 200.777 L
94.146 200.777 L
94.21 200.777 L
94.273 200.777 L
94.337 200.777 L
94.4 200.777 L
94.463 200.455 L
94.527 200.455 L
94.59 200.455 L
94.654 200.455 L
94.717 200.455 L
94.781 200.455 L
94.844 200.455 L
94.907 200.455 L
94.971 200.133 L
95.034 200.133 L
95.098 200.133 L
95.161 200.133 L
95.225 200.133 L
95.288 200.133 L
95.351 200.133 L
95.415 199.812 L
95.478 199.812 L
95.542 199.812 L
95.605 199.812 L
95.669 199.812 L
95.732 199.812 L
95.795 199.812 L
95.859 199.49 L
95.922 199.49 L
95.986 199.49 L
96.049 199.49 L
96.113 199.49 L
96.176 199.49 L
96.239 199.49 L
96.303 199.168 L
96.366 199.168 L
96.43 199.168 L
96.493 199.168 L
96.557 199.168 L
96.62 199.168 L
96.683 199.168 L
96.747 199.168 L
96.81 198.847 L
96.874 198.847 L
96.937 198.847 L
97.001 198.847 L
97.064 198.847 L
97.127 198.847 L
97.191 198.847 L
97.254 198.525 L
97.318 198.525 L
97.381 198.525 L
97.445 198.525 L
97.508 198.525 L
97.571 198.525 L
97.635 198.525 L
97.698 198.203 L
97.762 198.203 L
97.825 198.203 L
97.889 198.203 L
97.952 198.203 L
98.015 198.203 L
98.079 198.203 L
98.142 197.882 L
98.206 197.882 L
98.269 197.882 L
98.333 197.882 L
98.396 197.882 L
98.459 197.882 L
98.523 197.882 L
98.586 197.56 L
98.65 197.56 L
98.713 197.56 L
98.777 197.56 L
98.84 197.56 L
98.903 197.56 L
98.967 197.238 L
99.03 197.238 L
99.094 197.238 L
99.157 197.238 L
99.221 197.238 L
99.284 197.238 L
99.347 197.238 L
99.411 196.917 L
99.474 196.917 L
99.538 196.917 L
99.601 196.917 L
99.665 196.917 L
99.728 196.917 L
99.791 196.917 L
99.855 196.595 L
99.918 196.595 L
99.982 196.595 L
100.045 196.595 L
100.109 196.595 L
100.172 196.595 L
100.235 196.595 L
100.299 196.595 L
100.362 196.273 L
100.426 196.273 L
100.489 196.273 L
100.553 196.273 L
100.616 196.273 L
100.679 196.273 L
100.743 195.952 L
100.806 195.952 L
100.87 195.952 L
100.933 195.952 L
100.997 195.952 L
101.06 195.952 L
101.123 195.952 L
101.187 195.63 L
101.25 195.63 L
101.314 195.63 L
101.377 195.63 L
101.441 195.63 L
101.504 195.63 L
101.567 195.63 L
101.631 195.308 L
101.694 195.308 L
101.758 195.308 L
101.821 195.308 L
101.885 195.308 L
101.948 195.308 L
102.011 195.308 L
102.075 194.987 L
102.138 194.987 L
102.202 194.987 L
102.265 194.987 L
102.329 194.987 L
102.392 194.987 L
102.455 194.987 L
102.519 194.665 L
102.582 194.665 L
102.646 194.665 L
102.709 194.665 L
102.773 194.665 L
102.836 194.665 L
102.899 194.665 L
102.963 194.343 L
103.026 194.343 L
103.09 194.343 L
103.153 194.343 L
103.217 194.343 L
103.28 194.343 L
103.343 194.343 L
103.407 194.022 L
103.47 194.022 L
103.534 194.022 L
103.597 194.022 L
103.661 194.022 L
103.724 194.022 L
103.787 194.022 L
103.851 193.7 L
103.914 193.7 L
103.978 193.7 L
104.041 193.7 L
104.105 193.7 L
104.168 193.7 L
104.231 193.7 L
104.295 193.378 L
104.358 193.378 L
104.422 193.378 L
104.485 193.378 L
104.549 193.378 L
104.612 193.378 L
104.675 193.378 L
104.739 193.057 L
104.802 193.057 L
104.866 193.057 L
104.929 193.057 L
104.993 193.057 L
105.056 193.057 L
105.119 192.735 L
105.183 192.735 L
105.246 192.735 L
105.31 192.735 L
105.373 192.735 L
105.437 192.735 L
105.5 192.735 L
105.563 192.413 L
105.627 192.413 L
105.69 192.413 L
105.754 192.413 L
105.817 192.413 L
105.881 192.413 L
105.944 192.092 L
106.007 192.092 L
106.071 192.092 L
106.134 192.092 L
106.198 192.092 L
106.261 192.092 L
106.325 192.092 L
106.388 192.092 L
106.451 191.77 L
106.515 191.77 L
106.578 191.77 L
106.642 191.77 L
106.705 191.77 L
106.769 191.77 L
106.832 191.448 L
106.895 191.448 L
106.959 191.448 L
107.022 191.448 L
107.086 191.448 L
107.149 191.448 L
107.213 191.448 L
107.276 191.127 L
107.339 191.127 L
107.403 191.127 L
107.466 191.127 L
107.53 191.127 L
107.593 191.127 L
107.657 190.805 L
107.72 190.805 L
107.783 190.805 L
107.847 190.805 L
107.91 190.805 L
107.974 190.805 L
108.037 190.805 L
108.101 190.483 L
108.164 190.483 L
108.227 190.483 L
108.291 190.483 L
108.354 190.483 L
108.418 190.483 L
108.481 190.162 L
108.545 190.162 L
108.608 190.162 L
108.671 190.162 L
108.735 190.162 L
108.798 190.162 L
108.862 190.162 L
108.925 189.84 L
108.989 189.84 L
109.052 189.84 L
109.115 189.84 L
109.179 189.84 L
109.242 189.84 L
109.306 189.518 L
109.369 189.518 L
109.433 189.518 L
109.496 189.518 L
109.559 189.518 L
109.623 189.518 L
109.686 189.518 L
109.75 189.197 L
109.813 189.197 L
109.877 189.197 L
109.94 189.197 L
110.003 189.197 L
110.067 189.197 L
110.13 188.875 L
110.194 188.875 L
110.257 188.875 L
110.321 188.875 L
110.384 188.875 L
110.447 188.875 L
110.511 188.553 L
110.574 188.553 L
110.638 188.553 L
110.701 188.553 L
110.765 188.553 L
110.828 188.553 L
110.891 188.232 L
110.955 188.232 L
111.018 188.232 L
111.082 188.232 L
111.145 188.232 L
111.209 188.232 L
111.272 188.232 L
111.335 187.91 L
111.399 187.91 L
111.462 187.91 L
111.526 187.91 L
111.589 187.91 L
111.653 187.91 L
111.716 187.588 L
111.779 187.588 L
111.843 187.588 L
111.906 187.588 L
111.97 187.588 L
112.033 187.588 L
112.097 187.588 L
112.16 187.588 L
112.223 187.267 L
112.287 187.267 L
112.35 187.267 L
112.414 187.267 L
112.477 187.267 L
112.541 187.267 L
112.604 186.945 L
112.667 186.945 L
112.731 186.945 L
112.794 186.945 L
112.858 186.945 L
112.921 186.945 L
112.985 186.623 L
113.048 186.623 L
113.111 186.623 L
113.175 186.623 L
113.238 186.623 L
113.302 186.623 L
113.365 186.623 L
113.429 186.302 L
113.492 186.302 L
113.555 186.302 L
113.619 186.302 L
113.682 186.302 L
113.746 186.302 L
113.809 185.98 L
113.873 185.98 L
113.936 185.98 L
113.999 185.98 L
114.063 185.98 L
114.126 185.98 L
114.19 185.98 L
114.253 185.658 L
114.317 185.658 L
114.38 185.658 L
114.443 185.658 L
114.507 185.658 L
114.57 185.658 L
114.634 185.658 L
114.697 185.337 L
114.761 185.337 L
114.824 185.337 L
114.887 185.337 L
114.951 185.337 L
115.014 185.337 L
115.078 185.015 L
115.141 185.015 L
115.205 185.015 L
115.268 185.015 L
115.331 185.015 L
115.395 185.015 L
115.458 184.693 L
115.522 184.693 L
115.585 184.693 L
115.649 184.693 L
115.712 184.693 L
115.775 184.693 L
115.839 184.372 L
115.902 184.372 L
115.966 184.372 L
116.029 184.372 L
116.093 184.372 L
116.156 184.372 L
116.219 184.372 L
116.283 184.05 L
116.346 184.05 L
116.41 184.05 L
116.473 184.05 L
116.537 184.05 L
116.6 184.05 L
116.663 183.728 L
116.727 183.728 L
116.79 183.728 L
116.854 183.728 L
116.917 183.728 L
116.981 183.728 L
117.044 183.728 L
117.107 183.407 L
117.171 183.407 L
117.234 183.407 L
117.298 183.407 L
117.361 183.407 L
117.425 183.407 L
117.488 183.085 L
117.551 183.085 L
117.615 183.085 L
117.678 183.085 L
117.742 183.085 L
117.805 183.085 L
117.869 182.763 L
117.932 182.763 L
117.995 182.763 L
118.059 182.763 L
118.122 182.763 L
118.186 182.763 L
118.249 182.442 L
118.313 182.442 L
118.376 182.442 L
118.439 182.442 L
118.503 182.442 L
118.566 182.442 L
118.63 182.12 L
118.693 182.12 L
118.757 182.12 L
118.82 182.12 L
118.883 182.12 L
118.947 182.12 L
119.01 181.798 L
119.074 181.798 L
119.137 181.798 L
119.201 181.798 L
119.264 181.798 L
119.327 181.798 L
119.391 181.798 L
119.454 181.477 L
119.518 181.477 L
119.581 181.477 L
119.645 181.477 L
119.708 181.477 L
119.771 181.477 L
119.835 181.155 L
119.898 181.155 L
119.962 181.155 L
120.025 181.155 L
120.089 181.155 L
120.152 181.155 L
120.215 181.155 L
120.279 180.833 L
120.342 180.833 L
120.406 180.833 L
120.469 180.833 L
120.533 180.833 L
120.596 180.512 L
120.659 180.512 L
120.723 180.512 L
120.786 180.512 L
120.85 180.512 L
120.913 180.512 L
120.977 180.512 L
121.04 180.19 L
121.103 180.19 L
121.167 180.19 L
121.23 180.19 L
121.294 180.19 L
121.357 180.19 L
121.421 179.868 L
121.484 179.868 L
121.547 179.868 L
121.611 179.868 L
121.674 179.868 L
121.738 179.868 L
121.801 179.868 L
121.865 179.547 L
121.928 179.547 L
121.991 179.547 L
122.055 179.547 L
122.118 179.547 L
122.182 179.547 L
122.245 179.225 L
122.309 179.225 L
122.372 179.225 L
122.435 179.225 L
122.499 179.225 L
122.562 179.225 L
122.626 178.903 L
122.689 178.903 L
122.753 178.903 L
122.816 178.903 L
122.879 178.903 L
122.943 178.903 L
123.006 178.582 L
123.07 178.582 L
123.133 178.582 L
123.197 178.582 L
123.26 178.582 L
123.323 178.582 L
123.387 178.582 L
123.45 178.26 L
123.514 178.26 L
123.577 178.26 L
123.641 178.26 L
123.704 178.26 L
123.767 178.26 L
123.831 177.938 L
123.894 177.938 L
123.958 177.938 L
124.021 177.938 L
124.085 177.938 L
124.148 177.938 L
124.211 177.617 L
124.275 177.617 L
124.338 177.617 L
124.402 177.617 L
124.465 177.617 L
124.529 177.617 L
124.592 177.295 L
124.655 177.295 L
124.719 177.295 L
124.782 177.295 L
124.846 177.295 L
124.909 177.295 L
124.973 177.295 L
125.036 176.973 L
125.099 176.973 L
125.163 176.973 L
125.226 176.973 L
125.29 176.973 L
125.353 176.652 L
125.417 176.652 L
125.48 176.652 L
125.543 176.652 L
125.607 176.652 L
125.67 176.652 L
125.734 176.652 L
125.797 176.33 L
125.861 176.33 L
125.924 176.33 L
125.987 176.33 L
126.051 176.33 L
126.114 176.33 L
126.178 176.008 L
126.241 176.008 L
126.305 176.008 L
126.368 176.008 L
126.431 176.008 L
126.495 176.008 L
126.558 176.008 L
126.622 175.687 L
126.685 175.687 L
126.749 175.687 L
126.812 175.687 L
126.875 175.687 L
126.939 175.687 L
127.002 175.365 L
127.066 175.365 L
127.129 175.365 L
127.193 175.365 L
127.256 175.365 L
127.319 175.365 L
127.383 175.043 L
127.446 175.043 L
127.51 175.043 L
127.573 175.043 L
127.637 175.043 L
127.7 175.043 L
127.763 174.722 L
127.827 174.722 L
127.89 174.722 L
127.954 174.722 L
128.017 174.722 L
128.081 174.722 L
128.144 174.4 L
128.207 174.4 L
128.271 174.4 L
128.334 174.4 L
128.398 174.4 L
128.461 174.4 L
128.525 174.078 L
128.588 174.078 L
128.651 174.078 L
128.715 174.078 L
128.778 174.078 L
128.842 174.078 L
128.905 174.078 L
128.969 173.757 L
129.032 173.757 L
129.095 173.757 L
129.159 173.757 L
129.222 173.757 L
129.286 173.757 L
129.349 173.435 L
129.413 173.435 L
129.476 173.435 L
129.539 173.435 L
129.603 173.435 L
129.666 173.435 L
129.73 173.113 L
129.793 173.113 L
129.857 173.113 L
129.92 173.113 L
129.983 173.113 L
130.047 173.113 L
130.11 172.792 L
130.174 172.792 L
130.237 172.792 L
130.301 172.792 L
130.364 172.792 L
130.427 172.792 L
130.491 172.47 L
130.554 172.47 L
130.618 172.47 L
130.681 172.47 L
130.745 172.47 L
130.808 172.47 L
130.871 172.148 L
130.935 172.148 L
130.998 172.148 L
131.062 172.148 L
131.125 172.148 L
131.189 172.148 L
131.252 171.827 L
131.315 171.827 L
131.379 171.827 L
131.442 171.827 L
131.506 171.827 L
131.569 171.827 L
131.633 171.505 L
131.696 171.505 L
131.759 171.505 L
131.823 171.505 L
131.886 171.505 L
131.95 171.505 L
132.013 171.183 L
132.077 171.183 L
132.14 171.183 L
132.203 171.183 L
132.267 171.183 L
132.33 171.183 L
132.394 170.862 L
132.457 170.862 L
132.521 170.862 L
132.584 170.862 L
132.647 170.862 L
132.711 170.862 L
132.774 170.54 L
132.838 170.54 L
132.901 170.54 L
132.965 170.54 L
133.028 170.54 L
133.091 170.54 L
133.155 170.218 L
133.218 170.218 L
133.282 170.218 L
133.345 170.218 L
133.409 170.218 L
133.472 170.218 L
133.535 170.218 L
133.599 169.897 L
133.662 169.897 L
133.726 169.897 L
133.789 169.897 L
133.853 169.897 L
133.916 169.897 L
133.979 169.575 L
134.043 169.575 L
134.106 169.575 L
134.17 169.575 L
134.233 169.575 L
134.297 169.575 L
134.36 169.253 L
134.423 169.253 L
134.487 169.253 L
134.55 169.253 L
134.614 169.253 L
134.677 169.253 L
134.741 168.932 L
134.804 168.932 L
134.867 168.932 L
134.931 168.932 L
134.994 168.932 L
135.058 168.932 L
135.121 168.61 L
135.185 168.61 L
135.248 168.61 L
135.311 168.61 L
135.375 168.61 L
135.438 168.61 L
135.502 168.288 L
135.565 168.288 L
135.629 168.288 L
135.692 168.288 L
135.755 168.288 L
135.819 168.288 L
135.882 167.967 L
135.946 167.967 L
136.009 167.967 L
136.073 167.967 L
136.136 167.967 L
136.199 167.967 L
136.263 167.645 L
136.326 167.645 L
136.39 167.645 L
136.453 167.645 L
136.517 167.645 L
136.58 167.645 L
136.643 167.645 L
136.707 167.323 L
136.77 167.323 L
136.834 167.323 L
136.897 167.323 L
136.961 167.323 L
137.024 167.323 L
137.087 167.002 L
137.151 167.002 L
137.214 167.002 L
137.278 167.002 L
137.341 167.002 L
137.405 167.002 L
137.468 166.68 L
137.531 166.68 L
137.595 166.68 L
137.658 166.68 L
137.722 166.68 L
137.785 166.68 L
137.849 166.358 L
137.912 166.358 L
137.975 166.358 L
138.039 166.358 L
138.102 166.358 L
138.166 166.358 L
138.229 166.037 L
138.293 166.037 L
138.356 166.037 L
138.419 166.037 L
138.483 166.037 L
138.546 166.037 L
138.61 165.715 L
138.673 165.715 L
138.737 165.715 L
138.8 165.715 L
138.863 165.715 L
138.927 165.715 L
138.99 165.393 L
139.054 165.393 L
139.117 165.393 L
139.181 165.393 L
139.244 165.393 L
139.307 165.393 L
139.371 165.072 L
139.434 165.072 L
139.498 165.072 L
139.561 165.072 L
139.625 165.072 L
139.688 165.072 L
139.751 164.75 L
139.815 164.75 L
139.878 164.75 L
139.942 164.75 L
140.005 164.75 L
140.069 164.75 L
140.132 164.428 L
140.195 164.428 L
140.259 164.428 L
140.322 164.428 L
140.386 164.428 L
140.449 164.428 L
140.513 164.107 L
140.576 164.107 L
140.639 164.107 L
140.703 164.107 L
140.766 164.107 L
140.83 164.107 L
140.893 163.785 L
140.957 163.785 L
141.02 163.785 L
141.083 163.785 L
141.147 163.785 L
141.21 163.785 L
141.274 163.463 L
141.337 163.463 L
141.401 163.463 L
141.464 163.463 L
141.527 163.463 L
141.591 163.463 L
141.654 163.142 L
141.718 163.142 L
141.781 163.142 L
141.845 163.142 L
141.908 163.142 L
141.971 163.142 L
142.035 162.82 L
142.098 162.82 L
142.162 162.82 L
142.225 162.82 L
142.289 162.82 L
142.352 162.82 L
142.415 162.498 L
142.479 162.498 L
142.542 162.498 L
142.606 162.498 L
142.669 162.498 L
142.733 162.498 L
142.796 162.498 L
142.859 162.177 L
142.923 162.177 L
142.986 162.177 L
143.05 162.177 L
143.113 162.177 L
143.177 161.855 L
143.24 161.855 L
143.303 161.855 L
143.367 161.855 L
143.43 161.855 L
143.494 161.855 L
143.557 161.533 L
143.621 161.533 L
143.684 161.533 L
143.747 161.533 L
143.811 161.533 L
143.874 161.533 L
143.938 161.533 L
144.001 161.212 L
144.065 161.212 L
144.128 161.212 L
144.191 161.212 L
144.255 161.212 L
144.318 161.212 L
144.382 160.89 L
144.445 160.89 L
144.509 160.89 L
144.572 160.89 L
144.635 160.89 L
144.699 160.568 L
144.762 160.568 L
144.826 160.568 L
144.889 160.568 L
144.953 160.568 L
145.016 160.568 L
145.079 160.247 L
145.143 160.247 L
145.206 160.247 L
145.27 160.247 L
145.333 160.247 L
145.397 160.247 L
145.46 159.925 L
145.523 159.925 L
145.587 159.925 L
145.65 159.925 L
145.714 159.925 L
145.777 159.925 L
145.841 159.925 L
145.904 159.603 L
145.967 159.603 L
146.031 159.603 L
146.094 159.603 L
146.158 159.603 L
146.221 159.282 L
146.285 159.282 L
146.348 159.282 L
146.411 159.282 L
146.475 159.282 L
146.538 159.282 L
146.602 159.282 L
146.665 158.96 L
146.729 158.96 L
146.792 158.96 L
146.855 158.96 L
146.919 158.96 L
146.982 158.96 L
147.046 158.638 L
147.109 158.638 L
147.173 158.638 L
147.236 158.638 L
147.299 158.638 L
147.363 158.638 L
147.426 158.317 L
147.49 158.317 L
147.553 158.317 L
147.617 158.317 L
147.68 158.317 L
147.743 157.995 L
147.807 157.995 L
147.87 157.995 L
147.934 157.995 L
147.997 157.995 L
148.061 157.995 L
148.124 157.995 L
148.187 157.673 L
148.251 157.673 L
148.314 157.673 L
148.378 157.673 L
148.441 157.673 L
148.505 157.673 L
148.568 157.352 L
148.631 157.352 L
148.695 157.352 L
148.758 157.352 L
148.822 157.352 L
148.885 157.352 L
148.949 157.03 L
149.012 157.03 L
149.075 157.03 L
149.139 157.03 L
149.202 157.03 L
149.266 157.03 L
149.329 156.708 L
149.393 156.708 L
149.456 156.708 L
149.519 156.708 L
149.583 156.708 L
149.646 156.708 L
149.71 156.387 L
149.773 156.387 L
149.837 156.387 L
149.9 156.387 L
149.963 156.387 L
150.027 156.387 L
150.09 156.065 L
150.154 156.065 L
150.217 156.065 L
150.281 156.065 L
150.344 156.065 L
150.407 156.065 L
150.471 155.743 L
150.534 155.743 L
150.598 155.743 L
150.661 155.743 L
150.725 155.743 L
150.788 155.743 L
150.851 155.422 L
150.915 155.422 L
150.978 155.422 L
151.042 155.422 L
151.105 155.422 L
151.169 155.422 L
151.232 155.1 L
151.295 155.1 L
151.359 155.1 L
151.422 155.1 L
151.486 155.1 L
151.549 155.1 L
151.613 154.778 L
151.676 154.778 L
151.739 154.778 L
151.803 154.778 L
151.866 154.778 L
151.93 154.778 L
151.993 154.457 L
152.057 154.457 L
152.12 154.457 L
152.183 154.457 L
152.247 154.457 L
152.31 154.457 L
152.374 154.135 L
152.437 154.135 L
152.501 154.135 L
152.564 154.135 L
152.627 154.135 L
152.691 154.135 L
152.754 153.813 L
152.818 153.813 L
152.881 153.813 L
152.945 153.813 L
153.008 153.813 L
153.071 153.492 L
153.135 153.492 L
153.198 153.492 L
153.262 153.492 L
153.325 153.492 L
153.389 153.492 L
153.452 153.492 L
153.515 153.17 L
153.579 153.17 L
153.642 153.17 L
153.706 153.17 L
153.769 153.17 L
153.833 152.848 L
153.896 152.848 L
153.959 152.848 L
154.023 152.848 L
154.086 152.848 L
154.15 152.848 L
154.213 152.848 L
154.277 152.527 L
154.34 152.527 L
154.403 152.527 L
154.467 152.527 L
154.53 152.527 L
154.594 152.527 L
154.657 152.205 L
154.721 152.205 L
154.784 152.205 L
154.847 152.205 L
154.911 152.205 L
154.974 152.205 L
155.038 151.883 L
155.101 151.883 L
155.165 151.883 L
155.228 151.883 L
155.291 151.883 L
155.355 151.883 L
155.418 151.562 L
155.482 151.562 L
155.545 151.562 L
155.609 151.562 L
155.672 151.562 L
155.735 151.562 L
155.799 151.24 L
155.862 151.24 L
155.926 151.24 L
155.989 151.24 L
156.053 151.24 L
156.116 150.918 L
156.179 150.918 L
156.243 150.918 L
156.306 150.918 L
156.37 150.918 L
156.433 150.918 L
156.497 150.918 L
156.56 150.597 L
156.623 150.597 L
156.687 150.597 L
156.75 150.597 L
156.814 150.597 L
156.877 150.275 L
156.941 150.275 L
157.004 150.275 L
157.067 150.275 L
157.131 150.275 L
157.194 150.275 L
157.258 150.275 L
157.321 149.953 L
157.385 149.953 L
157.448 149.953 L
157.511 149.953 L
157.575 149.953 L
157.638 149.632 L
157.702 149.632 L
157.765 149.632 L
157.829 149.632 L
157.892 149.632 L
157.955 149.632 L
158.019 149.632 L
158.082 149.31 L
158.146 149.31 L
158.209 149.31 L
158.273 149.31 L
158.336 149.31 L
158.399 148.988 L
158.463 148.988 L
158.526 148.988 L
158.59 148.988 L
158.653 148.988 L
158.717 148.988 L
158.78 148.988 L
158.843 148.667 L
158.907 148.667 L
158.97 148.667 L
159.034 148.667 L
159.097 148.667 L
159.161 148.667 L
159.224 148.345 L
159.287 148.345 L
159.351 148.345 L
159.414 148.345 L
159.478 148.345 L
159.541 148.345 L
159.605 148.023 L
159.668 148.023 L
159.731 148.023 L
159.795 148.023 L
159.858 148.023 L
159.922 148.023 L
159.985 147.702 L
160.049 147.702 L
160.112 147.702 L
160.175 147.702 L
160.239 147.702 L
160.302 147.702 L
160.366 147.38 L
160.429 147.38 L
160.493 147.38 L
160.556 147.38 L
160.619 147.38 L
160.683 147.38 L
160.746 147.058 L
160.81 147.058 L
160.873 147.058 L
160.937 147.058 L
161 147.058 L
161.063 147.058 L
161.127 146.737 L
161.19 146.737 L
161.254 146.737 L
161.317 146.737 L
161.381 146.737 L
161.444 146.737 L
161.507 146.415 L
161.571 146.415 L
161.634 146.415 L
161.698 146.415 L
161.761 146.415 L
161.825 146.415 L
161.888 146.093 L
161.951 146.093 L
162.015 146.093 L
162.078 146.093 L
162.142 146.093 L
162.205 146.093 L
162.269 145.772 L
162.332 145.772 L
162.395 145.772 L
162.459 145.772 L
162.522 145.772 L
162.586 145.772 L
162.649 145.45 L
162.713 145.45 L
162.776 145.45 L
162.839 145.45 L
162.903 145.45 L
162.966 145.45 L
163.03 145.128 L
163.093 145.128 L
163.157 145.128 L
163.22 145.128 L
163.283 145.128 L
163.347 145.128 L
163.41 144.807 L
163.474 144.807 L
163.537 144.807 L
163.601 144.807 L
163.664 144.807 L
163.727 144.485 L
163.791 144.485 L
163.854 144.485 L
163.918 144.485 L
163.981 144.485 L
164.045 144.485 L
164.108 144.163 L
164.171 144.163 L
164.235 144.163 L
164.298 144.163 L
164.362 144.163 L
164.425 144.163 L
164.489 143.842 L
164.552 143.842 L
164.615 143.842 L
164.679 143.842 L
164.742 143.842 L
164.806 143.842 L
164.869 143.842 L
164.933 143.52 L
164.996 143.52 L
165.059 143.52 L
165.123 143.52 L
165.186 143.52 L
165.25 143.198 L
165.313 143.198 L
165.377 143.198 L
165.44 143.198 L
165.503 143.198 L
165.567 143.198 L
165.63 142.877 L
165.694 142.877 L
165.757 142.877 L
165.821 142.877 L
165.884 142.877 L
165.947 142.877 L
166.011 142.555 L
166.074 142.555 L
166.138 142.555 L
166.201 142.555 L
166.265 142.555 L
166.328 142.555 L
166.391 142.233 L
166.455 142.233 L
166.518 142.233 L
166.582 142.233 L
166.645 142.233 L
166.709 142.233 L
166.772 141.912 L
166.835 141.912 L
166.899 141.912 L
166.962 141.912 L
167.026 141.912 L
167.089 141.912 L
167.153 141.59 L
167.216 141.59 L
167.279 141.59 L
167.343 141.59 L
167.406 141.59 L
167.47 141.268 L
167.533 141.268 L
167.597 141.268 L
167.66 141.268 L
167.723 141.268 L
167.787 141.268 L
167.85 141.268 L
167.914 140.947 L
167.977 140.947 L
168.041 140.947 L
168.104 140.947 L
168.167 140.947 L
168.231 140.947 L
168.294 140.625 L
168.358 140.625 L
168.421 140.625 L
168.485 140.625 L
168.548 140.625 L
168.611 140.625 L
168.675 140.303 L
168.738 140.303 L
168.802 140.303 L
168.865 140.303 L
168.929 140.303 L
168.992 140.303 L
169.055 139.982 L
169.119 139.982 L
169.182 139.982 L
169.246 139.982 L
169.309 139.982 L
169.373 139.982 L
169.436 139.66 L
169.499 139.66 L
169.563 139.66 L
169.626 139.66 L
169.69 139.66 L
169.753 139.338 L
169.817 139.338 L
169.88 139.338 L
169.943 139.338 L
170.007 139.338 L
170.07 139.338 L
170.134 139.338 L
170.197 139.017 L
170.261 139.017 L
170.324 139.017 L
170.387 139.017 L
170.451 139.017 L
170.514 139.017 L
170.578 138.695 L
170.641 138.695 L
170.705 138.695 L
170.768 138.695 L
170.831 138.695 L
170.895 138.695 L
170.958 138.373 L
171.022 138.373 L
171.085 138.373 L
171.149 138.373 L
171.212 138.373 L
171.275 138.373 L
171.339 138.052 L
171.402 138.052 L
171.466 138.052 L
171.529 138.052 L
171.593 138.052 L
171.656 138.052 L
171.719 137.73 L
171.783 137.73 L
171.846 137.73 L
171.91 137.73 L
171.973 137.73 L
172.037 137.408 L
172.1 137.408 L
172.163 137.408 L
172.227 137.408 L
172.29 137.408 L
172.354 137.408 L
172.417 137.408 L
172.481 137.087 L
172.544 137.087 L
172.607 137.087 L
172.671 137.087 L
172.734 137.087 L
172.798 136.765 L
172.861 136.765 L
172.925 136.765 L
172.988 136.765 L
173.051 136.765 L
173.115 136.765 L
173.178 136.443 L
173.242 136.443 L
173.305 136.443 L
173.369 136.443 L
173.432 136.443 L
173.495 136.443 L
173.559 136.122 L
173.622 136.122 L
173.686 136.122 L
173.749 136.122 L
173.813 136.122 L
173.876 136.122 L
173.939 135.8 L
174.003 135.8 L
174.066 135.8 L
174.13 135.8 L
174.193 135.8 L
174.257 135.8 L
174.32 135.478 L
174.383 135.478 L
174.447 135.478 L
174.51 135.478 L
174.574 135.478 L
174.637 135.478 L
174.701 135.157 L
174.764 135.157 L
174.827 135.157 L
174.891 135.157 L
174.954 135.157 L
175.018 135.157 L
175.081 134.835 L
175.145 134.835 L
175.208 134.835 L
175.271 134.835 L
175.335 134.835 L
175.398 134.835 L
175.462 134.513 L
175.525 134.513 L
175.589 134.513 L
175.652 134.513 L
175.715 134.513 L
175.779 134.192 L
175.842 134.192 L
175.906 134.192 L
175.969 134.192 L
176.033 134.192 L
176.096 134.192 L
176.159 134.192 L
176.223 133.87 L
176.286 133.87 L
176.35 133.87 L
176.413 133.87 L
176.477 133.87 L
176.54 133.548 L
176.603 133.548 L
176.667 133.548 L
176.73 133.548 L
176.794 133.548 L
176.857 133.548 L
176.921 133.548 L
176.984 133.227 L
177.047 133.227 L
177.111 133.227 L
177.174 133.227 L
177.238 133.227 L
177.301 132.905 L
177.365 132.905 L
177.428 132.905 L
177.491 132.905 L
177.555 132.905 L
177.618 132.905 L
177.682 132.583 L
177.745 132.583 L
177.809 132.583 L
177.872 132.583 L
177.935 132.583 L
177.999 132.583 L
178.062 132.262 L
178.126 132.262 L
178.189 132.262 L
178.253 132.262 L
178.316 132.262 L
178.379 132.262 L
178.443 132.262 L
178.506 131.94 L
178.57 131.94 L
178.633 131.94 L
178.697 131.94 L
178.76 131.94 L
178.823 131.618 L
178.887 131.618 L
178.95 131.618 L
179.014 131.618 L
179.077 131.618 L
179.141 131.618 L
179.204 131.618 L
179.267 131.297 L
179.331 131.297 L
179.394 131.297 L
179.458 131.297 L
179.521 131.297 L
179.585 130.975 L
179.648 130.975 L
179.711 130.975 L
179.775 130.975 L
179.838 130.975 L
179.902 130.975 L
179.965 130.975 L
180.029 130.653 L
180.092 130.653 L
180.155 130.653 L
180.219 130.653 L
180.282 130.653 L
180.346 130.332 L
180.409 130.332 L
180.473 130.332 L
180.536 130.332 L
180.599 130.332 L
180.663 130.332 L
180.726 130.01 L
180.79 130.01 L
180.853 130.01 L
180.917 130.01 L
180.98 130.01 L
181.043 130.01 L
181.107 129.688 L
181.17 129.688 L
181.234 129.688 L
181.297 129.688 L
181.361 129.688 L
181.424 129.688 L
181.487 129.367 L
181.551 129.367 L
181.614 129.367 L
181.678 129.367 L
181.741 129.367 L
181.805 129.367 L
181.868 129.045 L
181.931 129.045 L
181.995 129.045 L
182.058 129.045 L
182.122 129.045 L
182.185 129.045 L
182.249 128.723 L
182.312 128.723 L
182.375 128.723 L
182.439 128.723 L
182.502 128.723 L
182.566 128.723 L
182.629 128.402 L
182.693 128.402 L
182.756 128.402 L
182.819 128.402 L
182.883 128.402 L
182.946 128.402 L
183.01 128.08 L
183.073 128.08 L
183.137 128.08 L
183.2 128.08 L
183.263 128.08 L
183.327 127.758 L
183.39 127.758 L
183.454 127.758 L
183.517 127.758 L
183.581 127.758 L
183.644 127.758 L
183.707 127.437 L
183.771 127.437 L
183.834 127.437 L
183.898 127.437 L
183.961 127.437 L
184.025 127.437 L
184.088 127.115 L
184.151 127.115 L
184.215 127.115 L
184.278 127.115 L
184.342 127.115 L
184.405 127.115 L
184.469 126.793 L
184.532 126.793 L
184.595 126.793 L
184.659 126.793 L
184.722 126.793 L
184.786 126.793 L
184.849 126.472 L
184.913 126.472 L
184.976 126.472 L
185.039 126.472 L
185.103 126.472 L
185.166 126.472 L
185.23 126.15 L
185.293 126.15 L
185.357 126.15 L
185.42 126.15 L
185.483 126.15 L
185.547 126.15 L
185.61 125.828 L
185.674 125.828 L
185.737 125.828 L
185.801 125.828 L
185.864 125.828 L
185.927 125.828 L
185.991 125.507 L
186.054 125.507 L
186.118 125.507 L
186.181 125.507 L
186.245 125.507 L
186.308 125.507 L
186.371 125.185 L
186.435 125.185 L
186.498 125.185 L
186.562 125.185 L
186.625 125.185 L
186.689 125.185 L
186.752 124.863 L
186.815 124.863 L
186.879 124.863 L
186.942 124.863 L
187.006 124.863 L
187.069 124.863 L
187.133 124.542 L
187.196 124.542 L
187.259 124.542 L
187.323 124.542 L
187.386 124.542 L
187.45 124.542 L
187.513 124.22 L
187.577 124.22 L
187.64 124.22 L
187.703 124.22 L
187.767 124.22 L
187.83 124.22 L
187.894 123.898 L
187.957 123.898 L
188.021 123.898 L
188.084 123.898 L
188.147 123.898 L
188.211 123.898 L
188.274 123.577 L
188.338 123.577 L
188.401 123.577 L
188.465 123.577 L
188.528 123.577 L
188.591 123.577 L
188.655 123.255 L
188.718 123.255 L
188.782 123.255 L
188.845 123.255 L
188.909 123.255 L
188.972 123.255 L
189.035 122.933 L
189.099 122.933 L
189.162 122.933 L
189.226 122.933 L
189.289 122.933 L
189.353 122.933 L
189.416 122.612 L
189.479 122.612 L
189.543 122.612 L
189.606 122.612 L
189.67 122.612 L
189.733 122.612 L
189.797 122.29 L
189.86 122.29 L
189.923 122.29 L
189.987 122.29 L
190.05 122.29 L
190.114 121.968 L
190.177 121.968 L
190.241 121.968 L
190.304 121.968 L
190.367 121.968 L
190.431 121.968 L
190.494 121.647 L
190.558 121.647 L
190.621 121.647 L
190.685 121.647 L
190.748 121.647 L
190.811 121.647 L
190.875 121.325 L
190.938 121.325 L
191.002 121.325 L
191.065 121.325 L
191.129 121.325 L
191.192 121.325 L
191.255 121.003 L
191.319 121.003 L
191.382 121.003 L
191.446 121.003 L
191.509 121.003 L
191.573 121.003 L
191.636 120.682 L
191.699 120.682 L
191.763 120.682 L
191.826 120.682 L
191.89 120.682 L
191.953 120.682 L
192.017 120.36 L
192.08 120.36 L
192.143 120.36 L
192.207 120.36 L
192.27 120.36 L
192.334 120.038 L
192.397 120.038 L
192.461 120.038 L
192.524 120.038 L
192.587 120.038 L
192.651 120.038 L
192.714 119.717 L
192.778 119.717 L
192.841 119.717 L
192.905 119.717 L
192.968 119.717 L
193.031 119.717 L
193.095 119.395 L
193.158 119.395 L
193.222 119.395 L
193.285 119.395 L
193.349 119.395 L
193.412 119.395 L
193.475 119.073 L
193.539 119.073 L
193.602 119.073 L
193.666 119.073 L
193.729 119.073 L
193.793 119.073 L
193.856 118.752 L
193.919 118.752 L
193.983 118.752 L
194.046 118.752 L
194.11 118.752 L
194.173 118.752 L
194.237 118.43 L
194.3 118.43 L
194.363 118.43 L
194.427 118.43 L
194.49 118.43 L
194.554 118.43 L
194.617 118.108 L
194.681 118.108 L
194.744 118.108 L
194.807 118.108 L
194.871 118.108 L
194.934 118.108 L
194.998 117.787 L
195.061 117.787 L
195.125 117.787 L
195.188 117.787 L
195.251 117.787 L
195.315 117.465 L
195.378 117.465 L
195.442 117.465 L
195.505 117.465 L
195.569 117.465 L
195.632 117.465 L
195.695 117.465 L
195.759 117.143 L
195.822 117.143 L
195.886 117.143 L
195.949 117.143 L
196.013 117.143 L
196.076 117.143 L
196.139 116.822 L
196.203 116.822 L
196.266 116.822 L
196.33 116.822 L
196.393 116.822 L
196.457 116.822 L
196.52 116.5 L
196.583 116.5 L
196.647 116.5 L
196.71 116.5 L
196.774 116.5 L
196.837 116.5 L
196.901 116.178 L
196.964 116.178 L
197.027 116.178 L
197.091 116.178 L
197.154 116.178 L
197.218 116.178 L
197.281 115.857 L
197.345 115.857 L
197.408 115.857 L
197.471 115.857 L
197.535 115.857 L
197.598 115.857 L
197.662 115.535 L
197.725 115.535 L
197.789 115.535 L
197.852 115.535 L
197.915 115.535 L
197.979 115.535 L
198.042 115.213 L
198.106 115.213 L
198.169 115.213 L
198.233 115.213 L
198.296 115.213 L
198.359 115.213 L
198.423 114.892 L
198.486 114.892 L
198.55 114.892 L
198.613 114.892 L
198.677 114.892 L
198.74 114.892 L
198.803 114.57 L
198.867 114.57 L
198.93 114.57 L
198.994 114.57 L
199.057 114.57 L
199.121 114.248 L
199.184 114.248 L
199.247 114.248 L
199.311 114.248 L
199.374 114.248 L
199.438 114.248 L
199.501 113.927 L
199.565 113.927 L
199.628 113.927 L
199.691 113.927 L
199.755 113.927 L
199.818 113.927 L
199.882 113.605 L
199.945 113.605 L
200.009 113.605 L
200.072 113.605 L
200.135 113.605 L
200.199 113.605 L
200.262 113.283 L
200.326 113.283 L
200.389 113.283 L
200.453 113.283 L
200.516 113.283 L
200.579 112.962 L
200.643 112.962 L
200.706 112.962 L
200.77 112.962 L
200.833 112.962 L
200.897 112.962 L
200.96 112.962 L
201.023 112.64 L
201.087 112.64 L
201.15 112.64 L
201.214 112.64 L
201.277 112.64 L
201.341 112.318 L
201.404 112.318 L
201.467 112.318 L
201.531 112.318 L
201.594 112.318 L
201.658 112.318 L
201.721 112.318 L
201.785 111.997 L
201.848 111.997 L
201.911 111.997 L
201.975 111.997 L
202.038 111.997 L
202.102 111.675 L
202.165 111.675 L
202.229 111.675 L
202.292 111.675 L
202.355 111.675 L
202.419 111.675 L
202.482 111.353 L
202.546 111.353 L
202.609 111.353 L
202.673 111.353 L
202.736 111.353 L
202.799 111.353 L
202.863 111.032 L
202.926 111.032 L
202.99 111.032 L
203.053 111.032 L
203.117 111.032 L
203.18 111.032 L
203.243 110.71 L
203.307 110.71 L
203.37 110.71 L
203.434 110.71 L
203.497 110.71 L
203.561 110.388 L
203.624 110.388 L
203.687 110.388 L
203.751 110.388 L
203.814 110.388 L
203.878 110.388 L
203.941 110.388 L
204.005 110.067 L
204.068 110.067 L
204.131 110.067 L
204.195 110.067 L
204.258 110.067 L
204.322 110.067 L
204.385 109.745 L
204.449 109.745 L
204.512 109.745 L
204.575 109.745 L
204.639 109.745 L
204.702 109.745 L
204.766 109.423 L
204.829 109.423 L
204.893 109.423 L
204.956 109.423 L
205.019 109.423 L
205.083 109.423 L
205.146 109.102 L
205.21 109.102 L
205.273 109.102 L
205.337 109.102 L
205.4 109.102 L
205.463 109.102 L
205.527 108.78 L
205.59 108.78 L
205.654 108.78 L
205.717 108.78 L
205.781 108.78 L
205.844 108.78 L
205.907 108.458 L
205.971 108.458 L
206.034 108.458 L
206.098 108.458 L
206.161 108.458 L
206.225 108.458 L
206.288 108.137 L
206.351 108.137 L
206.415 108.137 L
206.478 108.137 L
206.542 108.137 L
206.605 108.137 L
206.669 107.815 L
206.732 107.815 L
206.795 107.815 L
206.859 107.815 L
206.922 107.815 L
206.986 107.815 L
207.049 107.493 L
207.113 107.493 L
207.176 107.493 L
207.239 107.493 L
207.303 107.493 L
207.366 107.172 L
207.43 107.172 L
207.493 107.172 L
207.557 107.172 L
207.62 107.172 L
207.683 107.172 L
207.747 107.172 L
207.81 106.85 L
207.874 106.85 L
207.937 106.85 L
208.001 106.85 L
208.064 106.85 L
208.127 106.528 L
208.191 106.528 L
208.254 106.528 L
208.318 106.528 L
208.381 106.528 L
208.445 106.528 L
208.508 106.207 L
208.571 106.207 L
208.635 106.207 L
208.698 106.207 L
208.762 106.207 L
208.825 106.207 L
208.889 105.885 L
208.952 105.885 L
209.015 105.885 L
209.079 105.885 L
209.142 105.885 L
209.206 105.885 L
209.269 105.563 L
209.333 105.563 L
209.396 105.563 L
209.459 105.563 L
209.523 105.563 L
209.586 105.242 L
209.65 105.242 L
209.713 105.242 L
209.777 105.242 L
209.84 105.242 L
209.903 105.242 L
209.967 104.92 L
210.03 104.92 L
210.094 104.92 L
210.157 104.92 L
210.221 104.92 L
210.284 104.92 L
210.347 104.598 L
210.411 104.598 L
210.474 104.598 L
210.538 104.598 L
210.601 104.598 L
210.665 104.598 L
210.728 104.277 L
210.791 104.277 L
210.855 104.277 L
210.918 104.277 L
210.982 104.277 L
211.045 104.277 L
211.109 103.955 L
211.172 103.955 L
211.235 103.955 L
211.299 103.955 L
211.362 103.955 L
211.426 103.955 L
211.489 103.633 L
211.553 103.633 L
211.616 103.633 L
211.679 103.633 L
211.743 103.633 L
211.806 103.312 L
211.87 103.312 L
211.933 103.312 L
211.997 103.312 L
212.06 103.312 L
212.123 103.312 L
212.187 103.312 L
212.25 102.99 L
212.314 102.99 L
212.377 102.99 L
212.441 102.99 L
212.504 102.99 L
212.567 102.99 L
212.631 102.668 L
212.694 102.668 L
212.758 102.668 L
212.821 102.668 L
212.885 102.668 L
212.948 102.668 L
213.011 102.347 L
213.075 102.347 L
213.138 102.347 L
213.202 102.347 L
213.265 102.347 L
213.329 102.025 L
213.392 102.025 L
213.455 102.025 L
213.519 102.025 L
213.582 102.025 L
213.646 102.025 L
213.709 102.025 L
213.773 101.703 L
213.836 101.703 L
213.899 101.703 L
213.963 101.703 L
214.026 101.703 L
214.09 101.382 L
214.153 101.382 L
214.217 101.382 L
214.28 101.382 L
214.343 101.382 L
214.407 101.382 L
214.47 101.382 L
214.534 101.06 L
214.597 101.06 L
214.661 101.06 L
214.724 101.06 L
214.787 101.06 L
214.851 100.738 L
214.914 100.738 L
214.978 100.738 L
215.041 100.738 L
215.105 100.738 L
215.168 100.738 L
215.231 100.417 L
215.295 100.417 L
215.358 100.417 L
215.422 100.417 L
215.485 100.417 L
215.549 100.417 L
215.612 100.095 L
215.675 100.095 L
215.739 100.095 L
215.802 100.095 L
215.866 100.095 L
215.929 100.095 L
215.993 99.773 L
216.056 99.773 L
216.119 99.773 L
216.183 99.773 L
216.246 99.773 L
216.31 99.773 L
216.373 99.452 L
216.437 99.452 L
216.5 99.452 L
216.563 99.452 L
216.627 99.452 L
216.69 99.452 L
216.754 99.13 L
216.817 99.13 L
216.881 99.13 L
216.944 99.13 L
217.007 99.13 L
217.071 99.13 L
217.134 98.808 L
217.198 98.808 L
217.261 98.808 L
217.325 98.808 L
217.388 98.808 L
217.451 98.808 L
217.515 98.487 L
217.578 98.487 L
217.642 98.487 L
217.705 98.487 L
217.769 98.487 L
217.832 98.165 L
217.895 98.165 L
217.959 98.165 L
218.022 98.165 L
218.086 98.165 L
218.149 98.165 L
218.213 97.843 L
218.276 97.843 L
218.339 97.843 L
218.403 97.843 L
218.466 97.843 L
218.53 97.843 L
218.593 97.522 L
218.657 97.522 L
218.72 97.522 L
218.783 97.522 L
218.847 97.522 L
218.91 97.522 L
218.974 97.2 L
219.037 97.2 L
219.101 97.2 L
219.164 97.2 L
219.227 97.2 L
219.291 96.878 L
219.354 96.878 L
219.418 96.878 L
219.481 96.878 L
219.545 96.878 L
219.608 96.878 L
219.671 96.878 L
219.735 96.557 L
219.798 96.557 L
219.862 96.557 L
219.925 96.557 L
219.989 96.557 L
220.052 96.235 L
220.115 96.235 L
220.179 96.235 L
220.242 96.235 L
220.306 96.235 L
220.369 96.235 L
220.433 96.235 L
220.496 95.913 L
220.559 95.913 L
220.623 95.913 L
220.686 95.913 L
220.75 95.913 L
220.813 95.592 L
220.877 95.592 L
220.94 95.592 L
221.003 95.592 L
221.067 95.592 L
221.13 95.592 L
221.194 95.27 L
221.257 95.27 L
221.321 95.27 L
221.384 95.27 L
221.447 95.27 L
221.511 95.27 L
221.574 94.948 L
221.638 94.948 L
221.701 94.948 L
221.765 94.948 L
221.828 94.948 L
221.891 94.948 L
221.955 94.627 L
222.018 94.627 L
222.082 94.627 L
222.145 94.627 L
222.209 94.627 L
222.272 94.627 L
222.335 94.305 L
222.399 94.305 L
222.462 94.305 L
222.526 94.305 L
222.589 94.305 L
222.653 94.305 L
222.716 93.983 L
222.779 93.983 L
222.843 93.983 L
222.906 93.983 L
222.97 93.983 L
223.033 93.983 L
223.097 93.662 L
223.16 93.662 L
223.223 93.662 L
223.287 93.662 L
223.35 93.662 L
223.414 93.662 L
223.477 93.34 L
223.541 93.34 L
223.604 93.34 L
223.667 93.34 L
223.731 93.34 L
223.794 93.34 L
223.858 93.018 L
223.921 93.018 L
223.985 93.018 L
224.048 93.018 L
224.111 93.018 L
224.175 93.018 L
224.238 92.697 L
224.302 92.697 L
224.365 92.697 L
224.429 92.697 L
224.492 92.697 L
224.555 92.697 L
224.619 92.375 L
224.682 92.375 L
224.746 92.375 L
224.809 92.375 L
224.873 92.375 L
224.936 92.375 L
224.999 92.053 L
225.063 92.053 L
225.126 92.053 L
225.19 92.053 L
225.253 92.053 L
225.317 92.053 L
225.38 91.732 L
225.443 91.732 L
225.507 91.732 L
225.57 91.732 L
225.634 91.732 L
225.697 91.732 L
225.761 91.41 L
225.824 91.41 L
225.887 91.41 L
225.951 91.41 L
226.014 91.41 L
226.078 91.41 L
226.141 91.088 L
226.205 91.088 L
226.268 91.088 L
226.331 91.088 L
226.395 91.088 L
226.458 91.088 L
226.522 90.767 L
226.585 90.767 L
226.649 90.767 L
226.712 90.767 L
226.775 90.767 L
226.839 90.445 L
226.902 90.445 L
226.966 90.445 L
227.029 90.445 L
227.093 90.445 L
227.156 90.445 L
227.219 90.123 L
227.283 90.123 L
227.346 90.123 L
227.41 90.123 L
227.473 90.123 L
227.537 90.123 L
227.6 89.802 L
227.663 89.802 L
227.727 89.802 L
227.79 89.802 L
227.854 89.802 L
227.917 89.802 L
227.981 89.48 L
228.044 89.48 L
228.107 89.48 L
228.171 89.48 L
228.234 89.48 L
228.298 89.48 L
228.361 89.158 L
228.425 89.158 L
228.488 89.158 L
228.551 89.158 L
228.615 89.158 L
228.678 89.158 L
228.742 88.837 L
228.805 88.837 L
228.869 88.837 L
228.932 88.837 L
228.995 88.837 L
229.059 88.515 L
229.122 88.515 L
229.186 88.515 L
229.249 88.515 L
229.313 88.515 L
229.376 88.515 L
229.439 88.193 L
229.503 88.193 L
229.566 88.193 L
229.63 88.193 L
229.693 88.193 L
229.757 88.193 L
229.82 87.872 L
229.883 87.872 L
229.947 87.872 L
230.01 87.872 L
230.074 87.872 L
230.137 87.872 L
230.201 87.55 L
230.264 87.55 L
230.327 87.55 L
230.391 87.55 L
230.454 87.55 L
230.518 87.55 L
230.581 87.228 L
230.645 87.228 L
230.708 87.228 L
230.771 87.228 L
230.835 87.228 L
230.898 87.228 L
230.962 86.907 L
231.025 86.907 L
231.089 86.907 L
231.152 86.907 L
231.215 86.907 L
231.279 86.907 L
231.342 86.585 L
231.406 86.585 L
231.469 86.585 L
231.533 86.585 L
231.596 86.585 L
231.659 86.585 L
231.723 86.263 L
231.786 86.263 L
231.85 86.263 L
231.913 86.263 L
231.977 86.263 L
232.04 85.942 L
232.103 85.942 L
232.167 85.942 L
232.23 85.942 L
232.294 85.942 L
232.357 85.942 L
232.421 85.942 L
232.484 85.62 L
232.547 85.62 L
232.611 85.62 L
232.674 85.62 L
232.738 85.62 L
232.801 85.62 L
232.865 85.298 L
232.928 85.298 L
232.991 85.298 L
233.055 85.298 L
233.118 85.298 L
233.182 85.298 L
233.245 84.977 L
233.309 84.977 L
233.372 84.977 L
233.435 84.977 L
233.499 84.977 L
233.562 84.977 L
233.626 84.655 L
233.689 84.655 L
233.753 84.655 L
233.816 84.655 L
233.879 84.655 L
233.943 84.655 L
234.006 84.333 L
234.07 84.333 L
234.133 84.333 L
234.197 84.333 L
234.26 84.333 L
234.323 84.333 L
234.387 84.012 L
234.45 84.012 L
234.514 84.012 L
234.577 84.012 L
234.641 84.012 L
234.704 84.012 L
234.767 83.69 L
234.831 83.69 L
234.894 83.69 L
234.958 83.69 L
235.021 83.69 L
235.085 83.368 L
235.148 83.368 L
235.211 83.368 L
235.275 83.368 L
235.338 83.368 L
235.402 83.368 L
235.465 83.368 L
235.529 83.047 L
235.592 83.047 L
235.655 83.047 L
235.719 83.047 L
235.782 83.047 L
235.846 82.725 L
235.909 82.725 L
235.973 82.725 L
236.036 82.725 L
236.099 82.725 L
236.163 82.725 L
236.226 82.403 L
236.29 82.403 L
236.353 82.403 L
236.417 82.403 L
236.48 82.403 L
236.543 82.082 L
236.607 82.082 L
236.67 82.082 L
236.734 82.082 L
236.797 82.082 L
236.861 82.082 L
236.924 81.76 L
236.987 81.76 L
237.051 81.76 L
237.114 81.76 L
237.178 81.76 L
237.241 81.76 L
237.305 81.438 L
237.368 81.438 L
237.431 81.438 L
237.495 81.438 L
237.558 81.438 L
237.622 81.438 L
237.685 81.117 L
237.749 81.117 L
237.812 81.117 L
237.875 81.117 L
237.939 81.117 L
238.002 81.117 L
238.066 80.795 L
238.129 80.795 L
238.193 80.795 L
238.256 80.795 L
238.319 80.795 L
238.383 80.795 L
238.446 80.473 L
238.51 80.473 L
238.573 80.473 L
238.637 80.473 L
238.7 80.473 L
238.763 80.473 L
238.827 80.152 L
238.89 80.152 L
238.954 80.152 L
239.017 80.152 L
239.081 80.152 L
239.144 80.152 L
239.207 79.83 L
239.271 79.83 L
239.334 79.83 L
239.398 79.83 L
239.461 79.83 L
239.525 79.508 L
239.588 79.508 L
239.651 79.508 L
239.715 79.508 L
239.778 79.508 L
239.842 79.508 L
239.905 79.508 L
239.969 79.187 L
240.032 79.187 L
240.095 79.187 L
240.159 79.187 L
240.222 79.187 L
240.286 78.865 L
240.349 78.865 L
240.413 78.865 L
240.476 78.865 L
240.539 78.865 L
240.603 78.865 L
240.666 78.865 L
240.73 78.543 L
240.793 78.543 L
240.857 78.543 L
240.92 78.543 L
240.983 78.543 L
241.047 78.222 L
241.11 78.222 L
241.174 78.222 L
241.237 78.222 L
241.301 78.222 L
241.364 78.222 L
241.427 78.222 L
241.491 77.9 L
241.554 77.9 L
241.618 77.9 L
241.681 77.9 L
241.745 77.9 L
241.808 77.578 L
241.871 77.578 L
241.935 77.578 L
241.998 77.578 L
242.062 77.578 L
242.125 77.578 L
242.189 77.257 L
242.252 77.257 L
242.315 77.257 L
242.379 77.257 L
242.442 77.257 L
242.506 77.257 L
242.569 76.935 L
242.633 76.935 L
242.696 76.935 L
242.759 76.935 L
242.823 76.935 L
242.886 76.935 L
242.95 76.613 L
243.013 76.613 L
243.077 76.613 L
243.14 76.613 L
243.203 76.613 L
243.267 76.613 L
243.33 76.292 L
243.394 76.292 L
243.457 76.292 L
243.521 76.292 L
243.584 76.292 L
243.647 76.292 L
243.711 75.97 L
243.774 75.97 L
243.838 75.97 L
243.901 75.97 L
243.965 75.97 L
244.028 75.97 L
244.091 75.648 L
244.155 75.648 L
244.218 75.648 L
244.282 75.648 L
244.345 75.648 L
244.409 75.648 L
244.472 75.327 L
244.535 75.327 L
244.599 75.327 L
244.662 75.327 L
244.726 75.327 L
244.789 75.005 L
244.853 75.005 L
244.916 75.005 L
244.979 75.005 L
245.043 75.005 L
245.106 75.005 L
245.17 74.683 L
245.233 74.683 L
245.297 74.683 L
245.36 74.683 L
245.423 74.683 L
245.487 74.683 L
245.55 74.362 L
245.614 74.362 L
245.677 74.362 L
245.741 74.362 L
245.804 74.362 L
245.867 74.362 L
245.931 74.04 L
245.994 74.04 L
246.058 74.04 L
246.121 74.04 L
246.185 74.04 L
246.248 74.04 L
246.311 73.718 L
246.375 73.718 L
246.438 73.718 L
246.502 73.718 L
246.565 73.718 L
246.629 73.718 L
246.692 73.397 L
246.755 73.397 L
246.819 73.397 L
246.882 73.397 L
246.946 73.397 L
247.009 73.075 L
247.073 73.075 L
247.136 73.075 L
247.199 73.075 L
247.263 73.075 L
247.326 73.075 L
247.39 73.075 L
247.453 72.753 L
247.517 72.753 L
247.58 72.753 L
247.643 72.753 L
247.707 72.753 L
247.77 72.432 L
247.834 72.432 L
247.897 72.432 L
247.961 72.432 L
248.024 72.432 L
248.087 72.432 L
248.151 72.11 L
248.214 72.11 L
248.278 72.11 L
248.341 72.11 L
248.405 72.11 L
248.468 72.11 L
248.531 71.788 L
248.595 71.788 L
248.658 71.788 L
248.722 71.788 L
248.785 71.788 L
248.849 71.788 L
248.912 71.467 L
248.975 71.467 L
249.039 71.467 L
249.102 71.467 L
249.166 71.467 L
249.229 71.467 L
249.293 71.145 L
249.356 71.145 L
249.419 71.145 L
249.483 71.145 L
249.546 71.145 L
249.61 71.145 L
249.673 70.823 L
249.737 70.823 L
249.8 70.823 L
249.863 70.823 L
249.927 70.823 L
249.99 70.823 L
250.054 70.502 L
250.117 70.502 L
250.181 70.502 L
250.244 70.502 L
250.307 70.502 L
250.371 70.502 L
250.434 70.18 L
250.498 70.18 L
250.561 70.18 L
250.625 70.18 L
250.688 70.18 L
250.751 70.18 L
250.815 69.858 L
250.878 69.858 L
250.942 69.858 L
251.005 69.858 L
251.069 69.858 L
251.132 69.858 L
251.195 69.537 L
251.259 69.537 L
251.322 69.537 L
251.386 69.537 L
251.449 69.537 L
251.513 69.215 L
251.576 69.215 L
251.639 69.215 L
251.703 69.215 L
251.766 69.215 L
251.83 69.215 L
251.893 69.215 L
251.957 68.893 L
252.02 68.893 L
252.083 68.893 L
252.147 68.893 L
252.21 68.893 L
252.274 68.572 L
252.337 68.572 L
252.401 68.572 L
252.464 68.572 L
252.527 68.572 L
252.591 68.572 L
252.654 68.572 L
252.718 68.25 L
252.781 68.25 L
252.845 68.25 L
252.908 68.25 L
252.971 68.25 L
253.035 67.928 L
253.098 67.928 L
253.162 67.928 L
253.225 67.928 L
253.289 67.928 L
253.352 67.928 L
253.415 67.607 L
253.479 67.607 L
253.542 67.607 L
253.606 67.607 L
253.669 67.607 L
253.733 67.607 L
253.796 67.285 L
253.859 67.285 L
253.923 67.285 L
253.986 67.285 L
254.05 67.285 L
254.113 67.285 L
254.177 66.963 L
254.24 66.963 L
254.303 66.963 L
254.367 66.963 L
254.43 66.963 L
254.494 66.963 L
254.557 66.642 L
254.621 66.642 L
254.684 66.642 L
254.747 66.642 L
254.811 66.642 L
254.874 66.642 L
254.938 66.32 L
255.001 66.32 L
255.065 66.32 L
255.128 66.32 L
255.191 66.32 L
255.255 65.998 L
255.318 65.998 L
255.382 65.998 L
255.445 65.998 L
255.509 65.998 L
255.572 65.998 L
255.635 65.677 L
255.699 65.677 L
255.762 65.677 L
255.826 65.677 L
255.889 65.677 L
255.953 65.677 L
256.016 65.355 L
256.079 65.355 L
256.143 65.355 L
256.206 65.355 L
256.27 65.355 L
256.333 65.355 L
256.397 65.033 L
256.46 65.033 L
256.523 65.033 L
256.587 65.033 L
256.65 65.033 L
256.714 65.033 L
256.777 64.712 L
256.841 64.712 L
256.904 64.712 L
256.967 64.712 L
257.031 64.712 L
257.094 64.712 L
257.158 64.39 L
257.221 64.39 L
257.285 64.39 L
257.348 64.39 L
257.411 64.39 L
257.475 64.068 L
257.538 64.068 L
257.602 64.068 L
257.665 64.068 L
257.729 64.068 L
257.792 64.068 L
257.855 64.068 L
257.919 63.747 L
257.982 63.747 L
258.046 63.747 L
258.109 63.747 L
258.173 63.747 L
258.236 63.425 L
258.299 63.425 L
258.363 63.425 L
258.426 63.425 L
258.49 63.425 L
258.553 63.425 L
258.617 63.425 L
258.68 63.103 L
258.743 63.103 L
258.807 63.103 L
258.87 63.103 L
258.934 63.103 L
258.997 62.782 L
259.061 62.782 L
259.124 62.782 L
259.187 62.782 L
259.251 62.782 L
259.314 62.782 L
259.378 62.782 L
259.441 62.46 L
259.505 62.46 L
259.568 62.46 L
259.631 62.46 L
259.695 62.46 L
259.758 62.138 L
259.822 62.138 L
259.885 62.138 L
259.949 62.138 L
260.012 62.138 L
260.075 62.138 L
260.139 62.138 L
260.202 61.817 L
260.266 61.817 L
260.329 61.817 L
260.393 61.817 L
260.456 61.817 L
260.519 61.495 L
260.583 61.495 L
260.646 61.495 L
260.71 61.495 L
260.773 61.495 L
260.837 61.495 L
260.9 61.495 L
260.963 61.173 L
261.027 61.173 L
261.09 61.173 L
261.154 61.173 L
261.217 61.173 L
261.281 60.852 L
261.344 60.852 L
261.407 60.852 L
261.471 60.852 L
261.534 60.852 L
261.598 60.852 L
261.661 60.53 L
261.725 60.53 L
261.788 60.53 L
261.851 60.53 L
261.915 60.53 L
261.978 60.53 L
262.042 60.208 L
262.105 60.208 L
262.169 60.208 L
262.232 60.208 L
262.295 60.208 L
262.359 60.208 L
262.422 59.887 L
262.486 59.887 L
262.549 59.887 L
262.613 59.887 L
262.676 59.887 L
262.739 59.565 L
262.803 59.565 L
262.866 59.565 L
262.93 59.565 L
262.993 59.565 L
263.057 59.565 L
263.12 59.243 L
263.183 59.243 L
263.247 59.243 L
263.31 59.243 L
263.374 59.243 L
263.437 59.243 L
263.501 58.922 L
263.564 58.922 L
263.627 58.922 L
263.691 58.922 L
263.754 58.922 L
263.818 58.922 L
263.881 58.6 L
263.945 58.6 L
264.008 58.6 L
264.071 58.6 L
264.135 58.6 L
264.198 58.6 L
264.262 58.278 L
264.325 58.278 L
264.389 58.278 L
264.452 58.278 L
264.515 58.278 L
264.579 58.278 L
264.642 57.957 L
264.706 57.957 L
264.769 57.957 L
264.833 57.957 L
264.896 57.957 L
264.959 57.635 L
265.023 57.635 L
265.086 57.635 L
265.15 57.635 L
265.213 57.635 L
265.277 57.635 L
265.34 57.635 L
265.403 57.313 L
265.467 57.313 L
265.53 57.313 L
265.594 57.313 L
265.657 57.313 L
265.721 56.992 L
265.784 56.992 L
265.847 56.992 L
265.911 56.992 L
265.974 56.992 L
266.038 56.992 L
266.101 56.67 L
266.165 56.67 L
266.228 56.67 L
266.291 56.67 L
266.355 56.67 L
266.418 56.67 L
266.482 56.348 L
266.545 56.348 L
266.609 56.348 L
266.672 56.348 L
266.735 56.348 L
266.799 56.348 L
266.862 56.027 L
266.926 56.027 L
266.989 56.027 L
267.053 56.027 L
267.116 56.027 L
267.179 56.027 L
267.243 55.705 L
267.306 55.705 L
267.37 55.705 L
267.433 55.705 L
267.497 55.705 L
267.56 55.705 L
267.623 55.383 L
267.687 55.383 L
267.75 55.383 L
267.814 55.383 L
267.877 55.383 L
267.941 55.383 L
268.004 55.062 L
268.067 55.062 L
268.131 55.062 L
268.194 55.062 L
268.258 55.062 L
268.321 55.062 L
268.385 54.74 L
268.448 54.74 L
268.511 54.74 L
268.575 54.74 L
268.638 54.74 L
268.702 54.74 L
268.765 54.418 L
268.829 54.418 L
268.892 54.418 L
268.955 54.418 L
269.019 54.418 L
269.082 54.418 L
269.146 54.097 L
269.209 54.097 L
269.273 54.097 L
269.336 54.097 L
269.399 54.097 L
269.463 54.097 L
269.526 53.775 L
269.59 53.775 L
269.653 53.775 L
269.717 53.775 L
269.78 53.775 L
269.843 53.775 L
269.907 53.453 L
269.97 53.453 L
270.034 53.453 L
270.097 53.453 L
270.161 53.453 L
270.224 53.453 L
270.287 53.132 L
270.351 53.132 L
270.414 53.132 L
270.478 53.132 L
270.541 53.132 L
270.605 53.132 L
270.668 52.81 L
270.731 52.81 L
270.795 52.81 L
270.858 52.81 L
270.922 52.81 L
270.985 52.81 L
271.049 52.488 L
271.112 52.488 L
271.175 52.488 L
271.239 52.488 L
271.302 52.488 L
271.366 52.488 L
271.429 52.167 L
271.493 52.167 L
271.556 52.167 L
271.619 52.167 L
271.683 52.167 L
271.746 51.845 L
271.81 51.845 L
271.873 51.845 L
271.937 51.845 L
272 51.845 L
S
GR
%%Trailer
%%Pages: 1
%%EOF
