%!PS-Adobe-3.0 EPSF-3.0
%%Creator: (MATLAB, The Mathworks, Inc. Version 9.13.0.2193358 \(R2022b\) Update 5. Operating System: Linux)
%%Title: /home/kuba/skola/vs/semestr/bp/tex/img/mmotor-step.eps
%%CreationDate: 2023-05-13T14:19:44
%%Pages: (atend)
%%BoundingBox:     0     1   211   186
%%LanguageLevel: 3
%%EndComments
%%BeginProlog
%%BeginResource: procset (Apache XML Graphics Std ProcSet) 1.2 0
%%Version: 1.2 0
%%Copyright: (Copyright 2001-2003,2010 The Apache Software Foundation. License terms: http://www.apache.org/licenses/LICENSE-2.0)
/bd{bind def}bind def
/ld{load def}bd
/GR/grestore ld
/GS/gsave ld
/RM/rmoveto ld
/C/curveto ld
/t/show ld
/L/lineto ld
/ML/setmiterlimit ld
/CT/concat ld
/f/fill ld
/N/newpath ld
/S/stroke ld
/CC/setcmykcolor ld
/A/ashow ld
/cp/closepath ld
/RC/setrgbcolor ld
/LJ/setlinejoin ld
/GC/setgray ld
/LW/setlinewidth ld
/M/moveto ld
/re {4 2 roll M
1 index 0 rlineto
0 exch rlineto
neg 0 rlineto
cp } bd
/_ctm matrix def
/_tm matrix def
/BT { _ctm currentmatrix pop matrix _tm copy pop 0 0 moveto } bd
/ET { _ctm setmatrix } bd
/iTm { _ctm setmatrix _tm concat } bd
/Tm { _tm astore pop iTm 0 0 moveto } bd
/ux 0.0 def
/uy 0.0 def
/F {
  /Tp exch def
  /Tf exch def
  Tf findfont Tp scalefont setfont
  /cf Tf def  /cs Tp def
} bd
/ULS {currentpoint /uy exch def /ux exch def} bd
/ULE {
  /Tcx currentpoint pop def
  gsave
  newpath
  cf findfont cs scalefont dup
  /FontMatrix get 0 get /Ts exch def /FontInfo get dup
  /UnderlinePosition get Ts mul /To exch def
  /UnderlineThickness get Ts mul /Tt exch def
  ux uy To add moveto  Tcx uy To add lineto
  Tt setlinewidth stroke
  grestore
} bd
/OLE {
  /Tcx currentpoint pop def
  gsave
  newpath
  cf findfont cs scalefont dup
  /FontMatrix get 0 get /Ts exch def /FontInfo get dup
  /UnderlinePosition get Ts mul /To exch def
  /UnderlineThickness get Ts mul /Tt exch def
  ux uy To add cs add moveto Tcx uy To add cs add lineto
  Tt setlinewidth stroke
  grestore
} bd
/SOE {
  /Tcx currentpoint pop def
  gsave
  newpath
  cf findfont cs scalefont dup
  /FontMatrix get 0 get /Ts exch def /FontInfo get dup
  /UnderlinePosition get Ts mul /To exch def
  /UnderlineThickness get Ts mul /Tt exch def
  ux uy To add cs 10 mul 26 idiv add moveto Tcx uy To add cs 10 mul 26 idiv add lineto
  Tt setlinewidth stroke
  grestore
} bd
/QT {
/Y22 exch store
/X22 exch store
/Y21 exch store
/X21 exch store
currentpoint
/Y21 load 2 mul add 3 div exch
/X21 load 2 mul add 3 div exch
/X21 load 2 mul /X22 load add 3 div
/Y21 load 2 mul /Y22 load add 3 div
/X22 load /Y22 load curveto
} bd
/SSPD {
dup length /d exch dict def
{
/v exch def
/k exch def
currentpagedevice k known {
/cpdv currentpagedevice k get def
v cpdv ne {
/upd false def
/nullv v type /nulltype eq def
/nullcpdv cpdv type /nulltype eq def
nullv nullcpdv or
{
/upd true def
} {
/sametype v type cpdv type eq def
sametype {
v type /arraytype eq {
/vlen v length def
/cpdvlen cpdv length def
vlen cpdvlen eq {
0 1 vlen 1 sub {
/i exch def
/obj v i get def
/cpdobj cpdv i get def
obj cpdobj ne {
/upd true def
exit
} if
} for
} {
/upd true def
} ifelse
} {
v type /dicttype eq {
v {
/dv exch def
/dk exch def
/cpddv cpdv dk get def
dv cpddv ne {
/upd true def
exit
} if
} forall
} {
/upd true def
} ifelse
} ifelse
} if
} ifelse
upd true eq {
d k v put
} if
} if
} if
} forall
d length 0 gt {
d setpagedevice
} if
} bd
/RE { % /NewFontName [NewEncodingArray] /FontName RE -
  findfont dup length dict begin
  {
    1 index /FID ne
    {def} {pop pop} ifelse
  } forall
  /Encoding exch def
  /FontName 1 index def
  currentdict definefont pop
  end
} bind def
%%EndResource
%%BeginResource: procset (Apache XML Graphics EPS ProcSet) 1.0 0
%%Version: 1.0 0
%%Copyright: (Copyright 2002-2003 The Apache Software Foundation. License terms: http://www.apache.org/licenses/LICENSE-2.0)
/BeginEPSF { %def
/b4_Inc_state save def         % Save state for cleanup
/dict_count countdictstack def % Count objects on dict stack
/op_count count 1 sub def      % Count objects on operand stack
userdict begin                 % Push userdict on dict stack
/showpage { } def              % Redefine showpage, { } = null proc
0 setgray 0 setlinecap         % Prepare graphics state
1 setlinewidth 0 setlinejoin
10 setmiterlimit [ ] 0 setdash newpath
/languagelevel where           % If level not equal to 1 then
{pop languagelevel             % set strokeadjust and
1 ne                           % overprint to their defaults.
{false setstrokeadjust false setoverprint
} if
} if
} bd
/EndEPSF { %def
count op_count sub {pop} repeat            % Clean up stacks
countdictstack dict_count sub {end} repeat
b4_Inc_state restore
} bd
%%EndResource
%FOPBeginFontDict
%%IncludeResource: font Courier-Oblique
%%IncludeResource: font Courier-BoldOblique
%%IncludeResource: font Courier-Bold
%%IncludeResource: font ZapfDingbats
%%IncludeResource: font Symbol
%%IncludeResource: font Helvetica
%%IncludeResource: font Helvetica-Oblique
%%IncludeResource: font Helvetica-Bold
%%IncludeResource: font Helvetica-BoldOblique
%%IncludeResource: font Times-Roman
%%IncludeResource: font Times-Italic
%%IncludeResource: font Times-Bold
%%IncludeResource: font Times-BoldItalic
%%IncludeResource: font Courier
%FOPEndFontDict
%%BeginResource: encoding WinAnsiEncoding
/WinAnsiEncoding [
/.notdef /.notdef /.notdef /.notdef /.notdef
/.notdef /.notdef /.notdef /.notdef /.notdef
/.notdef /.notdef /.notdef /.notdef /.notdef
/.notdef /.notdef /.notdef /.notdef /.notdef
/.notdef /.notdef /.notdef /.notdef /.notdef
/.notdef /.notdef /.notdef /.notdef /.notdef
/.notdef /.notdef /space /exclam /quotedbl
/numbersign /dollar /percent /ampersand /quotesingle
/parenleft /parenright /asterisk /plus /comma
/hyphen /period /slash /zero /one
/two /three /four /five /six
/seven /eight /nine /colon /semicolon
/less /equal /greater /question /at
/A /B /C /D /E
/F /G /H /I /J
/K /L /M /N /O
/P /Q /R /S /T
/U /V /W /X /Y
/Z /bracketleft /backslash /bracketright /asciicircum
/underscore /quoteleft /a /b /c
/d /e /f /g /h
/i /j /k /l /m
/n /o /p /q /r
/s /t /u /v /w
/x /y /z /braceleft /bar
/braceright /asciitilde /bullet /Euro /bullet
/quotesinglbase /florin /quotedblbase /ellipsis /dagger
/daggerdbl /circumflex /perthousand /Scaron /guilsinglleft
/OE /bullet /Zcaron /bullet /bullet
/quoteleft /quoteright /quotedblleft /quotedblright /bullet
/endash /emdash /asciitilde /trademark /scaron
/guilsinglright /oe /bullet /zcaron /Ydieresis
/space /exclamdown /cent /sterling /currency
/yen /brokenbar /section /dieresis /copyright
/ordfeminine /guillemotleft /logicalnot /sfthyphen /registered
/macron /degree /plusminus /twosuperior /threesuperior
/acute /mu /paragraph /middot /cedilla
/onesuperior /ordmasculine /guillemotright /onequarter /onehalf
/threequarters /questiondown /Agrave /Aacute /Acircumflex
/Atilde /Adieresis /Aring /AE /Ccedilla
/Egrave /Eacute /Ecircumflex /Edieresis /Igrave
/Iacute /Icircumflex /Idieresis /Eth /Ntilde
/Ograve /Oacute /Ocircumflex /Otilde /Odieresis
/multiply /Oslash /Ugrave /Uacute /Ucircumflex
/Udieresis /Yacute /Thorn /germandbls /agrave
/aacute /acircumflex /atilde /adieresis /aring
/ae /ccedilla /egrave /eacute /ecircumflex
/edieresis /igrave /iacute /icircumflex /idieresis
/eth /ntilde /ograve /oacute /ocircumflex
/otilde /odieresis /divide /oslash /ugrave
/uacute /ucircumflex /udieresis /yacute /thorn
/ydieresis
] def
%%EndResource
%FOPBeginFontReencode
/Courier-Oblique findfont
dup length dict begin
  {1 index /FID ne {def} {pop pop} ifelse} forall
  /Encoding WinAnsiEncoding def
  currentdict
end
/Courier-Oblique exch definefont pop
/Courier-BoldOblique findfont
dup length dict begin
  {1 index /FID ne {def} {pop pop} ifelse} forall
  /Encoding WinAnsiEncoding def
  currentdict
end
/Courier-BoldOblique exch definefont pop
/Courier-Bold findfont
dup length dict begin
  {1 index /FID ne {def} {pop pop} ifelse} forall
  /Encoding WinAnsiEncoding def
  currentdict
end
/Courier-Bold exch definefont pop
/Helvetica findfont
dup length dict begin
  {1 index /FID ne {def} {pop pop} ifelse} forall
  /Encoding WinAnsiEncoding def
  currentdict
end
/Helvetica exch definefont pop
/Helvetica-Oblique findfont
dup length dict begin
  {1 index /FID ne {def} {pop pop} ifelse} forall
  /Encoding WinAnsiEncoding def
  currentdict
end
/Helvetica-Oblique exch definefont pop
/Helvetica-Bold findfont
dup length dict begin
  {1 index /FID ne {def} {pop pop} ifelse} forall
  /Encoding WinAnsiEncoding def
  currentdict
end
/Helvetica-Bold exch definefont pop
/Helvetica-BoldOblique findfont
dup length dict begin
  {1 index /FID ne {def} {pop pop} ifelse} forall
  /Encoding WinAnsiEncoding def
  currentdict
end
/Helvetica-BoldOblique exch definefont pop
/Times-Roman findfont
dup length dict begin
  {1 index /FID ne {def} {pop pop} ifelse} forall
  /Encoding WinAnsiEncoding def
  currentdict
end
/Times-Roman exch definefont pop
/Times-Italic findfont
dup length dict begin
  {1 index /FID ne {def} {pop pop} ifelse} forall
  /Encoding WinAnsiEncoding def
  currentdict
end
/Times-Italic exch definefont pop
/Times-Bold findfont
dup length dict begin
  {1 index /FID ne {def} {pop pop} ifelse} forall
  /Encoding WinAnsiEncoding def
  currentdict
end
/Times-Bold exch definefont pop
/Times-BoldItalic findfont
dup length dict begin
  {1 index /FID ne {def} {pop pop} ifelse} forall
  /Encoding WinAnsiEncoding def
  currentdict
end
/Times-BoldItalic exch definefont pop
/Courier findfont
dup length dict begin
  {1 index /FID ne {def} {pop pop} ifelse} forall
  /Encoding WinAnsiEncoding def
  currentdict
end
/Courier exch definefont pop
%FOPEndFontReencode
%%EndProlog
%%Page: 1 1
%%PageBoundingBox: 0 0 225 188
%%BeginPageSetup
N
    0     1 M
  211     1 L
  211   187 L
    0   187 L
cp
clip
[1 0 0 -1 0 188] CT
%%EndPageSetup
GS
[0.75 0 0 0.75 0 0.5] CT
1 GC
N
0 0 300 250 re
f
GR
GS
[0.75 0 0 0.75 0 0.5] CT
1 GC
N
0 0 300 250 re
f
GR
GS
[0.75 0 0 0.75 0 0.5] CT
1 GC
N
50 213 M
272 213 L
272 20 L
50 20 L
cp
f
GR
GS
[0.75 0 0 0.75 0 0.5] CT
0.873 GC
1 LJ
0.667 LW
N
81.714 213 M
81.714 20 L
S
GR
GS
[0.75 0 0 0.75 0 0.5] CT
0.873 GC
1 LJ
0.667 LW
N
145.143 213 M
145.143 20 L
S
GR
GS
[0.75 0 0 0.75 0 0.5] CT
0.873 GC
1 LJ
0.667 LW
N
208.571 213 M
208.571 20 L
S
GR
GS
[0.75 0 0 0.75 0 0.5] CT
0.873 GC
1 LJ
0.667 LW
N
272 213 M
272 20 L
S
GR
GS
[0.75 0 0 0.75 0 0.5] CT
0.873 GC
1 LJ
0.667 LW
N
272 213 M
50 213 L
S
GR
GS
[0.75 0 0 0.75 0 0.5] CT
0.873 GC
1 LJ
0.667 LW
N
272 164.75 M
50 164.75 L
S
GR
GS
[0.75 0 0 0.75 0 0.5] CT
0.873 GC
1 LJ
0.667 LW
N
272 116.5 M
50 116.5 L
S
GR
GS
[0.75 0 0 0.75 0 0.5] CT
0.873 GC
1 LJ
0.667 LW
N
272 68.25 M
50 68.25 L
S
GR
GS
[0.75 0 0 0.75 0 0.5] CT
0.873 GC
1 LJ
0.667 LW
N
272 20 M
50 20 L
S
GR
GS
[0.75 0 0 0.75 0 0.5] CT
0.149 GC
2 setlinecap
1 LJ
0.667 LW
N
50 213 M
272 213 L
S
GR
GS
[0.75 0 0 0.75 0 0.5] CT
0.149 GC
2 setlinecap
1 LJ
0.667 LW
N
50 20 M
272 20 L
S
GR
GS
[0.75 0 0 0.75 0 0.5] CT
0.149 GC
2 setlinecap
1 LJ
0.667 LW
N
81.714 213 M
81.714 210.78 L
S
GR
GS
[0.75 0 0 0.75 0 0.5] CT
0.149 GC
2 setlinecap
1 LJ
0.667 LW
N
145.143 213 M
145.143 210.78 L
S
GR
GS
[0.75 0 0 0.75 0 0.5] CT
0.149 GC
2 setlinecap
1 LJ
0.667 LW
N
208.571 213 M
208.571 210.78 L
S
GR
GS
[0.75 0 0 0.75 0 0.5] CT
0.149 GC
2 setlinecap
1 LJ
0.667 LW
N
272 213 M
272 210.78 L
S
GR
GS
[0.75 0 0 0.75 0 0.5] CT
0.149 GC
2 setlinecap
1 LJ
0.667 LW
N
81.714 20 M
81.714 22.22 L
S
GR
GS
[0.75 0 0 0.75 0 0.5] CT
0.149 GC
2 setlinecap
1 LJ
0.667 LW
N
145.143 20 M
145.143 22.22 L
S
GR
GS
[0.75 0 0 0.75 0 0.5] CT
0.149 GC
2 setlinecap
1 LJ
0.667 LW
N
208.571 20 M
208.571 22.22 L
S
GR
GS
[0.75 0 0 0.75 0 0.5] CT
0.149 GC
2 setlinecap
1 LJ
0.667 LW
N
272 20 M
272 22.22 L
S
GR
GS
[0.75 0 0 0.75 61.28572 163.65001] CT
0.149 GC
/Helvetica 12.667 F
GS
[1 0 0 1 0 0] CT
-10.5 12 moveto 
1 -1 scale
(0.8) t 
GR
GR
GS
[0.75 0 0 0.75 108.85714 163.65001] CT
0.149 GC
/Helvetica 12.667 F
GS
[1 0 0 1 0 0] CT
-4.5 12 moveto 
1 -1 scale
(1) t 
GR
GR
GS
[0.75 0 0 0.75 156.42858 163.65001] CT
0.149 GC
/Helvetica 12.667 F
GS
[1 0 0 1 0 0] CT
-10.5 12 moveto 
1 -1 scale
(1.2) t 
GR
GR
GS
[0.75 0 0 0.75 204 163.65001] CT
0.149 GC
/Helvetica 12.667 F
GS
[1 0 0 1 0 0] CT
-10.5 12 moveto 
1 -1 scale
(1.4) t 
GR
GR
GS
[0.75 0 0 0.75 120.75007 174.90001] CT
0.149 GC
N
-14.984 3.578 M
-14.984 5.031 L
-15.688 4.391 -16.477 4.07 QT
-17.266 3.75 -18.141 3.75 QT
-19.891 3.75 -20.82 4.82 QT
-21.75 5.891 -21.75 7.906 QT
-21.75 9.922 -20.82 10.992 QT
-19.891 12.063 -18.141 12.063 QT
-17.266 12.063 -16.477 11.742 QT
-15.688 11.422 -14.984 10.766 QT
-14.984 12.219 L
-15.703 12.703 -16.516 12.953 QT
-17.328 13.203 -18.234 13.203 QT
-20.547 13.203 -21.883 11.781 QT
-23.219 10.359 -23.219 7.906 QT
-23.219 5.453 -21.883 4.031 QT
-20.547 2.609 -18.234 2.609 QT
-17.313 2.609 -16.5 2.852 QT
-15.688 3.094 -14.984 3.578 QT
cp
-19.141 1.375 M
-20.578 -0.453 L
-19.641 -0.453 L
-18.5 0.766 L
-17.359 -0.453 L
-16.422 -0.453 L
-17.859 1.375 L
-19.141 1.375 L
cp
-9.493 9.156 M
-11.009 9.156 -11.603 9.5 QT
-12.196 9.844 -12.196 10.688 QT
-12.196 11.359 -11.751 11.75 QT
-11.306 12.141 -10.556 12.141 QT
-9.509 12.141 -8.876 11.398 QT
-8.243 10.656 -8.243 9.438 QT
-8.243 9.156 L
-9.493 9.156 L
cp
-6.978 8.625 M
-6.978 13 L
-8.243 13 L
-8.243 11.844 L
-8.665 12.531 -9.314 12.867 QT
-9.962 13.203 -10.884 13.203 QT
-12.056 13.203 -12.751 12.539 QT
-13.446 11.875 -13.446 10.766 QT
-13.446 9.484 -12.579 8.828 QT
-11.712 8.172 -10.009 8.172 QT
-8.243 8.172 L
-8.243 8.047 L
-8.243 7.172 -8.814 6.695 QT
-9.384 6.219 -10.415 6.219 QT
-11.071 6.219 -11.696 6.383 QT
-12.321 6.547 -12.884 6.859 QT
-12.884 5.688 L
-12.196 5.422 -11.548 5.289 QT
-10.899 5.156 -10.29 5.156 QT
-8.618 5.156 -7.798 6.016 QT
-6.978 6.875 -6.978 8.625 QT
cp
0.435 5.563 M
0.435 6.766 L
-0.097 6.484 -0.675 6.352 QT
-1.253 6.219 -1.862 6.219 QT
-2.8 6.219 -3.268 6.5 QT
-3.737 6.781 -3.737 7.359 QT
-3.737 7.797 -3.401 8.047 QT
-3.065 8.297 -2.05 8.516 QT
-1.628 8.625 L
-0.284 8.906 0.278 9.43 QT
0.841 9.953 0.841 10.891 QT
0.841 11.953 -0.003 12.578 QT
-0.847 13.203 -2.315 13.203 QT
-2.94 13.203 -3.604 13.078 QT
-4.268 12.953 -5.003 12.719 QT
-5.003 11.422 L
-4.315 11.781 -3.636 11.961 QT
-2.956 12.141 -2.3 12.141 QT
-1.409 12.141 -0.932 11.836 QT
-0.456 11.531 -0.456 10.984 QT
-0.456 10.469 -0.8 10.195 QT
-1.143 9.922 -2.315 9.672 QT
-2.753 9.563 L
-3.909 9.328 -4.432 8.813 QT
-4.956 8.297 -4.956 7.422 QT
-4.956 6.328 -4.19 5.742 QT
-3.425 5.156 -2.018 5.156 QT
-1.315 5.156 -0.698 5.258 QT
-0.081 5.359 0.435 5.563 QT
cp
7.1 2.359 M
10.006 2.359 L
10.006 3.344 L
8.366 3.344 L
8.366 13.875 L
10.006 13.875 L
10.006 14.844 L
7.1 14.844 L
7.1 2.359 L
cp
17.526 5.563 M
17.526 6.766 L
16.994 6.484 16.416 6.352 QT
15.838 6.219 15.229 6.219 QT
14.291 6.219 13.822 6.5 QT
13.354 6.781 13.354 7.359 QT
13.354 7.797 13.69 8.047 QT
14.026 8.297 15.041 8.516 QT
15.463 8.625 L
16.807 8.906 17.369 9.43 QT
17.932 9.953 17.932 10.891 QT
17.932 11.953 17.088 12.578 QT
16.244 13.203 14.776 13.203 QT
14.151 13.203 13.486 13.078 QT
12.822 12.953 12.088 12.719 QT
12.088 11.422 L
12.776 11.781 13.455 11.961 QT
14.135 12.141 14.791 12.141 QT
15.682 12.141 16.158 11.836 QT
16.635 11.531 16.635 10.984 QT
16.635 10.469 16.291 10.195 QT
15.947 9.922 14.776 9.672 QT
14.338 9.563 L
13.182 9.328 12.658 8.813 QT
12.135 8.297 12.135 7.422 QT
12.135 6.328 12.901 5.742 QT
13.666 5.156 15.072 5.156 QT
15.776 5.156 16.393 5.258 QT
17.01 5.359 17.526 5.563 QT
cp
22.833 2.359 M
22.833 14.844 L
19.927 14.844 L
19.927 13.875 L
21.568 13.875 L
21.568 3.344 L
19.927 3.344 L
19.927 2.359 L
22.833 2.359 L
cp
f
GR
GS
[0.75 0 0 0.75 0 0.5] CT
0.149 GC
2 setlinecap
1 LJ
0.667 LW
N
50 213 M
50 20 L
S
GR
GS
[0.75 0 0 0.75 0 0.5] CT
0.149 GC
2 setlinecap
1 LJ
0.667 LW
N
272 213 M
272 20 L
S
GR
GS
[0.75 0 0 0.75 0 0.5] CT
0.149 GC
2 setlinecap
1 LJ
0.667 LW
N
50 213 M
52.22 213 L
S
GR
GS
[0.75 0 0 0.75 0 0.5] CT
0.149 GC
2 setlinecap
1 LJ
0.667 LW
N
50 164.75 M
52.22 164.75 L
S
GR
GS
[0.75 0 0 0.75 0 0.5] CT
0.149 GC
2 setlinecap
1 LJ
0.667 LW
N
50 116.5 M
52.22 116.5 L
S
GR
GS
[0.75 0 0 0.75 0 0.5] CT
0.149 GC
2 setlinecap
1 LJ
0.667 LW
N
50 68.25 M
52.22 68.25 L
S
GR
GS
[0.75 0 0 0.75 0 0.5] CT
0.149 GC
2 setlinecap
1 LJ
0.667 LW
N
50 20 M
52.22 20 L
S
GR
GS
[0.75 0 0 0.75 0 0.5] CT
0.149 GC
2 setlinecap
1 LJ
0.667 LW
N
272 213 M
269.78 213 L
S
GR
GS
[0.75 0 0 0.75 0 0.5] CT
0.149 GC
2 setlinecap
1 LJ
0.667 LW
N
272 164.75 M
269.78 164.75 L
S
GR
GS
[0.75 0 0 0.75 0 0.5] CT
0.149 GC
2 setlinecap
1 LJ
0.667 LW
N
272 116.5 M
269.78 116.5 L
S
GR
GS
[0.75 0 0 0.75 0 0.5] CT
0.149 GC
2 setlinecap
1 LJ
0.667 LW
N
272 68.25 M
269.78 68.25 L
S
GR
GS
[0.75 0 0 0.75 0 0.5] CT
0.149 GC
2 setlinecap
1 LJ
0.667 LW
N
272 20 M
269.78 20 L
S
GR
GS
[0.75 0 0 0.75 34.1 160.25] CT
0.149 GC
/Helvetica 12.667 F
GS
[1 0 0 1 0 0] CT
-9 4.5 moveto 
1 -1 scale
(0) t 
GR
GR
GS
[0.75 0 0 0.75 34.1 124.0625] CT
0.149 GC
/Helvetica 12.667 F
GS
[1 0 0 1 0 0] CT
-25 4.5 moveto 
1 -1 scale
(200) t 
GR
GR
GS
[0.75 0 0 0.75 34.1 87.875] CT
0.149 GC
/Helvetica 12.667 F
GS
[1 0 0 1 0 0] CT
-25 4.5 moveto 
1 -1 scale
(400) t 
GR
GR
GS
[0.75 0 0 0.75 34.1 51.6875] CT
0.149 GC
/Helvetica 12.667 F
GS
[1 0 0 1 0 0] CT
-25 4.5 moveto 
1 -1 scale
(600) t 
GR
GR
GS
[0.75 0 0 0.75 34.1 15.5] CT
0.149 GC
/Helvetica 12.667 F
GS
[1 0 0 1 0 0] CT
-25 4.5 moveto 
1 -1 scale
(800) t 
GR
GR
GS
[0 -0.75 0.75 0 12.85 87.87493] CT
0.149 GC
/Helvetica 13.933 F
GS
[1 0 0 1 0 0] CT
-27 -4 moveto 
1 -1 scale
(\332hel [\260]) t 
GR
GR
GS
[0.75 0 0 0.75 120.7501 13.53042] CT
N
-94.047 -12.484 M
-95.25 -12.484 -95.914 -11.594 QT
-96.578 -10.703 -96.578 -9.094 QT
-96.578 -7.484 -95.914 -6.594 QT
-95.25 -5.703 -94.047 -5.703 QT
-92.844 -5.703 -92.18 -6.594 QT
-91.516 -7.484 -91.516 -9.094 QT
-91.516 -10.703 -92.18 -11.594 QT
-92.844 -12.484 -94.047 -12.484 QT
cp
-94.047 -14.391 M
-91.594 -14.391 -90.195 -12.984 QT
-88.797 -11.578 -88.797 -9.094 QT
-88.797 -6.625 -90.195 -5.211 QT
-91.594 -3.797 -94.047 -3.797 QT
-96.5 -3.797 -97.898 -5.211 QT
-99.297 -6.625 -99.297 -9.094 QT
-99.297 -11.578 -97.898 -12.984 QT
-96.5 -14.391 -94.047 -14.391 QT
cp
-81.788 -10.531 M
-81.788 -14.641 L
-79.335 -14.641 L
-79.335 -4 L
-81.788 -4 L
-81.788 -5.109 L
-82.303 -4.438 -82.913 -4.117 QT
-83.522 -3.797 -84.319 -3.797 QT
-85.725 -3.797 -86.639 -4.922 QT
-87.553 -6.047 -87.553 -7.828 QT
-87.553 -9.594 -86.639 -10.719 QT
-85.725 -11.844 -84.319 -11.844 QT
-83.522 -11.844 -82.913 -11.523 QT
-82.303 -11.203 -81.788 -10.531 QT
cp
-83.413 -5.578 M
-82.616 -5.578 -82.202 -6.156 QT
-81.788 -6.734 -81.788 -7.828 QT
-81.788 -8.922 -82.202 -9.492 QT
-82.616 -10.063 -83.413 -10.063 QT
-84.178 -10.063 -84.592 -9.492 QT
-85.006 -8.922 -85.006 -7.828 QT
-85.006 -6.734 -84.592 -6.156 QT
-84.178 -5.578 -83.413 -5.578 QT
cp
-69.411 -7.844 M
-69.411 -7.156 L
-75.13 -7.156 L
-75.036 -6.297 -74.505 -5.859 QT
-73.974 -5.422 -73.021 -5.422 QT
-72.24 -5.422 -71.427 -5.656 QT
-70.615 -5.891 -69.771 -6.359 QT
-69.771 -4.469 L
-70.63 -4.141 -71.497 -3.969 QT
-72.365 -3.797 -73.24 -3.797 QT
-75.318 -3.797 -76.466 -4.859 QT
-77.615 -5.922 -77.615 -7.828 QT
-77.615 -9.688 -76.49 -10.766 QT
-75.365 -11.844 -73.38 -11.844 QT
-71.568 -11.844 -70.49 -10.758 QT
-69.411 -9.672 -69.411 -7.844 QT
cp
-71.927 -8.656 M
-71.927 -9.359 -72.333 -9.789 QT
-72.74 -10.219 -73.396 -10.219 QT
-74.099 -10.219 -74.544 -9.82 QT
-74.99 -9.422 -75.099 -8.656 QT
-71.927 -8.656 L
cp
-67.996 -11.656 M
-61.308 -11.656 L
-61.308 -9.953 L
-65.339 -5.75 L
-61.308 -5.75 L
-61.308 -4 L
-68.167 -4 L
-68.167 -5.703 L
-64.136 -9.906 L
-67.996 -9.906 L
-67.996 -11.656 L
cp
-60.48 -11.656 M
-58.042 -11.656 L
-56.136 -6.359 L
-54.23 -11.656 L
-51.777 -11.656 L
-54.792 -4 L
-57.48 -4 L
-60.48 -11.656 L
cp
-47.024 -7.453 M
-47.79 -7.453 -48.181 -7.188 QT
-48.571 -6.922 -48.571 -6.422 QT
-48.571 -5.953 -48.259 -5.688 QT
-47.946 -5.422 -47.384 -5.422 QT
-46.696 -5.422 -46.227 -5.922 QT
-45.759 -6.422 -45.759 -7.172 QT
-45.759 -7.453 L
-47.024 -7.453 L
cp
-43.29 -8.375 M
-43.29 -4 L
-45.759 -4 L
-45.759 -5.141 L
-46.243 -4.438 -46.86 -4.117 QT
-47.477 -3.797 -48.352 -3.797 QT
-49.556 -3.797 -50.29 -4.492 QT
-51.024 -5.188 -51.024 -6.297 QT
-51.024 -7.641 -50.102 -8.273 QT
-49.181 -8.906 -47.196 -8.906 QT
-45.759 -8.906 L
-45.759 -9.094 L
-45.759 -9.672 -46.212 -9.945 QT
-46.665 -10.219 -47.634 -10.219 QT
-48.431 -10.219 -49.102 -10.063 QT
-49.774 -9.906 -50.368 -9.578 QT
-50.368 -11.453 L
-49.571 -11.641 -48.782 -11.742 QT
-47.993 -11.844 -47.196 -11.844 QT
-45.118 -11.844 -44.204 -11.023 QT
-43.29 -10.203 -43.29 -8.375 QT
cp
-30.252 -11.422 M
-30.252 -9.563 L
-31.033 -9.891 -31.768 -10.055 QT
-32.502 -10.219 -33.143 -10.219 QT
-33.846 -10.219 -34.182 -10.039 QT
-34.518 -9.859 -34.518 -9.5 QT
-34.518 -9.203 -34.268 -9.047 QT
-34.018 -8.891 -33.346 -8.813 QT
-32.924 -8.766 L
-31.033 -8.516 -30.385 -7.969 QT
-29.736 -7.422 -29.736 -6.25 QT
-29.736 -5.031 -30.643 -4.414 QT
-31.549 -3.797 -33.33 -3.797 QT
-34.096 -3.797 -34.9 -3.922 QT
-35.705 -4.047 -36.565 -4.281 QT
-36.565 -6.141 L
-35.83 -5.781 -35.065 -5.602 QT
-34.299 -5.422 -33.502 -5.422 QT
-32.783 -5.422 -32.424 -5.625 QT
-32.065 -5.828 -32.065 -6.219 QT
-32.065 -6.547 -32.315 -6.703 QT
-32.565 -6.859 -33.299 -6.953 QT
-33.736 -7.016 L
-35.377 -7.219 -36.033 -7.773 QT
-36.69 -8.328 -36.69 -9.453 QT
-36.69 -10.672 -35.854 -11.258 QT
-35.018 -11.844 -33.299 -11.844 QT
-32.611 -11.844 -31.869 -11.742 QT
-31.127 -11.641 -30.252 -11.422 QT
cp
-25.287 -13.828 M
-25.287 -11.656 L
-22.756 -11.656 L
-22.756 -9.906 L
-25.287 -9.906 L
-25.287 -6.656 L
-25.287 -6.125 -25.076 -5.938 QT
-24.865 -5.75 -24.225 -5.75 QT
-22.975 -5.75 L
-22.975 -4 L
-25.069 -4 L
-26.522 -4 -27.123 -4.602 QT
-27.725 -5.203 -27.725 -6.656 QT
-27.725 -9.906 L
-28.944 -9.906 L
-28.944 -11.656 L
-27.725 -11.656 L
-27.725 -13.828 L
-25.287 -13.828 L
cp
-15.624 -9.578 M
-15.937 -9.719 -16.257 -9.789 QT
-16.577 -9.859 -16.905 -9.859 QT
-17.843 -9.859 -18.351 -9.258 QT
-18.859 -8.656 -18.859 -7.531 QT
-18.859 -4 L
-21.312 -4 L
-21.312 -11.656 L
-18.859 -11.656 L
-18.859 -10.406 L
-18.39 -11.156 -17.78 -11.5 QT
-17.171 -11.844 -16.312 -11.844 QT
-16.187 -11.844 -16.046 -11.836 QT
-15.905 -11.828 -15.624 -11.781 QT
-15.624 -9.578 L
cp
-18.812 -12.625 M
-20.562 -15.203 L
-19.343 -15.203 L
-17.984 -13.641 L
-16.624 -15.203 L
-15.405 -15.203 L
-17.155 -12.625 L
-18.812 -12.625 L
cp
-6.813 -7.844 M
-6.813 -7.156 L
-12.532 -7.156 L
-12.438 -6.297 -11.907 -5.859 QT
-11.375 -5.422 -10.422 -5.422 QT
-9.641 -5.422 -8.829 -5.656 QT
-8.016 -5.891 -7.172 -6.359 QT
-7.172 -4.469 L
-8.032 -4.141 -8.899 -3.969 QT
-9.766 -3.797 -10.641 -3.797 QT
-12.719 -3.797 -13.868 -4.859 QT
-15.016 -5.922 -15.016 -7.828 QT
-15.016 -9.688 -13.891 -10.766 QT
-12.766 -11.844 -10.782 -11.844 QT
-8.969 -11.844 -7.891 -10.758 QT
-6.813 -9.672 -6.813 -7.844 QT
cp
-9.329 -8.656 M
-9.329 -9.359 -9.735 -9.789 QT
-10.141 -10.219 -10.797 -10.219 QT
-11.5 -10.219 -11.946 -9.82 QT
-12.391 -9.422 -12.5 -8.656 QT
-9.329 -8.656 L
cp
0.197 -10.531 M
0.197 -14.641 L
2.65 -14.641 L
2.65 -4 L
0.197 -4 L
0.197 -5.109 L
-0.319 -4.438 -0.928 -4.117 QT
-1.538 -3.797 -2.335 -3.797 QT
-3.741 -3.797 -4.655 -4.922 QT
-5.569 -6.047 -5.569 -7.828 QT
-5.569 -9.594 -4.655 -10.719 QT
-3.741 -11.844 -2.335 -11.844 QT
-1.538 -11.844 -0.928 -11.523 QT
-0.319 -11.203 0.197 -10.531 QT
cp
-1.428 -5.578 M
-0.631 -5.578 -0.217 -6.156 QT
0.197 -6.734 0.197 -7.828 QT
0.197 -8.922 -0.217 -9.492 QT
-0.631 -10.063 -1.428 -10.063 QT
-2.194 -10.063 -2.608 -9.492 QT
-3.022 -8.922 -3.022 -7.828 QT
-3.022 -6.734 -2.608 -6.156 QT
-2.194 -5.578 -1.428 -5.578 QT
cp
12.635 -8.656 M
12.635 -4 L
10.167 -4 L
10.167 -4.766 L
10.167 -7.563 L
10.167 -8.563 10.128 -8.938 QT
10.089 -9.313 9.979 -9.484 QT
9.839 -9.734 9.589 -9.867 QT
9.339 -10 9.026 -10 QT
8.26 -10 7.823 -9.406 QT
7.385 -8.813 7.385 -7.766 QT
7.385 -4 L
4.932 -4 L
4.932 -11.656 L
7.385 -11.656 L
7.385 -10.531 L
7.932 -11.203 8.557 -11.523 QT
9.182 -11.844 9.932 -11.844 QT
11.26 -11.844 11.948 -11.031 QT
12.635 -10.219 12.635 -8.656 QT
cp
14.832 -11.656 M
17.286 -11.656 L
17.286 -4 L
14.832 -4 L
14.832 -11.656 L
cp
17.082 -15.203 M
19.02 -15.203 L
16.489 -12.625 L
15.161 -12.625 L
17.082 -15.203 L
cp
27.302 -8.656 M
27.302 -4 L
24.833 -4 L
24.833 -4.766 L
24.833 -7.563 L
24.833 -8.563 24.794 -8.938 QT
24.755 -9.313 24.646 -9.484 QT
24.505 -9.734 24.255 -9.867 QT
24.005 -10 23.693 -10 QT
22.927 -10 22.49 -9.406 QT
22.052 -8.813 22.052 -7.766 QT
22.052 -4 L
19.599 -4 L
19.599 -14.641 L
22.052 -14.641 L
22.052 -10.531 L
22.599 -11.203 23.224 -11.523 QT
23.849 -11.844 24.599 -11.844 QT
25.927 -11.844 26.615 -11.031 QT
27.302 -10.219 27.302 -8.656 QT
cp
33.14 -10.094 M
32.327 -10.094 31.905 -9.508 QT
31.484 -8.922 31.484 -7.828 QT
31.484 -6.719 31.905 -6.133 QT
32.327 -5.547 33.14 -5.547 QT
33.952 -5.547 34.374 -6.133 QT
34.796 -6.719 34.796 -7.828 QT
34.796 -8.922 34.374 -9.508 QT
33.952 -10.094 33.14 -10.094 QT
cp
33.14 -11.844 M
35.124 -11.844 36.234 -10.773 QT
37.343 -9.703 37.343 -7.828 QT
37.343 -5.938 36.234 -4.867 QT
35.124 -3.797 33.14 -3.797 QT
31.171 -3.797 30.054 -4.867 QT
28.937 -5.938 28.937 -7.828 QT
28.937 -9.703 30.054 -10.773 QT
31.171 -11.844 33.14 -11.844 QT
cp
50.988 -10.391 M
51.457 -11.094 52.097 -11.469 QT
52.738 -11.844 53.504 -11.844 QT
54.816 -11.844 55.511 -11.031 QT
56.207 -10.219 56.207 -8.656 QT
56.207 -4 L
53.738 -4 L
53.738 -8 L
53.754 -8.078 53.754 -8.172 QT
53.754 -8.266 53.754 -8.453 QT
53.754 -9.266 53.519 -9.633 QT
53.285 -10 52.738 -10 QT
52.051 -10 51.668 -9.422 QT
51.285 -8.844 51.269 -7.766 QT
51.269 -4 L
48.816 -4 L
48.816 -8 L
48.816 -9.266 48.597 -9.633 QT
48.379 -10 47.816 -10 QT
47.113 -10 46.73 -9.422 QT
46.347 -8.844 46.347 -7.766 QT
46.347 -4 L
43.879 -4 L
43.879 -11.656 L
46.347 -11.656 L
46.347 -10.531 L
46.801 -11.188 47.386 -11.516 QT
47.972 -11.844 48.676 -11.844 QT
49.457 -11.844 50.066 -11.461 QT
50.676 -11.078 50.988 -10.391 QT
cp
62.025 -10.094 M
61.213 -10.094 60.791 -9.508 QT
60.369 -8.922 60.369 -7.828 QT
60.369 -6.719 60.791 -6.133 QT
61.213 -5.547 62.025 -5.547 QT
62.838 -5.547 63.259 -6.133 QT
63.681 -6.719 63.681 -7.828 QT
63.681 -8.922 63.259 -9.508 QT
62.838 -10.094 62.025 -10.094 QT
cp
62.025 -11.844 M
64.009 -11.844 65.119 -10.773 QT
66.228 -9.703 66.228 -7.828 QT
66.228 -5.938 65.119 -4.867 QT
64.009 -3.797 62.025 -3.797 QT
60.056 -3.797 58.939 -4.867 QT
57.822 -5.938 57.822 -7.828 QT
57.822 -9.703 58.939 -10.773 QT
60.056 -11.844 62.025 -11.844 QT
cp
70.61 -13.828 M
70.61 -11.656 L
73.141 -11.656 L
73.141 -9.906 L
70.61 -9.906 L
70.61 -6.656 L
70.61 -6.125 70.821 -5.938 QT
71.032 -5.75 71.673 -5.75 QT
72.923 -5.75 L
72.923 -4 L
70.829 -4 L
69.376 -4 68.774 -4.602 QT
68.173 -5.203 68.173 -6.656 QT
68.173 -9.906 L
66.954 -9.906 L
66.954 -11.656 L
68.173 -11.656 L
68.173 -13.828 L
70.61 -13.828 L
cp
78.226 -10.094 M
77.414 -10.094 76.992 -9.508 QT
76.57 -8.922 76.57 -7.828 QT
76.57 -6.719 76.992 -6.133 QT
77.414 -5.547 78.226 -5.547 QT
79.039 -5.547 79.461 -6.133 QT
79.883 -6.719 79.883 -7.828 QT
79.883 -8.922 79.461 -9.508 QT
79.039 -10.094 78.226 -10.094 QT
cp
78.226 -11.844 M
80.211 -11.844 81.32 -10.773 QT
82.43 -9.703 82.43 -7.828 QT
82.43 -5.938 81.32 -4.867 QT
80.211 -3.797 78.226 -3.797 QT
76.258 -3.797 75.14 -4.867 QT
74.023 -5.938 74.023 -7.828 QT
74.023 -9.703 75.14 -10.773 QT
76.258 -11.844 78.226 -11.844 QT
cp
89.827 -9.578 M
89.515 -9.719 89.194 -9.789 QT
88.874 -9.859 88.546 -9.859 QT
87.608 -9.859 87.1 -9.258 QT
86.593 -8.656 86.593 -7.531 QT
86.593 -4 L
84.14 -4 L
84.14 -11.656 L
86.593 -11.656 L
86.593 -10.406 L
87.061 -11.156 87.671 -11.5 QT
88.28 -11.844 89.14 -11.844 QT
89.265 -11.844 89.405 -11.836 QT
89.546 -11.828 89.827 -11.781 QT
89.827 -9.578 L
cp
90.919 -6.984 M
90.919 -11.656 L
93.388 -11.656 L
93.388 -10.891 L
93.388 -10.266 93.38 -9.328 QT
93.373 -8.391 93.373 -8.078 QT
93.373 -7.156 93.419 -6.75 QT
93.466 -6.344 93.576 -6.156 QT
93.732 -5.922 93.974 -5.789 QT
94.216 -5.656 94.529 -5.656 QT
95.294 -5.656 95.732 -6.242 QT
96.169 -6.828 96.169 -7.875 QT
96.169 -11.656 L
98.623 -11.656 L
98.623 -4 L
96.169 -4 L
96.169 -5.109 L
95.623 -4.438 94.998 -4.117 QT
94.373 -3.797 93.638 -3.797 QT
92.31 -3.797 91.615 -4.609 QT
90.919 -5.422 90.919 -6.984 QT
cp
f
GR
GS
[0.75 0 0 0.75 0 0.5] CT
0 0.447 0.741 RC
1 LJ
2.667 LW
N
50 213 M
50.063 213 L
50.127 213 L
50.19 213 L
50.254 213 L
50.317 213 L
50.381 213 L
50.444 213 L
50.507 213 L
50.571 213 L
50.634 213 L
50.698 213 L
50.761 213 L
50.825 213 L
50.888 213 L
50.951 213 L
51.015 213 L
51.078 213 L
51.142 213 L
51.205 213 L
51.269 213 L
51.332 213 L
51.395 213 L
51.459 213 L
51.522 213 L
51.586 213 L
51.649 213 L
51.713 213 L
51.776 213 L
51.839 213 L
51.903 213 L
51.966 213 L
52.03 213 L
52.093 213 L
52.157 213 L
52.22 213 L
52.283 213 L
52.347 213 L
52.41 213 L
52.474 213 L
52.537 213 L
52.601 213 L
52.664 213 L
52.727 213 L
52.791 213 L
52.854 213 L
52.918 213 L
52.981 213 L
53.045 213 L
53.108 213 L
53.171 213 L
53.235 213 L
53.298 213 L
53.362 213 L
53.425 213 L
53.489 213 L
53.552 213 L
53.615 213 L
53.679 213 L
53.742 213 L
53.806 213 L
53.869 213 L
53.933 213 L
53.996 213 L
54.059 213 L
54.123 213 L
54.186 213 L
54.25 213 L
54.313 213 L
54.377 213 L
54.44 213 L
54.503 213 L
54.567 213 L
54.63 213 L
54.694 213 L
54.757 213 L
54.821 213 L
54.884 213 L
54.947 213 L
55.011 213 L
55.074 213 L
55.138 213 L
55.201 213 L
55.265 213 L
55.328 213 L
55.391 213 L
55.455 213 L
55.518 213 L
55.582 213 L
55.645 213 L
55.709 213 L
55.772 213 L
55.835 213 L
55.899 213 L
55.962 213 L
56.026 213 L
56.089 213 L
56.153 213 L
56.216 213 L
56.279 213 L
56.343 213 L
56.406 213 L
56.47 213 L
56.533 213 L
56.597 213 L
56.66 213 L
56.723 213 L
56.787 213 L
56.85 213 L
56.914 213 L
56.977 213 L
57.041 213 L
57.104 213 L
57.167 213 L
57.231 213 L
57.294 213 L
57.358 213 L
57.421 213 L
57.485 213 L
57.548 213 L
57.611 213 L
57.675 213 L
57.738 213 L
57.802 213 L
57.865 213 L
57.929 213 L
57.992 213 L
58.055 213 L
58.119 213 L
58.182 213 L
58.246 213 L
58.309 213 L
58.373 213 L
58.436 213 L
58.499 213 L
58.563 213 L
58.626 213 L
58.69 213 L
58.753 213 L
58.817 213 L
58.88 213 L
58.943 213 L
59.007 213 L
59.07 213 L
59.134 213 L
59.197 213 L
59.261 213 L
59.324 213 L
59.387 213 L
59.451 213 L
59.514 213 L
59.578 213 L
59.641 213 L
59.705 213 L
59.768 213 L
59.831 213 L
59.895 213 L
59.958 213 L
60.022 213 L
60.085 213 L
60.149 213 L
60.212 213 L
60.275 213 L
60.339 213 L
60.402 213 L
60.466 213 L
60.529 213 L
60.593 213 L
60.656 213 L
60.719 213 L
60.783 213 L
60.846 213 L
60.91 213 L
60.973 213 L
61.037 213 L
61.1 213 L
61.163 213 L
61.227 213 L
61.29 213 L
61.354 213 L
61.417 213 L
61.481 213 L
61.544 213 L
61.607 213 L
61.671 213 L
61.734 213 L
61.798 213 L
61.861 213 L
61.925 213 L
61.988 213 L
62.051 213 L
62.115 213 L
62.178 213 L
62.242 213 L
62.305 213 L
62.369 213 L
62.432 213 L
62.495 213 L
62.559 213 L
62.622 213 L
62.686 213 L
62.749 213 L
62.813 213 L
62.876 213 L
62.939 213 L
63.003 213 L
63.066 213 L
63.13 213 L
63.193 213 L
63.257 213 L
63.32 213 L
63.383 213 L
63.447 213 L
63.51 213 L
63.574 213 L
63.637 213 L
63.701 213 L
63.764 213 L
63.827 213 L
63.891 213 L
63.954 213 L
64.018 213 L
64.081 213 L
64.145 213 L
64.208 213 L
64.271 213 L
64.335 213 L
64.398 213 L
64.462 213 L
64.525 213 L
64.589 213 L
64.652 213 L
64.715 213 L
64.779 213 L
64.842 213 L
64.906 213 L
64.969 213 L
65.033 213 L
65.096 213 L
65.159 213 L
65.223 213 L
65.286 213 L
65.35 213 L
65.413 213 L
65.477 213 L
65.54 213 L
65.603 213 L
65.667 213 L
65.73 213 L
65.794 213 L
65.857 213 L
65.921 213 L
65.984 213 L
66.047 213 L
66.111 213 L
66.174 213 L
66.238 213 L
66.301 213 L
66.365 213 L
66.428 213 L
66.491 213 L
66.555 213 L
66.618 213 L
66.682 213 L
66.745 213 L
66.809 213 L
66.872 213 L
66.935 213 L
66.999 213 L
67.062 213 L
67.126 213 L
67.189 213 L
67.253 213 L
67.316 213 L
67.379 213 L
67.443 213 L
67.506 213 L
67.57 213 L
67.633 213 L
67.697 213 L
67.76 213 L
67.823 213 L
67.887 213 L
67.95 213 L
68.014 213 L
68.077 213 L
68.141 213 L
68.204 213 L
68.267 213 L
68.331 213 L
68.394 213 L
68.458 213 L
68.521 213 L
68.585 213 L
68.648 213 L
68.711 213 L
68.775 213 L
68.838 213 L
68.902 213 L
68.965 213 L
69.029 213 L
69.092 213 L
69.155 213 L
69.219 213 L
69.282 213 L
69.346 213 L
69.409 213 L
69.473 213 L
69.536 213 L
69.599 213 L
69.663 213 L
69.726 213 L
69.79 213 L
69.853 213 L
69.917 213 L
69.98 213 L
70.043 213 L
70.107 213 L
70.17 213 L
70.234 213 L
70.297 213 L
70.361 213 L
70.424 213 L
70.487 213 L
70.551 213 L
70.614 213 L
70.678 213 L
70.741 213 L
70.805 213 L
70.868 213 L
70.931 213 L
70.995 213 L
71.058 213 L
71.122 213 L
71.185 213 L
71.249 213 L
71.312 213 L
71.375 213 L
71.439 213 L
71.502 213 L
71.566 213 L
71.629 213 L
71.693 213 L
71.756 213 L
71.819 213 L
71.883 213 L
71.946 213 L
72.01 213 L
72.073 213 L
72.137 213 L
72.2 213 L
72.263 213 L
72.327 213 L
72.39 213 L
72.454 213 L
72.517 213 L
72.581 213 L
72.644 213 L
72.707 213 L
72.771 213 L
72.834 213 L
72.898 213 L
72.961 213 L
73.025 213 L
73.088 213 L
73.151 213 L
73.215 213 L
73.278 213 L
73.342 213 L
73.405 213 L
73.469 213 L
73.532 213 L
73.595 213 L
73.659 213 L
73.722 213 L
73.786 213 L
73.849 213 L
73.913 213 L
73.976 213 L
74.039 213 L
74.103 213 L
74.166 213 L
74.23 213 L
74.293 213 L
74.357 213 L
74.42 213 L
74.483 213 L
74.547 213 L
74.61 213 L
74.674 213 L
74.737 213 L
74.801 213 L
74.864 213 L
74.927 213 L
74.991 213 L
75.054 213 L
75.118 213 L
75.181 213 L
75.245 213 L
75.308 213 L
75.371 213 L
75.435 213 L
75.498 213 L
75.562 213 L
75.625 213 L
75.689 213 L
75.752 213 L
75.815 213 L
75.879 213 L
75.942 213 L
76.006 213 L
76.069 213 L
76.133 213 L
76.196 213 L
76.259 213 L
76.323 213 L
76.386 213 L
76.45 213 L
76.513 213 L
76.577 213 L
76.64 213 L
76.703 213 L
76.767 213 L
76.83 213 L
76.894 213 L
76.957 213 L
77.021 213 L
77.084 213 L
77.147 213 L
77.211 213 L
77.274 213 L
77.338 213 L
77.401 213 L
77.465 213 L
77.528 213 L
77.591 213 L
77.655 213 L
77.718 213 L
77.782 213 L
77.845 213 L
77.909 213 L
77.972 213 L
78.035 213 L
78.099 213 L
78.162 213 L
78.226 213 L
78.289 213 L
78.353 213 L
78.416 213 L
78.479 213 L
78.543 213 L
78.606 213 L
78.67 213 L
78.733 213 L
78.797 213 L
78.86 213 L
78.923 213 L
78.987 213 L
79.05 213 L
79.114 213 L
79.177 213 L
79.241 213 L
79.304 213 L
79.367 213 L
79.431 213 L
79.494 213 L
79.558 213 L
79.621 213 L
79.685 213 L
79.748 213 L
79.811 213 L
79.875 212.759 L
79.938 212.759 L
80.002 212.759 L
80.065 212.759 L
80.129 212.759 L
80.192 212.759 L
80.255 212.759 L
80.319 212.759 L
80.382 212.759 L
80.446 212.759 L
80.509 212.759 L
80.573 212.759 L
80.636 212.759 L
80.699 212.759 L
80.763 212.759 L
80.826 212.759 L
80.89 212.759 L
80.953 212.759 L
81.017 212.759 L
81.08 212.759 L
81.143 212.518 L
81.207 212.518 L
81.27 212.518 L
81.334 212.518 L
81.397 212.518 L
81.461 212.518 L
81.524 212.518 L
81.587 212.518 L
81.651 212.518 L
81.714 212.518 L
81.778 212.518 L
81.841 212.518 L
81.905 212.276 L
81.968 212.276 L
82.031 212.276 L
82.095 212.276 L
82.158 212.276 L
82.222 212.276 L
82.285 212.276 L
82.349 212.276 L
82.412 212.276 L
82.475 212.276 L
82.539 212.276 L
82.602 212.035 L
82.666 212.035 L
82.729 212.035 L
82.793 212.035 L
82.856 212.035 L
82.919 212.035 L
82.983 212.035 L
83.046 212.035 L
83.11 212.035 L
83.173 211.794 L
83.237 211.794 L
83.3 211.794 L
83.363 211.794 L
83.427 211.794 L
83.49 211.794 L
83.554 211.794 L
83.617 211.794 L
83.681 211.794 L
83.744 211.553 L
83.807 211.553 L
83.871 211.553 L
83.934 211.553 L
83.998 211.553 L
84.061 211.553 L
84.125 211.553 L
84.188 211.553 L
84.251 211.311 L
84.315 211.311 L
84.378 211.311 L
84.442 211.311 L
84.505 211.311 L
84.569 211.311 L
84.632 211.311 L
84.695 211.07 L
84.759 211.07 L
84.822 211.07 L
84.886 211.07 L
84.949 211.07 L
85.013 211.07 L
85.076 211.07 L
85.139 210.829 L
85.203 210.829 L
85.266 210.829 L
85.33 210.829 L
85.393 210.829 L
85.457 210.829 L
85.52 210.829 L
85.583 210.587 L
85.647 210.587 L
85.71 210.587 L
85.774 210.587 L
85.837 210.587 L
85.901 210.587 L
85.964 210.346 L
86.027 210.346 L
86.091 210.346 L
86.154 210.346 L
86.218 210.346 L
86.281 210.346 L
86.345 210.346 L
86.408 210.105 L
86.471 210.105 L
86.535 210.105 L
86.598 210.105 L
86.662 210.105 L
86.725 210.105 L
86.789 209.864 L
86.852 209.864 L
86.915 209.864 L
86.979 209.864 L
87.042 209.864 L
87.106 209.864 L
87.169 209.622 L
87.233 209.622 L
87.296 209.622 L
87.359 209.622 L
87.423 209.622 L
87.486 209.381 L
87.55 209.381 L
87.613 209.381 L
87.677 209.381 L
87.74 209.381 L
87.803 209.381 L
87.867 209.14 L
87.93 209.14 L
87.994 209.14 L
88.057 209.14 L
88.121 209.14 L
88.184 208.899 L
88.247 208.899 L
88.311 208.899 L
88.374 208.899 L
88.438 208.899 L
88.501 208.899 L
88.565 208.658 L
88.628 208.658 L
88.691 208.658 L
88.755 208.658 L
88.818 208.658 L
88.882 208.416 L
88.945 208.416 L
89.009 208.416 L
89.072 208.416 L
89.135 208.416 L
89.199 208.416 L
89.262 208.175 L
89.326 208.175 L
89.389 208.175 L
89.453 208.175 L
89.516 208.175 L
89.579 207.934 L
89.643 207.934 L
89.706 207.934 L
89.77 207.934 L
89.833 207.934 L
89.897 207.693 L
89.96 207.693 L
90.023 207.693 L
90.087 207.693 L
90.15 207.693 L
90.214 207.451 L
90.277 207.451 L
90.341 207.451 L
90.404 207.451 L
90.467 207.451 L
90.531 207.21 L
90.594 207.21 L
90.658 207.21 L
90.721 207.21 L
90.785 207.21 L
90.848 206.969 L
90.911 206.969 L
90.975 206.969 L
91.038 206.969 L
91.102 206.969 L
91.165 206.727 L
91.229 206.727 L
91.292 206.727 L
91.355 206.727 L
91.419 206.486 L
91.482 206.486 L
91.546 206.486 L
91.609 206.486 L
91.673 206.486 L
91.736 206.245 L
91.799 206.245 L
91.863 206.245 L
91.926 206.245 L
91.99 206.245 L
92.053 206.004 L
92.117 206.004 L
92.18 206.004 L
92.243 206.004 L
92.307 206.004 L
92.37 205.762 L
92.434 205.762 L
92.497 205.762 L
92.561 205.762 L
92.624 205.521 L
92.687 205.521 L
92.751 205.521 L
92.814 205.521 L
92.878 205.521 L
92.941 205.28 L
93.005 205.28 L
93.068 205.28 L
93.131 205.28 L
93.195 205.039 L
93.258 205.039 L
93.322 205.039 L
93.385 205.039 L
93.449 205.039 L
93.512 204.798 L
93.575 204.798 L
93.639 204.798 L
93.702 204.798 L
93.766 204.556 L
93.829 204.556 L
93.893 204.556 L
93.956 204.556 L
94.019 204.556 L
94.083 204.315 L
94.146 204.315 L
94.21 204.315 L
94.273 204.315 L
94.337 204.074 L
94.4 204.074 L
94.463 204.074 L
94.527 204.074 L
94.59 204.074 L
94.654 203.833 L
94.717 203.833 L
94.781 203.833 L
94.844 203.833 L
94.907 203.591 L
94.971 203.591 L
95.034 203.591 L
95.098 203.591 L
95.161 203.591 L
95.225 203.35 L
95.288 203.35 L
95.351 203.35 L
95.415 203.35 L
95.478 203.109 L
95.542 203.109 L
95.605 203.109 L
95.669 203.109 L
95.732 202.867 L
95.795 202.867 L
95.859 202.867 L
95.922 202.867 L
95.986 202.626 L
96.049 202.626 L
96.113 202.626 L
96.176 202.626 L
96.239 202.626 L
96.303 202.385 L
96.366 202.385 L
96.43 202.385 L
96.493 202.385 L
96.557 202.144 L
96.62 202.144 L
96.683 202.144 L
96.747 202.144 L
96.81 201.902 L
96.874 201.902 L
96.937 201.902 L
97.001 201.902 L
97.064 201.661 L
97.127 201.661 L
97.191 201.661 L
97.254 201.661 L
97.318 201.661 L
97.381 201.42 L
97.445 201.42 L
97.508 201.42 L
97.571 201.42 L
97.635 201.179 L
97.698 201.179 L
97.762 201.179 L
97.825 201.179 L
97.889 200.938 L
97.952 200.938 L
98.015 200.938 L
98.079 200.938 L
98.142 200.696 L
98.206 200.696 L
98.269 200.696 L
98.333 200.696 L
98.396 200.455 L
98.459 200.455 L
98.523 200.455 L
98.586 200.455 L
98.65 200.214 L
98.713 200.214 L
98.777 200.214 L
98.84 200.214 L
98.903 200.214 L
98.967 199.973 L
99.03 199.973 L
99.094 199.973 L
99.157 199.973 L
99.221 199.731 L
99.284 199.731 L
99.347 199.731 L
99.411 199.731 L
99.474 199.49 L
99.538 199.49 L
99.601 199.49 L
99.665 199.49 L
99.728 199.249 L
99.791 199.249 L
99.855 199.249 L
99.918 199.249 L
99.982 199.008 L
100.045 199.008 L
100.109 199.008 L
100.172 199.008 L
100.235 198.766 L
100.299 198.766 L
100.362 198.766 L
100.426 198.766 L
100.489 198.525 L
100.553 198.525 L
100.616 198.525 L
100.679 198.525 L
100.743 198.284 L
100.806 198.284 L
100.87 198.284 L
100.933 198.284 L
100.997 198.042 L
101.06 198.042 L
101.123 198.042 L
101.187 198.042 L
101.25 197.801 L
101.314 197.801 L
101.377 197.801 L
101.441 197.801 L
101.504 197.56 L
101.567 197.56 L
101.631 197.56 L
101.694 197.56 L
101.758 197.319 L
101.821 197.319 L
101.885 197.319 L
101.948 197.319 L
102.011 197.077 L
102.075 197.077 L
102.138 197.077 L
102.202 197.077 L
102.265 196.836 L
102.329 196.836 L
102.392 196.836 L
102.455 196.836 L
102.519 196.836 L
102.582 196.595 L
102.646 196.595 L
102.709 196.595 L
102.773 196.354 L
102.836 196.354 L
102.899 196.354 L
102.963 196.354 L
103.026 196.113 L
103.09 196.113 L
103.153 196.113 L
103.217 196.113 L
103.28 195.871 L
103.343 195.871 L
103.407 195.871 L
103.47 195.871 L
103.534 195.63 L
103.597 195.63 L
103.661 195.63 L
103.724 195.63 L
103.787 195.389 L
103.851 195.389 L
103.914 195.389 L
103.978 195.389 L
104.041 195.148 L
104.105 195.148 L
104.168 195.148 L
104.231 195.148 L
104.295 194.906 L
104.358 194.906 L
104.422 194.906 L
104.485 194.906 L
104.549 194.665 L
104.612 194.665 L
104.675 194.665 L
104.739 194.665 L
104.802 194.424 L
104.866 194.424 L
104.929 194.424 L
104.993 194.424 L
105.056 194.182 L
105.119 194.182 L
105.183 194.182 L
105.246 194.182 L
105.31 193.941 L
105.373 193.941 L
105.437 193.941 L
105.5 193.941 L
105.563 193.7 L
105.627 193.7 L
105.69 193.7 L
105.754 193.7 L
105.817 193.459 L
105.881 193.459 L
105.944 193.459 L
106.007 193.459 L
106.071 193.217 L
106.134 193.217 L
106.198 193.217 L
106.261 192.976 L
106.325 192.976 L
106.388 192.976 L
106.451 192.976 L
106.515 192.735 L
106.578 192.735 L
106.642 192.735 L
106.705 192.735 L
106.769 192.494 L
106.832 192.494 L
106.895 192.494 L
106.959 192.494 L
107.022 192.253 L
107.086 192.253 L
107.149 192.253 L
107.213 192.253 L
107.276 192.011 L
107.339 192.011 L
107.403 192.011 L
107.466 192.011 L
107.53 191.77 L
107.593 191.77 L
107.657 191.77 L
107.72 191.77 L
107.783 191.529 L
107.847 191.529 L
107.91 191.529 L
107.974 191.529 L
108.037 191.288 L
108.101 191.288 L
108.164 191.288 L
108.227 191.046 L
108.291 191.046 L
108.354 191.046 L
108.418 191.046 L
108.481 190.805 L
108.545 190.805 L
108.608 190.805 L
108.671 190.805 L
108.735 190.564 L
108.798 190.564 L
108.862 190.564 L
108.925 190.564 L
108.989 190.322 L
109.052 190.322 L
109.115 190.322 L
109.179 190.322 L
109.242 190.081 L
109.306 190.081 L
109.369 190.081 L
109.433 190.081 L
109.496 189.84 L
109.559 189.84 L
109.623 189.84 L
109.686 189.84 L
109.75 189.599 L
109.813 189.599 L
109.877 189.599 L
109.94 189.599 L
110.003 189.357 L
110.067 189.357 L
110.13 189.357 L
110.194 189.116 L
110.257 189.116 L
110.321 189.116 L
110.384 189.116 L
110.447 188.875 L
110.511 188.875 L
110.574 188.875 L
110.638 188.875 L
110.701 188.634 L
110.765 188.634 L
110.828 188.634 L
110.891 188.634 L
110.955 188.393 L
111.018 188.393 L
111.082 188.393 L
111.145 188.393 L
111.209 188.151 L
111.272 188.151 L
111.335 188.151 L
111.399 188.151 L
111.462 187.91 L
111.526 187.91 L
111.589 187.91 L
111.653 187.669 L
111.716 187.669 L
111.779 187.669 L
111.843 187.669 L
111.906 187.428 L
111.97 187.428 L
112.033 187.428 L
112.097 187.428 L
112.16 187.186 L
112.223 187.186 L
112.287 187.186 L
112.35 187.186 L
112.414 186.945 L
112.477 186.945 L
112.541 186.945 L
112.604 186.945 L
112.667 186.704 L
112.731 186.704 L
112.794 186.704 L
112.858 186.704 L
112.921 186.462 L
112.985 186.462 L
113.048 186.462 L
113.111 186.221 L
113.175 186.221 L
113.238 186.221 L
113.302 186.221 L
113.365 185.98 L
113.429 185.98 L
113.492 185.98 L
113.555 185.98 L
113.619 185.739 L
113.682 185.739 L
113.746 185.739 L
113.809 185.739 L
113.873 185.497 L
113.936 185.497 L
113.999 185.497 L
114.063 185.256 L
114.126 185.256 L
114.19 185.256 L
114.253 185.256 L
114.317 185.015 L
114.38 185.015 L
114.443 185.015 L
114.507 185.015 L
114.57 184.774 L
114.634 184.774 L
114.697 184.774 L
114.761 184.774 L
114.824 184.533 L
114.887 184.533 L
114.951 184.533 L
115.014 184.533 L
115.078 184.291 L
115.141 184.291 L
115.205 184.291 L
115.268 184.291 L
115.331 184.05 L
115.395 184.05 L
115.458 184.05 L
115.522 183.809 L
115.585 183.809 L
115.649 183.809 L
115.712 183.809 L
115.775 183.568 L
115.839 183.568 L
115.902 183.568 L
115.966 183.568 L
116.029 183.326 L
116.093 183.326 L
116.156 183.326 L
116.219 183.326 L
116.283 183.085 L
116.346 183.085 L
116.41 183.085 L
116.473 182.844 L
116.537 182.844 L
116.6 182.844 L
116.663 182.844 L
116.727 182.602 L
116.79 182.602 L
116.854 182.602 L
116.917 182.602 L
116.981 182.361 L
117.044 182.361 L
117.107 182.361 L
117.171 182.361 L
117.234 182.12 L
117.298 182.12 L
117.361 182.12 L
117.425 182.12 L
117.488 181.879 L
117.551 181.879 L
117.615 181.879 L
117.678 181.637 L
117.742 181.637 L
117.805 181.637 L
117.869 181.637 L
117.932 181.396 L
117.995 181.396 L
118.059 181.396 L
118.122 181.396 L
118.186 181.155 L
118.249 181.155 L
118.313 181.155 L
118.376 181.155 L
118.439 180.914 L
118.503 180.914 L
118.566 180.914 L
118.63 180.914 L
118.693 180.673 L
118.757 180.673 L
118.82 180.673 L
118.883 180.431 L
118.947 180.431 L
119.01 180.431 L
119.074 180.431 L
119.137 180.19 L
119.201 180.19 L
119.264 180.19 L
119.327 180.19 L
119.391 179.949 L
119.454 179.949 L
119.518 179.949 L
119.581 179.949 L
119.645 179.708 L
119.708 179.708 L
119.771 179.708 L
119.835 179.466 L
119.898 179.466 L
119.962 179.466 L
120.025 179.466 L
120.089 179.225 L
120.152 179.225 L
120.215 179.225 L
120.279 179.225 L
120.342 178.984 L
120.406 178.984 L
120.469 178.984 L
120.533 178.984 L
120.596 178.742 L
120.659 178.742 L
120.723 178.742 L
120.786 178.501 L
120.85 178.501 L
120.913 178.501 L
120.977 178.501 L
121.04 178.26 L
121.103 178.26 L
121.167 178.26 L
121.23 178.26 L
121.294 178.019 L
121.357 178.019 L
121.421 178.019 L
121.484 178.019 L
121.547 177.777 L
121.611 177.777 L
121.674 177.777 L
121.738 177.536 L
121.801 177.536 L
121.865 177.536 L
121.928 177.536 L
121.991 177.295 L
122.055 177.295 L
122.118 177.295 L
122.182 177.295 L
122.245 177.054 L
122.309 177.054 L
122.372 177.054 L
122.435 177.054 L
122.499 176.813 L
122.562 176.813 L
122.626 176.813 L
122.689 176.571 L
122.753 176.571 L
122.816 176.571 L
122.879 176.571 L
122.943 176.33 L
123.006 176.33 L
123.07 176.33 L
123.133 176.33 L
123.197 176.089 L
123.26 176.089 L
123.323 176.089 L
123.387 176.089 L
123.45 175.848 L
123.514 175.848 L
123.577 175.848 L
123.641 175.606 L
123.704 175.606 L
123.767 175.606 L
123.831 175.606 L
123.894 175.365 L
123.958 175.365 L
124.021 175.365 L
124.085 175.365 L
124.148 175.124 L
124.211 175.124 L
124.275 175.124 L
124.338 175.124 L
124.402 174.883 L
124.465 174.883 L
124.529 174.883 L
124.592 174.641 L
124.655 174.641 L
124.719 174.641 L
124.782 174.641 L
124.846 174.4 L
124.909 174.4 L
124.973 174.4 L
125.036 174.4 L
125.099 174.159 L
125.163 174.159 L
125.226 174.159 L
125.29 174.159 L
125.353 173.917 L
125.417 173.917 L
125.48 173.917 L
125.543 173.676 L
125.607 173.676 L
125.67 173.676 L
125.734 173.676 L
125.797 173.435 L
125.861 173.435 L
125.924 173.435 L
125.987 173.435 L
126.051 173.194 L
126.114 173.194 L
126.178 173.194 L
126.241 173.194 L
126.305 172.952 L
126.368 172.952 L
126.431 172.952 L
126.495 172.711 L
126.558 172.711 L
126.622 172.711 L
126.685 172.711 L
126.749 172.47 L
126.812 172.47 L
126.875 172.47 L
126.939 172.47 L
127.002 172.229 L
127.066 172.229 L
127.129 172.229 L
127.193 172.229 L
127.256 171.988 L
127.319 171.988 L
127.383 171.988 L
127.446 171.746 L
127.51 171.746 L
127.573 171.746 L
127.637 171.746 L
127.7 171.505 L
127.763 171.505 L
127.827 171.505 L
127.89 171.505 L
127.954 171.264 L
128.017 171.264 L
128.081 171.264 L
128.144 171.264 L
128.207 171.023 L
128.271 171.023 L
128.334 171.023 L
128.398 170.781 L
128.461 170.781 L
128.525 170.781 L
128.588 170.781 L
128.651 170.54 L
128.715 170.54 L
128.778 170.54 L
128.842 170.54 L
128.905 170.299 L
128.969 170.299 L
129.032 170.299 L
129.095 170.299 L
129.159 170.057 L
129.222 170.057 L
129.286 170.057 L
129.349 169.816 L
129.413 169.816 L
129.476 169.816 L
129.539 169.816 L
129.603 169.575 L
129.666 169.575 L
129.73 169.575 L
129.793 169.575 L
129.857 169.334 L
129.92 169.334 L
129.983 169.334 L
130.047 169.092 L
130.11 169.092 L
130.174 169.092 L
130.237 169.092 L
130.301 168.851 L
130.364 168.851 L
130.427 168.851 L
130.491 168.851 L
130.554 168.61 L
130.618 168.61 L
130.681 168.61 L
130.745 168.61 L
130.808 168.369 L
130.871 168.369 L
130.935 168.369 L
130.998 168.128 L
131.062 168.128 L
131.125 168.128 L
131.189 168.128 L
131.252 167.886 L
131.315 167.886 L
131.379 167.886 L
131.442 167.886 L
131.506 167.645 L
131.569 167.645 L
131.633 167.645 L
131.696 167.645 L
131.759 167.404 L
131.823 167.404 L
131.886 167.404 L
131.95 167.163 L
132.013 167.163 L
132.077 167.163 L
132.14 167.163 L
132.203 166.921 L
132.267 166.921 L
132.33 166.921 L
132.394 166.921 L
132.457 166.68 L
132.521 166.68 L
132.584 166.68 L
132.647 166.439 L
132.711 166.439 L
132.774 166.439 L
132.838 166.439 L
132.901 166.197 L
132.965 166.197 L
133.028 166.197 L
133.091 166.197 L
133.155 165.956 L
133.218 165.956 L
133.282 165.956 L
133.345 165.956 L
133.409 165.715 L
133.472 165.715 L
133.535 165.715 L
133.599 165.474 L
133.662 165.474 L
133.726 165.474 L
133.789 165.474 L
133.853 165.232 L
133.916 165.232 L
133.979 165.232 L
134.043 165.232 L
134.106 164.991 L
134.17 164.991 L
134.233 164.991 L
134.297 164.991 L
134.36 164.75 L
134.423 164.75 L
134.487 164.75 L
134.55 164.509 L
134.614 164.509 L
134.677 164.509 L
134.741 164.509 L
134.804 164.268 L
134.867 164.268 L
134.931 164.268 L
134.994 164.268 L
135.058 164.026 L
135.121 164.026 L
135.185 164.026 L
135.248 164.026 L
135.311 163.785 L
135.375 163.785 L
135.438 163.785 L
135.502 163.544 L
135.565 163.544 L
135.629 163.544 L
135.692 163.544 L
135.755 163.303 L
135.819 163.303 L
135.882 163.303 L
135.946 163.303 L
136.009 163.061 L
136.073 163.061 L
136.136 163.061 L
136.199 163.061 L
136.263 162.82 L
136.326 162.82 L
136.39 162.82 L
136.453 162.579 L
136.517 162.579 L
136.58 162.579 L
136.643 162.579 L
136.707 162.337 L
136.77 162.337 L
136.834 162.337 L
136.897 162.096 L
136.961 162.096 L
137.024 162.096 L
137.087 162.096 L
137.151 161.855 L
137.214 161.855 L
137.278 161.855 L
137.341 161.855 L
137.405 161.614 L
137.468 161.614 L
137.531 161.614 L
137.595 161.614 L
137.658 161.372 L
137.722 161.372 L
137.785 161.372 L
137.849 161.131 L
137.912 161.131 L
137.975 161.131 L
138.039 161.131 L
138.102 160.89 L
138.166 160.89 L
138.229 160.89 L
138.293 160.89 L
138.356 160.649 L
138.419 160.649 L
138.483 160.649 L
138.546 160.649 L
138.61 160.408 L
138.673 160.408 L
138.737 160.408 L
138.8 160.166 L
138.863 160.166 L
138.927 160.166 L
138.99 160.166 L
139.054 159.925 L
139.117 159.925 L
139.181 159.925 L
139.244 159.925 L
139.307 159.684 L
139.371 159.684 L
139.434 159.684 L
139.498 159.684 L
139.561 159.443 L
139.625 159.443 L
139.688 159.443 L
139.751 159.201 L
139.815 159.201 L
139.878 159.201 L
139.942 159.201 L
140.005 158.96 L
140.069 158.96 L
140.132 158.96 L
140.195 158.96 L
140.259 158.719 L
140.322 158.719 L
140.386 158.719 L
140.449 158.477 L
140.513 158.477 L
140.576 158.477 L
140.639 158.477 L
140.703 158.236 L
140.766 158.236 L
140.83 158.236 L
140.893 158.236 L
140.957 157.995 L
141.02 157.995 L
141.083 157.995 L
141.147 157.754 L
141.21 157.754 L
141.274 157.754 L
141.337 157.754 L
141.401 157.512 L
141.464 157.512 L
141.527 157.512 L
141.591 157.512 L
141.654 157.271 L
141.718 157.271 L
141.781 157.271 L
141.845 157.271 L
141.908 157.03 L
141.971 157.03 L
142.035 157.03 L
142.098 156.789 L
142.162 156.789 L
142.225 156.789 L
142.289 156.789 L
142.352 156.548 L
142.415 156.548 L
142.479 156.548 L
142.542 156.548 L
142.606 156.306 L
142.669 156.306 L
142.733 156.306 L
142.796 156.306 L
142.859 156.065 L
142.923 156.065 L
142.986 156.065 L
143.05 155.824 L
143.113 155.824 L
143.177 155.824 L
143.24 155.824 L
143.303 155.583 L
143.367 155.583 L
143.43 155.583 L
143.494 155.583 L
143.557 155.341 L
143.621 155.341 L
143.684 155.341 L
143.747 155.1 L
143.811 155.1 L
143.874 155.1 L
143.938 155.1 L
144.001 154.859 L
144.065 154.859 L
144.128 154.859 L
144.191 154.859 L
144.255 154.617 L
144.318 154.617 L
144.382 154.617 L
144.445 154.376 L
144.509 154.376 L
144.572 154.376 L
144.635 154.376 L
144.699 154.135 L
144.762 154.135 L
144.826 154.135 L
144.889 154.135 L
144.953 153.894 L
145.016 153.894 L
145.079 153.894 L
145.143 153.894 L
145.206 153.652 L
145.27 153.652 L
145.333 153.652 L
145.397 153.411 L
145.46 153.411 L
145.523 153.411 L
145.587 153.411 L
145.65 153.17 L
145.714 153.17 L
145.777 153.17 L
145.841 153.17 L
145.904 152.929 L
145.967 152.929 L
146.031 152.929 L
146.094 152.929 L
146.158 152.688 L
146.221 152.688 L
146.285 152.688 L
146.348 152.446 L
146.411 152.446 L
146.475 152.446 L
146.538 152.446 L
146.602 152.205 L
146.665 152.205 L
146.729 152.205 L
146.792 151.964 L
146.855 151.964 L
146.919 151.964 L
146.982 151.964 L
147.046 151.723 L
147.109 151.723 L
147.173 151.723 L
147.236 151.723 L
147.299 151.481 L
147.363 151.481 L
147.426 151.481 L
147.49 151.481 L
147.553 151.24 L
147.617 151.24 L
147.68 151.24 L
147.743 150.999 L
147.807 150.999 L
147.87 150.999 L
147.934 150.999 L
147.997 150.758 L
148.061 150.758 L
148.124 150.758 L
148.187 150.758 L
148.251 150.516 L
148.314 150.516 L
148.378 150.516 L
148.441 150.516 L
148.505 150.275 L
148.568 150.275 L
148.631 150.275 L
148.695 150.034 L
148.758 150.034 L
148.822 150.034 L
148.885 150.034 L
148.949 149.792 L
149.012 149.792 L
149.075 149.792 L
149.139 149.792 L
149.202 149.551 L
149.266 149.551 L
149.329 149.551 L
149.393 149.31 L
149.456 149.31 L
149.519 149.31 L
149.583 149.31 L
149.646 149.069 L
149.71 149.069 L
149.773 149.069 L
149.837 149.069 L
149.9 148.827 L
149.963 148.827 L
150.027 148.827 L
150.09 148.586 L
150.154 148.586 L
150.217 148.586 L
150.281 148.586 L
150.344 148.345 L
150.407 148.345 L
150.471 148.345 L
150.534 148.345 L
150.598 148.104 L
150.661 148.104 L
150.725 148.104 L
150.788 148.104 L
150.851 147.863 L
150.915 147.863 L
150.978 147.863 L
151.042 147.621 L
151.105 147.621 L
151.169 147.621 L
151.232 147.621 L
151.295 147.38 L
151.359 147.38 L
151.422 147.38 L
151.486 147.38 L
151.549 147.139 L
151.613 147.139 L
151.676 147.139 L
151.739 146.898 L
151.803 146.898 L
151.866 146.898 L
151.93 146.898 L
151.993 146.656 L
152.057 146.656 L
152.12 146.656 L
152.183 146.656 L
152.247 146.415 L
152.31 146.415 L
152.374 146.415 L
152.437 146.174 L
152.501 146.174 L
152.564 146.174 L
152.627 146.174 L
152.691 145.932 L
152.754 145.932 L
152.818 145.932 L
152.881 145.932 L
152.945 145.691 L
153.008 145.691 L
153.071 145.691 L
153.135 145.691 L
153.198 145.45 L
153.262 145.45 L
153.325 145.45 L
153.389 145.209 L
153.452 145.209 L
153.515 145.209 L
153.579 145.209 L
153.642 144.967 L
153.706 144.967 L
153.769 144.967 L
153.833 144.967 L
153.896 144.726 L
153.959 144.726 L
154.023 144.726 L
154.086 144.485 L
154.15 144.485 L
154.213 144.485 L
154.277 144.485 L
154.34 144.244 L
154.403 144.244 L
154.467 144.244 L
154.53 144.244 L
154.594 144.003 L
154.657 144.003 L
154.721 144.003 L
154.784 143.761 L
154.847 143.761 L
154.911 143.761 L
154.974 143.761 L
155.038 143.52 L
155.101 143.52 L
155.165 143.52 L
155.228 143.52 L
155.291 143.279 L
155.355 143.279 L
155.418 143.279 L
155.482 143.279 L
155.545 143.038 L
155.609 143.038 L
155.672 143.038 L
155.735 142.796 L
155.799 142.796 L
155.862 142.796 L
155.926 142.796 L
155.989 142.555 L
156.053 142.555 L
156.116 142.555 L
156.179 142.555 L
156.243 142.314 L
156.306 142.314 L
156.37 142.314 L
156.433 142.072 L
156.497 142.072 L
156.56 142.072 L
156.623 142.072 L
156.687 141.831 L
156.75 141.831 L
156.814 141.831 L
156.877 141.831 L
156.941 141.59 L
157.004 141.59 L
157.067 141.59 L
157.131 141.349 L
157.194 141.349 L
157.258 141.349 L
157.321 141.349 L
157.385 141.107 L
157.448 141.107 L
157.511 141.107 L
157.575 141.107 L
157.638 140.866 L
157.702 140.866 L
157.765 140.866 L
157.829 140.866 L
157.892 140.625 L
157.955 140.625 L
158.019 140.625 L
158.082 140.384 L
158.146 140.384 L
158.209 140.384 L
158.273 140.384 L
158.336 140.143 L
158.399 140.143 L
158.463 140.143 L
158.526 140.143 L
158.59 139.901 L
158.653 139.901 L
158.717 139.901 L
158.78 139.66 L
158.843 139.66 L
158.907 139.66 L
158.97 139.66 L
159.034 139.419 L
159.097 139.419 L
159.161 139.419 L
159.224 139.419 L
159.287 139.178 L
159.351 139.178 L
159.414 139.178 L
159.478 138.936 L
159.541 138.936 L
159.605 138.936 L
159.668 138.936 L
159.731 138.695 L
159.795 138.695 L
159.858 138.695 L
159.922 138.695 L
159.985 138.454 L
160.049 138.454 L
160.112 138.454 L
160.175 138.454 L
160.239 138.212 L
160.302 138.212 L
160.366 138.212 L
160.429 137.971 L
160.493 137.971 L
160.556 137.971 L
160.619 137.971 L
160.683 137.73 L
160.746 137.73 L
160.81 137.73 L
160.873 137.73 L
160.937 137.489 L
161 137.489 L
161.063 137.489 L
161.127 137.247 L
161.19 137.247 L
161.254 137.247 L
161.317 137.247 L
161.381 137.006 L
161.444 137.006 L
161.507 137.006 L
161.571 137.006 L
161.634 136.765 L
161.698 136.765 L
161.761 136.765 L
161.825 136.524 L
161.888 136.524 L
161.951 136.524 L
162.015 136.524 L
162.078 136.283 L
162.142 136.283 L
162.205 136.283 L
162.269 136.283 L
162.332 136.041 L
162.395 136.041 L
162.459 136.041 L
162.522 136.041 L
162.586 135.8 L
162.649 135.8 L
162.713 135.8 L
162.776 135.559 L
162.839 135.559 L
162.903 135.559 L
162.966 135.559 L
163.03 135.318 L
163.093 135.318 L
163.157 135.318 L
163.22 135.318 L
163.283 135.076 L
163.347 135.076 L
163.41 135.076 L
163.474 134.835 L
163.537 134.835 L
163.601 134.835 L
163.664 134.835 L
163.727 134.594 L
163.791 134.594 L
163.854 134.594 L
163.918 134.594 L
163.981 134.352 L
164.045 134.352 L
164.108 134.352 L
164.171 134.111 L
164.235 134.111 L
164.298 134.111 L
164.362 134.111 L
164.425 133.87 L
164.489 133.87 L
164.552 133.87 L
164.615 133.87 L
164.679 133.629 L
164.742 133.629 L
164.806 133.629 L
164.869 133.629 L
164.933 133.387 L
164.996 133.387 L
165.059 133.387 L
165.123 133.146 L
165.186 133.146 L
165.25 133.146 L
165.313 133.146 L
165.377 132.905 L
165.44 132.905 L
165.503 132.905 L
165.567 132.664 L
165.63 132.664 L
165.694 132.664 L
165.757 132.664 L
165.821 132.423 L
165.884 132.423 L
165.947 132.423 L
166.011 132.423 L
166.074 132.181 L
166.138 132.181 L
166.201 132.181 L
166.265 132.181 L
166.328 131.94 L
166.391 131.94 L
166.455 131.94 L
166.518 131.699 L
166.582 131.699 L
166.645 131.699 L
166.709 131.699 L
166.772 131.458 L
166.835 131.458 L
166.899 131.458 L
166.962 131.458 L
167.026 131.216 L
167.089 131.216 L
167.153 131.216 L
167.216 130.975 L
167.279 130.975 L
167.343 130.975 L
167.406 130.975 L
167.47 130.734 L
167.533 130.734 L
167.597 130.734 L
167.66 130.734 L
167.723 130.492 L
167.787 130.492 L
167.85 130.492 L
167.914 130.251 L
167.977 130.251 L
168.041 130.251 L
168.104 130.251 L
168.167 130.01 L
168.231 130.01 L
168.294 130.01 L
168.358 130.01 L
168.421 129.769 L
168.485 129.769 L
168.548 129.769 L
168.611 129.769 L
168.675 129.527 L
168.738 129.527 L
168.802 129.527 L
168.865 129.286 L
168.929 129.286 L
168.992 129.286 L
169.055 129.286 L
169.119 129.045 L
169.182 129.045 L
169.246 129.045 L
169.309 129.045 L
169.373 128.804 L
169.436 128.804 L
169.499 128.804 L
169.563 128.563 L
169.626 128.563 L
169.69 128.563 L
169.753 128.563 L
169.817 128.321 L
169.88 128.321 L
169.943 128.321 L
170.007 128.321 L
170.07 128.08 L
170.134 128.08 L
170.197 128.08 L
170.261 127.839 L
170.324 127.839 L
170.387 127.839 L
170.451 127.839 L
170.514 127.598 L
170.578 127.598 L
170.641 127.598 L
170.705 127.598 L
170.768 127.356 L
170.831 127.356 L
170.895 127.356 L
170.958 127.356 L
171.022 127.115 L
171.085 127.115 L
171.149 127.115 L
171.212 126.874 L
171.275 126.874 L
171.339 126.874 L
171.402 126.874 L
171.466 126.632 L
171.529 126.632 L
171.593 126.632 L
171.656 126.391 L
171.719 126.391 L
171.783 126.391 L
171.846 126.391 L
171.91 126.15 L
171.973 126.15 L
172.037 126.15 L
172.1 126.15 L
172.163 125.909 L
172.227 125.909 L
172.29 125.909 L
172.354 125.909 L
172.417 125.668 L
172.481 125.668 L
172.544 125.668 L
172.607 125.426 L
172.671 125.426 L
172.734 125.426 L
172.798 125.426 L
172.861 125.185 L
172.925 125.185 L
172.988 125.185 L
173.051 125.185 L
173.115 124.944 L
173.178 124.944 L
173.242 124.944 L
173.305 124.702 L
173.369 124.702 L
173.432 124.702 L
173.495 124.702 L
173.559 124.461 L
173.622 124.461 L
173.686 124.461 L
173.749 124.461 L
173.813 124.22 L
173.876 124.22 L
173.939 124.22 L
174.003 123.979 L
174.066 123.979 L
174.13 123.979 L
174.193 123.979 L
174.257 123.738 L
174.32 123.738 L
174.383 123.738 L
174.447 123.738 L
174.51 123.496 L
174.574 123.496 L
174.637 123.496 L
174.701 123.496 L
174.764 123.255 L
174.827 123.255 L
174.891 123.255 L
174.954 123.014 L
175.018 123.014 L
175.081 123.014 L
175.145 123.014 L
175.208 122.772 L
175.271 122.772 L
175.335 122.772 L
175.398 122.531 L
175.462 122.531 L
175.525 122.531 L
175.589 122.531 L
175.652 122.29 L
175.715 122.29 L
175.779 122.29 L
175.842 122.29 L
175.906 122.049 L
175.969 122.049 L
176.033 122.049 L
176.096 122.049 L
176.159 121.808 L
176.223 121.808 L
176.286 121.808 L
176.35 121.566 L
176.413 121.566 L
176.477 121.566 L
176.54 121.566 L
176.603 121.325 L
176.667 121.325 L
176.73 121.325 L
176.794 121.325 L
176.857 121.084 L
176.921 121.084 L
176.984 121.084 L
177.047 120.842 L
177.111 120.842 L
177.174 120.842 L
177.238 120.842 L
177.301 120.601 L
177.365 120.601 L
177.428 120.601 L
177.491 120.601 L
177.555 120.36 L
177.618 120.36 L
177.682 120.36 L
177.745 120.119 L
177.809 120.119 L
177.872 120.119 L
177.935 120.119 L
177.999 119.878 L
178.062 119.878 L
178.126 119.878 L
178.189 119.878 L
178.253 119.636 L
178.316 119.636 L
178.379 119.636 L
178.443 119.636 L
178.506 119.395 L
178.57 119.395 L
178.633 119.395 L
178.697 119.154 L
178.76 119.154 L
178.823 119.154 L
178.887 119.154 L
178.95 118.912 L
179.014 118.912 L
179.077 118.912 L
179.141 118.671 L
179.204 118.671 L
179.267 118.671 L
179.331 118.671 L
179.394 118.43 L
179.458 118.43 L
179.521 118.43 L
179.585 118.43 L
179.648 118.189 L
179.711 118.189 L
179.775 118.189 L
179.838 118.189 L
179.902 117.948 L
179.965 117.948 L
180.029 117.948 L
180.092 117.706 L
180.155 117.706 L
180.219 117.706 L
180.282 117.706 L
180.346 117.465 L
180.409 117.465 L
180.473 117.465 L
180.536 117.465 L
180.599 117.224 L
180.663 117.224 L
180.726 117.224 L
180.79 117.224 L
180.853 116.982 L
180.917 116.982 L
180.98 116.982 L
181.043 116.741 L
181.107 116.741 L
181.17 116.741 L
181.234 116.741 L
181.297 116.5 L
181.361 116.5 L
181.424 116.5 L
181.487 116.259 L
181.551 116.259 L
181.614 116.259 L
181.678 116.259 L
181.741 116.018 L
181.805 116.018 L
181.868 116.018 L
181.931 116.018 L
181.995 115.776 L
182.058 115.776 L
182.122 115.776 L
182.185 115.776 L
182.249 115.535 L
182.312 115.535 L
182.375 115.535 L
182.439 115.294 L
182.502 115.294 L
182.566 115.294 L
182.629 115.294 L
182.693 115.052 L
182.756 115.052 L
182.819 115.052 L
182.883 114.811 L
182.946 114.811 L
183.01 114.811 L
183.073 114.811 L
183.137 114.57 L
183.2 114.57 L
183.263 114.57 L
183.327 114.57 L
183.39 114.329 L
183.454 114.329 L
183.517 114.329 L
183.581 114.329 L
183.644 114.088 L
183.707 114.088 L
183.771 114.088 L
183.834 113.846 L
183.898 113.846 L
183.961 113.846 L
184.025 113.846 L
184.088 113.605 L
184.151 113.605 L
184.215 113.605 L
184.278 113.605 L
184.342 113.364 L
184.405 113.364 L
184.469 113.364 L
184.532 113.122 L
184.595 113.122 L
184.659 113.122 L
184.722 113.122 L
184.786 112.881 L
184.849 112.881 L
184.913 112.881 L
184.976 112.881 L
185.039 112.64 L
185.103 112.64 L
185.166 112.64 L
185.23 112.399 L
185.293 112.399 L
185.357 112.399 L
185.42 112.399 L
185.483 112.158 L
185.547 112.158 L
185.61 112.158 L
185.674 112.158 L
185.737 111.916 L
185.801 111.916 L
185.864 111.916 L
185.927 111.675 L
185.991 111.675 L
186.054 111.675 L
186.118 111.675 L
186.181 111.434 L
186.245 111.434 L
186.308 111.434 L
186.371 111.434 L
186.435 111.192 L
186.498 111.192 L
186.562 111.192 L
186.625 110.951 L
186.689 110.951 L
186.752 110.951 L
186.815 110.951 L
186.879 110.71 L
186.942 110.71 L
187.006 110.71 L
187.069 110.71 L
187.133 110.469 L
187.196 110.469 L
187.259 110.469 L
187.323 110.469 L
187.386 110.228 L
187.45 110.228 L
187.513 110.228 L
187.577 109.986 L
187.64 109.986 L
187.703 109.986 L
187.767 109.986 L
187.83 109.745 L
187.894 109.745 L
187.957 109.745 L
188.021 109.504 L
188.084 109.504 L
188.147 109.504 L
188.211 109.504 L
188.274 109.262 L
188.338 109.262 L
188.401 109.262 L
188.465 109.262 L
188.528 109.021 L
188.591 109.021 L
188.655 109.021 L
188.718 109.021 L
188.782 108.78 L
188.845 108.78 L
188.909 108.78 L
188.972 108.539 L
189.035 108.539 L
189.099 108.539 L
189.162 108.539 L
189.226 108.298 L
189.289 108.298 L
189.353 108.298 L
189.416 108.056 L
189.479 108.056 L
189.543 108.056 L
189.606 108.056 L
189.67 107.815 L
189.733 107.815 L
189.797 107.815 L
189.86 107.815 L
189.923 107.574 L
189.987 107.574 L
190.05 107.574 L
190.114 107.574 L
190.177 107.332 L
190.241 107.332 L
190.304 107.332 L
190.367 107.091 L
190.431 107.091 L
190.494 107.091 L
190.558 107.091 L
190.621 106.85 L
190.685 106.85 L
190.748 106.85 L
190.811 106.85 L
190.875 106.609 L
190.938 106.609 L
191.002 106.609 L
191.065 106.368 L
191.129 106.368 L
191.192 106.368 L
191.255 106.368 L
191.319 106.126 L
191.382 106.126 L
191.446 106.126 L
191.509 106.126 L
191.573 105.885 L
191.636 105.885 L
191.699 105.885 L
191.763 105.644 L
191.826 105.644 L
191.89 105.644 L
191.953 105.644 L
192.017 105.402 L
192.08 105.402 L
192.143 105.402 L
192.207 105.402 L
192.27 105.161 L
192.334 105.161 L
192.397 105.161 L
192.461 105.161 L
192.524 104.92 L
192.587 104.92 L
192.651 104.92 L
192.714 104.679 L
192.778 104.679 L
192.841 104.679 L
192.905 104.679 L
192.968 104.438 L
193.031 104.438 L
193.095 104.438 L
193.158 104.196 L
193.222 104.196 L
193.285 104.196 L
193.349 104.196 L
193.412 103.955 L
193.475 103.955 L
193.539 103.955 L
193.602 103.955 L
193.666 103.714 L
193.729 103.714 L
193.793 103.714 L
193.856 103.714 L
193.919 103.473 L
193.983 103.473 L
194.046 103.473 L
194.11 103.231 L
194.173 103.231 L
194.237 103.231 L
194.3 103.231 L
194.363 102.99 L
194.427 102.99 L
194.49 102.99 L
194.554 102.99 L
194.617 102.749 L
194.681 102.749 L
194.744 102.749 L
194.807 102.507 L
194.871 102.507 L
194.934 102.507 L
194.998 102.507 L
195.061 102.266 L
195.125 102.266 L
195.188 102.266 L
195.251 102.266 L
195.315 102.025 L
195.378 102.025 L
195.442 102.025 L
195.505 101.784 L
195.569 101.784 L
195.632 101.784 L
195.695 101.784 L
195.759 101.543 L
195.822 101.543 L
195.886 101.543 L
195.949 101.543 L
196.013 101.301 L
196.076 101.301 L
196.139 101.301 L
196.203 101.06 L
196.266 101.06 L
196.33 101.06 L
196.393 101.06 L
196.457 100.819 L
196.52 100.819 L
196.583 100.819 L
196.647 100.819 L
196.71 100.577 L
196.774 100.577 L
196.837 100.577 L
196.901 100.336 L
196.964 100.336 L
197.027 100.336 L
197.091 100.336 L
197.154 100.095 L
197.218 100.095 L
197.281 100.095 L
197.345 100.095 L
197.408 99.854 L
197.471 99.854 L
197.535 99.854 L
197.598 99.854 L
197.662 99.613 L
197.725 99.613 L
197.789 99.613 L
197.852 99.371 L
197.915 99.371 L
197.979 99.371 L
198.042 99.371 L
198.106 99.13 L
198.169 99.13 L
198.233 99.13 L
198.296 98.889 L
198.359 98.889 L
198.423 98.889 L
198.486 98.889 L
198.55 98.647 L
198.613 98.647 L
198.677 98.647 L
198.74 98.647 L
198.803 98.406 L
198.867 98.406 L
198.93 98.406 L
198.994 98.406 L
199.057 98.165 L
199.121 98.165 L
199.184 98.165 L
199.247 97.924 L
199.311 97.924 L
199.374 97.924 L
199.438 97.924 L
199.501 97.683 L
199.565 97.683 L
199.628 97.683 L
199.691 97.683 L
199.755 97.441 L
199.818 97.441 L
199.882 97.441 L
199.945 97.2 L
200.009 97.2 L
200.072 97.2 L
200.135 97.2 L
200.199 96.959 L
200.262 96.959 L
200.326 96.959 L
200.389 96.959 L
200.453 96.717 L
200.516 96.717 L
200.579 96.717 L
200.643 96.476 L
200.706 96.476 L
200.77 96.476 L
200.833 96.476 L
200.897 96.235 L
200.96 96.235 L
201.023 96.235 L
201.087 96.235 L
201.15 95.994 L
201.214 95.994 L
201.277 95.994 L
201.341 95.753 L
201.404 95.753 L
201.467 95.753 L
201.531 95.753 L
201.594 95.511 L
201.658 95.511 L
201.721 95.511 L
201.785 95.511 L
201.848 95.27 L
201.911 95.27 L
201.975 95.27 L
202.038 95.029 L
202.102 95.029 L
202.165 95.029 L
202.229 95.029 L
202.292 94.787 L
202.355 94.787 L
202.419 94.787 L
202.482 94.787 L
202.546 94.546 L
202.609 94.546 L
202.673 94.546 L
202.736 94.305 L
202.799 94.305 L
202.863 94.305 L
202.926 94.305 L
202.99 94.064 L
203.053 94.064 L
203.117 94.064 L
203.18 94.064 L
203.243 93.823 L
203.307 93.823 L
203.37 93.823 L
203.434 93.581 L
203.497 93.581 L
203.561 93.581 L
203.624 93.581 L
203.687 93.34 L
203.751 93.34 L
203.814 93.34 L
203.878 93.34 L
203.941 93.099 L
204.005 93.099 L
204.068 93.099 L
204.131 93.099 L
204.195 92.857 L
204.258 92.857 L
204.322 92.857 L
204.385 92.616 L
204.449 92.616 L
204.512 92.616 L
204.575 92.616 L
204.639 92.375 L
204.702 92.375 L
204.766 92.375 L
204.829 92.134 L
204.893 92.134 L
204.956 92.134 L
205.019 92.134 L
205.083 91.893 L
205.146 91.893 L
205.21 91.893 L
205.273 91.893 L
205.337 91.651 L
205.4 91.651 L
205.463 91.651 L
205.527 91.651 L
205.59 91.41 L
205.654 91.41 L
205.717 91.41 L
205.781 91.169 L
205.844 91.169 L
205.907 91.169 L
205.971 91.169 L
206.034 90.927 L
206.098 90.927 L
206.161 90.927 L
206.225 90.927 L
206.288 90.686 L
206.351 90.686 L
206.415 90.686 L
206.478 90.445 L
206.542 90.445 L
206.605 90.445 L
206.669 90.445 L
206.732 90.204 L
206.795 90.204 L
206.859 90.204 L
206.922 90.204 L
206.986 89.963 L
207.049 89.963 L
207.113 89.963 L
207.176 89.721 L
207.239 89.721 L
207.303 89.721 L
207.366 89.721 L
207.43 89.48 L
207.493 89.48 L
207.557 89.48 L
207.62 89.48 L
207.683 89.239 L
207.747 89.239 L
207.81 89.239 L
207.874 88.997 L
207.937 88.997 L
208.001 88.997 L
208.064 88.997 L
208.127 88.756 L
208.191 88.756 L
208.254 88.756 L
208.318 88.756 L
208.381 88.515 L
208.445 88.515 L
208.508 88.515 L
208.571 88.274 L
208.635 88.274 L
208.698 88.274 L
208.762 88.274 L
208.825 88.033 L
208.889 88.033 L
208.952 88.033 L
209.015 88.033 L
209.079 87.791 L
209.142 87.791 L
209.206 87.791 L
209.269 87.791 L
209.333 87.55 L
209.396 87.55 L
209.459 87.55 L
209.523 87.309 L
209.586 87.309 L
209.65 87.309 L
209.713 87.309 L
209.777 87.067 L
209.84 87.067 L
209.903 87.067 L
209.967 86.826 L
210.03 86.826 L
210.094 86.826 L
210.157 86.826 L
210.221 86.585 L
210.284 86.585 L
210.347 86.585 L
210.411 86.585 L
210.474 86.344 L
210.538 86.344 L
210.601 86.344 L
210.665 86.344 L
210.728 86.103 L
210.791 86.103 L
210.855 86.103 L
210.918 85.861 L
210.982 85.861 L
211.045 85.861 L
211.109 85.861 L
211.172 85.62 L
211.235 85.62 L
211.299 85.62 L
211.362 85.62 L
211.426 85.379 L
211.489 85.379 L
211.553 85.379 L
211.616 85.137 L
211.679 85.137 L
211.743 85.137 L
211.806 85.137 L
211.87 84.896 L
211.933 84.896 L
211.997 84.896 L
212.06 84.896 L
212.123 84.655 L
212.187 84.655 L
212.25 84.655 L
212.314 84.414 L
212.377 84.414 L
212.441 84.414 L
212.504 84.414 L
212.567 84.173 L
212.631 84.173 L
212.694 84.173 L
212.758 84.173 L
212.821 83.931 L
212.885 83.931 L
212.948 83.931 L
213.011 83.69 L
213.075 83.69 L
213.138 83.69 L
213.202 83.69 L
213.265 83.449 L
213.329 83.449 L
213.392 83.449 L
213.455 83.449 L
213.519 83.207 L
213.582 83.207 L
213.646 83.207 L
213.709 82.966 L
213.773 82.966 L
213.836 82.966 L
213.899 82.966 L
213.963 82.725 L
214.026 82.725 L
214.09 82.725 L
214.153 82.725 L
214.217 82.484 L
214.28 82.484 L
214.343 82.484 L
214.407 82.243 L
214.47 82.243 L
214.534 82.243 L
214.597 82.243 L
214.661 82.001 L
214.724 82.001 L
214.787 82.001 L
214.851 82.001 L
214.914 81.76 L
214.978 81.76 L
215.041 81.76 L
215.105 81.519 L
215.168 81.519 L
215.231 81.519 L
215.295 81.519 L
215.358 81.277 L
215.422 81.277 L
215.485 81.277 L
215.549 81.277 L
215.612 81.036 L
215.675 81.036 L
215.739 81.036 L
215.802 81.036 L
215.866 80.795 L
215.929 80.795 L
215.993 80.795 L
216.056 80.554 L
216.119 80.554 L
216.183 80.554 L
216.246 80.554 L
216.31 80.313 L
216.373 80.313 L
216.437 80.313 L
216.5 80.071 L
216.563 80.071 L
216.627 80.071 L
216.69 80.071 L
216.754 79.83 L
216.817 79.83 L
216.881 79.83 L
216.944 79.83 L
217.007 79.589 L
217.071 79.589 L
217.134 79.589 L
217.198 79.589 L
217.261 79.348 L
217.325 79.348 L
217.388 79.348 L
217.451 79.106 L
217.515 79.106 L
217.578 79.106 L
217.642 79.106 L
217.705 78.865 L
217.769 78.865 L
217.832 78.865 L
217.895 78.865 L
217.959 78.624 L
218.022 78.624 L
218.086 78.624 L
218.149 78.382 L
218.213 78.382 L
218.276 78.382 L
218.339 78.382 L
218.403 78.141 L
218.466 78.141 L
218.53 78.141 L
218.593 78.141 L
218.657 77.9 L
218.72 77.9 L
218.783 77.9 L
218.847 77.659 L
218.91 77.659 L
218.974 77.659 L
219.037 77.659 L
219.101 77.418 L
219.164 77.418 L
219.227 77.418 L
219.291 77.176 L
219.354 77.176 L
219.418 77.176 L
219.481 77.176 L
219.545 76.935 L
219.608 76.935 L
219.671 76.935 L
219.735 76.935 L
219.798 76.694 L
219.862 76.694 L
219.925 76.694 L
219.989 76.694 L
220.052 76.452 L
220.115 76.452 L
220.179 76.452 L
220.242 76.211 L
220.306 76.211 L
220.369 76.211 L
220.433 76.211 L
220.496 75.97 L
220.559 75.97 L
220.623 75.97 L
220.686 75.97 L
220.75 75.729 L
220.813 75.729 L
220.877 75.729 L
220.94 75.488 L
221.003 75.488 L
221.067 75.488 L
221.13 75.488 L
221.194 75.246 L
221.257 75.246 L
221.321 75.246 L
221.384 75.246 L
221.447 75.005 L
221.511 75.005 L
221.574 75.005 L
221.638 74.764 L
221.701 74.764 L
221.765 74.764 L
221.828 74.764 L
221.891 74.522 L
221.955 74.522 L
222.018 74.522 L
222.082 74.522 L
222.145 74.281 L
222.209 74.281 L
222.272 74.281 L
222.335 74.04 L
222.399 74.04 L
222.462 74.04 L
222.526 74.04 L
222.589 73.799 L
222.653 73.799 L
222.716 73.799 L
222.779 73.799 L
222.843 73.558 L
222.906 73.558 L
222.97 73.558 L
223.033 73.316 L
223.097 73.316 L
223.16 73.316 L
223.223 73.316 L
223.287 73.075 L
223.35 73.075 L
223.414 73.075 L
223.477 73.075 L
223.541 72.834 L
223.604 72.834 L
223.667 72.834 L
223.731 72.592 L
223.794 72.592 L
223.858 72.592 L
223.921 72.592 L
223.985 72.351 L
224.048 72.351 L
224.111 72.351 L
224.175 72.351 L
224.238 72.11 L
224.302 72.11 L
224.365 72.11 L
224.429 71.869 L
224.492 71.869 L
224.555 71.869 L
224.619 71.869 L
224.682 71.628 L
224.746 71.628 L
224.809 71.628 L
224.873 71.628 L
224.936 71.386 L
224.999 71.386 L
225.063 71.386 L
225.126 71.386 L
225.19 71.145 L
225.253 71.145 L
225.317 71.145 L
225.38 70.904 L
225.443 70.904 L
225.507 70.904 L
225.57 70.904 L
225.634 70.662 L
225.697 70.662 L
225.761 70.662 L
225.824 70.421 L
225.887 70.421 L
225.951 70.421 L
226.014 70.421 L
226.078 70.18 L
226.141 70.18 L
226.205 70.18 L
226.268 70.18 L
226.331 69.939 L
226.395 69.939 L
226.458 69.939 L
226.522 69.939 L
226.585 69.698 L
226.649 69.698 L
226.712 69.698 L
226.775 69.456 L
226.839 69.456 L
226.902 69.456 L
226.966 69.456 L
227.029 69.215 L
227.093 69.215 L
227.156 69.215 L
227.219 68.974 L
227.283 68.974 L
227.346 68.974 L
227.41 68.974 L
227.473 68.732 L
227.537 68.732 L
227.6 68.732 L
227.663 68.732 L
227.727 68.491 L
227.79 68.491 L
227.854 68.491 L
227.917 68.491 L
227.981 68.25 L
228.044 68.25 L
228.107 68.25 L
228.171 68.009 L
228.234 68.009 L
228.298 68.009 L
228.361 68.009 L
228.425 67.768 L
228.488 67.768 L
228.551 67.768 L
228.615 67.526 L
228.678 67.526 L
228.742 67.526 L
228.805 67.526 L
228.869 67.285 L
228.932 67.285 L
228.995 67.285 L
229.059 67.285 L
229.122 67.044 L
229.186 67.044 L
229.249 67.044 L
229.313 67.044 L
229.376 66.802 L
229.439 66.802 L
229.503 66.802 L
229.566 66.561 L
229.63 66.561 L
229.693 66.561 L
229.757 66.561 L
229.82 66.32 L
229.883 66.32 L
229.947 66.32 L
230.01 66.079 L
230.074 66.079 L
230.137 66.079 L
230.201 66.079 L
230.264 65.838 L
230.327 65.838 L
230.391 65.838 L
230.454 65.838 L
230.518 65.596 L
230.581 65.596 L
230.645 65.596 L
230.708 65.596 L
230.771 65.355 L
230.835 65.355 L
230.898 65.355 L
230.962 65.114 L
231.025 65.114 L
231.089 65.114 L
231.152 65.114 L
231.215 64.872 L
231.279 64.872 L
231.342 64.872 L
231.406 64.631 L
231.469 64.631 L
231.533 64.631 L
231.596 64.631 L
231.659 64.39 L
231.723 64.39 L
231.786 64.39 L
231.85 64.39 L
231.913 64.149 L
231.977 64.149 L
232.04 64.149 L
232.103 64.149 L
232.167 63.908 L
232.23 63.908 L
232.294 63.908 L
232.357 63.666 L
232.421 63.666 L
232.484 63.666 L
232.547 63.666 L
232.611 63.425 L
232.674 63.425 L
232.738 63.425 L
232.801 63.184 L
232.865 63.184 L
232.928 63.184 L
232.991 63.184 L
233.055 62.943 L
233.118 62.943 L
233.182 62.943 L
233.245 62.943 L
233.309 62.701 L
233.372 62.701 L
233.435 62.701 L
233.499 62.701 L
233.562 62.46 L
233.626 62.46 L
233.689 62.46 L
233.753 62.219 L
233.816 62.219 L
233.879 62.219 L
233.943 62.219 L
234.006 61.978 L
234.07 61.978 L
234.133 61.978 L
234.197 61.978 L
234.26 61.736 L
234.323 61.736 L
234.387 61.736 L
234.45 61.495 L
234.514 61.495 L
234.577 61.495 L
234.641 61.495 L
234.704 61.254 L
234.767 61.254 L
234.831 61.254 L
234.894 61.254 L
234.958 61.013 L
235.021 61.013 L
235.085 61.013 L
235.148 60.771 L
235.211 60.771 L
235.275 60.771 L
235.338 60.771 L
235.402 60.53 L
235.465 60.53 L
235.529 60.53 L
235.592 60.289 L
235.655 60.289 L
235.719 60.289 L
235.782 60.289 L
235.846 60.048 L
235.909 60.048 L
235.973 60.048 L
236.036 60.048 L
236.099 59.806 L
236.163 59.806 L
236.226 59.806 L
236.29 59.806 L
236.353 59.565 L
236.417 59.565 L
236.48 59.565 L
236.543 59.324 L
236.607 59.324 L
236.67 59.324 L
236.734 59.324 L
236.797 59.083 L
236.861 59.083 L
236.924 59.083 L
236.987 58.841 L
237.051 58.841 L
237.114 58.841 L
237.178 58.841 L
237.241 58.6 L
237.305 58.6 L
237.368 58.6 L
237.431 58.6 L
237.495 58.359 L
237.558 58.359 L
237.622 58.359 L
237.685 58.359 L
237.749 58.118 L
237.812 58.118 L
237.875 58.118 L
237.939 57.876 L
238.002 57.876 L
238.066 57.876 L
238.129 57.876 L
238.193 57.635 L
238.256 57.635 L
238.319 57.635 L
238.383 57.394 L
238.446 57.394 L
238.51 57.394 L
238.573 57.394 L
238.637 57.153 L
238.7 57.153 L
238.763 57.153 L
238.827 57.153 L
238.89 56.911 L
238.954 56.911 L
239.017 56.911 L
239.081 56.911 L
239.144 56.67 L
239.207 56.67 L
239.271 56.67 L
239.334 56.429 L
239.398 56.429 L
239.461 56.429 L
239.525 56.429 L
239.588 56.188 L
239.651 56.188 L
239.715 56.188 L
239.778 55.946 L
239.842 55.946 L
239.905 55.946 L
239.969 55.946 L
240.032 55.705 L
240.095 55.705 L
240.159 55.705 L
240.222 55.705 L
240.286 55.464 L
240.349 55.464 L
240.413 55.464 L
240.476 55.464 L
240.539 55.222 L
240.603 55.222 L
240.666 55.222 L
240.73 54.981 L
240.793 54.981 L
240.857 54.981 L
240.92 54.981 L
240.983 54.74 L
241.047 54.74 L
241.11 54.74 L
241.174 54.499 L
241.237 54.499 L
241.301 54.499 L
241.364 54.499 L
241.427 54.257 L
241.491 54.257 L
241.554 54.257 L
241.618 54.257 L
241.681 54.016 L
241.745 54.016 L
241.808 54.016 L
241.871 54.016 L
241.935 53.775 L
241.998 53.775 L
242.062 53.775 L
242.125 53.534 L
242.189 53.534 L
242.252 53.534 L
242.315 53.534 L
242.379 53.292 L
242.442 53.292 L
242.506 53.292 L
242.569 53.051 L
242.633 53.051 L
242.696 53.051 L
242.759 53.051 L
242.823 52.81 L
242.886 52.81 L
242.95 52.81 L
243.013 52.81 L
243.077 52.569 L
243.14 52.569 L
243.203 52.569 L
243.267 52.569 L
243.33 52.327 L
243.394 52.327 L
243.457 52.327 L
243.521 52.086 L
243.584 52.086 L
243.647 52.086 L
243.711 52.086 L
243.774 51.845 L
243.838 51.845 L
243.901 51.845 L
243.965 51.604 L
244.028 51.604 L
244.091 51.604 L
244.155 51.604 L
244.218 51.362 L
244.282 51.362 L
244.345 51.362 L
244.409 51.362 L
244.472 51.121 L
244.535 51.121 L
244.599 51.121 L
244.662 50.88 L
244.726 50.88 L
244.789 50.88 L
244.853 50.88 L
244.916 50.639 L
244.979 50.639 L
245.043 50.639 L
245.106 50.639 L
245.17 50.397 L
245.233 50.397 L
245.297 50.397 L
245.36 50.156 L
245.423 50.156 L
245.487 50.156 L
245.55 50.156 L
245.614 49.915 L
245.677 49.915 L
245.741 49.915 L
245.804 49.915 L
245.867 49.674 L
245.931 49.674 L
245.994 49.674 L
246.058 49.674 L
246.121 49.432 L
246.185 49.432 L
246.248 49.432 L
246.311 49.191 L
246.375 49.191 L
246.438 49.191 L
246.502 49.191 L
246.565 48.95 L
246.629 48.95 L
246.692 48.95 L
246.755 48.709 L
246.819 48.709 L
246.882 48.709 L
246.946 48.709 L
247.009 48.467 L
247.073 48.467 L
247.136 48.467 L
247.199 48.467 L
247.263 48.226 L
247.326 48.226 L
247.39 48.226 L
247.453 47.985 L
247.517 47.985 L
247.58 47.985 L
247.643 47.985 L
247.707 47.744 L
247.77 47.744 L
247.834 47.744 L
247.897 47.744 L
247.961 47.502 L
248.024 47.502 L
248.087 47.502 L
248.151 47.261 L
248.214 47.261 L
248.278 47.261 L
248.341 47.261 L
248.405 47.02 L
248.468 47.02 L
248.531 47.02 L
248.595 47.02 L
248.658 46.779 L
248.722 46.779 L
248.785 46.779 L
248.849 46.537 L
248.912 46.537 L
248.975 46.537 L
249.039 46.537 L
249.102 46.296 L
249.166 46.296 L
249.229 46.296 L
249.293 46.296 L
249.356 46.055 L
249.419 46.055 L
249.483 46.055 L
249.546 45.814 L
249.61 45.814 L
249.673 45.814 L
249.737 45.814 L
249.8 45.572 L
249.863 45.572 L
249.927 45.572 L
249.99 45.572 L
250.054 45.331 L
250.117 45.331 L
250.181 45.331 L
250.244 45.09 L
250.307 45.09 L
250.371 45.09 L
250.434 45.09 L
250.498 44.849 L
250.561 44.849 L
250.625 44.849 L
250.688 44.849 L
250.751 44.607 L
250.815 44.607 L
250.878 44.607 L
250.942 44.366 L
251.005 44.366 L
251.069 44.366 L
251.132 44.366 L
251.195 44.125 L
251.259 44.125 L
251.322 44.125 L
251.386 44.125 L
251.449 43.884 L
251.513 43.884 L
251.576 43.884 L
251.639 43.643 L
251.703 43.643 L
251.766 43.643 L
251.83 43.643 L
251.893 43.401 L
251.957 43.401 L
252.02 43.401 L
252.083 43.401 L
252.147 43.16 L
252.21 43.16 L
252.274 43.16 L
252.337 42.919 L
252.401 42.919 L
252.464 42.919 L
252.527 42.919 L
252.591 42.678 L
252.654 42.678 L
252.718 42.678 L
252.781 42.678 L
252.845 42.436 L
252.908 42.436 L
252.971 42.436 L
253.035 42.195 L
253.098 42.195 L
253.162 42.195 L
253.225 42.195 L
253.289 41.954 L
253.352 41.954 L
253.415 41.954 L
253.479 41.954 L
253.542 41.713 L
253.606 41.713 L
253.669 41.713 L
253.733 41.471 L
253.796 41.471 L
253.859 41.471 L
253.923 41.471 L
253.986 41.23 L
254.05 41.23 L
254.113 41.23 L
254.177 41.23 L
254.24 40.989 L
254.303 40.989 L
254.367 40.989 L
254.43 40.748 L
254.494 40.748 L
254.557 40.748 L
254.621 40.748 L
254.684 40.506 L
254.747 40.506 L
254.811 40.506 L
254.874 40.506 L
254.938 40.265 L
255.001 40.265 L
255.065 40.265 L
255.128 40.024 L
255.191 40.024 L
255.255 40.024 L
255.318 40.024 L
255.382 39.783 L
255.445 39.783 L
255.509 39.783 L
255.572 39.783 L
255.635 39.541 L
255.699 39.541 L
255.762 39.541 L
255.826 39.3 L
255.889 39.3 L
255.953 39.3 L
256.016 39.3 L
256.079 39.059 L
256.143 39.059 L
256.206 39.059 L
256.27 39.059 L
256.333 38.818 L
256.397 38.818 L
256.46 38.818 L
256.523 38.576 L
256.587 38.576 L
256.65 38.576 L
256.714 38.576 L
256.777 38.335 L
256.841 38.335 L
256.904 38.335 L
256.967 38.335 L
257.031 38.094 L
257.094 38.094 L
257.158 38.094 L
257.221 37.853 L
257.285 37.853 L
257.348 37.853 L
257.411 37.853 L
257.475 37.611 L
257.538 37.611 L
257.602 37.611 L
257.665 37.611 L
257.729 37.37 L
257.792 37.37 L
257.855 37.37 L
257.919 37.129 L
257.982 37.129 L
258.046 37.129 L
258.109 37.129 L
258.173 36.888 L
258.236 36.888 L
258.299 36.888 L
258.363 36.888 L
258.426 36.646 L
258.49 36.646 L
258.553 36.646 L
258.617 36.405 L
258.68 36.405 L
258.743 36.405 L
258.807 36.405 L
258.87 36.164 L
258.934 36.164 L
258.997 36.164 L
259.061 36.164 L
259.124 35.923 L
259.187 35.923 L
259.251 35.923 L
259.314 35.681 L
259.378 35.681 L
259.441 35.681 L
259.505 35.681 L
259.568 35.44 L
259.631 35.44 L
259.695 35.44 L
259.758 35.44 L
259.822 35.199 L
259.885 35.199 L
259.949 35.199 L
260.012 34.958 L
260.075 34.958 L
260.139 34.958 L
260.202 34.958 L
260.266 34.716 L
260.329 34.716 L
260.393 34.716 L
260.456 34.716 L
260.519 34.475 L
260.583 34.475 L
260.646 34.475 L
260.71 34.234 L
260.773 34.234 L
260.837 34.234 L
260.9 34.234 L
260.963 33.993 L
261.027 33.993 L
261.09 33.993 L
261.154 33.751 L
261.217 33.751 L
261.281 33.751 L
261.344 33.751 L
261.407 33.51 L
261.471 33.51 L
261.534 33.51 L
261.598 33.51 L
261.661 33.269 L
261.725 33.269 L
261.788 33.269 L
261.851 33.269 L
261.915 33.028 L
261.978 33.028 L
262.042 33.028 L
262.105 32.786 L
262.169 32.786 L
262.232 32.786 L
262.295 32.786 L
262.359 32.545 L
262.422 32.545 L
262.486 32.545 L
262.549 32.304 L
262.613 32.304 L
262.676 32.304 L
262.739 32.304 L
262.803 32.063 L
262.866 32.063 L
262.93 32.063 L
262.993 32.063 L
263.057 31.821 L
263.12 31.821 L
263.183 31.821 L
263.247 31.821 L
263.31 31.58 L
263.374 31.58 L
263.437 31.58 L
263.501 31.339 L
263.564 31.339 L
263.627 31.339 L
263.691 31.339 L
263.754 31.097 L
263.818 31.097 L
263.881 31.097 L
263.945 30.856 L
264.008 30.856 L
264.071 30.856 L
264.135 30.856 L
264.198 30.615 L
264.262 30.615 L
264.325 30.615 L
264.389 30.615 L
264.452 30.374 L
264.515 30.374 L
264.579 30.374 L
264.642 30.374 L
264.706 30.132 L
264.769 30.132 L
264.833 30.132 L
264.896 29.891 L
264.959 29.891 L
265.023 29.891 L
265.086 29.891 L
265.15 29.65 L
265.213 29.65 L
265.277 29.65 L
265.34 29.409 L
265.403 29.409 L
265.467 29.409 L
265.53 29.409 L
265.594 29.167 L
265.657 29.167 L
265.721 29.167 L
265.784 29.167 L
265.847 28.926 L
265.911 28.926 L
265.974 28.926 L
266.038 28.926 L
266.101 28.685 L
266.165 28.685 L
266.228 28.685 L
266.291 28.444 L
266.355 28.444 L
266.418 28.444 L
266.482 28.444 L
266.545 28.202 L
266.609 28.202 L
266.672 28.202 L
266.735 28.202 L
266.799 27.961 L
266.862 27.961 L
266.926 27.961 L
266.989 27.72 L
267.053 27.72 L
267.116 27.72 L
267.179 27.72 L
267.243 27.479 L
267.306 27.479 L
267.37 27.479 L
267.433 27.479 L
267.497 27.237 L
267.56 27.237 L
267.623 27.237 L
267.687 26.996 L
267.75 26.996 L
267.814 26.996 L
267.877 26.996 L
267.941 26.755 L
268.004 26.755 L
268.067 26.755 L
268.131 26.514 L
268.194 26.514 L
268.258 26.514 L
268.321 26.514 L
268.385 26.272 L
268.448 26.272 L
268.511 26.272 L
268.575 26.272 L
268.638 26.031 L
268.702 26.031 L
268.765 26.031 L
268.829 26.031 L
268.892 25.79 L
268.955 25.79 L
269.019 25.79 L
269.082 25.549 L
269.146 25.549 L
269.209 25.549 L
269.273 25.549 L
269.336 25.308 L
269.399 25.308 L
269.463 25.308 L
269.526 25.308 L
269.59 25.066 L
269.653 25.066 L
269.717 25.066 L
269.78 24.825 L
269.843 24.825 L
269.907 24.825 L
269.97 24.825 L
270.034 24.584 L
270.097 24.584 L
270.161 24.584 L
270.224 24.584 L
270.287 24.343 L
270.351 24.343 L
270.414 24.343 L
270.478 24.101 L
270.541 24.101 L
270.605 24.101 L
270.668 24.101 L
270.731 23.86 L
270.795 23.86 L
270.858 23.86 L
270.922 23.86 L
270.985 23.619 L
271.049 23.619 L
271.112 23.619 L
271.175 23.378 L
271.239 23.378 L
271.302 23.378 L
271.366 23.378 L
271.429 23.136 L
271.493 23.136 L
271.556 23.136 L
271.619 23.136 L
271.683 22.895 L
271.746 22.895 L
271.81 22.895 L
271.873 22.654 L
271.937 22.654 L
272 22.654 L
272.026 22.654 L
S
GR
%%Trailer
%%Pages: 1
%%EOF
