<mxfile host="Electron" modified="2023-04-10T17:27:07.237Z" agent="Mozilla/5.0 (X11; Linux x86_64) AppleWebKit/537.36 (KHTML, like Gecko) draw.io/21.1.2 Chrome/106.0.5249.199 Electron/21.4.3 Safari/537.36" etag="54diB3X__cawg4ed-psl" version="21.1.2" type="device">
  <diagram name="Stránka-1" id="RnqSFWJPwY6yMb3rRXsy">
    <mxGraphModel dx="880" dy="542" grid="1" gridSize="10" guides="1" tooltips="1" connect="1" arrows="1" fold="1" page="1" pageScale="1" pageWidth="827" pageHeight="1169" math="0" shadow="0">
      <root>
        <mxCell id="0" />
        <mxCell id="1" parent="0" />
        <mxCell id="nM6UsdUWErbbueAAPaQz-1" value="PIO UART" style="rounded=0;whiteSpace=wrap;html=1;fillColor=#dae8fc;strokeColor=#6c8ebf;" parent="1" vertex="1">
          <mxGeometry x="270" y="390" width="80" height="30" as="geometry" />
        </mxCell>
        <mxCell id="nM6UsdUWErbbueAAPaQz-2" value="HW UART" style="rounded=0;whiteSpace=wrap;html=1;fillColor=#dae8fc;strokeColor=#6c8ebf;" parent="1" vertex="1">
          <mxGeometry x="180" y="390" width="80" height="30" as="geometry" />
        </mxCell>
        <mxCell id="nM6UsdUWErbbueAAPaQz-3" value="Společné rozhraní" style="rounded=0;whiteSpace=wrap;html=1;fillColor=#dae8fc;strokeColor=#6c8ebf;" parent="1" vertex="1">
          <mxGeometry x="180" y="350" width="350" height="30" as="geometry" />
        </mxCell>
        <mxCell id="nM6UsdUWErbbueAAPaQz-4" value="" style="rounded=0;whiteSpace=wrap;html=1;fillColor=#f5f5f5;fontColor=#333333;strokeColor=#666666;" parent="1" vertex="1">
          <mxGeometry x="180" y="170" width="350" height="160" as="geometry" />
        </mxCell>
        <mxCell id="nM6UsdUWErbbueAAPaQz-5" value="Hlavní&lt;br&gt;stavový&lt;br&gt;automat" style="rounded=0;whiteSpace=wrap;html=1;fillColor=#fff2cc;strokeColor=#d6b656;" parent="1" vertex="1">
          <mxGeometry x="190" y="180" width="60" height="60" as="geometry" />
        </mxCell>
        <mxCell id="nM6UsdUWErbbueAAPaQz-7" value="Ultrazvuk.&lt;br&gt;senzor" style="rounded=0;whiteSpace=wrap;html=1;fillColor=#d5e8d4;strokeColor=#82b366;" parent="1" vertex="1">
          <mxGeometry x="180" y="50" width="60" height="60" as="geometry" />
        </mxCell>
        <mxCell id="nM6UsdUWErbbueAAPaQz-8" value="Dělení datového proudu na zprávy" style="rounded=0;whiteSpace=wrap;html=1;fillColor=#fff2cc;strokeColor=#d6b656;" parent="1" vertex="1">
          <mxGeometry x="190" y="290" width="330" height="30" as="geometry" />
        </mxCell>
        <mxCell id="nM6UsdUWErbbueAAPaQz-9" value="Shromaždiště&lt;br&gt;metadat&lt;br&gt;ze senzoru" style="rounded=0;whiteSpace=wrap;html=1;fillColor=#fff2cc;strokeColor=#d6b656;" parent="1" vertex="1">
          <mxGeometry x="430" y="180" width="90" height="60" as="geometry" />
        </mxCell>
        <mxCell id="nM6UsdUWErbbueAAPaQz-10" value="Heartbeat&lt;br&gt;pro senzor" style="rounded=0;whiteSpace=wrap;html=1;fillColor=#fff2cc;strokeColor=#d6b656;" parent="1" vertex="1">
          <mxGeometry x="260" y="180" width="70" height="60" as="geometry" />
        </mxCell>
        <mxCell id="nM6UsdUWErbbueAAPaQz-11" value="Dekódování zpráv" style="rounded=0;whiteSpace=wrap;html=1;fillColor=#fff2cc;strokeColor=#d6b656;" parent="1" vertex="1">
          <mxGeometry x="190" y="250" width="330" height="30" as="geometry" />
        </mxCell>
        <mxCell id="nM6UsdUWErbbueAAPaQz-13" value="" style="endArrow=none;dashed=1;html=1;rounded=0;strokeWidth=2;" parent="1" edge="1">
          <mxGeometry width="50" height="50" relative="1" as="geometry">
            <mxPoint x="120" y="340" as="sourcePoint" />
            <mxPoint x="550" y="340" as="targetPoint" />
          </mxGeometry>
        </mxCell>
        <mxCell id="nM6UsdUWErbbueAAPaQz-14" value="" style="endArrow=none;dashed=1;html=1;rounded=0;strokeWidth=2;" parent="1" edge="1">
          <mxGeometry width="50" height="50" relative="1" as="geometry">
            <mxPoint x="120" y="120" as="sourcePoint" />
            <mxPoint x="550" y="120" as="targetPoint" />
          </mxGeometry>
        </mxCell>
        <mxCell id="nM6UsdUWErbbueAAPaQz-15" value="EV3 protokol&lt;br&gt;psaný v C" style="text;html=1;strokeColor=none;fillColor=none;align=center;verticalAlign=middle;whiteSpace=wrap;rounded=0;fontStyle=1" parent="1" vertex="1">
          <mxGeometry x="110" y="220" width="60" height="30" as="geometry" />
        </mxCell>
        <mxCell id="nM6UsdUWErbbueAAPaQz-16" value="UART&lt;br&gt;psaný v C" style="text;html=1;strokeColor=none;fillColor=none;align=center;verticalAlign=middle;whiteSpace=wrap;rounded=0;fontStyle=1" parent="1" vertex="1">
          <mxGeometry x="110" y="370" width="60" height="30" as="geometry" />
        </mxCell>
        <mxCell id="nM6UsdUWErbbueAAPaQz-18" value="Třídy pro&lt;br&gt;jednotlivé&lt;br&gt;senzory&lt;br&gt;v Pythonu" style="text;html=1;strokeColor=none;fillColor=none;align=center;verticalAlign=middle;whiteSpace=wrap;rounded=0;fontStyle=1" parent="1" vertex="1">
          <mxGeometry x="110" y="65" width="60" height="30" as="geometry" />
        </mxCell>
        <mxCell id="nM6UsdUWErbbueAAPaQz-20" value="Senzor&lt;br&gt;barev" style="rounded=0;whiteSpace=wrap;html=1;fillColor=#d5e8d4;strokeColor=#82b366;" parent="1" vertex="1">
          <mxGeometry x="320" y="50" width="50" height="60" as="geometry" />
        </mxCell>
        <mxCell id="nM6UsdUWErbbueAAPaQz-21" value="Gyroskop" style="rounded=0;whiteSpace=wrap;html=1;fillColor=#d5e8d4;strokeColor=#82b366;" parent="1" vertex="1">
          <mxGeometry x="250" y="50" width="60" height="60" as="geometry" />
        </mxCell>
        <mxCell id="nM6UsdUWErbbueAAPaQz-22" value="Infračer.&lt;br&gt;senzor" style="rounded=0;whiteSpace=wrap;html=1;dashed=1;fillColor=#d5e8d4;strokeColor=#82b366;fontStyle=2" parent="1" vertex="1">
          <mxGeometry x="380" y="50" width="60" height="60" as="geometry" />
        </mxCell>
        <mxCell id="nM6UsdUWErbbueAAPaQz-23" value="Ukládání&lt;br&gt;posledního&lt;br&gt;měření" style="rounded=0;whiteSpace=wrap;html=1;fillColor=#fff2cc;strokeColor=#d6b656;" parent="1" vertex="1">
          <mxGeometry x="340" y="180" width="80" height="60" as="geometry" />
        </mxCell>
        <mxCell id="nM6UsdUWErbbueAAPaQz-26" value="PIO UART" style="rounded=0;whiteSpace=wrap;html=1;fillColor=#dae8fc;strokeColor=#6c8ebf;" parent="1" vertex="1">
          <mxGeometry x="360" y="390" width="80" height="30" as="geometry" />
        </mxCell>
        <mxCell id="nM6UsdUWErbbueAAPaQz-27" value="PIO UART" style="rounded=0;whiteSpace=wrap;html=1;fillColor=#dae8fc;strokeColor=#6c8ebf;" parent="1" vertex="1">
          <mxGeometry x="450" y="390" width="80" height="30" as="geometry" />
        </mxCell>
        <mxCell id="6HCOpBC073Q189JRh2A8-1" value="Polling každou 1 ms" style="text;html=1;strokeColor=none;fillColor=none;align=center;verticalAlign=middle;whiteSpace=wrap;rounded=0;rotation=-90;" parent="1" vertex="1">
          <mxGeometry x="463.13" y="236.88" width="158.75" height="25" as="geometry" />
        </mxCell>
        <mxCell id="ln3-arkjSwHd-baYfG7j-1" value="API jako Python třída &lt;font style=&quot;font-size: 11px;&quot; face=&quot;Lucida Console&quot;&gt;ev3_sensor_ll.EV3Sensor&lt;/font&gt;" style="rounded=0;whiteSpace=wrap;html=1;fillColor=#fff2cc;strokeColor=#d6b656;" parent="1" vertex="1">
          <mxGeometry x="180" y="130" width="350" height="30" as="geometry" />
        </mxCell>
        <mxCell id="ln3-arkjSwHd-baYfG7j-2" value="Obecný EV3&lt;br&gt;UART senzor" style="rounded=0;whiteSpace=wrap;html=1;fillColor=#d5e8d4;strokeColor=#82b366;" parent="1" vertex="1">
          <mxGeometry x="450" y="50" width="80" height="60" as="geometry" />
        </mxCell>
      </root>
    </mxGraphModel>
  </diagram>
</mxfile>
