%!PS-Adobe-3.0 EPSF-3.0
%%Creator: (MATLAB, The Mathworks, Inc. Version 9.13.0.2193358 \(R2022b\) Update 5. Operating System: Linux)
%%Title: /home/kuba/skola/vs/semestr/bp/tex/img/reg-comparison.eps
%%CreationDate: 2023-05-19T22:45:52
%%Pages: (atend)
%%BoundingBox:     3     5   431   182
%%LanguageLevel: 3
%%EndComments
%%BeginProlog
%%BeginResource: procset (Apache XML Graphics Std ProcSet) 1.2 0
%%Version: 1.2 0
%%Copyright: (Copyright 2001-2003,2010 The Apache Software Foundation. License terms: http://www.apache.org/licenses/LICENSE-2.0)
/bd{bind def}bind def
/ld{load def}bd
/GR/grestore ld
/GS/gsave ld
/RM/rmoveto ld
/C/curveto ld
/t/show ld
/L/lineto ld
/ML/setmiterlimit ld
/CT/concat ld
/f/fill ld
/N/newpath ld
/S/stroke ld
/CC/setcmykcolor ld
/A/ashow ld
/cp/closepath ld
/RC/setrgbcolor ld
/LJ/setlinejoin ld
/GC/setgray ld
/LW/setlinewidth ld
/M/moveto ld
/re {4 2 roll M
1 index 0 rlineto
0 exch rlineto
neg 0 rlineto
cp } bd
/_ctm matrix def
/_tm matrix def
/BT { _ctm currentmatrix pop matrix _tm copy pop 0 0 moveto } bd
/ET { _ctm setmatrix } bd
/iTm { _ctm setmatrix _tm concat } bd
/Tm { _tm astore pop iTm 0 0 moveto } bd
/ux 0.0 def
/uy 0.0 def
/F {
  /Tp exch def
  /Tf exch def
  Tf findfont Tp scalefont setfont
  /cf Tf def  /cs Tp def
} bd
/ULS {currentpoint /uy exch def /ux exch def} bd
/ULE {
  /Tcx currentpoint pop def
  gsave
  newpath
  cf findfont cs scalefont dup
  /FontMatrix get 0 get /Ts exch def /FontInfo get dup
  /UnderlinePosition get Ts mul /To exch def
  /UnderlineThickness get Ts mul /Tt exch def
  ux uy To add moveto  Tcx uy To add lineto
  Tt setlinewidth stroke
  grestore
} bd
/OLE {
  /Tcx currentpoint pop def
  gsave
  newpath
  cf findfont cs scalefont dup
  /FontMatrix get 0 get /Ts exch def /FontInfo get dup
  /UnderlinePosition get Ts mul /To exch def
  /UnderlineThickness get Ts mul /Tt exch def
  ux uy To add cs add moveto Tcx uy To add cs add lineto
  Tt setlinewidth stroke
  grestore
} bd
/SOE {
  /Tcx currentpoint pop def
  gsave
  newpath
  cf findfont cs scalefont dup
  /FontMatrix get 0 get /Ts exch def /FontInfo get dup
  /UnderlinePosition get Ts mul /To exch def
  /UnderlineThickness get Ts mul /Tt exch def
  ux uy To add cs 10 mul 26 idiv add moveto Tcx uy To add cs 10 mul 26 idiv add lineto
  Tt setlinewidth stroke
  grestore
} bd
/QT {
/Y22 exch store
/X22 exch store
/Y21 exch store
/X21 exch store
currentpoint
/Y21 load 2 mul add 3 div exch
/X21 load 2 mul add 3 div exch
/X21 load 2 mul /X22 load add 3 div
/Y21 load 2 mul /Y22 load add 3 div
/X22 load /Y22 load curveto
} bd
/SSPD {
dup length /d exch dict def
{
/v exch def
/k exch def
currentpagedevice k known {
/cpdv currentpagedevice k get def
v cpdv ne {
/upd false def
/nullv v type /nulltype eq def
/nullcpdv cpdv type /nulltype eq def
nullv nullcpdv or
{
/upd true def
} {
/sametype v type cpdv type eq def
sametype {
v type /arraytype eq {
/vlen v length def
/cpdvlen cpdv length def
vlen cpdvlen eq {
0 1 vlen 1 sub {
/i exch def
/obj v i get def
/cpdobj cpdv i get def
obj cpdobj ne {
/upd true def
exit
} if
} for
} {
/upd true def
} ifelse
} {
v type /dicttype eq {
v {
/dv exch def
/dk exch def
/cpddv cpdv dk get def
dv cpddv ne {
/upd true def
exit
} if
} forall
} {
/upd true def
} ifelse
} ifelse
} if
} ifelse
upd true eq {
d k v put
} if
} if
} if
} forall
d length 0 gt {
d setpagedevice
} if
} bd
/RE { % /NewFontName [NewEncodingArray] /FontName RE -
  findfont dup length dict begin
  {
    1 index /FID ne
    {def} {pop pop} ifelse
  } forall
  /Encoding exch def
  /FontName 1 index def
  currentdict definefont pop
  end
} bind def
%%EndResource
%%BeginResource: procset (Apache XML Graphics EPS ProcSet) 1.0 0
%%Version: 1.0 0
%%Copyright: (Copyright 2002-2003 The Apache Software Foundation. License terms: http://www.apache.org/licenses/LICENSE-2.0)
/BeginEPSF { %def
/b4_Inc_state save def         % Save state for cleanup
/dict_count countdictstack def % Count objects on dict stack
/op_count count 1 sub def      % Count objects on operand stack
userdict begin                 % Push userdict on dict stack
/showpage { } def              % Redefine showpage, { } = null proc
0 setgray 0 setlinecap         % Prepare graphics state
1 setlinewidth 0 setlinejoin
10 setmiterlimit [ ] 0 setdash newpath
/languagelevel where           % If level not equal to 1 then
{pop languagelevel             % set strokeadjust and
1 ne                           % overprint to their defaults.
{false setstrokeadjust false setoverprint
} if
} if
} bd
/EndEPSF { %def
count op_count sub {pop} repeat            % Clean up stacks
countdictstack dict_count sub {end} repeat
b4_Inc_state restore
} bd
%%EndResource
%FOPBeginFontDict
%%IncludeResource: font Courier-Oblique
%%IncludeResource: font Courier-BoldOblique
%%IncludeResource: font Courier-Bold
%%IncludeResource: font ZapfDingbats
%%IncludeResource: font Symbol
%%IncludeResource: font Helvetica
%%IncludeResource: font Helvetica-Oblique
%%IncludeResource: font Helvetica-Bold
%%IncludeResource: font Helvetica-BoldOblique
%%IncludeResource: font Times-Roman
%%IncludeResource: font Times-Italic
%%IncludeResource: font Times-Bold
%%IncludeResource: font Times-BoldItalic
%%IncludeResource: font Courier
%FOPEndFontDict
%%BeginResource: encoding WinAnsiEncoding
/WinAnsiEncoding [
/.notdef /.notdef /.notdef /.notdef /.notdef
/.notdef /.notdef /.notdef /.notdef /.notdef
/.notdef /.notdef /.notdef /.notdef /.notdef
/.notdef /.notdef /.notdef /.notdef /.notdef
/.notdef /.notdef /.notdef /.notdef /.notdef
/.notdef /.notdef /.notdef /.notdef /.notdef
/.notdef /.notdef /space /exclam /quotedbl
/numbersign /dollar /percent /ampersand /quotesingle
/parenleft /parenright /asterisk /plus /comma
/hyphen /period /slash /zero /one
/two /three /four /five /six
/seven /eight /nine /colon /semicolon
/less /equal /greater /question /at
/A /B /C /D /E
/F /G /H /I /J
/K /L /M /N /O
/P /Q /R /S /T
/U /V /W /X /Y
/Z /bracketleft /backslash /bracketright /asciicircum
/underscore /quoteleft /a /b /c
/d /e /f /g /h
/i /j /k /l /m
/n /o /p /q /r
/s /t /u /v /w
/x /y /z /braceleft /bar
/braceright /asciitilde /bullet /Euro /bullet
/quotesinglbase /florin /quotedblbase /ellipsis /dagger
/daggerdbl /circumflex /perthousand /Scaron /guilsinglleft
/OE /bullet /Zcaron /bullet /bullet
/quoteleft /quoteright /quotedblleft /quotedblright /bullet
/endash /emdash /asciitilde /trademark /scaron
/guilsinglright /oe /bullet /zcaron /Ydieresis
/space /exclamdown /cent /sterling /currency
/yen /brokenbar /section /dieresis /copyright
/ordfeminine /guillemotleft /logicalnot /sfthyphen /registered
/macron /degree /plusminus /twosuperior /threesuperior
/acute /mu /paragraph /middot /cedilla
/onesuperior /ordmasculine /guillemotright /onequarter /onehalf
/threequarters /questiondown /Agrave /Aacute /Acircumflex
/Atilde /Adieresis /Aring /AE /Ccedilla
/Egrave /Eacute /Ecircumflex /Edieresis /Igrave
/Iacute /Icircumflex /Idieresis /Eth /Ntilde
/Ograve /Oacute /Ocircumflex /Otilde /Odieresis
/multiply /Oslash /Ugrave /Uacute /Ucircumflex
/Udieresis /Yacute /Thorn /germandbls /agrave
/aacute /acircumflex /atilde /adieresis /aring
/ae /ccedilla /egrave /eacute /ecircumflex
/edieresis /igrave /iacute /icircumflex /idieresis
/eth /ntilde /ograve /oacute /ocircumflex
/otilde /odieresis /divide /oslash /ugrave
/uacute /ucircumflex /udieresis /yacute /thorn
/ydieresis
] def
%%EndResource
%FOPBeginFontReencode
/Courier-Oblique findfont
dup length dict begin
  {1 index /FID ne {def} {pop pop} ifelse} forall
  /Encoding WinAnsiEncoding def
  currentdict
end
/Courier-Oblique exch definefont pop
/Courier-BoldOblique findfont
dup length dict begin
  {1 index /FID ne {def} {pop pop} ifelse} forall
  /Encoding WinAnsiEncoding def
  currentdict
end
/Courier-BoldOblique exch definefont pop
/Courier-Bold findfont
dup length dict begin
  {1 index /FID ne {def} {pop pop} ifelse} forall
  /Encoding WinAnsiEncoding def
  currentdict
end
/Courier-Bold exch definefont pop
/Helvetica findfont
dup length dict begin
  {1 index /FID ne {def} {pop pop} ifelse} forall
  /Encoding WinAnsiEncoding def
  currentdict
end
/Helvetica exch definefont pop
/Helvetica-Oblique findfont
dup length dict begin
  {1 index /FID ne {def} {pop pop} ifelse} forall
  /Encoding WinAnsiEncoding def
  currentdict
end
/Helvetica-Oblique exch definefont pop
/Helvetica-Bold findfont
dup length dict begin
  {1 index /FID ne {def} {pop pop} ifelse} forall
  /Encoding WinAnsiEncoding def
  currentdict
end
/Helvetica-Bold exch definefont pop
/Helvetica-BoldOblique findfont
dup length dict begin
  {1 index /FID ne {def} {pop pop} ifelse} forall
  /Encoding WinAnsiEncoding def
  currentdict
end
/Helvetica-BoldOblique exch definefont pop
/Times-Roman findfont
dup length dict begin
  {1 index /FID ne {def} {pop pop} ifelse} forall
  /Encoding WinAnsiEncoding def
  currentdict
end
/Times-Roman exch definefont pop
/Times-Italic findfont
dup length dict begin
  {1 index /FID ne {def} {pop pop} ifelse} forall
  /Encoding WinAnsiEncoding def
  currentdict
end
/Times-Italic exch definefont pop
/Times-Bold findfont
dup length dict begin
  {1 index /FID ne {def} {pop pop} ifelse} forall
  /Encoding WinAnsiEncoding def
  currentdict
end
/Times-Bold exch definefont pop
/Times-BoldItalic findfont
dup length dict begin
  {1 index /FID ne {def} {pop pop} ifelse} forall
  /Encoding WinAnsiEncoding def
  currentdict
end
/Times-BoldItalic exch definefont pop
/Courier findfont
dup length dict begin
  {1 index /FID ne {def} {pop pop} ifelse} forall
  /Encoding WinAnsiEncoding def
  currentdict
end
/Courier exch definefont pop
%FOPEndFontReencode
%%EndProlog
%%Page: 1 1
%%PageBoundingBox: 0 0 450 188
%%BeginPageSetup
N
    3     5 M
  434     5 L
  434   187 L
    3   187 L
cp
clip
[1 0 0 -1 0 188] CT
%%EndPageSetup
GS
[0.75 0 0 0.75 0 0.5] CT
1 GC
N
0 0 600 250 re
f
GR
GS
[0.75 0 0 0.75 0 0.5] CT
1 GC
N
0 0 600 250 re
f
GR
GS
[0.75 0 0 0.75 0 0.5] CT
1 GC
N
51 207 M
281 207 L
281 26 L
51 26 L
cp
f
GR
GS
[0.75 0 0 0.75 0 0.5] CT
0.873 GC
1 LJ
0.667 LW
N
51 207 M
51 26 L
S
GR
GS
[0.75 0 0 0.75 0 0.5] CT
0.873 GC
1 LJ
0.667 LW
N
97 207 M
97 26 L
S
GR
GS
[0.75 0 0 0.75 0 0.5] CT
0.873 GC
1 LJ
0.667 LW
N
143 207 M
143 26 L
S
GR
GS
[0.75 0 0 0.75 0 0.5] CT
0.873 GC
1 LJ
0.667 LW
N
189 207 M
189 26 L
S
GR
GS
[0.75 0 0 0.75 0 0.5] CT
0.873 GC
1 LJ
0.667 LW
N
235 207 M
235 26 L
S
GR
GS
[0.75 0 0 0.75 0 0.5] CT
0.873 GC
1 LJ
0.667 LW
N
281 207 M
281 26 L
S
GR
GS
[0.75 0 0 0.75 0 0.5] CT
0.873 GC
1 LJ
0.667 LW
N
281 207 M
51 207 L
S
GR
GS
[0.75 0 0 0.75 0 0.5] CT
0.873 GC
1 LJ
0.667 LW
N
281 176.833 M
51 176.833 L
S
GR
GS
[0.75 0 0 0.75 0 0.5] CT
0.873 GC
1 LJ
0.667 LW
N
281 146.667 M
51 146.667 L
S
GR
GS
[0.75 0 0 0.75 0 0.5] CT
0.873 GC
1 LJ
0.667 LW
N
281 116.5 M
51 116.5 L
S
GR
GS
[0.75 0 0 0.75 0 0.5] CT
0.873 GC
1 LJ
0.667 LW
N
281 86.333 M
51 86.333 L
S
GR
GS
[0.75 0 0 0.75 0 0.5] CT
0.873 GC
1 LJ
0.667 LW
N
281 56.167 M
51 56.167 L
S
GR
GS
[0.75 0 0 0.75 0 0.5] CT
0.873 GC
1 LJ
0.667 LW
N
281 26 M
51 26 L
S
GR
GS
[0.75 0 0 0.75 0 0.5] CT
0.149 GC
2 setlinecap
1 LJ
0.667 LW
N
51 207 M
281 207 L
S
GR
GS
[0.75 0 0 0.75 0 0.5] CT
0.149 GC
2 setlinecap
1 LJ
0.667 LW
N
51 26 M
281 26 L
S
GR
GS
[0.75 0 0 0.75 0 0.5] CT
0.149 GC
2 setlinecap
1 LJ
0.667 LW
N
51 207 M
51 204.7 L
S
GR
GS
[0.75 0 0 0.75 0 0.5] CT
0.149 GC
2 setlinecap
1 LJ
0.667 LW
N
97 207 M
97 204.7 L
S
GR
GS
[0.75 0 0 0.75 0 0.5] CT
0.149 GC
2 setlinecap
1 LJ
0.667 LW
N
143 207 M
143 204.7 L
S
GR
GS
[0.75 0 0 0.75 0 0.5] CT
0.149 GC
2 setlinecap
1 LJ
0.667 LW
N
189 207 M
189 204.7 L
S
GR
GS
[0.75 0 0 0.75 0 0.5] CT
0.149 GC
2 setlinecap
1 LJ
0.667 LW
N
235 207 M
235 204.7 L
S
GR
GS
[0.75 0 0 0.75 0 0.5] CT
0.149 GC
2 setlinecap
1 LJ
0.667 LW
N
281 207 M
281 204.7 L
S
GR
GS
[0.75 0 0 0.75 0 0.5] CT
0.149 GC
2 setlinecap
1 LJ
0.667 LW
N
51 26 M
51 28.3 L
S
GR
GS
[0.75 0 0 0.75 0 0.5] CT
0.149 GC
2 setlinecap
1 LJ
0.667 LW
N
97 26 M
97 28.3 L
S
GR
GS
[0.75 0 0 0.75 0 0.5] CT
0.149 GC
2 setlinecap
1 LJ
0.667 LW
N
143 26 M
143 28.3 L
S
GR
GS
[0.75 0 0 0.75 0 0.5] CT
0.149 GC
2 setlinecap
1 LJ
0.667 LW
N
189 26 M
189 28.3 L
S
GR
GS
[0.75 0 0 0.75 0 0.5] CT
0.149 GC
2 setlinecap
1 LJ
0.667 LW
N
235 26 M
235 28.3 L
S
GR
GS
[0.75 0 0 0.75 0 0.5] CT
0.149 GC
2 setlinecap
1 LJ
0.667 LW
N
281 26 M
281 28.3 L
S
GR
GS
[0.75 0 0 0.75 38.25 159.15001] CT
0.149 GC
/Helvetica 12.667 F
GS
[1 0 0 1 0 0] CT
-4.5 12 moveto 
1 -1 scale
(0) t 
GR
GR
GS
[0.75 0 0 0.75 72.75 159.15001] CT
0.149 GC
/Helvetica 12.667 F
GS
[1 0 0 1 0 0] CT
-10.5 12 moveto 
1 -1 scale
(0.2) t 
GR
GR
GS
[0.75 0 0 0.75 107.25 159.15001] CT
0.149 GC
/Helvetica 12.667 F
GS
[1 0 0 1 0 0] CT
-10.5 12 moveto 
1 -1 scale
(0.4) t 
GR
GR
GS
[0.75 0 0 0.75 141.75 159.15001] CT
0.149 GC
/Helvetica 12.667 F
GS
[1 0 0 1 0 0] CT
-10.5 12 moveto 
1 -1 scale
(0.6) t 
GR
GR
GS
[0.75 0 0 0.75 176.25 159.15001] CT
0.149 GC
/Helvetica 12.667 F
GS
[1 0 0 1 0 0] CT
-10.5 12 moveto 
1 -1 scale
(0.8) t 
GR
GR
GS
[0.75 0 0 0.75 210.75 159.15001] CT
0.149 GC
/Helvetica 12.667 F
GS
[1 0 0 1 0 0] CT
-4.5 12 moveto 
1 -1 scale
(1) t 
GR
GR
GS
[0.75 0 0 0.75 124.50008 171.15001] CT
0.149 GC
N
-14.984 3.578 M
-14.984 5.031 L
-15.688 4.391 -16.477 4.07 QT
-17.266 3.75 -18.141 3.75 QT
-19.891 3.75 -20.82 4.82 QT
-21.75 5.891 -21.75 7.906 QT
-21.75 9.922 -20.82 10.992 QT
-19.891 12.063 -18.141 12.063 QT
-17.266 12.063 -16.477 11.742 QT
-15.688 11.422 -14.984 10.766 QT
-14.984 12.219 L
-15.703 12.703 -16.516 12.953 QT
-17.328 13.203 -18.234 13.203 QT
-20.547 13.203 -21.883 11.781 QT
-23.219 10.359 -23.219 7.906 QT
-23.219 5.453 -21.883 4.031 QT
-20.547 2.609 -18.234 2.609 QT
-17.313 2.609 -16.5 2.852 QT
-15.688 3.094 -14.984 3.578 QT
cp
-19.141 1.375 M
-20.578 -0.453 L
-19.641 -0.453 L
-18.5 0.766 L
-17.359 -0.453 L
-16.422 -0.453 L
-17.859 1.375 L
-19.141 1.375 L
cp
-9.493 9.156 M
-11.009 9.156 -11.603 9.5 QT
-12.196 9.844 -12.196 10.688 QT
-12.196 11.359 -11.751 11.75 QT
-11.306 12.141 -10.556 12.141 QT
-9.509 12.141 -8.876 11.398 QT
-8.243 10.656 -8.243 9.438 QT
-8.243 9.156 L
-9.493 9.156 L
cp
-6.978 8.625 M
-6.978 13 L
-8.243 13 L
-8.243 11.844 L
-8.665 12.531 -9.314 12.867 QT
-9.962 13.203 -10.884 13.203 QT
-12.056 13.203 -12.751 12.539 QT
-13.446 11.875 -13.446 10.766 QT
-13.446 9.484 -12.579 8.828 QT
-11.712 8.172 -10.009 8.172 QT
-8.243 8.172 L
-8.243 8.047 L
-8.243 7.172 -8.814 6.695 QT
-9.384 6.219 -10.415 6.219 QT
-11.071 6.219 -11.696 6.383 QT
-12.321 6.547 -12.884 6.859 QT
-12.884 5.688 L
-12.196 5.422 -11.548 5.289 QT
-10.899 5.156 -10.29 5.156 QT
-8.618 5.156 -7.798 6.016 QT
-6.978 6.875 -6.978 8.625 QT
cp
0.435 5.563 M
0.435 6.766 L
-0.097 6.484 -0.675 6.352 QT
-1.253 6.219 -1.862 6.219 QT
-2.8 6.219 -3.268 6.5 QT
-3.737 6.781 -3.737 7.359 QT
-3.737 7.797 -3.401 8.047 QT
-3.065 8.297 -2.05 8.516 QT
-1.628 8.625 L
-0.284 8.906 0.278 9.43 QT
0.841 9.953 0.841 10.891 QT
0.841 11.953 -0.003 12.578 QT
-0.847 13.203 -2.315 13.203 QT
-2.94 13.203 -3.604 13.078 QT
-4.268 12.953 -5.003 12.719 QT
-5.003 11.422 L
-4.315 11.781 -3.636 11.961 QT
-2.956 12.141 -2.3 12.141 QT
-1.409 12.141 -0.932 11.836 QT
-0.456 11.531 -0.456 10.984 QT
-0.456 10.469 -0.8 10.195 QT
-1.143 9.922 -2.315 9.672 QT
-2.753 9.563 L
-3.909 9.328 -4.432 8.813 QT
-4.956 8.297 -4.956 7.422 QT
-4.956 6.328 -4.19 5.742 QT
-3.425 5.156 -2.018 5.156 QT
-1.315 5.156 -0.698 5.258 QT
-0.081 5.359 0.435 5.563 QT
cp
7.1 2.359 M
10.006 2.359 L
10.006 3.344 L
8.366 3.344 L
8.366 13.875 L
10.006 13.875 L
10.006 14.844 L
7.1 14.844 L
7.1 2.359 L
cp
17.526 5.563 M
17.526 6.766 L
16.994 6.484 16.416 6.352 QT
15.838 6.219 15.229 6.219 QT
14.291 6.219 13.822 6.5 QT
13.354 6.781 13.354 7.359 QT
13.354 7.797 13.69 8.047 QT
14.026 8.297 15.041 8.516 QT
15.463 8.625 L
16.807 8.906 17.369 9.43 QT
17.932 9.953 17.932 10.891 QT
17.932 11.953 17.088 12.578 QT
16.244 13.203 14.776 13.203 QT
14.151 13.203 13.486 13.078 QT
12.822 12.953 12.088 12.719 QT
12.088 11.422 L
12.776 11.781 13.455 11.961 QT
14.135 12.141 14.791 12.141 QT
15.682 12.141 16.158 11.836 QT
16.635 11.531 16.635 10.984 QT
16.635 10.469 16.291 10.195 QT
15.947 9.922 14.776 9.672 QT
14.338 9.563 L
13.182 9.328 12.658 8.813 QT
12.135 8.297 12.135 7.422 QT
12.135 6.328 12.901 5.742 QT
13.666 5.156 15.072 5.156 QT
15.776 5.156 16.393 5.258 QT
17.01 5.359 17.526 5.563 QT
cp
22.833 2.359 M
22.833 14.844 L
19.927 14.844 L
19.927 13.875 L
21.568 13.875 L
21.568 3.344 L
19.927 3.344 L
19.927 2.359 L
22.833 2.359 L
cp
f
GR
GS
[0.75 0 0 0.75 0 0.5] CT
0.149 GC
2 setlinecap
1 LJ
0.667 LW
N
51 207 M
51 26 L
S
GR
GS
[0.75 0 0 0.75 0 0.5] CT
0.149 GC
2 setlinecap
1 LJ
0.667 LW
N
281 207 M
281 26 L
S
GR
GS
[0.75 0 0 0.75 0 0.5] CT
0.149 GC
2 setlinecap
1 LJ
0.667 LW
N
51 207 M
53.3 207 L
S
GR
GS
[0.75 0 0 0.75 0 0.5] CT
0.149 GC
2 setlinecap
1 LJ
0.667 LW
N
51 176.833 M
53.3 176.833 L
S
GR
GS
[0.75 0 0 0.75 0 0.5] CT
0.149 GC
2 setlinecap
1 LJ
0.667 LW
N
51 146.667 M
53.3 146.667 L
S
GR
GS
[0.75 0 0 0.75 0 0.5] CT
0.149 GC
2 setlinecap
1 LJ
0.667 LW
N
51 116.5 M
53.3 116.5 L
S
GR
GS
[0.75 0 0 0.75 0 0.5] CT
0.149 GC
2 setlinecap
1 LJ
0.667 LW
N
51 86.333 M
53.3 86.333 L
S
GR
GS
[0.75 0 0 0.75 0 0.5] CT
0.149 GC
2 setlinecap
1 LJ
0.667 LW
N
51 56.167 M
53.3 56.167 L
S
GR
GS
[0.75 0 0 0.75 0 0.5] CT
0.149 GC
2 setlinecap
1 LJ
0.667 LW
N
51 26 M
53.3 26 L
S
GR
GS
[0.75 0 0 0.75 0 0.5] CT
0.149 GC
2 setlinecap
1 LJ
0.667 LW
N
281 207 M
278.7 207 L
S
GR
GS
[0.75 0 0 0.75 0 0.5] CT
0.149 GC
2 setlinecap
1 LJ
0.667 LW
N
281 176.833 M
278.7 176.833 L
S
GR
GS
[0.75 0 0 0.75 0 0.5] CT
0.149 GC
2 setlinecap
1 LJ
0.667 LW
N
281 146.667 M
278.7 146.667 L
S
GR
GS
[0.75 0 0 0.75 0 0.5] CT
0.149 GC
2 setlinecap
1 LJ
0.667 LW
N
281 116.5 M
278.7 116.5 L
S
GR
GS
[0.75 0 0 0.75 0 0.5] CT
0.149 GC
2 setlinecap
1 LJ
0.667 LW
N
281 86.333 M
278.7 86.333 L
S
GR
GS
[0.75 0 0 0.75 0 0.5] CT
0.149 GC
2 setlinecap
1 LJ
0.667 LW
N
281 56.167 M
278.7 56.167 L
S
GR
GS
[0.75 0 0 0.75 0 0.5] CT
0.149 GC
2 setlinecap
1 LJ
0.667 LW
N
281 26 M
278.7 26 L
S
GR
GS
[0.75 0 0 0.75 34.85 155.75] CT
0.149 GC
/Helvetica 12.667 F
GS
[1 0 0 1 0 0] CT
-9 4.5 moveto 
1 -1 scale
(0) t 
GR
GR
GS
[0.75 0 0 0.75 34.85 133.125] CT
0.149 GC
/Helvetica 12.667 F
GS
[1 0 0 1 0 0] CT
-21 4.5 moveto 
1 -1 scale
(0.2) t 
GR
GR
GS
[0.75 0 0 0.75 34.85 110.5] CT
0.149 GC
/Helvetica 12.667 F
GS
[1 0 0 1 0 0] CT
-21 4.5 moveto 
1 -1 scale
(0.4) t 
GR
GR
GS
[0.75 0 0 0.75 34.85 87.875] CT
0.149 GC
/Helvetica 12.667 F
GS
[1 0 0 1 0 0] CT
-21 4.5 moveto 
1 -1 scale
(0.6) t 
GR
GR
GS
[0.75 0 0 0.75 34.85 65.25] CT
0.149 GC
/Helvetica 12.667 F
GS
[1 0 0 1 0 0] CT
-21 4.5 moveto 
1 -1 scale
(0.8) t 
GR
GR
GS
[0.75 0 0 0.75 34.85 42.625] CT
0.149 GC
/Helvetica 12.667 F
GS
[1 0 0 1 0 0] CT
-9 4.5 moveto 
1 -1 scale
(1) t 
GR
GR
GS
[0.75 0 0 0.75 34.85 19.99999] CT
0.149 GC
/Helvetica 12.667 F
GS
[1 0 0 1 0 0] CT
-21 4.5 moveto 
1 -1 scale
(1.2) t 
GR
GR
GS
[0 -0.75 0.75 0 16.6 87.87493] CT
0.149 GC
/Helvetica 13.933 F
GS
[1 0 0 1 0 0] CT
-27 -4 moveto 
1 -1 scale
(\332hel [\260]) t 
GR
GR
GS
[0.75 0 0 0.75 124.50013 18.04063] CT
N
-94.047 -12.484 M
-95.25 -12.484 -95.914 -11.594 QT
-96.578 -10.703 -96.578 -9.094 QT
-96.578 -7.484 -95.914 -6.594 QT
-95.25 -5.703 -94.047 -5.703 QT
-92.844 -5.703 -92.18 -6.594 QT
-91.516 -7.484 -91.516 -9.094 QT
-91.516 -10.703 -92.18 -11.594 QT
-92.844 -12.484 -94.047 -12.484 QT
cp
-94.047 -14.391 M
-91.594 -14.391 -90.195 -12.984 QT
-88.797 -11.578 -88.797 -9.094 QT
-88.797 -6.625 -90.195 -5.211 QT
-91.594 -3.797 -94.047 -3.797 QT
-96.5 -3.797 -97.898 -5.211 QT
-99.297 -6.625 -99.297 -9.094 QT
-99.297 -11.578 -97.898 -12.984 QT
-96.5 -14.391 -94.047 -14.391 QT
cp
-81.788 -10.531 M
-81.788 -14.641 L
-79.335 -14.641 L
-79.335 -4 L
-81.788 -4 L
-81.788 -5.109 L
-82.303 -4.438 -82.913 -4.117 QT
-83.522 -3.797 -84.319 -3.797 QT
-85.725 -3.797 -86.639 -4.922 QT
-87.553 -6.047 -87.553 -7.828 QT
-87.553 -9.594 -86.639 -10.719 QT
-85.725 -11.844 -84.319 -11.844 QT
-83.522 -11.844 -82.913 -11.523 QT
-82.303 -11.203 -81.788 -10.531 QT
cp
-83.413 -5.578 M
-82.616 -5.578 -82.202 -6.156 QT
-81.788 -6.734 -81.788 -7.828 QT
-81.788 -8.922 -82.202 -9.492 QT
-82.616 -10.063 -83.413 -10.063 QT
-84.178 -10.063 -84.592 -9.492 QT
-85.006 -8.922 -85.006 -7.828 QT
-85.006 -6.734 -84.592 -6.156 QT
-84.178 -5.578 -83.413 -5.578 QT
cp
-69.411 -7.844 M
-69.411 -7.156 L
-75.13 -7.156 L
-75.036 -6.297 -74.505 -5.859 QT
-73.974 -5.422 -73.021 -5.422 QT
-72.24 -5.422 -71.427 -5.656 QT
-70.615 -5.891 -69.771 -6.359 QT
-69.771 -4.469 L
-70.63 -4.141 -71.497 -3.969 QT
-72.365 -3.797 -73.24 -3.797 QT
-75.318 -3.797 -76.466 -4.859 QT
-77.615 -5.922 -77.615 -7.828 QT
-77.615 -9.688 -76.49 -10.766 QT
-75.365 -11.844 -73.38 -11.844 QT
-71.568 -11.844 -70.49 -10.758 QT
-69.411 -9.672 -69.411 -7.844 QT
cp
-71.927 -8.656 M
-71.927 -9.359 -72.333 -9.789 QT
-72.74 -10.219 -73.396 -10.219 QT
-74.099 -10.219 -74.544 -9.82 QT
-74.99 -9.422 -75.099 -8.656 QT
-71.927 -8.656 L
cp
-67.996 -11.656 M
-61.308 -11.656 L
-61.308 -9.953 L
-65.339 -5.75 L
-61.308 -5.75 L
-61.308 -4 L
-68.167 -4 L
-68.167 -5.703 L
-64.136 -9.906 L
-67.996 -9.906 L
-67.996 -11.656 L
cp
-60.48 -11.656 M
-58.042 -11.656 L
-56.136 -6.359 L
-54.23 -11.656 L
-51.777 -11.656 L
-54.792 -4 L
-57.48 -4 L
-60.48 -11.656 L
cp
-47.024 -7.453 M
-47.79 -7.453 -48.181 -7.188 QT
-48.571 -6.922 -48.571 -6.422 QT
-48.571 -5.953 -48.259 -5.688 QT
-47.946 -5.422 -47.384 -5.422 QT
-46.696 -5.422 -46.227 -5.922 QT
-45.759 -6.422 -45.759 -7.172 QT
-45.759 -7.453 L
-47.024 -7.453 L
cp
-43.29 -8.375 M
-43.29 -4 L
-45.759 -4 L
-45.759 -5.141 L
-46.243 -4.438 -46.86 -4.117 QT
-47.477 -3.797 -48.352 -3.797 QT
-49.556 -3.797 -50.29 -4.492 QT
-51.024 -5.188 -51.024 -6.297 QT
-51.024 -7.641 -50.102 -8.273 QT
-49.181 -8.906 -47.196 -8.906 QT
-45.759 -8.906 L
-45.759 -9.094 L
-45.759 -9.672 -46.212 -9.945 QT
-46.665 -10.219 -47.634 -10.219 QT
-48.431 -10.219 -49.102 -10.063 QT
-49.774 -9.906 -50.368 -9.578 QT
-50.368 -11.453 L
-49.571 -11.641 -48.782 -11.742 QT
-47.993 -11.844 -47.196 -11.844 QT
-45.118 -11.844 -44.204 -11.023 QT
-43.29 -10.203 -43.29 -8.375 QT
cp
-30.252 -11.422 M
-30.252 -9.563 L
-31.033 -9.891 -31.768 -10.055 QT
-32.502 -10.219 -33.143 -10.219 QT
-33.846 -10.219 -34.182 -10.039 QT
-34.518 -9.859 -34.518 -9.5 QT
-34.518 -9.203 -34.268 -9.047 QT
-34.018 -8.891 -33.346 -8.813 QT
-32.924 -8.766 L
-31.033 -8.516 -30.385 -7.969 QT
-29.736 -7.422 -29.736 -6.25 QT
-29.736 -5.031 -30.643 -4.414 QT
-31.549 -3.797 -33.33 -3.797 QT
-34.096 -3.797 -34.9 -3.922 QT
-35.705 -4.047 -36.565 -4.281 QT
-36.565 -6.141 L
-35.83 -5.781 -35.065 -5.602 QT
-34.299 -5.422 -33.502 -5.422 QT
-32.783 -5.422 -32.424 -5.625 QT
-32.065 -5.828 -32.065 -6.219 QT
-32.065 -6.547 -32.315 -6.703 QT
-32.565 -6.859 -33.299 -6.953 QT
-33.736 -7.016 L
-35.377 -7.219 -36.033 -7.773 QT
-36.69 -8.328 -36.69 -9.453 QT
-36.69 -10.672 -35.854 -11.258 QT
-35.018 -11.844 -33.299 -11.844 QT
-32.611 -11.844 -31.869 -11.742 QT
-31.127 -11.641 -30.252 -11.422 QT
cp
-25.287 -13.828 M
-25.287 -11.656 L
-22.756 -11.656 L
-22.756 -9.906 L
-25.287 -9.906 L
-25.287 -6.656 L
-25.287 -6.125 -25.076 -5.938 QT
-24.865 -5.75 -24.225 -5.75 QT
-22.975 -5.75 L
-22.975 -4 L
-25.069 -4 L
-26.522 -4 -27.123 -4.602 QT
-27.725 -5.203 -27.725 -6.656 QT
-27.725 -9.906 L
-28.944 -9.906 L
-28.944 -11.656 L
-27.725 -11.656 L
-27.725 -13.828 L
-25.287 -13.828 L
cp
-15.624 -9.578 M
-15.937 -9.719 -16.257 -9.789 QT
-16.577 -9.859 -16.905 -9.859 QT
-17.843 -9.859 -18.351 -9.258 QT
-18.859 -8.656 -18.859 -7.531 QT
-18.859 -4 L
-21.312 -4 L
-21.312 -11.656 L
-18.859 -11.656 L
-18.859 -10.406 L
-18.39 -11.156 -17.78 -11.5 QT
-17.171 -11.844 -16.312 -11.844 QT
-16.187 -11.844 -16.046 -11.836 QT
-15.905 -11.828 -15.624 -11.781 QT
-15.624 -9.578 L
cp
-18.812 -12.625 M
-20.562 -15.203 L
-19.343 -15.203 L
-17.984 -13.641 L
-16.624 -15.203 L
-15.405 -15.203 L
-17.155 -12.625 L
-18.812 -12.625 L
cp
-6.813 -7.844 M
-6.813 -7.156 L
-12.532 -7.156 L
-12.438 -6.297 -11.907 -5.859 QT
-11.375 -5.422 -10.422 -5.422 QT
-9.641 -5.422 -8.829 -5.656 QT
-8.016 -5.891 -7.172 -6.359 QT
-7.172 -4.469 L
-8.032 -4.141 -8.899 -3.969 QT
-9.766 -3.797 -10.641 -3.797 QT
-12.719 -3.797 -13.868 -4.859 QT
-15.016 -5.922 -15.016 -7.828 QT
-15.016 -9.688 -13.891 -10.766 QT
-12.766 -11.844 -10.782 -11.844 QT
-8.969 -11.844 -7.891 -10.758 QT
-6.813 -9.672 -6.813 -7.844 QT
cp
-9.329 -8.656 M
-9.329 -9.359 -9.735 -9.789 QT
-10.141 -10.219 -10.797 -10.219 QT
-11.5 -10.219 -11.946 -9.82 QT
-12.391 -9.422 -12.5 -8.656 QT
-9.329 -8.656 L
cp
0.197 -10.531 M
0.197 -14.641 L
2.65 -14.641 L
2.65 -4 L
0.197 -4 L
0.197 -5.109 L
-0.319 -4.438 -0.928 -4.117 QT
-1.538 -3.797 -2.335 -3.797 QT
-3.741 -3.797 -4.655 -4.922 QT
-5.569 -6.047 -5.569 -7.828 QT
-5.569 -9.594 -4.655 -10.719 QT
-3.741 -11.844 -2.335 -11.844 QT
-1.538 -11.844 -0.928 -11.523 QT
-0.319 -11.203 0.197 -10.531 QT
cp
-1.428 -5.578 M
-0.631 -5.578 -0.217 -6.156 QT
0.197 -6.734 0.197 -7.828 QT
0.197 -8.922 -0.217 -9.492 QT
-0.631 -10.063 -1.428 -10.063 QT
-2.194 -10.063 -2.608 -9.492 QT
-3.022 -8.922 -3.022 -7.828 QT
-3.022 -6.734 -2.608 -6.156 QT
-2.194 -5.578 -1.428 -5.578 QT
cp
12.635 -8.656 M
12.635 -4 L
10.167 -4 L
10.167 -4.766 L
10.167 -7.563 L
10.167 -8.563 10.128 -8.938 QT
10.089 -9.313 9.979 -9.484 QT
9.839 -9.734 9.589 -9.867 QT
9.339 -10 9.026 -10 QT
8.26 -10 7.823 -9.406 QT
7.385 -8.813 7.385 -7.766 QT
7.385 -4 L
4.932 -4 L
4.932 -11.656 L
7.385 -11.656 L
7.385 -10.531 L
7.932 -11.203 8.557 -11.523 QT
9.182 -11.844 9.932 -11.844 QT
11.26 -11.844 11.948 -11.031 QT
12.635 -10.219 12.635 -8.656 QT
cp
14.832 -11.656 M
17.286 -11.656 L
17.286 -4 L
14.832 -4 L
14.832 -11.656 L
cp
17.082 -15.203 M
19.02 -15.203 L
16.489 -12.625 L
15.161 -12.625 L
17.082 -15.203 L
cp
27.302 -8.656 M
27.302 -4 L
24.833 -4 L
24.833 -4.766 L
24.833 -7.563 L
24.833 -8.563 24.794 -8.938 QT
24.755 -9.313 24.646 -9.484 QT
24.505 -9.734 24.255 -9.867 QT
24.005 -10 23.693 -10 QT
22.927 -10 22.49 -9.406 QT
22.052 -8.813 22.052 -7.766 QT
22.052 -4 L
19.599 -4 L
19.599 -14.641 L
22.052 -14.641 L
22.052 -10.531 L
22.599 -11.203 23.224 -11.523 QT
23.849 -11.844 24.599 -11.844 QT
25.927 -11.844 26.615 -11.031 QT
27.302 -10.219 27.302 -8.656 QT
cp
33.14 -10.094 M
32.327 -10.094 31.905 -9.508 QT
31.484 -8.922 31.484 -7.828 QT
31.484 -6.719 31.905 -6.133 QT
32.327 -5.547 33.14 -5.547 QT
33.952 -5.547 34.374 -6.133 QT
34.796 -6.719 34.796 -7.828 QT
34.796 -8.922 34.374 -9.508 QT
33.952 -10.094 33.14 -10.094 QT
cp
33.14 -11.844 M
35.124 -11.844 36.234 -10.773 QT
37.343 -9.703 37.343 -7.828 QT
37.343 -5.938 36.234 -4.867 QT
35.124 -3.797 33.14 -3.797 QT
31.171 -3.797 30.054 -4.867 QT
28.937 -5.938 28.937 -7.828 QT
28.937 -9.703 30.054 -10.773 QT
31.171 -11.844 33.14 -11.844 QT
cp
50.988 -10.391 M
51.457 -11.094 52.097 -11.469 QT
52.738 -11.844 53.504 -11.844 QT
54.816 -11.844 55.511 -11.031 QT
56.207 -10.219 56.207 -8.656 QT
56.207 -4 L
53.738 -4 L
53.738 -8 L
53.754 -8.078 53.754 -8.172 QT
53.754 -8.266 53.754 -8.453 QT
53.754 -9.266 53.519 -9.633 QT
53.285 -10 52.738 -10 QT
52.051 -10 51.668 -9.422 QT
51.285 -8.844 51.269 -7.766 QT
51.269 -4 L
48.816 -4 L
48.816 -8 L
48.816 -9.266 48.597 -9.633 QT
48.379 -10 47.816 -10 QT
47.113 -10 46.73 -9.422 QT
46.347 -8.844 46.347 -7.766 QT
46.347 -4 L
43.879 -4 L
43.879 -11.656 L
46.347 -11.656 L
46.347 -10.531 L
46.801 -11.188 47.386 -11.516 QT
47.972 -11.844 48.676 -11.844 QT
49.457 -11.844 50.066 -11.461 QT
50.676 -11.078 50.988 -10.391 QT
cp
62.025 -10.094 M
61.213 -10.094 60.791 -9.508 QT
60.369 -8.922 60.369 -7.828 QT
60.369 -6.719 60.791 -6.133 QT
61.213 -5.547 62.025 -5.547 QT
62.838 -5.547 63.259 -6.133 QT
63.681 -6.719 63.681 -7.828 QT
63.681 -8.922 63.259 -9.508 QT
62.838 -10.094 62.025 -10.094 QT
cp
62.025 -11.844 M
64.009 -11.844 65.119 -10.773 QT
66.228 -9.703 66.228 -7.828 QT
66.228 -5.938 65.119 -4.867 QT
64.009 -3.797 62.025 -3.797 QT
60.056 -3.797 58.939 -4.867 QT
57.822 -5.938 57.822 -7.828 QT
57.822 -9.703 58.939 -10.773 QT
60.056 -11.844 62.025 -11.844 QT
cp
70.61 -13.828 M
70.61 -11.656 L
73.141 -11.656 L
73.141 -9.906 L
70.61 -9.906 L
70.61 -6.656 L
70.61 -6.125 70.821 -5.938 QT
71.032 -5.75 71.673 -5.75 QT
72.923 -5.75 L
72.923 -4 L
70.829 -4 L
69.376 -4 68.774 -4.602 QT
68.173 -5.203 68.173 -6.656 QT
68.173 -9.906 L
66.954 -9.906 L
66.954 -11.656 L
68.173 -11.656 L
68.173 -13.828 L
70.61 -13.828 L
cp
78.226 -10.094 M
77.414 -10.094 76.992 -9.508 QT
76.57 -8.922 76.57 -7.828 QT
76.57 -6.719 76.992 -6.133 QT
77.414 -5.547 78.226 -5.547 QT
79.039 -5.547 79.461 -6.133 QT
79.883 -6.719 79.883 -7.828 QT
79.883 -8.922 79.461 -9.508 QT
79.039 -10.094 78.226 -10.094 QT
cp
78.226 -11.844 M
80.211 -11.844 81.32 -10.773 QT
82.43 -9.703 82.43 -7.828 QT
82.43 -5.938 81.32 -4.867 QT
80.211 -3.797 78.226 -3.797 QT
76.258 -3.797 75.14 -4.867 QT
74.023 -5.938 74.023 -7.828 QT
74.023 -9.703 75.14 -10.773 QT
76.258 -11.844 78.226 -11.844 QT
cp
89.827 -9.578 M
89.515 -9.719 89.194 -9.789 QT
88.874 -9.859 88.546 -9.859 QT
87.608 -9.859 87.1 -9.258 QT
86.593 -8.656 86.593 -7.531 QT
86.593 -4 L
84.14 -4 L
84.14 -11.656 L
86.593 -11.656 L
86.593 -10.406 L
87.061 -11.156 87.671 -11.5 QT
88.28 -11.844 89.14 -11.844 QT
89.265 -11.844 89.405 -11.836 QT
89.546 -11.828 89.827 -11.781 QT
89.827 -9.578 L
cp
90.919 -6.984 M
90.919 -11.656 L
93.388 -11.656 L
93.388 -10.891 L
93.388 -10.266 93.38 -9.328 QT
93.373 -8.391 93.373 -8.078 QT
93.373 -7.156 93.419 -6.75 QT
93.466 -6.344 93.576 -6.156 QT
93.732 -5.922 93.974 -5.789 QT
94.216 -5.656 94.529 -5.656 QT
95.294 -5.656 95.732 -6.242 QT
96.169 -6.828 96.169 -7.875 QT
96.169 -11.656 L
98.623 -11.656 L
98.623 -4 L
96.169 -4 L
96.169 -5.109 L
95.623 -4.438 94.998 -4.117 QT
94.373 -3.797 93.638 -3.797 QT
92.31 -3.797 91.615 -4.609 QT
90.919 -5.422 90.919 -6.984 QT
cp
f
GR
GS
[0.75 0 0 0.75 0 0.5] CT
0 0.447 0.741 RC
1 LJ
2.667 LW
N
51 190.595 M
53.3 163.054 L
55.6 141.588 L
57.9 124.554 L
60.2 110.808 L
62.5 99.547 L
64.8 90.202 L
67.1 82.364 L
69.4 75.733 L
71.7 70.091 L
74 65.268 L
76.3 61.137 L
78.6 57.595 L
80.9 54.562 L
83.2 51.969 L
85.5 49.762 L
87.8 47.892 L
90.1 46.32 L
92.4 45.009 L
94.7 43.928 L
97 43.052 L
99.3 42.355 L
101.6 41.815 L
103.9 41.415 L
106.2 41.137 L
108.5 40.965 L
110.8 40.886 L
113.1 40.887 L
115.4 40.959 L
117.7 41.091 L
120 41.274 L
122.3 41.501 L
124.6 41.765 L
126.9 42.059 L
129.2 42.378 L
131.5 42.718 L
133.8 43.074 L
136.1 43.442 L
138.4 43.819 L
140.7 44.201 L
143 44.588 L
145.3 44.975 L
147.6 45.362 L
149.9 45.747 L
152.2 46.127 L
154.5 46.503 L
156.8 46.872 L
159.1 47.235 L
161.4 47.589 L
163.7 47.936 L
166 48.273 L
168.3 48.602 L
170.6 48.921 L
172.9 49.23 L
175.2 49.53 L
177.5 49.82 L
179.8 50.1 L
182.1 50.37 L
184.4 50.631 L
186.7 50.882 L
189 51.123 L
191.3 51.356 L
193.6 51.579 L
195.9 51.793 L
198.2 51.998 L
200.5 52.195 L
202.8 52.384 L
205.1 52.565 L
207.4 52.738 L
209.7 52.903 L
212 53.062 L
214.3 53.213 L
216.6 53.357 L
218.9 53.495 L
221.2 53.627 L
223.5 53.753 L
225.8 53.873 L
228.1 53.987 L
230.4 54.096 L
232.7 54.2 L
235 54.299 L
237.3 54.393 L
239.6 54.482 L
241.9 54.568 L
244.2 54.649 L
246.5 54.726 L
248.8 54.8 L
251.1 54.87 L
253.4 54.936 L
255.7 54.999 L
258 55.059 L
260.3 55.116 L
262.6 55.171 L
264.9 55.222 L
267.2 55.271 L
269.5 55.318 L
271.8 55.362 L
274.1 55.404 L
276.4 55.443 L
278.7 55.481 L
281 55.517 L
S
GR
GS
[0.75 0 0 0.75 0 0.5] CT
1 GC
N
342 207 M
572 207 L
572 26 L
342 26 L
cp
f
GR
GS
[0.75 0 0 0.75 0 0.5] CT
0.873 GC
1 LJ
0.667 LW
N
342 207 M
342 26 L
S
GR
GS
[0.75 0 0 0.75 0 0.5] CT
0.873 GC
1 LJ
0.667 LW
N
388 207 M
388 26 L
S
GR
GS
[0.75 0 0 0.75 0 0.5] CT
0.873 GC
1 LJ
0.667 LW
N
434 207 M
434 26 L
S
GR
GS
[0.75 0 0 0.75 0 0.5] CT
0.873 GC
1 LJ
0.667 LW
N
480 207 M
480 26 L
S
GR
GS
[0.75 0 0 0.75 0 0.5] CT
0.873 GC
1 LJ
0.667 LW
N
526 207 M
526 26 L
S
GR
GS
[0.75 0 0 0.75 0 0.5] CT
0.873 GC
1 LJ
0.667 LW
N
572 207 M
572 26 L
S
GR
GS
[0.75 0 0 0.75 0 0.5] CT
0.873 GC
1 LJ
0.667 LW
N
572 207 M
342 207 L
S
GR
GS
[0.75 0 0 0.75 0 0.5] CT
0.873 GC
1 LJ
0.667 LW
N
572 176.833 M
342 176.833 L
S
GR
GS
[0.75 0 0 0.75 0 0.5] CT
0.873 GC
1 LJ
0.667 LW
N
572 146.667 M
342 146.667 L
S
GR
GS
[0.75 0 0 0.75 0 0.5] CT
0.873 GC
1 LJ
0.667 LW
N
572 116.5 M
342 116.5 L
S
GR
GS
[0.75 0 0 0.75 0 0.5] CT
0.873 GC
1 LJ
0.667 LW
N
572 86.333 M
342 86.333 L
S
GR
GS
[0.75 0 0 0.75 0 0.5] CT
0.873 GC
1 LJ
0.667 LW
N
572 56.167 M
342 56.167 L
S
GR
GS
[0.75 0 0 0.75 0 0.5] CT
0.873 GC
1 LJ
0.667 LW
N
572 26 M
342 26 L
S
GR
GS
[0.75 0 0 0.75 0 0.5] CT
0.149 GC
2 setlinecap
1 LJ
0.667 LW
N
342 207 M
572 207 L
S
GR
GS
[0.75 0 0 0.75 0 0.5] CT
0.149 GC
2 setlinecap
1 LJ
0.667 LW
N
342 26 M
572 26 L
S
GR
GS
[0.75 0 0 0.75 0 0.5] CT
0.149 GC
2 setlinecap
1 LJ
0.667 LW
N
342 207 M
342 204.7 L
S
GR
GS
[0.75 0 0 0.75 0 0.5] CT
0.149 GC
2 setlinecap
1 LJ
0.667 LW
N
388 207 M
388 204.7 L
S
GR
GS
[0.75 0 0 0.75 0 0.5] CT
0.149 GC
2 setlinecap
1 LJ
0.667 LW
N
434 207 M
434 204.7 L
S
GR
GS
[0.75 0 0 0.75 0 0.5] CT
0.149 GC
2 setlinecap
1 LJ
0.667 LW
N
480 207 M
480 204.7 L
S
GR
GS
[0.75 0 0 0.75 0 0.5] CT
0.149 GC
2 setlinecap
1 LJ
0.667 LW
N
526 207 M
526 204.7 L
S
GR
GS
[0.75 0 0 0.75 0 0.5] CT
0.149 GC
2 setlinecap
1 LJ
0.667 LW
N
572 207 M
572 204.7 L
S
GR
GS
[0.75 0 0 0.75 0 0.5] CT
0.149 GC
2 setlinecap
1 LJ
0.667 LW
N
342 26 M
342 28.3 L
S
GR
GS
[0.75 0 0 0.75 0 0.5] CT
0.149 GC
2 setlinecap
1 LJ
0.667 LW
N
388 26 M
388 28.3 L
S
GR
GS
[0.75 0 0 0.75 0 0.5] CT
0.149 GC
2 setlinecap
1 LJ
0.667 LW
N
434 26 M
434 28.3 L
S
GR
GS
[0.75 0 0 0.75 0 0.5] CT
0.149 GC
2 setlinecap
1 LJ
0.667 LW
N
480 26 M
480 28.3 L
S
GR
GS
[0.75 0 0 0.75 0 0.5] CT
0.149 GC
2 setlinecap
1 LJ
0.667 LW
N
526 26 M
526 28.3 L
S
GR
GS
[0.75 0 0 0.75 0 0.5] CT
0.149 GC
2 setlinecap
1 LJ
0.667 LW
N
572 26 M
572 28.3 L
S
GR
GS
[0.75 0 0 0.75 256.5 159.15001] CT
0.149 GC
/Helvetica 12.667 F
GS
[1 0 0 1 0 0] CT
-4.5 12 moveto 
1 -1 scale
(0) t 
GR
GR
GS
[0.75 0 0 0.75 291 159.15001] CT
0.149 GC
/Helvetica 12.667 F
GS
[1 0 0 1 0 0] CT
-10.5 12 moveto 
1 -1 scale
(0.2) t 
GR
GR
GS
[0.75 0 0 0.75 325.5 159.15001] CT
0.149 GC
/Helvetica 12.667 F
GS
[1 0 0 1 0 0] CT
-10.5 12 moveto 
1 -1 scale
(0.4) t 
GR
GR
GS
[0.75 0 0 0.75 360 159.15001] CT
0.149 GC
/Helvetica 12.667 F
GS
[1 0 0 1 0 0] CT
-10.5 12 moveto 
1 -1 scale
(0.6) t 
GR
GR
GS
[0.75 0 0 0.75 394.5 159.15001] CT
0.149 GC
/Helvetica 12.667 F
GS
[1 0 0 1 0 0] CT
-10.5 12 moveto 
1 -1 scale
(0.8) t 
GR
GR
GS
[0.75 0 0 0.75 429 159.15001] CT
0.149 GC
/Helvetica 12.667 F
GS
[1 0 0 1 0 0] CT
-4.5 12 moveto 
1 -1 scale
(1) t 
GR
GR
GS
[0.75 0 0 0.75 342.75009 171.15001] CT
0.149 GC
N
/f900644784{-14.984 3.578 M
-14.984 5.031 L
-15.688 4.391 -16.477 4.07 QT
-17.266 3.75 -18.141 3.75 QT
-19.891 3.75 -20.82 4.82 QT
-21.75 5.891 -21.75 7.906 QT
-21.75 9.922 -20.82 10.992 QT
-19.891 12.063 -18.141 12.063 QT
-17.266 12.063 -16.477 11.742 QT
-15.688 11.422 -14.984 10.766 QT
-14.984 12.219 L
-15.703 12.703 -16.516 12.953 QT
-17.328 13.203 -18.234 13.203 QT
-20.547 13.203 -21.883 11.781 QT
-23.219 10.359 -23.219 7.906 QT
-23.219 5.453 -21.883 4.031 QT
-20.547 2.609 -18.234 2.609 QT
-17.313 2.609 -16.5 2.852 QT
-15.688 3.094 -14.984 3.578 QT
cp
-19.141 1.375 M
-20.578 -0.453 L
-19.641 -0.453 L
-18.5 0.766 L
-17.359 -0.453 L
-16.422 -0.453 L
-17.859 1.375 L
-19.141 1.375 L
cp
-9.493 9.156 M
-11.009 9.156 -11.603 9.5 QT
-12.196 9.844 -12.196 10.688 QT
-12.196 11.359 -11.751 11.75 QT
-11.306 12.141 -10.556 12.141 QT
-9.509 12.141 -8.876 11.398 QT
-8.243 10.656 -8.243 9.438 QT
-8.243 9.156 L
-9.493 9.156 L
cp
-6.978 8.625 M
-6.978 13 L
-8.243 13 L
-8.243 11.844 L
-8.665 12.531 -9.314 12.867 QT
-9.962 13.203 -10.884 13.203 QT
-12.056 13.203 -12.751 12.539 QT
-13.446 11.875 -13.446 10.766 QT
-13.446 9.484 -12.579 8.828 QT
-11.712 8.172 -10.009 8.172 QT
-8.243 8.172 L
-8.243 8.047 L
-8.243 7.172 -8.814 6.695 QT
-9.384 6.219 -10.415 6.219 QT
-11.071 6.219 -11.696 6.383 QT
-12.321 6.547 -12.884 6.859 QT
-12.884 5.688 L
-12.196 5.422 -11.548 5.289 QT
-10.899 5.156 -10.29 5.156 QT
-8.618 5.156 -7.798 6.016 QT
-6.978 6.875 -6.978 8.625 QT
cp
0.435 5.563 M
0.435 6.766 L
-0.097 6.484 -0.675 6.352 QT
-1.253 6.219 -1.862 6.219 QT
-2.8 6.219 -3.268 6.5 QT
-3.737 6.781 -3.737 7.359 QT
-3.737 7.797 -3.401 8.047 QT
-3.065 8.297 -2.05 8.516 QT
-1.628 8.625 L
-0.284 8.906 0.278 9.43 QT
0.841 9.953 0.841 10.891 QT
0.841 11.953 -0.003 12.578 QT
-0.847 13.203 -2.315 13.203 QT
-2.94 13.203 -3.604 13.078 QT
-4.268 12.953 -5.003 12.719 QT
-5.003 11.422 L
-4.315 11.781 -3.636 11.961 QT
-2.956 12.141 -2.3 12.141 QT
-1.409 12.141 -0.932 11.836 QT
-0.456 11.531 -0.456 10.984 QT
-0.456 10.469 -0.8 10.195 QT
-1.143 9.922 -2.315 9.672 QT
-2.753 9.563 L
-3.909 9.328 -4.432 8.813 QT
-4.956 8.297 -4.956 7.422 QT
-4.956 6.328 -4.19 5.742 QT
-3.425 5.156 -2.018 5.156 QT
-1.315 5.156 -0.698 5.258 QT
-0.081 5.359 0.435 5.563 QT
cp
7.1 2.359 M
10.006 2.359 L
10.006 3.344 L
8.366 3.344 L
8.366 13.875 L
10.006 13.875 L
10.006 14.844 L
7.1 14.844 L
7.1 2.359 L
cp
17.526 5.563 M
17.526 6.766 L
16.994 6.484 16.416 6.352 QT
15.838 6.219 15.229 6.219 QT
14.291 6.219 13.822 6.5 QT
13.354 6.781 13.354 7.359 QT
13.354 7.797 13.69 8.047 QT
14.026 8.297 15.041 8.516 QT
15.463 8.625 L
16.807 8.906 17.369 9.43 QT
17.932 9.953 17.932 10.891 QT
17.932 11.953 17.088 12.578 QT
16.244 13.203 14.776 13.203 QT
14.151 13.203 13.486 13.078 QT
12.822 12.953 12.088 12.719 QT
12.088 11.422 L
12.776 11.781 13.455 11.961 QT
14.135 12.141 14.791 12.141 QT
15.682 12.141 16.158 11.836 QT
16.635 11.531 16.635 10.984 QT
16.635 10.469 16.291 10.195 QT
15.947 9.922 14.776 9.672 QT
14.338 9.563 L
13.182 9.328 12.658 8.813 QT
12.135 8.297 12.135 7.422 QT
12.135 6.328 12.901 5.742 QT
13.666 5.156 15.072 5.156 QT
15.776 5.156 16.393 5.258 QT
17.01 5.359 17.526 5.563 QT
cp
22.833 2.359 M
22.833 14.844 L
19.927 14.844 L
19.927 13.875 L
21.568 13.875 L
21.568 3.344 L
19.927 3.344 L
19.927 2.359 L
22.833 2.359 L
cp}def
f900644784
f
GR
GS
[0.75 0 0 0.75 0 0.5] CT
0.149 GC
2 setlinecap
1 LJ
0.667 LW
N
342 207 M
342 26 L
S
GR
GS
[0.75 0 0 0.75 0 0.5] CT
0.149 GC
2 setlinecap
1 LJ
0.667 LW
N
572 207 M
572 26 L
S
GR
GS
[0.75 0 0 0.75 0 0.5] CT
0.149 GC
2 setlinecap
1 LJ
0.667 LW
N
342 207 M
344.3 207 L
S
GR
GS
[0.75 0 0 0.75 0 0.5] CT
0.149 GC
2 setlinecap
1 LJ
0.667 LW
N
342 176.833 M
344.3 176.833 L
S
GR
GS
[0.75 0 0 0.75 0 0.5] CT
0.149 GC
2 setlinecap
1 LJ
0.667 LW
N
342 146.667 M
344.3 146.667 L
S
GR
GS
[0.75 0 0 0.75 0 0.5] CT
0.149 GC
2 setlinecap
1 LJ
0.667 LW
N
342 116.5 M
344.3 116.5 L
S
GR
GS
[0.75 0 0 0.75 0 0.5] CT
0.149 GC
2 setlinecap
1 LJ
0.667 LW
N
342 86.333 M
344.3 86.333 L
S
GR
GS
[0.75 0 0 0.75 0 0.5] CT
0.149 GC
2 setlinecap
1 LJ
0.667 LW
N
342 56.167 M
344.3 56.167 L
S
GR
GS
[0.75 0 0 0.75 0 0.5] CT
0.149 GC
2 setlinecap
1 LJ
0.667 LW
N
342 26 M
344.3 26 L
S
GR
GS
[0.75 0 0 0.75 0 0.5] CT
0.149 GC
2 setlinecap
1 LJ
0.667 LW
N
572 207 M
569.7 207 L
S
GR
GS
[0.75 0 0 0.75 0 0.5] CT
0.149 GC
2 setlinecap
1 LJ
0.667 LW
N
572 176.833 M
569.7 176.833 L
S
GR
GS
[0.75 0 0 0.75 0 0.5] CT
0.149 GC
2 setlinecap
1 LJ
0.667 LW
N
572 146.667 M
569.7 146.667 L
S
GR
GS
[0.75 0 0 0.75 0 0.5] CT
0.149 GC
2 setlinecap
1 LJ
0.667 LW
N
572 116.5 M
569.7 116.5 L
S
GR
GS
[0.75 0 0 0.75 0 0.5] CT
0.149 GC
2 setlinecap
1 LJ
0.667 LW
N
572 86.333 M
569.7 86.333 L
S
GR
GS
[0.75 0 0 0.75 0 0.5] CT
0.149 GC
2 setlinecap
1 LJ
0.667 LW
N
572 56.167 M
569.7 56.167 L
S
GR
GS
[0.75 0 0 0.75 0 0.5] CT
0.149 GC
2 setlinecap
1 LJ
0.667 LW
N
572 26 M
569.7 26 L
S
GR
GS
[0.75 0 0 0.75 253.10001 155.75] CT
0.149 GC
/Helvetica 12.667 F
GS
[1 0 0 1 0 0] CT
-9 4.5 moveto 
1 -1 scale
(0) t 
GR
GR
GS
[0.75 0 0 0.75 253.10001 133.125] CT
0.149 GC
/Helvetica 12.667 F
GS
[1 0 0 1 0 0] CT
-21 4.5 moveto 
1 -1 scale
(0.2) t 
GR
GR
GS
[0.75 0 0 0.75 253.10001 110.5] CT
0.149 GC
/Helvetica 12.667 F
GS
[1 0 0 1 0 0] CT
-21 4.5 moveto 
1 -1 scale
(0.4) t 
GR
GR
GS
[0.75 0 0 0.75 253.10001 87.875] CT
0.149 GC
/Helvetica 12.667 F
GS
[1 0 0 1 0 0] CT
-21 4.5 moveto 
1 -1 scale
(0.6) t 
GR
GR
GS
[0.75 0 0 0.75 253.10001 65.25] CT
0.149 GC
/Helvetica 12.667 F
GS
[1 0 0 1 0 0] CT
-21 4.5 moveto 
1 -1 scale
(0.8) t 
GR
GR
GS
[0.75 0 0 0.75 253.10001 42.625] CT
0.149 GC
/Helvetica 12.667 F
GS
[1 0 0 1 0 0] CT
-9 4.5 moveto 
1 -1 scale
(1) t 
GR
GR
GS
[0.75 0 0 0.75 253.10001 19.99999] CT
0.149 GC
/Helvetica 12.667 F
GS
[1 0 0 1 0 0] CT
-21 4.5 moveto 
1 -1 scale
(1.2) t 
GR
GR
GS
[0 -0.75 0.75 0 234.85 87.87493] CT
0.149 GC
/Helvetica 13.933 F
GS
[1 0 0 1 0 0] CT
-27 -4 moveto 
1 -1 scale
(\332hel [\260]) t 
GR
GR
GS
[0.75 0 0 0.75 342.75032 18.04063] CT
/Helvetica-Bold 13.933 F
GS
[1 0 0 1 0 0] CT
-93 -4 moveto 
1 -1 scale
(Odezva velk\351ho motoru) t 
GR
GR
GS
[0.75 0 0 0.75 0 0.5] CT
0 0.447 0.741 RC
1 LJ
2.667 LW
N
342 194.413 M
344.3 171.106 L
346.6 150.126 L
348.9 131.495 L
351.2 115.161 L
353.5 101.012 L
355.8 88.902 L
358.1 78.66 L
360.4 70.106 L
362.7 63.056 L
365 57.328 L
367.3 52.75 L
369.6 49.161 L
371.9 46.413 L
374.2 44.371 L
376.5 42.915 L
378.8 41.941 L
381.1 41.356 L
383.4 41.08 L
385.7 41.047 L
388 41.198 L
390.3 41.488 L
392.6 41.875 L
394.9 42.33 L
397.2 42.827 L
399.5 43.345 L
401.8 43.869 L
404.1 44.388 L
406.4 44.893 L
408.7 45.378 L
411 45.839 L
413.3 46.275 L
415.6 46.684 L
417.9 47.065 L
420.2 47.421 L
422.5 47.751 L
424.8 48.058 L
427.1 48.343 L
429.4 48.608 L
431.7 48.855 L
434 49.085 L
436.3 49.3 L
438.6 49.502 L
440.9 49.692 L
443.2 49.872 L
445.5 50.043 L
447.8 50.205 L
450.1 50.36 L
452.4 50.508 L
454.7 50.651 L
457 50.789 L
459.3 50.921 L
461.6 51.05 L
463.9 51.175 L
466.2 51.296 L
468.5 51.414 L
470.8 51.529 L
473.1 51.641 L
475.4 51.75 L
477.7 51.857 L
480 51.961 L
482.3 52.063 L
484.6 52.162 L
486.9 52.259 L
489.2 52.354 L
491.5 52.447 L
493.8 52.537 L
496.1 52.626 L
498.4 52.712 L
500.7 52.797 L
503 52.879 L
505.3 52.959 L
507.6 53.038 L
509.9 53.115 L
512.2 53.19 L
514.5 53.263 L
516.8 53.334 L
519.1 53.403 L
521.4 53.471 L
523.7 53.538 L
526 53.602 L
528.3 53.665 L
530.6 53.727 L
532.9 53.787 L
535.2 53.845 L
537.5 53.902 L
539.8 53.958 L
542.1 54.012 L
544.4 54.065 L
546.7 54.117 L
549 54.167 L
551.3 54.217 L
553.6 54.264 L
555.9 54.311 L
558.2 54.357 L
560.5 54.401 L
562.8 54.445 L
565.1 54.487 L
567.4 54.528 L
569.7 54.569 L
572 54.608 L
S
GR
%%Trailer
%%Pages: 1
%%EOF
