<mxfile host="Electron" modified="2023-05-25T23:14:11.284Z" agent="Mozilla/5.0 (X11; Linux x86_64) AppleWebKit/537.36 (KHTML, like Gecko) draw.io/21.1.2 Chrome/106.0.5249.199 Electron/21.4.3 Safari/537.36" etag="aRKoPNqCYWaIVrlay_mn" version="21.1.2" type="device">
  <diagram name="Stránka-1" id="4cspQ5yQYugZeGWKzQyE">
    <mxGraphModel dx="880" dy="542" grid="1" gridSize="10" guides="1" tooltips="1" connect="1" arrows="1" fold="1" page="1" pageScale="1" pageWidth="827" pageHeight="1169" math="0" shadow="0">
      <root>
        <mxCell id="0" />
        <mxCell id="1" parent="0" />
        <mxCell id="hUL9jwOAFEZ0qhQ4Im41-4" value="Primitivní&lt;br&gt;procesor" style="rounded=0;whiteSpace=wrap;html=1;fillColor=#e1d5e7;strokeColor=#9673a6;" parent="1" vertex="1">
          <mxGeometry x="250" y="80" width="70" height="70" as="geometry" />
        </mxCell>
        <mxCell id="hUL9jwOAFEZ0qhQ4Im41-23" style="edgeStyle=orthogonalEdgeStyle;rounded=0;orthogonalLoop=1;jettySize=auto;html=1;exitX=1;exitY=0.5;exitDx=0;exitDy=0;entryX=0.001;entryY=0.218;entryDx=0;entryDy=0;entryPerimeter=0;startArrow=classic;startFill=1;endArrow=none;endFill=0;" parent="1" source="hUL9jwOAFEZ0qhQ4Im41-2" target="hUL9jwOAFEZ0qhQ4Im41-16" edge="1">
          <mxGeometry relative="1" as="geometry" />
        </mxCell>
        <mxCell id="hUL9jwOAFEZ0qhQ4Im41-26" style="edgeStyle=orthogonalEdgeStyle;rounded=0;orthogonalLoop=1;jettySize=auto;html=1;exitX=0.5;exitY=0;exitDx=0;exitDy=0;entryX=1;entryY=0.5;entryDx=0;entryDy=0;" parent="1" source="hUL9jwOAFEZ0qhQ4Im41-2" target="hUL9jwOAFEZ0qhQ4Im41-6" edge="1">
          <mxGeometry relative="1" as="geometry" />
        </mxCell>
        <mxCell id="hUL9jwOAFEZ0qhQ4Im41-2" value="Posuvný registr" style="rounded=0;whiteSpace=wrap;html=1;fillColor=#fff2cc;strokeColor=#d6b656;" parent="1" vertex="1">
          <mxGeometry x="130" y="80" width="100" height="30" as="geometry" />
        </mxCell>
        <mxCell id="hUL9jwOAFEZ0qhQ4Im41-21" style="edgeStyle=orthogonalEdgeStyle;rounded=0;orthogonalLoop=1;jettySize=auto;html=1;exitX=1;exitY=0.5;exitDx=0;exitDy=0;entryX=-0.011;entryY=0.792;entryDx=0;entryDy=0;entryPerimeter=0;" parent="1" source="hUL9jwOAFEZ0qhQ4Im41-3" target="hUL9jwOAFEZ0qhQ4Im41-16" edge="1">
          <mxGeometry relative="1" as="geometry" />
        </mxCell>
        <mxCell id="hUL9jwOAFEZ0qhQ4Im41-3" value="Posuvný registr" style="rounded=0;whiteSpace=wrap;html=1;fillColor=#fff2cc;strokeColor=#d6b656;" parent="1" vertex="1">
          <mxGeometry x="130" y="120" width="100" height="30" as="geometry" />
        </mxCell>
        <mxCell id="hUL9jwOAFEZ0qhQ4Im41-6" value="RX FIFO" style="rounded=0;whiteSpace=wrap;html=1;fillColor=#dae8fc;strokeColor=#6c8ebf;fontSize=13;" parent="1" vertex="1">
          <mxGeometry x="20" y="80" width="70" height="30" as="geometry" />
        </mxCell>
        <mxCell id="hUL9jwOAFEZ0qhQ4Im41-27" style="edgeStyle=orthogonalEdgeStyle;rounded=0;orthogonalLoop=1;jettySize=auto;html=1;exitX=1;exitY=0.5;exitDx=0;exitDy=0;entryX=0.5;entryY=1;entryDx=0;entryDy=0;" parent="1" source="hUL9jwOAFEZ0qhQ4Im41-7" target="hUL9jwOAFEZ0qhQ4Im41-3" edge="1">
          <mxGeometry relative="1" as="geometry" />
        </mxCell>
        <mxCell id="hUL9jwOAFEZ0qhQ4Im41-7" value="TX FIFO" style="rounded=0;whiteSpace=wrap;html=1;fillColor=#dae8fc;strokeColor=#6c8ebf;fontSize=13;" parent="1" vertex="1">
          <mxGeometry x="20" y="120" width="70" height="30" as="geometry" />
        </mxCell>
        <mxCell id="hUL9jwOAFEZ0qhQ4Im41-16" value="Piny&lt;br&gt;procesoru" style="rounded=0;whiteSpace=wrap;html=1;fillColor=#d5e8d4;strokeColor=#82b366;" parent="1" vertex="1">
          <mxGeometry x="340" y="80" width="96" height="70" as="geometry" />
        </mxCell>
        <mxCell id="tWdeq7Cvifr64TQBXEX9-1" value="32 bitů" style="text;html=1;strokeColor=none;fillColor=none;align=center;verticalAlign=middle;whiteSpace=wrap;rounded=0;" parent="1" vertex="1">
          <mxGeometry x="180" y="50" width="50" height="30" as="geometry" />
        </mxCell>
        <mxCell id="tWdeq7Cvifr64TQBXEX9-2" value="32 bitů" style="text;html=1;strokeColor=none;fillColor=none;align=center;verticalAlign=middle;whiteSpace=wrap;rounded=0;" parent="1" vertex="1">
          <mxGeometry x="180" y="150" width="50" height="30" as="geometry" />
        </mxCell>
      </root>
    </mxGraphModel>
  </diagram>
</mxfile>
