1116
1067
1038
1038
1034
1037
1036
1036
1063
1036
1066
1041
1038
1037
1036
1038
1037
1035
1038
1039
1045
1041
1035
1036
1036
1038
1037
1037
1039
1035
1045
1039
1038
1038
1038
1036
1035
1036
1036
1036
1043
1041
1035
1038
1034
1038
1036
1038
1035
1037
1045
1039
1069
1035
1036
1038
1036
1037
1037
1036
1060
1039
1039
1036
1033
1037
1035
1034
1037
1037
1045
1038
1034
1036
1035
1036
1036
1036
1036
1038
1045
1039
1036
1038
1037
1037
1037
1037
1036
1037
1042
1041
1037
1037
1034
1036
1037
1037
1036
1035
1085
1039
1036
1037
1037
1037
1039
1033
1038
1037
1043
1040
1038
1036
1035
1039
1037
1037
1036
1035
1045
1041
1038
1036
1036
1038
1039
1038
1037
1038
1046
1039
1034
1037
1036
1035
1036
1037
1038
1035
1044
1038
1035
1037
1037
1036
1039
1076
1037
1036
1044
1041
1037
1034
1038
1035
1040
1035
1038
1037
1044
1040
1033
1040
1036
1037
1036
1039
1033
1039
1045
1036
1039
1037
1037
1039
1037
1033
1038
1036
1045
1039
1035
1038
1037
1035
1036
1034
1037
1036
1045
1040
1039
1036
1037
1035
1035
1079
1037
1038
1042
1037
1039
1035
1038
1037
1037
1038
1036
1036
1047
1038
1036
1033
1037
1037
1037
1035
1036
1037
1043
1040
1038
1039
1034
1038
1036
1036
1036
1038
1043
1038
1037
1037
1036
1038
1036
1037
1034
1035
1044
1037
1038
1036
1036
1036
1039
1038
1076
1037
1046
1038
1037
1037
1043
1040
1041
1036
1038
1037
1047
1041
1038
1039
1036
1037
1037
1037
1039
1038
1045
1039
1041
1036
1040
1037
1038
1039
1039
1036
1047
1037
1041
1037
1040
1037
1037
1036
1041
1038
1048
1037
1036
1037
1039
1064
1036
1038
1036
1035
1043
1039
1036
1038
1039
1035
1039
1038
1036
1036
1045
1037
1038
1035
1038
1036
1037
1035
1037
1035
1048
1038
1038
1034
1038
1035
1038
1036
1035
1037
1042
1037
1036
1038
1037
1040
1036
1034
1037
1036
1046
1039
1036
1036
1037
1073
1036
1037
1037
1035
1047
1039
1040
1035
1038
1034
1039
1038
1036
1036
1046
1038
1037
1037
1039
1037
1034
1038
1035
1037
1046
1036
1038
1037
1036
1038
1035
1036
1038
1035
1043
1038
1037
1037
1034
1036
1037
1039
1034
1040
1041
1041
1036
1036
1036
1071
1035
1035
1039
1036
1043
1040
1038
1036
1037
1037
1035
1035
1037
1037
1044
1039
1036
1035
1038
1036
1036
1037
1040
1036
1046
1040
1038
1036
1037
1039
1036
1036
1035
1035
1044
1036
1035
1039
1040
1039
1033
1037
1036
1035
1046
1041
1037
1037
1038
1083
1040
1040
1038
1040
1047
1039
1041
1038
1035
1039
1037
1038
1040
1037
1046
1043
1038
1040
1037
1040
1037
1038
1037
1036
1044
1040
1037
1040
1039
1040
1037
1040
1038
1039
1044
1037
1038
1040
1038
1041
1037
1038
1041
1038
1043
1041
1081
1038
1034
1036
1037
1038
1034
1038
1045
1039
1037
1038
1035
1039
1036
1037
1035
1035
1045
1038
1038
1037
1039
1037
1037
1039
1039
1033
1044
1037
1038
1037
1036
1037
1035
1037
1038
1036
1045
1038
1036
1038
1038
1034
1036
1036
1035
1036
1047
1080
1038
1034
1035
1039
1037
1035
1034
1040
1045
1039
1040
1039
1034
1038
1039
1037
1038
1037
1045
1036
1037
1036
1037
1034
1040
1038
1037
1036
1046
1036
1037
1037
1037
1037
1037
1036
1035
1038
1045
1036
1037
1037
1037
1038
1037
1037
1035
1034
1046
1080
1038
1040
1036
1035
1039
1034
1037
1035
1046
1039
1037
1035
1038
1035
1039
1036
1035
1039
1046
1035
1038
1039
1035
1037
1036
1038
1036
1037
1045
1039
1040
1037
1038
1036
1038
1032
1038
1035
1045
1039
1038
1038
1037
1036
1038
1035
1041
1037
1085
1040
1039
1035
1036
1039
1038
1039
1036
1036
1045
1040
1035
1037
1037
1039
1038
1038
1036
1037
1046
1037
1037
1039
1036
1035
1036
1037
1038
1035
1045
1038
1137
1038
1034
1037
1034
1037
1050
1038
1040
1036
1036
1037
1035
1064
1033
1037
1047
1038
1040
1035
1038
1036
1035
1037
1034
1036
1045
1038
1039
1037
1037
1034
1036
1036
1037
1034
1047
1038
1040
1035
1036
1039
1035
1037
1034
1036
1046
1042
1037
1038
1037
1038
1035
1036
1036
1040
1045
1039
1038
1033
1036
1037
1035
1079
1036
1037
1045
1039
1036
1036
1037
1037
1036
1039
1037
1036
1046
1040
1039
1035
1036
1036
1035
1035
1034
1039
1042
1039
1035
1035
1036
1035
1036
1039
1034
1035
1041
1041
1038
1034
1038
1038
1038
1037
1036
1038
1047
1037
1038
1039
1036
1079
1037
1038
1037
1037
1043
1040
1038
1038
1035
1036
1039
1035
1038
1038
1042
1040
1036
1037
1035
1038
1037
1036
1038
1036
1045
1040
1036
1036
1037
1036
1034
1036
1037
1037
1045
1041
1033
1038
1036
1038
1036
1037
1035
1034
1048
1041
1041
1081
1045
1038
1042
1039
1041
1037
1044
1040
1040
1038
1039
1037
1039
1036
1038
1037
1047
1040
1036
1036
1038
1038
1041
1037
1035
1037
1047
1037
1038
1036
1041
1037
1037
1038
1040
1037
1046
1041
1037
1040
1038
1036
1040
1034
1041
1038
1047
1042
1075
1036
1038
1036
1038
1036
1037
1037
1044
1038
1034
1039
1037
1036
1038
1038
1039
1035
1043
1042
1034
1037
1037
1035
1034
1039
1035
1035
1045
1039
1036
1037
1034
1037
1037
1035
1037
1037
1043
1037
1038
1034
1037
1038
1033
1035
1038
1036
1097
1038
1040
1036
1037
1038
1035
1038
1036
1036
1047
1040
1037
1036
1038
1038
1034
1039
1035
1035
1044
1035
1036
1037
1037
1036
1037
1038
1037
1037
1046
1038
1037
1035
1039
1034
1037
1037
1037
1038
1046
1039
1036
1037
1036
1038
1036
1036
1035
1037
1093
1040
1039
1036
1035
1036
1037
1037
1035
1035
1046
1038
1039
1035
1038
1037
1035
1036
1036
1036
1046
1039
1037
1037
1035
1037
1036
1037
1037
1039
1045
1039
1039
1037
1039
1034
1038
1036
1036
1037
1044
1041
1037
1037
1035
1038
1040
1038
1036
1072
1046
1039
1035
1037
1037
1037
1038
1036
1039
1037
1043
1039
1036
1038
1033
1037
1039
1035
1037
1036
1046
1038
1038
1034
1036
1035
1038
1038
1036
1038
1046
1038
1036
1039
1036
1039
1036
1035
1038
1035
1045
1039
1039
1037
1037
1036
1036
1036
1081
1037
1042
1038
1038
1039
1034
1038
1037
1039
1036
1037
1043
1040
1035
1036
1037
1036
1035
1035
1035
1038
1048
1039
1037
1035
1036
1035
1037
1036
1038
1035
1044
1038
1037
1039
1034
1036
1038
1036
1035
1035
1046
1041
1037
1038
1037
1036
1086
1037
1038
1037
1045
1040
1039
1034
1038
1037
1037
1037
1037
1034
1045
1040
1037
1038
1036
1037
1038
1036
1036
1038
1043
1040
1039
1037
1034
1037
1035
1037
1035
1039
1045
1040
1037
1035
1036
1036
1036
1037
1035
1033
1046
1038
1040
1036
1087
1037
1036
1038
1035
1036
1046
1041
1039
1038
1039
1035
1038
1034
1037
1038
1044
1039
1037
1036
1035
1038
1039
1035
1039
1037
1044
1038
1036
1037
1036
1040
1038
1037
1038
1034
1046
1035
1038
1037
1035
1037
1039
1035
1039
1039
1047
1039
1038
1036
1078
1037
1038
1036
1036
1036
1046
1037
1037
1037
1034
1036
1038
1038
1036
1034
1044
1039
1036
1038
1037
1036
1038
1038
1037
1039
1045
1035
1037
1035
1035
1036
1037
1034
1036
1038
1044
1040
1038
1037
1038
1037
1037
1034
1035
1036
1045
1039
1037
1080
1038
1035
1037
1039
1038
1037
1046
1041
1036
1037
1034
1036
1037
1037
1035
1038
1044
1040
1040
1036
1038
1036
1036
1038
1037
1038
1045
1040
1037
1038
1039
1035
1036
1037
1036
1037
1043
1038
1039
1038
1038
1036
1038
1035
1039
1037
1046
1039
1078
1039
1038
1036
1039
1035
1039
1034
1044
1040
1037
1039
1037
1037
1036
1038
1036
1038
1043
1039
1037
1039
1037
1039
1038
1037
1036
1038
1044
1041
1039
1036
1037
1037
1036
1038
1036
1037
1045
1040
1036
1036
1039
1035
1038
1037
1035
1038
1042
1038
1087
1038
1036
1038
1036
1037
1036
1038
1046
1036
1039
1037
1037
1038
1036
1037
1034
1037
1045
1037
1039
1040
1037
1037
1038
1037
1035
1034
1045
1038
1038
1037
1037
1036
1036
1038
1038
1038
1044
1043
1039
1037
1038
1038
1038
1036
1036
1036
1084
1041
1036
1035
1038
1037
1035
1037
1036
1038
1042
1041
1041
1036
1034
1036
1036
1036
1036
1035
1045
1039
1037
1037
1037
1038
1035
1038
1038
1037
1043
1039
1033
1040
1036
1034
1037
1038
1035
1036
1040
1039
1038
1038
1035
1035
1040
1036
1036
1036
1070
1038
1036
1037
1037
1036
1036
1037
1036
1036
1047
1038
1036
1035
1036
1037
1040
1036
1036
1036
1046
1039
1039
1036
1037
1038
1035
1037
1036
1038
1045
1037
1036
1039
1036
1035
1036
1035
1036
1038
1043
1039
1039
1038
1036
1035
1038
1038
1039
1037
1090
1040
1037
1039
1034
1036
1036
1036
1036
1038
1043
1040
1039
1036
1036
1037
1037
1036
1035
1034
1044
1038
1037
1036
1039
1036
1036
1035
1035
1038
1043
1041
1038
1038
1036
1036
1035
1037
1035
1039
1045
1039
1037
1035
1036
1041
1037
1038
1039
1072
1045
1040
1035
1038
1036
1038
1039
1034
1035
1038
1046
1041
1035
1041
1037
1036
1036
1037
1035
1037
1047
1037
1037
1038
1036
1034
1038
1034
1037
1036
1043
1038
1035
1038
1036
1037
1039
1037
1037
1036
1047
1040
1038
1037
1041
1035
1036
1038
1036
1069
1044
1041
1037
1037
1037
1035
1036
1040
1036
1034
1047
1039
1036
1037
1038
1036
1037
1101
1050
1044
1036
1039
1036
1038
1039
1038
1037
1038
1046
1042
1039
1040
1038
1040
1035
1039
1039
1037
1046
1042
1037
1038
1038
1039
1036
1039
1074
1037
1047
1041
1039
1035
1038
1038
1038
1037
1037
1037
1044
1038
1039
1036
1037
1039
1036
1038
1037
1035
1043
1040
1035
1035
1038
1035
1036
1037
1036
1037
1044
1040
1037
1036
1037
1036
1038
1036
1034
1039
1046
1040
1038
1037
1037
1037
1036
1074
1033
1039
1042
1039
1036
1037
1035
1038
1039
1037
1035
1037
1045
1041
1040
1034
1037
1036
1035
1037
1038
1035
1043
1040
1036
1037
1037
1035
1039
1033
1037
1035
1045
1037
1037
1037
1036
1039
1036
1037
1038
1034
1045
1037
1034
1036
1038
1036
1036
1072
1038
1037
1043
1040
1036
1035
1038
1037
1037
1037
1035
1036
1046
1035
1036
1038
1038
1038
1037
1035
1036
1036
1044
1040
1035
1037
1038
1036
1037
1051
1039
1039
1044
1041
1035
1039
1035
1039
1037
1036
1036
1038
1043
1041
1034
1035
1037
1034
1035
1067
1037
1035
1046
1039
1034
1038
1039
1037
1037
1037
1036
1037
1044
1037
1037
1036
1039
1036
1037
1037
1038
1037
1045
1038
1038
1038
1038
1037
1036
1040
1034
1038
1043
1040
1038
1036
1035
1037
1035
1039
1035
1035
1045
1039
1036
1033
1037
1035
1038
1074
1036
1038
1045
1040
1033
1037
1036
1035
1036
1036
1037
1037
1044
1038
1040
1034
1039
1037
1039
1034
1035
1038
1043
1038
1038
1036
1036
1036
1039
1034
1034
1035
1046
1041
1034
1037
1036
1037
1035
1036
1039
1036
1045
1038
1034
1087
1036
1035
1037
1038
1035
1039
1043
1039
1037
1036
1037
1038
1037
1034
1039
1037
1042
1040
1037
1036
1037
1035
1037
1037
1036
1035
1043
1038
1036
1038
1036
1035
1034
1038
1035
1036
1047
1039
1039
1040
1033
1038
1038
1037
1037
1038
1043
1036
1071
1035
1038
1036
1036
1036
1036
1041
1044
1037
1036
1038
1038
1036
1035
1035
1040
1038
1046
1037
1038
1036
1036
1037
1033
1039
1037
1035
1045
1041
1037
1034
1036
1037
1040
1036
1034
1037
1047
1039
1037
1035
1038
1034
1035
1038
1037
1037
1045
1037
1038
1085
1037
1038
1037
1035
1036
1039
1043
1041
1038
1034
1036
1037
1036
1036
1036
1036
1045
1040
1037
1035
1036
1037
1036
1037
1039
1037
1043
1036
1036
1038
1035
1036
1033
1036
1034
1038
1043
1040
1036
1037
1035
1037
1039
1034
1039
1035
1077
1037
1037
1035
1036
1037
1037
1036
1037
1037
1043
1040
1036
1034
1036
1038
1037
1039
1039
1034
1044
1038
1035
1037
1038
1035
1035
1037
1036
1037
1045
1038
1038
1039
1035
1039
1037
1036
1038
1035
1044
1039
1038
1036
1038
1035
1037
1035
1037
1072
1044
1037
1037
1035
1039
1036
1038
1035
1037
1036
1044
1038
1037
1037
1036
1036
1038
1036
1037
1037
1043
1038
1037
1037
1032
1038
1037
1036
1037
1037
1043
1039
1039
1038
1036
1037
1035
1036
1034
1035
1043
1038
1040
1034
1037
1039
1035
1038
1033
1036
1075
1040
1036
1036
1033
1035
1037
1036
1037
1035
1046
1040
1036
1039
1039
1038
1037
1035
1038
1037
1045
1041
1039
1039
1044
1038
1041
1039
1038
1036
1047
1038
1039
1038
1039
1035
1038
1036
1041
1036
1046
1044
1041
1037
1037
1037
1040
1038
1036
1083
1043
1041
1036
1039
1037
1036
1035
1039
1035
1037
1045
1041
1037
1039
1034
1035
1037
1037
1036
1037
1044
1037
1035
1037
1037
1036
1040
1035
1037
1038
1047
1036
1038
1038
1035
1040
1038
1039
1038
1036
1044
1039
1039
1036
1038
1080
1037
1035
1036
1035
1047
1038
1037
1036
1037
1035
1035
1037
1037
1036
1042
1040
1036
1036
1037
1036
1036
1036
1035
1037
1045
1039
1036
1038
1037
1033
1036
1038
1038
1036
1046
1043
1037
1033
1038
1033
1037
1037
1038
1040
1046
1037
1038
1069
1036
1035
1039
1038
1038
1035
1045
1038
1036
1035
1037
1037
1036
1035
1038
1038
1045
1039
1040
1039
1035
1039
1037
1038
1039
1039
1043
1040
1038
1036
1037
1036
1036
1035
1037
1035
1045
1038
1038
1037
1036
1039
1035
1039
1036
1035
1042
1040
1039
1036
1070
1036
1039
1035
1040
1036
1045
1037
1041
1038
1039
1036
1036
1039
1034
1038
1042
1039
1038
1036
1040
1040
1037
1037
1039
1037
1044
1037
1039
1035
1040
1036
1036
1038
1039
1034
1046
1040
1038
1034
1035
1038
1035
1036
1036
1039
1044
1038
1034
1038
1079
1036
1040
1035
1036
1036
1043
1041
1038
1039
1037
1035
1038
1037
1035
1038
1045
1040
1038
1036
1037
1036
1036
1038
1037
1037
1043
1042
1038
1036
1037
1038
1037
1036
1034
1038
1046
1041
1041
1036
1038
1036
1034
1036
1038
1036
1047
1038
1036
1075
1035
1037
1038
1037
1037
1036
1044
1035
1038
1037
1037
1039
1036
1038
1034
1038
1045
1039
1038
1038
1037
1035
1037
1036
1037
1036
1045
1039
1037
1036
1035
1036
1036
1036
1034
1039
1045
1042
1036
1037
1036
1037
1037
1037
1036
1036
1045
1087
1039
1036
1038
1036
1039
1038
1035
1037
1046
1039
1037
1037
1036
1037
1036
1037
1039
1038
1046
1041
1036
1037
1036
1035
1036
1037
1037
1036
1046
1040
1038
1036
1037
1036
1034
1039
1038
1036
1045
1036
1039
1037
1037
1036
1038
1035
1036
1035
1074
1038
1038
1035
1037
1035
1038
1039
1036
1036
1046
1039
1037
1034
1038
1035
1037
1036
1039
1042
1045
1040
1038
1038
1038
1038
1037
1041
1039
1036
1047
1039
1041
1037
1041
1038
1038
1037
1038
1037
1044
1041
1037
1041
1036
1038
1037
1039
1038
1041
1071
1042
1094
1042
1038
1037
1037
1036
1051
1040
1039
1035
1038
1037
1038
1039
1038
1039
1047
1041
1043
1038
1040
1037
1041
1037
1038
1038
1049
1039
1039
1040
1040
1038
1039
1037
1038
1037
1045
1039
1040
1039
1038
1039
1091
1036
1040
1036
1045
1040
1037
1038
1039
1037
1036
1038
1035
1038
1045
1040
1034
1038
1038
1037
1035
1036
1038
1038
1044
1038
1037
1036
1039
1036
1035
1035
1036
1037
1045
1040
1041
1037
1034
1037
1035
1037
1037
1037
1044
1039
1037
1037
1038
1035
1037
1071
1036
1036
1045
1036
1035
1038
1037
1036
1039
1035
1035
1037
1046
1038
1038
1037
1034
1035
1036
1040
1037
1036
1043
1038
1040
1033
1037
1039
1038
1038
1036
1037
1045
1040
1037
1036
1036
1037
1038
1038
1036
1038
1045
1039
1036
1039
1037
1037
1036
1072
1036
1037
1043
1037
1036
1035
1038
1038
1037
1036
1038
1036
1045
1038
1040
1040
1037
1036
1037
1036
1038
1036
1043
1038
1038
1038
1041
1037
1038
1038
1036
1035
1045
1038
1038
1039
1036
1037
1038
1037
1036
1038
1046
1035
1037
1038
1036
1077
1035
1037
1035
1037
1043
1040
1037
1037
1036
1038
1036
1037
1036
1035
1043
1038
1038
1037
1037
1036
1037
1036
1039
1039
1045
1040
1037
1038
1037
1037
1038
1037
1034
1035
1044
1037
1036
1036
1037
1037
1035
1034
1038
1035
1044
1036
1039
1092
1035
1036
1038
1035
1037
1035
1046
1041
1039
1039
1035
1038
1035
1037
1035
1038
1044
1038
1037
1037
1037
1036
1037
1038
1038
1035
1045
1038
1037
1035
1039
1033
1038
1037
1037
1039
1042
1038
1039
1036
1037
1034
1036
1036
1035
1036
1045
1040
1079
1037
1037
1034
1037
1038
1036
1035
1044
1040
1036
1037
1035
1037
1038
1039
1035
1037
1043
1038
1038
1036
1035
1039
1037
1039
1035
1036
1045
1035
1035
1039
1039
1038
1035
1038
1036
1035
1043
1040
1039
1038
1037
1036
1037
1036
1035
1038
1046
1071
1036
1039
1035
1035
1037
1035
1038
1037
1043
1040
1036
1035
1037
1036
1041
1038
1041
1037
1046
1039
1038
1037
1037
1039
1038
1037
1037
1037
1048
1041
1037
1036
1039
1036
1038
1038
1040
1038
1046
1041
1039
1039
1038
1037
1038
1036
1077
1037
1044
1039
1036
1036
1034
1038
1035
1037
1038
1037
1042
1038
1037
1035
1035
1037
1036
1039
1038
1037
1045
1036
1037
1038
1034
1038
1036
1036
1036
1037
1044
1039
1038
1039
1039
1038
1036
1038
1038
1037
1045
1036
1036
1037
1036
1038
1087
1038
1037
1037
1044
1040
1036
1035
1035
1040
1035
1032
1037
1036
1044
1037
1036
1038
1036
1035
1037
1035
1036
1035
1042
1039
1037
1039
1035
1036
1036
1036
1036
1037
1044
1041
1039
1036
1036
1036
1036
1037
1039
1038
1042
1039
1038
1036
1035
1037
1035
1037
1062
1040
1045
1037
1037
1035
1036
1038
1035
1040
1036
1036
1046
1039
1039
1039
1036
1038
1038
1034
1038
1037
1044
1041
1037
1036
1036
1038
1036
1035
1036
1038
1044
1037
1038
1038
1037
1037
1036
1036
1038
1036
1043
1040
1036
1037
1036
1035
1038
1035
1077
1037
1044
1038
1035
1035
1037
1035
1036
1040
1038
1037
1046
1040
1039
1038
1039
1035
1039
1036
1037
1036
1045
1038
1038
1034
1035
1037
1035
1036
1038
1037
1046
1038
1037
1037
1038
1037
1035
1036
1038
1035
1043
1040
1040
1036
1036
1037
1034
1039
1071
1033
1046
1037
1036
1037
1036
1037
1037
1036
1036
1038
1044
1037
1035
1036
1036
1036
1037
1037
1037
1034
1046
1037
1038
1035
1036
1036
1037
1035
1036
1037
1044
1039
1037
1033
1037
1040
1036
1039
1037
1039
1043
1041
1035
1038
1035
1038
1036
1039
1070
1034
1045
1038
1040
1036
1037
1039
1037
1039
1037
1034
1042
1037
1036
1036
1036
1036
1037
1037
1038
1037
1045
1039
1036
1037
1039
1036
1037
1035
1039
1037
1045
1039
1038
1035
1036
1038
1038
1039
1037
1034
1045
1039
1037
1036
1038
1038
1037
1037
1065
1036
1046
1038
1036
1037
1038
1034
1036
1037
1037
1036
1045
1041
1039
1037
1037
1035
1035
1038
1033
1038
1042
1038
1036
1039
1039
1037
1040
1034
1035
1036
1045
1038
1037
1037
1036
1038
1035
1037
1038
1038
1044
1036
1035
1037
1037
1037
1038
1034
1075
1037
1046
1045
1043
1041
1038
1038
1037
1039
1038
1040
1043
1041
1038
1037
1036
1039
1037
1038
1037
1036
1048
1039
1035
1038
1038
1039
1038
1040
1035
1041
1045
1044
1038
1037
1037
1039
1035
1040
1036
1039
1047
1039
1035
1037
1037
1078
1037
1037
1034
1036
1044
1039
1039
1039
1034
1035
1037
1037
1038
1034
1043
1038
1037
1036
1036
1039
1036
1040
1037
1036
1043
1038
1038
1037
1036
1038
1035
1033
1039
1036
1044
1041
1037
1036
1035
1038
1036
1035
1035
1038
1043
1039
1036
1037
1035
1076
1039
1037
1037
1037
1043
1039
1035
1035
1038
1034
1037
1037
1036
1037
1042
1039
1037
1035
1039
1037
1036
1035
1037
1034
1043
1037
1036
1036
1034
1036
1038
1036
1035
1038
1042
1042
1036
1038
1035
1036
1036
1038
1036
1036
1044
1041
1037
1035
1036
1068
1039
1038
1037
1037
1044
1039
1037
1038
1037
1039
1034
1035
1037
1035
1044
1039
1037
1035
1035
1038
1037
1036
1035
1034
1043
1037
1036
1037
1039
1038
1036
1040
1034
1035
1044
1040
1034
1037
1037
1034
1037
1037
1037
1034
1042
1039
1075
1038
1041
1035
1037
1036
1038
1039
1046
1041
1037
1037
1041
1039
1038
1041
1038
1037
1051
1041
1040
1038
1039
1036
1040
1034
1039
1037
1044
1042
1037
1038
1036
1051
1090
1041
1049
1043
1040
1038
1039
1041
1038
1039
1093
1040
1049
1036
1039
1037
1036
1034
1038
1038
1039
1036
1044
1039
1038
1036
1036
1038
1035
1038
1038
1038
1044
1038
1037
1037
1037
1035
1036
1036
1036
1037
1044
1037
1037
1036
1037
1038
1037
1036
1036
1038
1043
1037
1036
1038
1037
1035
1039
1080
1035
1036
1045
1039
1036
1038
1037
1037
1037
1038
1036
1035
1046
1037
1037
1036
1034
1038
1034
1037
1036
1037
1047
1038
1037
1036
1039
1038
1039
1037
1037
1037
1045
1038
1039
1036
1035
1037
1035
1035
1038
1035
1043
1040
1039
1034
1038
1038
1071
1038
1037
1037
1046
1039
1037
1039
1035
1037
1035
1035
1037
1037
1043
1039
1039
1037
1037
1038
1035
1039
1034
1037
1045
1038
1039
1036
1035
1038
1034
1037
1037
1036
1043
1037
1038
1037
1038
1037
1034
1040
1034
1038
1041
1038
1038
1040
1037
1078
1035
1036
1040
1038
1046
1041
1039
1039
1039
1037
1040
1038
1039
1037
1047
1038
1038
1037
1038
1037
1040
1036
1040
1037
1049
1039
1038
1038
1039
1037
1037
1037
1042
1037
1047
1037
1037
1037
1039
1037
1037
1038
1038
1038
1047
1042
1040
1036
1072
1038
1035
1036
1035
1036
1045
1040
1038
1036
1036
1037
1038
1036
1035
1038
1045
1038
1037
1035
1039
1037
1037
1036
1035
1039
1045
1038
1038
1038
1035
1038
1036
1035
1037
1036
1046
1038
1035
1038
1036
1035
1037
1037
1039
1038
1045
1040
1067
1040
1035
1038
1036
1038
1034
1036
1045
1040
1033
1034
1039
1035
1035
1038
1039
1036
1047
1039
1036
1037
1037
1037
1037
1035
1035
1035
1047
1039
1037
1037
1034
1038
1035
1037
1035
1038
1042
1038
1036
1035
1038
1037
1037
1034
1038
1036
1045
1040
1039
1085
1037
1037
1035
1036
1037
1037
1044
1036
1038
1036
1037
1037
1037
1038
1034
1038
1044
1038
1037
1036
1036
1038
1034
1036
1037
1036
1043
1038
1039
1036
1035
1037
1035
1035
1037
1038
1044
1041
1037
1037
1036
1038
1036
1038
1036
1037
1048
1040
1037
1039
1040
1076
1036
1035
1037
1037
1045
1041
1036
1035
1037
1036
1035
1037
1038
1038
1045
1040
1039
1038
1037
1038
1038
1038
1035
1037
1047
1039
1038
1038
1038
1036
1037
1037
1039
1037
1047
1037
1038
1034
1036
1035
1035
1038
1038
1036
1046
1037
1038
1036
1038
1038
1063
1036
1036
1040
1045
1041
1035
1038
1037
1034
1038
1037
1038
1039
1043
1041
1036
1037
1036
1037
1036
1035
1035
1037
1043
1041
1040
1037
1041
1038
1038
1034
1037
1039
1043
1039
1037
1035
1037
1038
1038
1037
1035
1040
1047
1039
1039
1083
1038
1036
1036
1035
1037
1039
1043
1040
1035
1036
1037
1037
1036
1037
1037
1039
1043
1039
1038
1036
1037
1034
1038
1037
1038
1034
1045
1039
1038
1037
1036
1035
1039
1036
1037
1034
1045
1037
1036
1038
1037
1036
1036
1036
1038
1037
1046
1085
1036
1039
1036
1037
1038
1036
1037
1037
1042
1040
1036
1038
1038
1037
1036
1035
1037
1037
1044
1039
1034
1038
1037
1037
1036
1038
1037
1035
1043
1038
1038
1038
