2325
1279
2342
1231
1216
1203
1378
1219
1743
1236
1364
1922
1282
1202
1220
2316
1234
1995
1216
1224
1214
3048
1907
1263
1233
3056
1909
1896
1223
1262
1201
1202
1216
3038
1865
1411
1892
1899
1286
1253
1209
3045
1878
1890
1288
2328
1377
1365
1301
2345
1231
1918
1249
2014
1274
1212
3030
1217
1229
3039
1240
2469
1359
1274
1215
1210
1212
4155
1908
1240
1208
1794
1260
1215
1977
1896
1242
1888
1267
1228
1208
1212
3625
1241
1222
2511
1902
1886
1280
1207
1207
1217
1234
3575
1226
1240
3107
1223
1269
3071
1319
1217
1768
1355
1266
1248
1231
2995
1911
1372
1247
1919
1233
4030
1223
1217
1215
1229
1217
3115
1889
1919
1356
1249
1226
1207
3594
1243
1210
1221
3046
1221
1232
1752
1385
1228
1942
1258
1210
1216
1205
2316
1224
1984
1232
1219
1223
1209
3035
1913
1270
1220
1207
3592
1899
1242
1217
1225
1207
1213
4262
1930
1223
1232
3069
1922
1222
1271
1206
2349
1215
1372
1386
1271
1959
1243
4315
1900
1278
1242
3048
1285
1208
1223
2485
1216
2355
1213
1224
1215
2579
1942
1228
1886
1901
1235
1204
3023
1892
1233
1221
2482
1262
1219
2478
1863
1886
1904
1222
1234
2899
1209
1228
1826
1235
1209
1201
1220
3100
1977
1920
1233
2466
1278
1206
1249
2327
1231
1365
1902
1259
1251
2509
1413
1400
1778
3092
1216
1272
1199
1229
1218
1222
4155
1911
1757
1242
1215
1228
3140
1918
1226
1271
1213
3049
1229
1213
3043
1960
1938
1915
1227
1230
1213
2475
1901
1908
1747
1433
1907
1903
1214
1223
2335
1434
1880
1218
1941
1976
1980
1957
1240
1215
1940
1911
1210
2387
1415
1922
1950
1228
1249
1337
1254
1859
2493
1232
1208
1225
1218
1213
2331
1226
1365
1266
2550
1796
1221
1213
1234
2431
1215
1207
1843
1243
1211
1226
1200
3701
1216
1246
1944
1230
1890
1900
1228
1216
1231
1217
1214
1232
4577
1218
1226
2546
1968
1227
1273
1230
3074
1216
1218
3133
1263
1263
1213
3093
1245
1275
1211
1206
3630
1881
1385
1269
1918
3614
1218
1204
1214
1218
1206
1218
3025
1235
1205
1213
1200
2468
1225
1207
1205
1228
3634
1897
1218
1221
3087
1218
1266
1210
3048
1278
1218
1224
3603
1913
1938
1223
1261
1211
3042
1904
1217
1987
1763
1206
1402
1236
1213
1199
1220
1203
1214
1223
1216
4261
1242
1256
1202
3068
1904
1232
1206
1346
3682
1867
1236
1210
2483
1226
2348
1212
1240
2022
1904
1224
1256
2488
1223
1233
1206
3020
1912
1758
1214
1209
1985
1922
1219
1224
1228
1220
1206
1225
1208
1234
1208
1243
6294
1242
1206
1212
2431
1217
1209
1209
1221
2533
1258
1260
1229
2881
1235
1208
2526
1366
1260
2570
1914
1216
1209
1229
1215
4176
1329
1547
1818
1250
1231
1204
4727
1784
1236
1221
1229
2593
1262
1228
1218
1221
1209
1214
1204
4737
1279
1272
2458
1228
1276
1201
2317
1362
1226
2340
1235
1220
2530
1240
1266
2326
1219
1223
1264
1839
1237
1215
2036
1221
1218
1217
2490
1242
2371
1225
1225
1223
2538
1914
1227
1227
3106
1303
1250
1210
3083
1221
1340
1235
3650
1869
1931
1247
1203
3041
1318
1216
1230
1213
1211
3590
1219
1212
1218
3590
1330
1212
1233
1212
1226
1208
4152
1889
1223
1756
1234
1225
1211
1969
1900
1282
2386
1222
1866
1236
1214
1260
1225
1244
3086
1276
1247
1228
1206
3594
1904
1231
1213
1216
3014
1896
1232
1206
1988
1928
1236
1211
1218
1337
1500
4175
1762
1208
1419
1798
1223
1230
3044
1267
1229
1204
1233
4149
1915
1944
1220
1214
1223
2355
1216
1205
1229
1210
1218
1217
1206
4281
1261
1207
1210
3059
1881
1226
1196
1762
1381
1218
1245
1225
3047
1287
2355
1390
1737
1281
1231
1209
2984
1389
1253
1240
2461
1221
2577
1244
1261
1218
3059
1906
1363
2570
1877
1853
2373
1356
1228
1255
1257
1198
1227
3608
1895
1216
1203
1780
1225
1218
1274
2008
1214
1249
1221
3060
1270
2460
1935
1252
1202
1207
1205
2482
1751
1221
1277
1210
1989
1906
1223
1232
3034
1929
1750
1249
1215
1226
1199
1204
3095
1801
1217
1222
1226
1393
1233
1208
1262
2976
1282
1209
2412
1212
1211
1219
1202
1372
1225
1953
3123
1290
1224
1209
1746
1375
1211
1231
1227
1214
2503
1227
1224
1231
1228
1201
3478
1225
1264
2565
1283
1242
1225
3629
1947
1224
1263
2517
1225
1901
1897
1216
1914
1886
1764
1232
1211
1370
1916
1923
1914
1889
1768
1218
2011
1242
1211
1226
1204
1225
1211
4105
1286
1248
1223
1203
2566
1920
1241
1320
1240
3644
1898
1929
1236
3084
1911
1269
1249
3045
1298
1251
1233
1204
1224
1207
29946
1926
1981
1215
1270
2490
1898
1262
1211
1229
1204
1211
1210
4713
1254
1209
1226
1206
3053
1878
1261
1221
1221
1205
1232
4272
1401
1236
2516
1936
1246
3096
1903
1253
1261
3054
1259
1234
1204
3042
1880
1896
1745
1237
1209
1235
3117
1335
1249
2523
1908
1256
1945
1937
1250
1200
2472
1918
1225
1237
1212
1227
1216
4152
1892
1237
1210
1231
3627
1751
1233
1203
1231
1213
3102
1959
1246
1967
1267
2489
1901
1269
1261
1230
1322
4341
1924
1882
1939
1251
2355
1211
1209
1217
1982
1882
1278
1231
2350
1232
1219
1224
2391
1392
1903
1949
1223
1256
2510
1878
1219
1233
3048
1894
1898
1284
1211
2465
1951
1909
1218
1259
1206
3058
1233
1227
3132
1764
1382
1913
1223
1209
1233
2501
1918
1220
2518
1232
1243
1231
1241
3032
1395
1233
1933
3713
1221
1242
3046
1863
1897
1238
1216
1231
1212
1212
4177
1761
1278
1233
1973
1889
1237
1210
1211
3024
1230
2496
1226
1262
2473
1220
1234
1207
1227
2889
1221
1228
2562
1216
1250
2491
1886
1234
1214
1216
1221
1262
1207
1207
1227
4724
1223
1207
1232
3593
1268
1268
1207
2906
1218
2005
1781
1345
2027
2021
1900
1232
1225
1242
1240
1225
4733
1932
1886
1920
1904
1210
1219
1231
2494
1222
1232
1202
1215
1197
1211
1231
3465
1231
1222
1826
1229
1219
1207
1218
3110
1235
1277
2453
1235
2353
1237
1212
1263
1235
2380
1228
1203
1383
1207
1236
1207
3596
1242
1243
2480
1910
1278
1224
2341
1358
1241
1960
1907
1392
1236
3161
1922
1921
1222
2525
1920
1883
1288
1208
1202
1233
1214
1216
1205
3600
1875
1272
1207
1212
3029
1228
1235
1203
1218
3632
1218
1222
1263
3094
1920
1281
1205
1203
1219
1214
1226
4148
1764
1212
1213
1224
1206
2009
1897
1282
1209
1203
1227
1225
3980
1224
1204
1247
1219
1231
1208
3098
1290
1248
1331
1228
3780
1972
1878
1220
1216
2551
1882
1219
1248
1229
1218
1226
1209
1221
1225
1225
1252
1210
5251
1903
1219
1232
1211
2348
1213
1224
1202
1983
1947
1747
1229
1209
1212
1191
1275
1205
1208
1224
1203
1223
1200
3523
1241
1211
1214
1230
2548
1906
1259
1238
3040
1292
1253
1208
3039
1240
1218
1208
3609
1746
1230
1385
1431
1815
3084
1252
1211
2540
1285
1922
1254
2493
1240
1212
3028
1238
1205
3040
1354
1280
1212
2479
1896
1876
1242
1224
1206
1730
1233
1212
2423
1382
1223
2473
1229
1202
1783
1261
1219
2548
1218
1210
3024
1283
1230
1211
1198
1272
1269
1203
1243
1222
4569
1261
1227
1212
3076
1226
1219
1223
3046
1222
1330
2992
1885
1218
1224
1200
1952
1397
1210
1223
1205
1231
1204
4168
1782
1214
1274
1211
2524
1889
1215
1237
1211
1223
1216
3534
1902
1276
1214
1219
3491
1234
1216
1221
2967
1398
1253
1212
1226
1213
1207
1207
4148
1886
1280
1256
1213
3110
1229
1261
1214
1213
1210
4172
1230
1232
1207
1226
3639
1224
1212
1333
2417
1209
1925
1241
1219
1234
1210
1221
3767
1232
1233
1270
3099
1954
1258
1225
3049
1261
2330
1221
1226
1213
1220
1203
1856
1356
1921
1244
1207
2484
1951
1217
1261
1234
1209
1210
4196
1889
1229
1256
1212
2320
1241
1232
1199
1998
1814
1372
1228
1221
2468
1353
1248
1222
1248
1268
1206
3980
1228
1201
1204
1215
1333
1263
2019
1921
1903
1891
1216
1253
2392
1243
1208
1200
1207
1219
1206
1214
1226
3179
1283
1209
3042
1913
1224
1227
1203
2894
1230
1214
1216
1227
1237
1220
2970
1230
1381
1271
1211
1199
3071
1897
1232
1218
1237
2462
1229
1223
1204
1207
1229
4159
1908
1224
1222
1763
1243
1211
1212
2602
1903
1875
1948
1233
1920
1367
1253
3092
1908
1215
1235
2941
1218
1206
1219
1745
1378
1360
1919
1218
1210
1228
1221
4247
1217
2570
1222
1243
1231
1205
3097
1219
1209
1224
1211
1221
1221
4843
1969
1224
1248
1208
3042
1933
1230
1215
1212
1229
1241
3049
1748
1420
1907
1213
1242
1232
3076
1894
1216
2479
1245
1243
1224
1207
3477
1233
1205
1348
1374
2464
1237
1910
1235
2600
1235
1203
2473
1219
1266
2520
1911
1322
1271
2575
1936
1216
1225
3051
1237
1221
1200
3031
1233
1211
1222
2964
1742
1273
1214
1236
1207
3670
1244
1236
1219
2466
1213
1271
2471
1875
1235
2503
1218
1265
2327
1369
1236
1896
1238
2498
1217
1263
3027
1226
1253
2518
1226
1831
1356
1270
2440
1883
1924
1241
3078
1265
2462
1291
1213
2475
1753
1404
1971
1239
1248
2503
1244
1206
2471
1212
1961
1745
1224
1241
2570
1273
1210
1941
1216
2504
1901
1360
1254
2445
1242
1214
1208
1228
3594
1912
1206
1224
1902
1225
1216
1210
1932
1217
1216
1221
3083
1286
1947
1216
1216
1227
1202
1220
4041
1917
1368
1504
1764
1238
4092
1263
1216
1213
1226
1201
1207
3615
1220
1217
1226
3689
1927
1220
1262
1228
1203
1208
1227
4156
1279
1213
1211
2483
1218
1248
1219
2338
1365
1232
1244
1229
1201
1205
1217
2905
1266
1227
2539
1892
1229
1228
1201
3069
1901
1330
1272
2362
1224
1986
1220
1227
1220
1202
1209
3625
1260
1216
1342
3177
1741
1917
1225
1222
1203
1210
1214
3114
1244
2330
1230
1382
1221
1214
2990
1226
1386
1209
1218
3026
1268
1225
1204
1204
3035
1231
1212
1229
3042
1899
1264
1260
1209
1225
3631
1232
1229
1209
1211
1207
4151
1749
1226
1964
1925
1243
1245
2354
1380
1251
2491
1779
1232
1367
1223
1216
2509
1265
1267
2897
1228
1205
1333
1231
1858
1872
1257
2008
1237
2502
1216
1237
1214
1228
1212
1223
1211
5276
1229
1249
1988
1895
1237
1216
3047
1941
1240
1251
2478
1224
1199
1768
1348
1900
1764
1231
1226
2431
1232
1209
1226
1201
1236
1241
1208
1222
1206
1225
1204
5400
1909
1227
1234
1218
3599
1340
1260
1224
3033
1738
1232
1233
1228
2011
1360
1236
3078
1911
1928
2491
1259
1225
1212
3046
1888
1887
1902
1981
1270
1271
3047
1791
1214
2000
1924
1327
1947
1760
1217
1230
1236
1246
1205
1205
1264
1226
1204
1201
5914
1764
1215
1221
1968
1901
1236
1206
1217
1203
1202
1229
1205
1235
1211
4182
1894
1243
1212
1219
3623
1750
1239
1207
1218
1212
1866
1216
1333
1410
1932
2520
1901
1232
1218
1209
1210
4169
1233
1263
2578
1264
2491
1235
1208
1223
2336
1226
1204
1387
1741
1223
1210
1209
1211
1229
2535
1348
1267
1206
1229
1205
3600
1898
1208
2511
1890
1240
1249
2326
1225
1217
1214
1228
1217
3109
1235
1216
2340
1231
1217
1230
2572
1870
1248
1246
1213
3073
1222
1238
1319
1254
3625
1944
1222
3038
1904
1900
1260
1260
2474
1278
1246
1229
1210
1203
1226
4247
1922
1251
1988
1898
1216
1219
1228
3602
1226
2558
1214
1209
1273
1203
1225
3622
1279
1253
1208
1231
1216
4169
1223
1217
3050
1222
1231
1218
3041
1230
1213
1228
3605
1765
1239
1206
1229
1201
1849
1222
1216
1364
1327
1991
1786
1897
1239
1218
1221
3702
1911
1254
1228
1209
3020
1230
1200
3069
1283
1210
1220
2562
1923
1921
1249
1266
1211
3046
1773
1216
2001
1903
1215
2496
1234
1219
1216
1208
1229
1216
1210
1270
5676
1237
1204
1223
1353
1271
1203
1221
2900
1265
1993
1768
1258
1211
2576
1890
1260
1254
1226
1212
1222
1317
1243
1946
1252
1229
1207
6966
1900
1260
1242
2493
1915
1902
1215
1209
1225
1211
1224
3666
1248
1249
1207
1255
1253
3561
1895
1245
2480
1250
1276
1210
31644
1239
1237
1207
3594
1249
1246
2359
1210
1217
1209
1329
1227
1379
1859
1218
1802
1219
1210
1218
1379
1985
1219
1269
1215
1227
1209
1214
4785
1225
1261
1224
2955
1384
1218
1268
1228
1244
1216
3565
1217
1250
1219
1245
3073
1224
1249
1219
1221
1212
1215
4598
1218
1219
1221
1247
3187
1221
1209
1229
1218
1218
1212
4745
1905
1261
1248
1220
3615
1285
1203
1230
1210
1216
1342
4767
1757
1881
1408
1758
1236
1207
1229
1359
1859
1287
1218
3041
1248
2489
1766
1238
1206
1216
1456
1927
1827
1217
1229
1211
1984
1910
1241
1212
1204
1215
1209
3597
1891
1907
1902
1217
1234
1223
3027
1891
1240
1217
1213
1227
1212
4702
1333
1912
1900
1287
1215
1219
3541
1899
1901
1961
1892
1293
1372
1958
1898
1264
4200
1756
1228
1371
1215
1206
1227
1212
1228
4214
1218
2531
1212
1214
1235
3124
1928
1239
1250
1207
1229
1216
1222
3617
1895
1880
1284
1272
1218
3605
1365
1266
2488
1870
1270
2343
1245
1212
1987
1264
1206
1230
3609
1225
1262
2517
1220
1267
1206
1221
3592
1236
1211
2511
1425
1234
3045
1939
1237
3051
1239
1229
2462
1223
1233
1216
1206
3080
1909
1974
1251
2497
1342
1237
1208
1254
1242
1235
1202
3516
1254
1210
2445
1225
1230
1225
2535
1906
1246
2491
1910
1259
1252
3036
1219
1268
1213
3060
1242
1218
1227
3453
1378
1903
1271
1249
1216
3012
1944
1238
1211
2926
1229
1310
1240
1858
2015
1238
1942
1223
2476
1242
1250
2489
1239
1216
3030
1908
1897
1262
1919
1738
1221
1844
1223
1222
1368
1321
1224
2582
1319
1889
1892
1871
1271
1228
3059
1213
2340
1210
1215
1204
1420
1903
1251
1241
1211
3607
1904
1282
1203
2540
1947
1975
1235
1212
1204
3056
1237
1216
3082
1900
1970
1356
1267
1937
1248
4201
1243
1237
1224
2489
1219
1209
1239
2890
1370
1259
1212
2502
1219
1214
1222
3626
1931
1224
1257
1210
1223
1204
1218
4806
1234
1254
1230
3066
1915
1216
1223
2488
1218
1769
1358
1227
1255
1224
1220
1205
1229
1205
1222
1222
5848
1901
1267
1211
1223
2492
1948
1220
1264
1213
1213
1201
2341
1213
1333
1237
1895
3137
1942
1255
1207
2479
1909
1210
1231
1211
1223
1216
4011
1379
1235
1217
1204
2880
1226
1238
1227
1197
3103
1261
1222
1219
1207
1247
3185
1269
1230
1214
3601
1764
1217
1227
1215
1990
1907
1220
1229
1206
3625
1901
1288
1231
1206
1212
1232
3580
1901
1749
1231
1994
1211
1238
1260
3048
1353
1230
1796
1954
1230
1226
3133
1751
1224
1211
1225
1208
1214
1200
1977
1946
1222
1913
1231
1206
1206
2484
1877
1945
1735
1408
1906
1276
1219
1208
1227
3538
1440
1274
1199
3054
1218
1234
1218
3057
1222
2461
1212
1232
1213
1204
2879
1228
1212
1219
1354
1897
1211
1212
1213
1204
1778
1369
1208
1223
1226
1205
2309
1238
1202
1337
1233
1941
3104
1263
1276
1211
3493
1232
1214
1218
1228
2561
1930
1216
1228
2477
1225
1245
1214
2930
1233
1215
1249
2392
1235
1240
1979
1925
1898
1210
1200
1215
2445
1226
1247
1216
1231
1210
1246
1231
4211
1262
1247
3030
1932
1244
1245
1226
3062
1223
1228
1211
1254
1236
3455
1427
1217
1238
1207
3470
1227
1322
1250
2475
1843
1234
1219
1413
1208
1923
1904
1246
1902
1225
2512
1224
1236
1930
1251
1233
2324
1233
1987
1212
1259
2494
1887
1954
1249
1278
2492
1897
1360
1277
2576
1910
1226
2493
1258
1234
1211
3002
1231
1932
1266
2576
1257
1251
3028
1291
1222
1211
1210
1236
1209
1223
1247
1270
5266
1238
1255
1228
3083
1741
1351
1254
1895
1367
1927
1225
3083
1890
1237
2498
1254
1274
1214
1225
1215
1209
1218
4596
1238
1207
2019
1911
1289
1202
2486
1905
1210
2419
1383
1983
1909
1232
1228
3031
1945
1884
1279
1915
1731
1228
1212
1195
1264
1209
2542
1236
1221
3014
1287
1218
1231
3047
1751
1236
1391
1763
1404
1220
1271
2482
1912
1315
1935
1935
2532
1278
1239
2337
1224
1225
1245
1214
1215
3646
1234
1207
2488
1906
1222
1231
3015
1896
1222
2516
1918
1254
1219
1229
2471
1998
1951
1889
1264
1220
2504
1759
1221
1201
1216
1272
1205
1997
1286
1229
1203
1224
1201
3589
1278
1245
1225
1208
3595
1898
1212
1265
2489
1290
1208
2376
1410
1225
1370
3145
1357
1939
2486
1902
1258
2506
1892
1222
1233
2526
1890
1232
1276
1210
3044
1912
1914
1219
2467
1751
1344
1272
1238
1226
1214
1223
1211
4244
1917
1316
1233
1250
2500
1914
1215
1232
2457
1263
1914
1280
1212
3033
1930
1905
1221
1967
1909
1909
1266
1287
1206
1230
1207
1214
1240
1221
1202
1246
6404
1896
1384
1245
1952
3604
1230
1252
1223
3037
1879
1275
1263
1205
1207
1222
1212
4136
1895
1741
1208
1229
1221
1224
2586
1250
1229
1249
3146
1895
1221
1217
3026
1235
1206
2326
1212
1221
1207
1220
1205
1205
1239
1389
1199
1199
2335
1411
1219
1216
1204
2467
1215
1224
1220
3041
1261
1219
2511
1880
1232
1208
2475
1230
1204
1320
1243
1892
3655
1227
1207
1914
1224
1227
3071
1920
1335
1241
2341
1219
1204
1223
1258
1213
1217
1213
2421
1219
1208
1218
1823
1237
1213
1216
2643
1277
1244
1203
3052
1261
2469
1214
1224
2480
1215
1224
1216
3483
1390
1269
1246
2347
1219
1242
2555
1739
1234
1380
1258
1239
2898
1220
1203
1375
1207
2487
1270
1241
1337
1246
3694
1873
1925
1247
3050
1239
1243
2481
1224
2458
1227
1252
2383
1400
1261
1224
3047
1243
1237
2476
1901
1259
2540
1235
1254
1215
1224
3664
1285
1274
1214
3617
1281
1212
1926
1914
1215
2478
1285
1213
2506
1270
1207
1213
1217
1222
4727
1222
1253
2341
1231
1231
1963
1809
1238
1831
1342
1235
1894
2996
1219
1224
1383
1213
2491
1282
1208
1211
1221
1231
3977
1231
1209
1991
1235
1208
1228
3073
1224
1214
1211
1223
1206
4166
1905
1222
1267
1269
3137
1934
1225
1268
1208
1223
1219
4172
1232
1277
1214
1213
3017
1901
1217
1229
1209
3577
1232
1269
1207
1208
1221
1209
4006
1240
1252
2535
1384
1263
1919
3640
1904
1877
1232
1206
2913
1215
1390
1259
1245
1201
2500
1263
1247
1217
1235
3060
1251
1218
2332
1275
1208
2546
1900
1241
1215
1209
1255
2896
1219
1229
2602
1957
1222
1268
1214
2921
1219
1361
1227
2471
1902
1350
1278
1210
1210
1228
4001
1220
1223
1212
2533
1273
1251
1233
3051
1901
1729
1346
1237
1864
1874
1221
1862
1394
1896
1265
2529
1920
1968
1752
1244
1369
1253
1255
1208
3040
1895
1904
1231
1920
1273
1208
3052
1895
1916
1908
1934
1882
1806
1228
1226
1215
1214
1232
1232
1241
4342
1887
1903
1288
1238
1233
3634
1236
1250
2501
1231
1213
3047
1761
1223
1996
1217
1225
2499
1215
1386
1458
1814
1225
1204
1275
5340
1259
1216
2500
1218
1213
1228
1217
3035
1263
1208
2485
1233
1211
1215
2523
1216
1212
1220
1205
2323
1211
1224
1996
1284
1246
1211
3597
1219
1254
1218
2485
1903
1259
1227
1209
1226
1219
1214
4814
1266
1226
1235
3612
1877
1242
1236
1212
1219
3623
1741
1228
1351
1223
1891
1385
1246
1884
1222
3467
1217
1230
1363
1216
2470
1220
1237
1209
3583
1904
1285
1206
2482
1248
1235
2349
1371
1230
1268
2500
1884
1284
2490
31650
1245
1245
2493
1232
1210
1213
3624
1222
2469
1300
1249
2374
1341
1232
1931
1252
1271
3529
1264
1218
2026
1239
1212
1213
1224
3494
1216
1223
1388
1914
1284
1200
1202
1901
1232
1211
3088
1215
2347
1227
1223
1207
1208
1990
1913
1217
1217
2936
1208
1216
1216
1215
1213
1234
2942
1235
1196
1361
1213
1219
3033
2000
1226
1263
1205
1225
3620
1287
1248
1211
1233
1209
4170
1945
1226
1929
1387
1222
1883
2374
1215
1221
1230
1212
1223
2956
1210
1204
1222
1208
1214
1993
1215
1272
1206
1231
1210
3068
1270
1216
1228
1215
3463
1436
1215
1281
1200
2500
1908
1241
1224
2473
1215
1222
3063
1920
1260
1253
3106
1936
1267
1226
2508
1995
1924
1884
1212
1201
1220
1208
2477
1213
1268
1219
1207
1206
1219
3503
1212
1332
1226
1220
1854
1222
1213
2020
1269
1226
3032
1267
1246
1225
1266
1205
1210
4144
1264
1234
1210
1212
3613
1257
1278
1202
3618
1358
1267
1216
1242
1253
1226
3428
1391
1245
2550
1220
1259
1215
2499
1233
1215
3044
1222
2515
1743
1230
1218
2655
1250
1246
1223
1208
1219
3422
1247
1217
1998
1230
1211
3055
1911
1444
1258
3066
1900
1899
1918
1246
1209
1246
4314
1251
1247
1207
1220
3610
1237
1212
1227
3055
1218
1248
1217
3054
1278
2326
1235
1200
1210
1199
1208
1214
1207
1212
1212
2540
1353
1255
1227
1206
3568
1907
1279
1238
3035
1267
1210
2618
1911
1264
1212
2496
1913
1267
1237
1207
1218
1229
1213
1230
5116
1225
1331
1230
2045
1945
1889
1212
1458
2966
1399
1781
1221
1212
1239
1206
1217
4029
1209
1218
1210
1226
1209
2967
1355
1227
1228
1207
3075
1926
1262
1232
1205
3011
1901
1235
1217
1205
1229
1211
4009
1416
1914
1785
1221
1210
1233
3093
1977
1282
1241
1210
1256
1227
1237
4205
1919
1348
1262
1218
1205
3470
1359
1234
1862
1225
2011
1233
1275
1214
3044
1226
1225
1239
1202
3047
1770
1263
1201
1226
1215
3149
1219
1220
1230
1218
1214
1210
4027
1245
1223
1223
1239
3160
1238
1221
1208
1205
4169
1318
1221
1217
1206
3487
1219
1220
1231
3120
1911
1272
1213
1209
1225
1207
1218
4093
1373
1896
1237
1207
1224
2332
1369
1290
1362
1251
1537
3654
1918
1763
1237
2500
1267
1254
3037
1279
1919
1879
1898
1741
1221
1394
1963
1921
1210
1243
2491
1879
1881
1897
1225
1232
1208
1217
1226
1216
3414
1232
1426
1885
1280
1216
1232
3475
1221
1198
1388
1218
1257
1229
1214
3592
1226
1222
2331
1219
1233
1214
2615
2531
1221
1937
1907
1222
1384
2562
1842
1920
1221
1210
1227
1213
1227
4228
1290
1204
1223
1202
1210
3494
1372
1281
1210
3052
1890
1235
1214
1205
1233
1214
4148
1869
1887
1900
1213
1232
1206
3059
1899
1249
1911
1902
1892
1772
1210
1206
1215
1201
1387
1208
1222
1208
1224
1211
1216
4760
1916
1226
1258
2564
1928
1224
1220
2348
1374
1250
1474
2641
1827
1244
1227
3610
1215
1233
2840
1234
1995
1901
1866
1236
2509
1873
1244
1268
1207
1211
1239
4194
1238
2471
1304
1766
1224
1235
1249
2545
1886
1275
2487
1811
1892
1909
1212
1219
1226
2477
1218
1764
1270
1214
1222
1203
3542
1376
1213
1972
1207
1777
1381
1222
1227
3002
1222
1284
1326
1236
1927
3753
1890
1230
1927
1237
3649
1237
1209
1205
2911
1228
1256
1226
1209
3103
1271
1244
1223
1200
2474
1906
1216
1216
1206
3586
1305
1219
1233
3027
1951
1262
1253
1209
1220
1208
1229
4677
1895
1873
1237
1224
1207
3076
1747
1222
2020
1791
1223
1851
1212
1229
1215
1268
1237
1204
1227
1211
1228
1328
5926
1405
1924
1244
1209
3677
1889
1287
1242
1214
3025
1887
1237
1209
2486
1897
1221
1220
1204
1232
1220
3116
1904
1292
1215
1233
3454
1371
1232
1210
1209
1225
3587
1902
1216
1222
1919
1257
1228
3032
1757
1231
1210
1210
1968
1347
1750
1231
1230
2560
1230
1262
2493
1881
1771
1206
1220
1335
1223
1418
1852
2606
1270
1277
1209
3057
1227
1256
2487
1236
1214
1217
3599
1904
1216
1223
1224
2486
1210
1230
3029
1220
1261
1204
1234
3588
1264
1261
3031
1356
1896
1216
1212
3048
1240
1213
2475
1906
1216
1229
1225
1205
1209
4162
1226
1232
1211
3605
1320
1213
1231
1214
3604
1910
1216
1221
2486
1339
1400

